// EVENT 4002
Name "Alice 2"

If(0,25,1)
 221()
 PictureClear(5)
 PictureClear(6)
 ShowMessageFace("",0,0,2,0)
 ShowMessage("......")
 242(2)
 Wait(120)
 241(bytes(0x04,0x08,0x6f,0x3a,0x0d,0x52,0x50,0x47,0x3a,0x3a,0x42,0x47,0x4d,0x08,0x3a,0x0a,0x40,0x6e,0x61,0x6d,0x65,0x49,0x22,0x0c,0x63,0x61,0x73,0x74,0x6c,0x65,0x36,0x06,0x3a,0x06,0x45,0x54,0x3a,0x0c,0x40,0x76,0x6f,0x6c,0x75,0x6d,0x65,0x69,0x69,0x3a,0x0b,0x40,0x70,0x69,0x74,0x63,0x68,0x69,0x69))
 EndEventProcessing()
 0()
EndIf()
PictureDisplay(5,"80_alice_st72",0,0,0,0,100,100,255,0)
ShowMessageFace("alice_fc5",1,0,2,1)
ShowMessage("\\n<Alice>Hey Luka, I could go for a little snack...")
ShowMessageFace("",0,0,2,2)
ShowMessage("\\n<Luka>You're hungry? I'll cook something up for you real quick. Wait right here.")
ShowMessageFace("alice_fc5",1,0,2,3)
ShowMessage("\\n<Alice>Hora, how about you do it in my room instead...")
ShowMessageFace("",0,0,2,4)
ShowMessage("\\n<Luka>In your room? How am I going to cook...")
ShowMessageFace("",0,0,2,5)
ShowMessage("I remain suspicious as Alice drags me back to her room--")
221()
PictureDisplay(1,"bg195",0,0,0,0,100,100,255,0)
PictureDisplay(5,"ev_alice_H10_1",0,0,0,0,100,100,255,0)
222()
241(bytes(0x04,0x08,0x6f,0x3a,0x0d,0x52,0x50,0x47,0x3a,0x3a,0x42,0x47,0x4d,0x08,0x3a,0x0a,0x40,0x6e,0x61,0x6d,0x65,0x49,0x22,0x09,0x65,0x72,0x6f,0x31,0x06,0x3a,0x06,0x45,0x54,0x3a,0x0c,0x40,0x76,0x6f,0x6c,0x75,0x6d,0x65,0x69,0x69,0x3a,0x0b,0x40,0x70,0x69,0x74,0x63,0x68,0x69,0x69))
ShowMessageFace("alice_fc5",1,0,2,6)
ShowMessage("\\n<Alice>Kukuku...")
ShowMessageFace("",0,0,2,7)
ShowMessage("Alice wraps her tail snugly around my body. The pressure itself isn't all that much, but...")
ShowMessageFace("",0,0,2,8)
ShowMessage("\\n<Luka>Ahh, unnngh...")
ShowMessageFace("",0,0,2,9)
ShowMessage("Once her serpentine body is coiled around me, I feel my strength begin to drain. In moments, my muscles go limp, putting me completely at Alice's mercy.")
ShowMessageFace("alice_fc5",1,0,2,10)
ShowMessage("\\n<Alice>It looks like I can still magically weaken a man just by wrapping him up.")
ShowMessageFace("alice_fc5",1,0,2,11)
ShowMessage("\\n<Alice>Not only that...")
ShowMessageFace("",0,0,2,12)
ShowMessage("Alice's gaze turns downward to look at my penis, which is gradually getting erect in her coil.")
ShowMessageFace("alice_fc5",1,0,2,13)
ShowMessage("\\n<Alice>Kuku, you're pretty hard already, I see.")
ShowMessageFace("alice_fc5",1,0,2,14)
ShowMessage("\\n<Alice>Even with my body reduced to this condition, you still can't control your animal instincts...")
ShowMessageFace("",0,0,2,15)
ShowMessage("With a beaming grin, Alice's hand slides down to her crotch. Using her fingers, she spreads her lips to reveal an especially small vaginal opening.")
ShowMessageFace("alice_fc5",1,0,2,16)
ShowMessage("\\n<Alice>Hoora, I wonder what this tiny pussy of mine is like. I'm sure it's narrow, and nice and tight...")
ShowMessageFace("",0,0,2,17)
ShowMessage("\\n<Luka>Just stop there...")
ShowMessageFace("",0,0,2,18)
ShowMessage("Even though I'm acting uninterested, I can't take my eyes off her vulva. It's a beautiful color of pink, and so very petite...")
ShowMessageFace("",0,0,2,19)
ShowMessage("Not that I'm particularly well-endowed or anything, but I'm worried that I won't even fit--")
ShowMessageFace("",0,0,2,20)
ShowMessage("\\n<Luka>I mean it, Alice. Cut it out. That body of yours can't possibly...")
ShowMessageFace("alice_fc5",1,0,2,21)
ShowMessage("\\n<Alice>We won't know unless we try.\nIt might even be surprisingly good...")
ShowMessageFace("alice_fc5",1,0,2,22)
ShowMessage("\\n<Alice>Kuku, I actually think you're hoping I do it. You're looking down at this tiny pussy, drooling at the thought of what it'll feel like inside...")
ShowMessageFace("",0,0,2,23)
ShowMessage("Alice, showing me a dominant smirk, presses her waist against mine. The tip of my erect penis stands at the gate to her little hole, peeping inside.")
ShowMessageFace("",0,0,2,24)
ShowMessage("However, she stops just a hair away from actually taking me inside her.")
ShowMessageFace("",0,0,2,25)
ShowMessage("\\n<Luka>Unnngh...")
ShowMessageFace("",0,0,2,26)
ShowMessage("The bright pink flesh of her hot, narrow vaginal opening surrounds my glans.")
ShowMessageFace("",0,0,2,27)
ShowMessage("The slight touch of her wetness against my skin is enough to make me want more.")
ShowMessageFace("alice_fc5",1,0,2,28)
ShowMessage("\\n<Alice>Here we go then... I'll ravish you with this tiny pussy...")
245(bytes(0x04,0x08,0x6f,0x3a,0x0d,0x52,0x50,0x47,0x3a,0x3a,0x42,0x47,0x53,0x08,0x3a,0x0a,0x40,0x6e,0x61,0x6d,0x65,0x49,0x22,0x1e,0x6d,0x6f,0x6e,0x5f,0x68,0x73,0x65,0x61,0x6e,0x30,0x31,0x5f,0x69,0x6e,0x6e,0x65,0x72,0x77,0x6f,0x72,0x6b,0x73,0x5f,0x61,0x31,0x06,0x3a,0x06,0x45,0x54,0x3a,0x0c,0x40,0x76,0x6f,0x6c,0x75,0x6d,0x65,0x69,0x55,0x3a,0x0b,0x40,0x70,0x69,0x74,0x63,0x68,0x69,0x69))
PictureDisplay(5,"ev_alice_H10_2",0,0,0,0,100,100,255,0)
ShowMessageFace("",0,0,2,29)
ShowMessage("Alice saddles her hips up against me, and in one push, pops the head of my penis into her narrow entrance.")
ShowMessageFace("",0,0,2,30)
ShowMessage("\\n<Luka>Ah, oooh!!")
245(bytes(0x04,0x08,0x6f,0x3a,0x0d,0x52,0x50,0x47,0x3a,0x3a,0x42,0x47,0x53,0x08,0x3a,0x0a,0x40,0x6e,0x61,0x6d,0x65,0x49,0x22,0x1e,0x6d,0x6f,0x6e,0x5f,0x68,0x73,0x65,0x61,0x6e,0x30,0x32,0x5f,0x69,0x6e,0x6e,0x65,0x72,0x77,0x6f,0x72,0x6b,0x73,0x5f,0x61,0x32,0x06,0x3a,0x06,0x45,0x54,0x3a,0x0c,0x40,0x76,0x6f,0x6c,0x75,0x6d,0x65,0x69,0x55,0x3a,0x0b,0x40,0x70,0x69,0x74,0x63,0x68,0x69,0x69))
ShowMessageFace("",0,0,2,31)
ShowMessage("My penis slides in deeper, parting the fleshy walls of her narrow canal. Or rather I'm being forcefully screwed in further as Alice thrusts her waist forward.")
ShowMessageFace("",0,0,2,32)
ShowMessage("The intense tightness makes it feel like her vagina is holding me in a firm grip, squeezing my penis from every side.")
ShowMessageFace("alice_fc5",1,0,2,33)
ShowMessage("\\n<Alice>Kuku... So how does my tiny pussy feel? Judging from the unseemly look on your face, it must be pretty good...")
ShowMessageFace("",0,0,2,34)
ShowMessage("\\n<Luka>Unnngh...\nSo tight...")
ShowMessageFace("",0,0,2,35)
ShowMessage("The small size of her vagina completely overwhelms me and provides no room for escape.")
ShowMessageFace("",0,0,2,36)
ShowMessage("The tightness inside is nothing like the smooth feeling of Alice's body coiled around me. Instead, her vagina is somewhat firm and filled with rough creases.")
ShowMessageFace("",0,0,2,37)
ShowMessage("As she clamps down, those creases drag along my sensitive glans, overstimulating me with pleasure.")
ShowMessageFace("",0,0,2,38)
ShowMessage("\\n<Luka>Ah, aaaah...!\nI'm going to come!")
ShowMessageFace("",0,0,2,39)
ShowMessage("The feeling of impending ejaculation takes me by surprise.")
ShowMessageFace("",0,0,2,40)
ShowMessage("Alice's inner flesh constricts my head from all angles as her rough creases dig into the underside.")
ShowMessageFace("",0,0,2,41)
ShowMessage("The unique combination of sensations is like a preemptive attack catching me off guard, quickly leading me towards climax.")
ShowMessageFace("alice_fc5",1,0,2,42)
ShowMessage("\\n<Alice>Hmm...? Wait, don't tell me you've already given up...")
ShowMessageFace("",0,0,2,43)
ShowMessage("\\n<Luka>Ah, aaah...")
RunCommonEvent(104)
PictureDisplay(5,"ev_alice_H10_3",0,0,0,0,100,100,255,0)
RunCommonEvent(105)
ShowMessageFace("",0,0,2,44)
ShowMessage("My penis pulses within her tight pussy.")
ShowMessageFace("",0,0,2,45)
ShowMessage("With each beat, I pour out load after load of semen into her receptive flesh.")
ShowMessageFace("",0,0,2,46)
ShowMessage("\\n<Luka>Unnngh...")
ShowMessageFace("",0,0,2,47)
ShowMessage("Her narrow canal gives my glans a final squeeze as the last of my seed trickles out. I'm left with a feeling of exhaustion far more satisfying than usual.")
PictureDisplay(5,"ev_alice_H10_4",0,0,0,0,100,100,255,0)
ShowMessageFace("alice_fc5",1,0,2,48)
ShowMessage("\\n<Alice>I can't believe my tiny pussy finished you off in an instant. You should be ashamed of yourself, kuku...")
ShowMessageFace("",0,0,2,49)
ShowMessage("Alice flashes me a dominant smile that clearly expresses the delight she feels at having made me come.")
PictureDisplay(5,"ev_alice_H10_5",0,0,0,0,100,100,255,0)
ShowMessageFace("alice_fc5",1,0,2,50)
ShowMessage("\\n<Alice>I'm nowhere near satisfied, though.\nHoora, I'm going to give you the night of your life!")
ShowMessageFace("",0,0,2,51)
ShowMessage("\\n<Luka>No, no more...\nAh, aaaaaah!!")
245(bytes(0x04,0x08,0x6f,0x3a,0x0d,0x52,0x50,0x47,0x3a,0x3a,0x42,0x47,0x53,0x08,0x3a,0x0a,0x40,0x6e,0x61,0x6d,0x65,0x49,0x22,0x1e,0x6d,0x6f,0x6e,0x5f,0x68,0x73,0x65,0x61,0x6e,0x30,0x38,0x5f,0x69,0x6e,0x6e,0x65,0x72,0x77,0x6f,0x72,0x6b,0x73,0x5f,0x61,0x38,0x06,0x3a,0x06,0x45,0x54,0x3a,0x0c,0x40,0x76,0x6f,0x6c,0x75,0x6d,0x65,0x69,0x55,0x3a,0x0b,0x40,0x70,0x69,0x74,0x63,0x68,0x69,0x69))
ShowMessageFace("",0,0,2,52)
ShowMessage("Alice sensually rocks her hips back and forth, stroking my penis with her pussy. Despite the tightness, her slippery flesh stretches around me and rubs against my tip.")
ShowMessageFace("",0,0,2,53)
ShowMessage("She slowly brings me in and back out again like a piston.")
ShowMessageFace("",0,0,2,54)
ShowMessage("Each time my penis delves deep into her narrow canal, I'm hit with an irresistible pressure.")
ShowMessageFace("alice_fc5",1,0,2,55)
ShowMessage("\\n<Alice>Hora hora, how's this?")
ShowMessageFace("",0,0,2,56)
ShowMessage("Alice occasionally moves side to side, shaking me up inside her. Each time she does, her firm creases rub into my tip and underside.")
ShowMessageFace("",0,0,2,57)
ShowMessage("My hips quiver, and a tingle shoots up my spine. Despite having just come, I'm already approaching my limit.")
ShowMessageFace("",0,0,2,58)
ShowMessage("\\n<Luka>Unnngh... I'm going to come again...")
ShowMessageFace("alice_fc5",1,0,2,59)
ShowMessage("\\n<Alice>Really? Throwing in the towel so soon?\nAll right then, let me finish you off inside me!")
ShowMessageFace("",0,0,2,60)
ShowMessage("Alice flexes her pelvic muscles, putting an extra degree of tightness around my penis. That final bit of stimulation forces me to surrender--")
ShowMessageFace("",0,0,2,61)
ShowMessage("\\n<Luka>Ah, unnngh!")
RunCommonEvent(104)
PictureDisplay(5,"ev_alice_H10_6",0,0,0,0,100,100,255,0)
RunCommonEvent(105)
ShowMessageFace("",0,0,2,62)
ShowMessage("Unable to fight back against Alice's assault, I climax and unload another burst of semen into her pussy.")
ShowMessageFace("",0,0,2,63)
ShowMessage("\\n<Luka>Unnngh...")
ShowMessageFace("alice_fc5",1,0,2,64)
ShowMessage("\\n<Alice>Sheesh, is that all you've got?")
ShowMessageFace("alice_fc5",1,0,2,65)
ShowMessage("\\n<Alice>I was hoping you'd provide some competition given my current state, but it turns out you're completely pitiful.")
PictureDisplay(5,"ev_alice_H10_7",0,0,0,0,100,100,255,0)
ShowMessageFace("",0,0,2,66)
ShowMessage("Alice gives me a stare like a predator teasing its prey while she leisurely moves her hips.")
ShowMessageFace("",0,0,2,67)
ShowMessage("In contrast to the forceful technique she's applied so far, this actually feels seductive.")
ShowMessageFace("",0,0,2,68)
ShowMessage("\\n<Luka>Ah, oooh...!")
ShowMessageFace("alice_fc5",1,0,2,69)
ShowMessage("\\n<Alice>Kukuku... I think I've gotten the hang of this. Hoora, my tiny pussy is going to empty your balls dry!")
ShowMessageFace("",0,0,2,70)
ShowMessage("Her pussy contracts tighter and tighter, each second sandwiching my penis more snugly between her flexible walls.")
ShowMessageFace("",0,0,2,71)
ShowMessage("She teases me with a pleasure unlike the piston movements she was employing before.")
ShowMessageFace("alice_fc5",1,0,2,72)
ShowMessage("\\n<Alice>Hora hora, I'll go nice and slow for you. Maybe then you'll be able to withstand it?")
ShowMessageFace("",0,0,2,73)
ShowMessage("\\n<Luka>Hyaaa...!")
ShowMessageFace("",0,0,2,74)
ShowMessage("While maintaining close contact all over my penis, her inner flesh begins to crawl. It feels like she's massaging my entire length inside her.")
ShowMessageFace("",0,0,2,75)
ShowMessage("Overwhelmed by the pleasure, I submit unconditionally. I forget all about trying to resist or endure and just give my body over to these feelings.")
ShowMessageFace("",0,0,2,76)
ShowMessage("\\n<Luka>Nnngh... This feels so good...")
ShowMessageFace("alice_fc5",1,0,2,77)
ShowMessage("\\n<Alice>Kukuku...\nApparently your cock has no chance against my tiny pussy.")
ShowMessageFace("alice_fc5",1,0,2,78)
ShowMessage("\\n<Alice>Hoora, I'll finish you off in a single blow! Relax and give my pussy every bit of semen you've got!")
ShowMessageFace("",0,0,2,79)
ShowMessage("The deepest part of her vagina presses down on my glans as if trying to milk me. The sweet sensation forces me over the edge in an instant--")
ShowMessageFace("",0,0,2,80)
ShowMessage("\\n<Luka>Ah, ah... AAAAH!")
RunCommonEvent(104)
PictureDisplay(5,"ev_alice_H10_8",0,0,0,0,100,100,255,0)
RunCommonEvent(105)
ShowMessageFace("",0,0,2,81)
ShowMessage("A moment later, I fill her canal with my semen: proof that Alice has full control over my ejaculations.")
PictureDisplay(5,"ev_alice_H10_9",0,0,0,0,100,100,255,0)
ShowMessageFace("alice_fc5",1,0,2,82)
ShowMessage("\\n<Alice>Kuku... It seems as though you've become rather fond of my tiny pussy. Do you like being milked that much?")
ShowMessageFace("",0,0,2,83)
ShowMessage("Alice continues to play with my penis, giving it another squeeze. Her tight hole imparts a euphoric stimulus that sends my waist into a spasm.")
ShowMessageFace("",0,0,2,84)
ShowMessage("\\n<Luka>Unnngh...\nP-please stop...")
ShowMessageFace("",0,0,2,85)
ShowMessage("I'm so exhausted after coming that all I can do is beg, but Alice isn't paying one bit of attention to my pleas.")
ShowMessageFace("alice_fc5",1,0,2,86)
ShowMessage("\\n<Alice>Hoora, you enjoy when I squeeze on your tip, don't you? Just... like... this... Kuku.")
ShowMessageFace("",0,0,2,87)
ShowMessage("\\n<Luka>Ah... Unnngh!")
ShowMessageFace("",0,0,2,88)
ShowMessage("Her depths constrict, producing an almost painful pressure on my tip. If she focuses that milking stimulation on my sensitive glans--")
ShowMessageFace("",0,0,2,89)
ShowMessage("\\n<Luka>Ah... Aaaaaah!")
RunCommonEvent(104)
PictureDisplay(5,"ev_alice_H10_8",0,0,0,0,100,100,255,0)
RunCommonEvent(105)
ShowMessageFace("",0,0,2,90)
ShowMessage("As I expected, there was nothing I could do to stop myself from coming. My seed floods into Alice's pussy, where she continues to absorb it into her.")
PictureDisplay(5,"ev_alice_H10_9",0,0,0,0,100,100,255,0)
ShowMessageFace("",0,0,2,91)
ShowMessage("\\n<Luka>Ah... Oooh...")
ShowMessageFace("",0,0,2,92)
ShowMessage("She's practically milked me dry, leaving me with no strength and barely conscious. Her snug coils are the only thing holding me up at this point.")
246(1)
ShowMessageFace("alice_fc5",1,0,2,93)
ShowMessage("\\n<Alice>Sheesh, passing out so early? I'm not impressed. Oh well, I'd get fat if I ate more anyway.")
ShowMessageFace("",0,0,2,94)
ShowMessage("\\n<Luka>...ah ...aaaa...")
ShowMessageFace("",0,0,2,95)
ShowMessage("Alice's satisfied smile becomes hazy as I pass out, cradled in her coils.")
221()
PictureClear(5)
PictureClear(6)
ShowMessageFace("",0,0,2,96)
ShowMessage("......")
242(2)
Wait(120)
241(bytes(0x04,0x08,0x6f,0x3a,0x0d,0x52,0x50,0x47,0x3a,0x3a,0x42,0x47,0x4d,0x08,0x3a,0x0a,0x40,0x6e,0x61,0x6d,0x65,0x49,0x22,0x0c,0x63,0x61,0x73,0x74,0x6c,0x65,0x36,0x06,0x3a,0x06,0x45,0x54,0x3a,0x0c,0x40,0x76,0x6f,0x6c,0x75,0x6d,0x65,0x69,0x69,0x3a,0x0b,0x40,0x70,0x69,0x74,0x63,0x68,0x69,0x69))
0()
