﻿// EVENT 7056
Name "Louis: Victory"

PictureDisplay(5,"80_mob_touzoku_st01",0,0,0,0,100,100,255,0)
PictureClear(6)
ShowMessageFace("mob_touzoku_fc1",0,0,2,1)
ShowMessage("\\n<Louise>...Tch. My loss, huh?\nTo think you'd withstand my technique...")
250(bytes(0x04,0x08,0x6f,0x3a,0x0c,0x52,0x50,0x47,0x3a,0x3a,0x53,0x45,0x08,0x3a,0x0a,0x40,0x6e,0x61,0x6d,0x65,0x49,0x22,0x0d,0x6d,0x6f,0x6e,0x5f,0x6c,0x76,0x75,0x70,0x06,0x3a,0x06,0x45,0x54,0x3a,0x0b,0x40,0x70,0x69,0x74,0x63,0x68,0x69,0x69,0x3a,0x0c,0x40,0x76,0x6f,0x6c,0x75,0x6d,0x65,0x69,0x69))
ChangeSwitch(98,98,1)
ChangeSwitch(96,96,1)
ShowMessageFace("",0,0,2,2)
ShowMessage("Luka emerged from the battle fuck victorious!")
If(1,806,0,2,1)
 ShowMessageFace("mob_touzoku_fc1",0,0,2,3)
 ShowMessage("\\n<Louise>You beat me already before, so no prizes.\nTch. Losing streak...")
 0()
Else()
 ShowMessageFace("mob_touzoku_fc1",0,0,2,4)
 ShowMessage("\\n<Louise>No helping it, take this.\nYou're the winner after all...")
 250(bytes(0x04,0x08,0x6f,0x3a,0x0c,0x52,0x50,0x47,0x3a,0x3a,0x53,0x45,0x08,0x3a,0x0a,0x40,0x6e,0x61,0x6d,0x65,0x49,0x22,0x0a,0x49,0x74,0x65,0x6d,0x31,0x06,0x3a,0x06,0x45,0x54,0x3a,0x0b,0x40,0x70,0x69,0x74,0x63,0x68,0x69,0x69,0x3a,0x0c,0x40,0x76,0x6f,0x6c,0x75,0x6d,0x65,0x69,0x55))
 ChangeInventoryArmor(1655,0,0,1,false)
 ChangeVariable(806,806,0,0,2)
 RunCommonEvent(6999)
 0()
EndIf()
ShowMessageFace("mob_touzoku_fc1",0,0,2,5)
ShowMessage("\\n<Louise>Don't get all haughty just because you beat me.\nThere are a lot of battle fuckers in the world, after all.")
ShowMessageFace("mob_touzoku_fc1",0,0,2,6)
ShowMessage("\\n<Louise>So, well... Don't lose to someone else.")
If(0,2331,1)
 PictureClear(5)
 281(1)
 TeleportPlayer(0,341,27,6,2,0)
 216(0)
 0()
EndIf()
EndEventProcessing()
0()
