// EVENT 4136
Name "Dragon Pup"

If(0,25,1)
 221()
 PictureClear(5)
 PictureClear(6)
 ShowMessageFace("",0,0,2,0)
 ShowMessage("......")
 242(2)
 Wait(120)
 241(bytes(0x04,0x08,0x6f,0x3a,0x0d,0x52,0x50,0x47,0x3a,0x3a,0x42,0x47,0x4d,0x08,0x3a,0x0a,0x40,0x6e,0x61,0x6d,0x65,0x49,0x22,0x0c,0x63,0x61,0x73,0x74,0x6c,0x65,0x36,0x06,0x3a,0x06,0x45,0x54,0x3a,0x0c,0x40,0x76,0x6f,0x6c,0x75,0x6d,0x65,0x69,0x69,0x3a,0x0b,0x40,0x70,0x69,0x74,0x63,0x68,0x69,0x69))
 EndEventProcessing()
 0()
EndIf()
PictureDisplay(5,"80_dragonp_st01",0,0,0,0,100,100,255,0)
ShowMessageFace("dragonp_fc1",0,0,2,1)
ShowMessage("\\n<Papi>Do you need any smithing done?")
ShowMessageFace("",0,0,2,2)
ShowMessage("\\n<Luka>The tip of this sword is worn down. I could use your help fixing it up...")
ShowMessageFace("dragonp_fc1",0,0,2,3)
ShowMessage("\\n<Papi>You can count on me!\nOh, I'm low on fangs to use for materials. Don't worry, I'll go beat up Amara for some!")
ShowMessageFace("",0,0,2,4)
ShowMessage("\\n<Luka>Will you be okay by yourself?\nI don't mind helping.")
ShowMessageFace("dragonp_fc1",0,0,2,5)
ShowMessage("\\n<Papi>Don't worry about me!\nJust go wait in my room, and I'll be right there!")
ShowMessageFace("",0,0,2,6)
ShowMessage("Thus, I head to Papi's room to wait for her.")
221()
PictureDisplay(1,"bg195",0,0,0,0,100,100,255,0)
222()
ShowMessageFace("",0,0,2,7)
ShowMessage("After waiting a short while, Papi returns--")
PictureDisplay(5,"80_dragonp_st02",0,0,0,0,100,100,255,0)
241(bytes(0x04,0x08,0x6f,0x3a,0x0d,0x52,0x50,0x47,0x3a,0x3a,0x42,0x47,0x4d,0x08,0x3a,0x0a,0x40,0x6e,0x61,0x6d,0x65,0x49,0x22,0x09,0x65,0x72,0x6f,0x31,0x06,0x3a,0x06,0x45,0x54,0x3a,0x0c,0x40,0x76,0x6f,0x6c,0x75,0x6d,0x65,0x69,0x69,0x3a,0x0b,0x40,0x70,0x69,0x74,0x63,0x68,0x69,0x69))
ShowMessageFace("dragonp_fc1",1,0,2,8)
ShowMessage("\\n<Papi>Ugaa...\nYou... I want to rape you...")
ShowMessageFace("",0,0,2,9)
ShowMessage("\\n<Luka>Eh...?")
ShowMessageFace("",0,0,2,10)
ShowMessage("Staring at me, Papi's cheeks start to get red.")
ShowMessage("Fidgeting and rubbing her hands together, she looks really nervous.")
ShowMessageFace("",0,0,2,11)
ShowMessage("I've heard that monsters can revert to their animal instincts after particularly intense fights. Did Papi get the urge to have sex after scrapping with Amara?")
ShowMessageFace("dragonp_fc1",1,0,2,12)
ShowMessage("\\n<Papi>Ugaaa!")
ShowMessageFace("",0,0,2,13)
ShowMessage("\\n<Luka>Haaa! Stop it!")
ShowMessageFace("",0,0,2,14)
ShowMessage("Looking excited, Papi leans into me.")
ShowMessage("The little dragon cuts open my pants, and rips off my underwear.")
ShowMessageFace("",0,0,2,15)
ShowMessage("Papi's hole starts to drip with clear liquid as she stares at me.")
ShowMessageFace("dragonp_fc1",1,0,2,16)
ShowMessage("\\n<Papi>Uga...")
ShowMessageFace("",0,0,2,17)
ShowMessage("Papi's eyes light up as she pushes me down.")
ShowMessage("As I follow her eyes, I realize what she's about to do...")
ShowMessageFace("dragonp_fc1",1,0,2,19)
ShowMessage("\\n<Papi>Wahaha... I'm going to put it in!")
ShowMessageFace("",0,0,2,20)
ShowMessage("The dragon straddles my waist, and moves my erect dick to her entrance.")
ShowMessageFace("",0,0,2,21)
ShowMessage("I can feel a soft heat coming off of her flowing hole.")
ShowMessageFace("",0,0,2,22)
ShowMessage("\\n<Luka>Stop... this...")
ShowMessageFace("dragonp_fc1",1,0,2,23)
ShowMessage("\\n<Papi>Uga... I'm going to mate with you...\nLet out a lot in me, ok?")
ShowMessageFace("",0,0,2,24)
ShowMessage("\\n<Luka>Aaaaa!")
241(bytes(0x04,0x08,0x6f,0x3a,0x0d,0x52,0x50,0x47,0x3a,0x3a,0x42,0x47,0x4d,0x08,0x3a,0x0a,0x40,0x6e,0x61,0x6d,0x65,0x49,0x22,0x09,0x65,0x72,0x6f,0x31,0x06,0x3a,0x06,0x45,0x54,0x3a,0x0c,0x40,0x76,0x6f,0x6c,0x75,0x6d,0x65,0x69,0x69,0x3a,0x0b,0x40,0x70,0x69,0x74,0x63,0x68,0x69,0x69))
245(bytes(0x04,0x08,0x6f,0x3a,0x0d,0x52,0x50,0x47,0x3a,0x3a,0x42,0x47,0x53,0x08,0x3a,0x0a,0x40,0x6e,0x61,0x6d,0x65,0x49,0x22,0x1e,0x6d,0x6f,0x6e,0x5f,0x68,0x73,0x65,0x61,0x6e,0x30,0x32,0x5f,0x69,0x6e,0x6e,0x65,0x72,0x77,0x6f,0x72,0x6b,0x73,0x5f,0x61,0x32,0x06,0x3a,0x06,0x45,0x54,0x3a,0x0c,0x40,0x76,0x6f,0x6c,0x75,0x6d,0x65,0x69,0x55,0x3a,0x0b,0x40,0x70,0x69,0x74,0x63,0x68,0x69,0x69))
PictureDisplay(5,"ev_dragonp_h1",0,0,0,0,100,100,0,0)
PictureMove(5,null,0,0,0,0,100,100,255,0,30,true)
ShowMessageFace("",0,0,2,25)
ShowMessage("Papi quickly drops down!")
ShowMessage("In one shot, she screws me all the way in!")
ShowMessageFace("",0,0,2,26)
ShowMessage("\\n<Luka>Auuu!")
ShowMessageFace("",0,0,2,27)
ShowMessage("Surprisingly hot, her tight pussy squeezes me right after I enter her.")
ShowMessageFace("",0,0,2,28)
ShowMessage("The pleasure overpowers me, making me forget the taboo of mating with a monster.")
ShowMessageFace("",0,0,2,30)
ShowMessage("\\n<Luka>Amazing... That feels so good...")
ShowMessageFace("",0,0,2,31)
ShowMessage("One of the strongest monsters, a Dragon's honey pot is amazing enough to force a man to yield instantly.")
ShowMessageFace("dragonp_fc1",1,0,2,32)
ShowMessage("\\n<Papi>Is it hot inside of me?\nLet me make it feel even better...")
ShowMessageFace("",0,0,2,33)
ShowMessage("Papi starts to shake her waist back and forth.")
ShowMessage("My penis starts to twitch within her hot insides.")
ShowMessageFace("",0,0,2,34)
ShowMessage("\\n<Luka>Aaaahh!")
ShowMessageFace("",0,0,2,35)
ShowMessage("The hot walls of her vagina massage me all over every time she moves her waist.")
ShowMessageFace("",0,0,2,36)
ShowMessage("The intense pleasure brings me to the edge.")
ShowMessageFace("",0,0,2,37)
ShowMessage("\\n<Luka>Aahh... Stop...\nDon't... shake your hips like that...")
ShowMessageFace("",0,0,2,38)
ShowMessage("I reach out my hand and grab her waist.")
ShowMessage("If she does anymore, I'm really going to co...")
ShowMessageFace("dragonp_fc1",1,0,2,39)
ShowMessage("\\n<Papi>No! No! I'm raping you!\nI won't listen to anything you say!")
ShowMessageFace("",0,0,2,40)
ShowMessage("Papi grabs my hand on her waist and forces me off.")
ShowMessage("She picks up her speed, pumping me even harder!")
ShowMessageFace("",0,0,2,41)
ShowMessage("\\n<Luka>Aaaaaaa!")
ShowMessageFace("dragonp_fc1",1,0,2,42)
ShowMessage("\\n<Papi>Wahahaha!\nYou're about to come!")
ShowMessageFace("",0,0,2,43)
ShowMessage("Her violent thrusting sends me over the edge.")
ShowMessage("There's no way I can withstand this insane stimulation!")
ShowMessageFace("",0,0,2,44)
ShowMessage("\\n<Luka>Ahhh! I'm coming!")
ShowMessageFace("",0,0,2,45)
ShowMessage("My endurance gone, I give in to her merciless thrusting.")
RunCommonEvent(104)
PictureDisplay(5,"ev_dragonp_h2",0,0,0,0,100,100,255,0)
RunCommonEvent(105)
ShowMessageFace("",0,0,2,46)
ShowMessage("Feeling completely helpless, I explode inside of Papi as she sucks all of my semen up.")
ShowMessageFace("dragonp_fc1",1,0,2,48)
ShowMessage("\\n<Papi>...You let out so much...")
ShowMessageFace("",0,0,2,49)
ShowMessage("The pup looks down at me and laughs.")
ShowMessage("Her superiority as a female over a male puts a cruel smile on her face.")
ShowMessageFace("",0,0,2,50)
ShowMessage("As I look at her laughing over me, I feel humiliated.")
ShowMessageFace("dragonp_fc1",1,0,2,51)
ShowMessage("\\n<Papi>Wahaha! Again!\nI want to mate with you more!")
ShowMessageFace("",0,0,2,52)
ShowMessage("\\n<Luka>Aaaah!")
245(bytes(0x04,0x08,0x6f,0x3a,0x0d,0x52,0x50,0x47,0x3a,0x3a,0x42,0x47,0x53,0x08,0x3a,0x0a,0x40,0x6e,0x61,0x6d,0x65,0x49,0x22,0x1e,0x6d,0x6f,0x6e,0x5f,0x68,0x73,0x65,0x61,0x6e,0x30,0x38,0x5f,0x69,0x6e,0x6e,0x65,0x72,0x77,0x6f,0x72,0x6b,0x73,0x5f,0x61,0x38,0x06,0x3a,0x06,0x45,0x54,0x3a,0x0c,0x40,0x76,0x6f,0x6c,0x75,0x6d,0x65,0x69,0x55,0x3a,0x0b,0x40,0x70,0x69,0x74,0x63,0x68,0x69,0x69))
ShowMessageFace("",0,0,2,53)
ShowMessage("Suddenly, she starts thrusting again.")
ShowMessage("Stimulated by her movement and heat, her violent movements force me to become instantly hard again.")
ShowMessageFace("dragonp_fc1",1,0,2,54)
ShowMessage("\\n<Papi>Wahaha!\nWhen you feel good, just let it all out in me!")
ShowMessageFace("",0,0,2,55)
ShowMessage("Her tiny body holding me, I'm forced into her all the way with every thrust she makes.")
ShowMessageFace("",0,0,2,56)
ShowMessage("With her piston movement, she forces pleasure into me.")
ShowMessageFace("",0,0,2,57)
ShowMessage("\\n<Luka>Aaaauuu... Ahhhh!")
ShowMessageFace("",0,0,2,58)
ShowMessage("Thrust, thrust... Each one is like a killing blow on me.")
ShowMessageFace("",0,0,2,59)
ShowMessage("Her hot walls massaging me with every pump, she continues her sweet torture.")
ShowMessageFace("",0,0,2,60)
ShowMessage("The forced pleasure is enough to cause any man to surrender...")
ShowMessageFace("",0,0,2,61)
ShowMessage("\\n<Luka>Amaz...ing!\nComing... again...!")
ShowMessageFace("",0,0,2,62)
ShowMessage("Forced all the way into her, I explode again!")
RunCommonEvent(104)
PictureDisplay(5,"ev_dragonp_h3",0,0,0,0,100,100,255,0)
RunCommonEvent(105)
ShowMessageFace("",0,0,2,63)
ShowMessage("\\n<Luka>Auuu....")
ShowMessageFace("",0,0,2,64)
ShowMessage("As I pour my semen into Papi, all of my strength fades from my body.")
ShowMessageFace("dragonp_fc1",1,0,2,65)
ShowMessage("\\n<Papi>Did it feel good?\nI feel really good, too!")
ShowMessageFace("dragonp_fc1",1,0,2,66)
ShowMessage("\\n<Papi>Let's mate until you drop!")
ShowMessageFace("",0,0,2,67)
ShowMessage("\\n<Luka>That... No... Faaa!")
ShowMessageFace("dragonp_fc1",1,0,2,68)
ShowMessage("\\n<Papi>Stop whining already! We both know you like it!\nWahahaha.")
ShowMessageFace("",0,0,2,69)
ShowMessage("As Papi sits on me laughing, she tightens her pussy.")
ShowMessage("Stuck in her warm dragon tunnel, I'm unable to resist.")
ShowMessageFace("",0,0,2,70)
ShowMessage("Being raped by Papi, my vision starts to go hazy.")
RunCommonEvent(104)
PictureDisplay(5,"ev_dragonp_h4",0,0,0,0,100,100,255,0)
RunCommonEvent(105)
ShowMessageFace("",0,0,2,71)
ShowMessage("\\n<Luka>Faaa... Too... good...")
ShowMessageFace("",0,0,2,72)
ShowMessage("My mind and body surrender completely to the little dragon. I'm not sure I'm ever going to be able to get away from her--")
221()
PictureClear(5)
246(2)
ShowMessageFace("",0,0,2,73)
ShowMessage("..............")
242(2)
Wait(120)
241(bytes(0x04,0x08,0x6f,0x3a,0x0d,0x52,0x50,0x47,0x3a,0x3a,0x42,0x47,0x4d,0x08,0x3a,0x0a,0x40,0x6e,0x61,0x6d,0x65,0x49,0x22,0x0c,0x63,0x61,0x73,0x74,0x6c,0x65,0x36,0x06,0x3a,0x06,0x45,0x54,0x3a,0x0c,0x40,0x76,0x6f,0x6c,0x75,0x6d,0x65,0x69,0x69,0x3a,0x0b,0x40,0x70,0x69,0x74,0x63,0x68,0x69,0x69))
0()
