// EVENT 5401
Name "Forest Alraune"

PictureDisplay(5,"80_f_alraune_st02",0,0,0,0,100,100,0,0)
PictureMove(5,null,0,0,0,0,100,100,255,0,30,true)
ShowMessageFace("f_alraune_fc1",1,0,2,1)
ShowMessage("\\n<Aria>")
ShowMessage("You want me to make you feel good?")
ShowMessageFace("",0,0,2,2)
ShowMessage("\\n<Luka>")
ShowMessage("P-please...")
ShowMessageFace("f_alraune_fc1",1,0,2,3)
ShowMessage("\\n<Aria>")
ShowMessage("Well then, I'm going to wring you. ♪")
ShowMessageFace("",0,0,2,4)
ShowMessage("\\n<Luka>")
ShowMessage("Ah... Aaau!")
241(bytes(0x04,0x08,0x6f,0x3a,0x0d,0x52,0x50,0x47,0x3a,0x3a,0x42,0x47,0x4d,0x08,0x3a,0x0a,0x40,0x6e,0x61,0x6d,0x65,0x49,0x22,0x09,0x65,0x72,0x6f,0x31,0x06,0x3a,0x06,0x45,0x54,0x3a,0x0c,0x40,0x76,0x6f,0x6c,0x75,0x6d,0x65,0x69,0x69,0x3a,0x0b,0x40,0x70,0x69,0x74,0x63,0x68,0x69,0x69))
PictureDisplay(5,"ev_f_alraune_h01",0,0,0,0,100,100,0,0)
PictureMove(5,null,0,0,0,0,100,100,255,0,30,true)
ShowMessageFace("",0,0,2,5)
ShowMessage("Ivy slithers and winds itself around me, restraining me, removing my clothes and forcing my legs open.")
ShowMessageFace("",0,0,2,6)
ShowMessage("Aria gets behind me, stares and then smiles maliciously.")
ShowMessageFace("f_alraune_fc1",1,0,2,7)
ShowMessage("\\n<Aria>")
ShowMessage("I don't even have to make preparations, it's already big. ♪")
ShowMessage("Well then, I'm going to suck out a lot of sperm...")
PictureDisplay(5,"ev_f_alraune_h02",0,0,0,0,100,100,255,0)
ShowMessageFace("",0,0,2,8)
ShowMessage("Like tentacles, yellow flowers rise up and move as if they had a will of their own.")
ShowMessageFace("f_alraune_fc1",1,0,2,9)
ShowMessage("\\n<Aria>")
ShowMessage("These are flowers that I use on boys.")
ShowMessage("You understand how I'm going to use them, don't you?")
ShowMessageFace("f_alraune_fc1",1,0,2,10)
ShowMessage("\\n<Aria>")
ShowMessage("Hoora, I've prepared three of them.")
ShowMessage("One for your penis and the other two...")
ShowMessageFace("f_alraune_fc1",1,0,2,11)
ShowMessage("\\n<Aria>")
ShowMessage("This flower absorbs semen.")
ShowMessage("It's going to make your penis feel amazing~♪")
ShowMessageFace("",0,0,2,12)
ShowMessage("\\n<Luka>")
ShowMessage("Th-that's...")
PictureDisplay(5,"ev_f_alraune_h03",0,0,0,0,100,100,255,0)
ShowMessageFace("",0,0,2,13)
ShowMessage("Nectar drips from the flowers and their petals move as if making indecent invitations.")
ShowMessageFace("f_alraune_fc1",1,0,2,14)
ShowMessage("\\n<Aria>")
ShowMessage("This honey, it's like a drug, an aphrodisiac to bully your penis...")
ShowMessageFace("f_alraune_fc1",1,0,2,15)
ShowMessage("\\n<Aria>")
ShowMessage("When you're coated with it, it will make you leak your semen continuously. ♪")
ShowMessageFace("",0,0,2,16)
ShowMessage("\\n<Luka>")
ShowMessage("Aaah... S-stop it...")
ShowMessageFace("",0,0,2,17)
ShowMessage("I watch in horror as the lewd flowers slowly approach my crotch, eager to wrap my penis in their petals...")
ShowMessageFace("",0,0,2,18)
ShowMessage("I can do nothing but look in both fear and expectation at the flower that's about to bring me pleasure and wring out my semen...")
245(bytes(0x04,0x08,0x6f,0x3a,0x0d,0x52,0x50,0x47,0x3a,0x3a,0x42,0x47,0x53,0x08,0x3a,0x0a,0x40,0x6e,0x61,0x6d,0x65,0x49,0x22,0x1e,0x6d,0x6f,0x6e,0x5f,0x68,0x73,0x65,0x61,0x6e,0x31,0x32,0x5f,0x69,0x6e,0x6e,0x65,0x72,0x77,0x6f,0x72,0x6b,0x73,0x5f,0x63,0x32,0x06,0x3a,0x06,0x45,0x54,0x3a,0x0c,0x40,0x76,0x6f,0x6c,0x75,0x6d,0x65,0x69,0x55,0x3a,0x0b,0x40,0x70,0x69,0x74,0x63,0x68,0x69,0x69))
PictureDisplay(5,"ev_f_alraune_h04",0,0,0,0,100,100,255,0)
ShowMessageFace("f_alraune_fc1",1,0,2,19)
ShowMessage("\\n<Aria>")
ShowMessage("Shoot out a lot ♪ Chomp ♪")
ShowMessageFace("",0,0,2,20)
ShowMessage("Aria's flower latches onto my glans. At the same time, the other two attach themselves to my testicles.")
ShowMessageFace("",0,0,2,21)
ShowMessage("The three flowers latched onto my male organs start sucking and licking. The pleasure makes it feel like they're trying to melt my penis.")
ShowMessageFace("",0,0,2,22)
ShowMessage("\\n<Luka>")
ShowMessage("Ah... Aaaaau...!")
PictureDisplay(5,"ev_f_alraune_h05",0,0,0,0,100,100,255,0)
ShowMessageFace("f_alraune_fc1",1,0,2,23)
ShowMessage("\\n<Aria>")
ShowMessage("Do the flowers on your penis feel good?")
ShowMessage("They'll suck you hard and make you come instantly...")
ShowMessageFace("",0,0,2,24)
ShowMessage("\\n<Luka>")
ShowMessage("Th-that's... Auuu...")
ShowMessageFace("",0,0,2,25)
ShowMessage("The petals gather around my glans and crawl all over it, tickling me. The stimulation feels like I'm being licked by countless tongues.")
ShowMessageFace("",0,0,2,26)
ShowMessage("On top of that, the aphrodisiac coats my glans, making it feel like it's seeping inside me to the back of my waist...")
ShowMessageFace("",0,0,2,27)
ShowMessage("\\n<Luka>")
ShowMessage("Aaah... What is this, coming...")
ShowMessageFace("",0,0,2,28)
ShowMessage("My penis starts pulsating and my head goes pure white as my waist is wrapped in a pleasant warmth...")
RunCommonEvent(104)
PictureDisplay(5,"ev_f_alraune_h06",0,0,0,0,100,100,255,0)
RunCommonEvent(105)
ShowMessageFace("",0,0,2,29)
ShowMessage("The sweet feeling of release is accompanied by my cloudy semen leaking out.")
ShowMessageFace("",0,0,2,30)
ShowMessage("\\n<Luka>")
ShowMessage("Ah... Fuaaaa...")
ShowMessageFace("",0,0,2,31)
ShowMessage("A sweet numbness covers my entire waist and the ecstatic pleasure from ejaculating makes me lose my reasoning.")
ShowMessageFace("f_alraune_fc1",1,0,2,32)
ShowMessage("\\n<Aria>")
ShowMessage("My aphrodisiac is amazing, isn't it?\nLook, your semen is already leaking.")
ShowMessageFace("",0,0,2,33)
ShowMessage("\\n<Luka>")
ShowMessage("That's... Ah, aaaaah...")
ShowMessageFace("",0,0,2,34)
ShowMessage("Even as I ejaculate, the flower keeps sucking on my penis and the petals absorb my semen, demanding even more.")
ShowMessageFace("",0,0,2,35)
ShowMessage("The petals keep sucking on my glans as a hot, maddening sensation swirls around my crotch due to the effects of the honey.")
ShowMessageFace("",0,0,2,36)
ShowMessage("The feeling of release suddenly springs up. I feel as if something pushes out, melting the very core of my penis...")
ShowMessageFace("",0,0,2,37)
ShowMessage("\\n<Luka>")
ShowMessage("Aaah... It's leaking...")
PictureDisplay(5,"ev_f_alraune_h07",0,0,0,0,100,100,255,0)
ShowMessageFace("",0,0,2,38)
ShowMessage("Urine starts leaking out of me. The shame of me leaking pee instead of semen hits me like a ton of bricks.")
ShowMessageFace("",0,0,2,39)
ShowMessage("\\n<Luka>")
ShowMessage("Hauu... This is...")
ShowMessageFace("",0,0,2,40)
ShowMessage("I'm humiliated as I pee against my will. Aria watches my pitiful incontinence unfolding.")
ShowMessageFace("f_alraune_fc1",1,0,2,41)
ShowMessage("\\n<Aria>")
ShowMessage("Ahaha, you're leaking. The honey's effect is working, it broke your penis' tap.")
ShowMessageFace("f_alraune_fc1",1,0,2,42)
ShowMessage("\\n<Aria>")
ShowMessage("I'll absorb a lot of fluids like this and turn them into nutrients. ♪")
PictureDisplay(5,"ev_f_alraune_h08",0,0,0,0,100,100,255,0)
ShowMessageFace("",0,0,2,43)
ShowMessage("*Slurp* *Slurp* *Slurp* The flower gulps down my pee all the while making me feel a strange pleasure.")
ShowMessageFace("",0,0,2,44)
ShowMessage("The petals move around, squirm and spin around my glans, rubbing it, thoroughly melting my brain with this crazy pleasure...")
ShowMessageFace("",0,0,2,45)
ShowMessage("\\n<Luka>")
ShowMessage("Aaaah... That feels good...")
ShowMessageFace("f_alraune_fc1",1,0,2,46)
ShowMessage("\\n<Aria>")
ShowMessage("Ufufu... I know, right? Hora hora, leak out more. ♪")
ShowMessageFace("",0,0,2,47)
ShowMessage("\\n<Luka>")
ShowMessage("Coming... Ah, aaaaaah...")
RunCommonEvent(104)
PictureDisplay(5,"ev_f_alraune_h09",0,0,0,0,100,100,255,0)
RunCommonEvent(105)
ShowMessageFace("",0,0,2,48)
ShowMessage("My semen starts dripping out but it feels more like I'm peeing rather than ejaculating.")
ShowMessageFace("",0,0,2,49)
ShowMessage("It doesn't matter whether I'm leaking semen or urine anyway; as she said, the honey seems to have made me lose control over my penis.")
ShowMessageFace("",0,0,2,50)
ShowMessage("\\n<Luka>")
ShowMessage("Fuaaaaa...")
ShowMessageFace("f_alraune_fc1",1,0,2,51)
ShowMessage("\\n<Aria>")
ShowMessage("Hey, has your penis gone crazy? Soon enough you'll lose your mind as well. ♪")
ShowMessageFace("",0,0,2,52)
ShowMessage("\\n<Luka>")
ShowMessage("That's... Ah, aaaaah...")
RunCommonEvent(104)
RunCommonEvent(105)
ShowMessageFace("",0,0,2,53)
ShowMessage("My semen continues to leak out combined with my pee as well.")
ShowMessageFace("",0,0,2,54)
ShowMessage("White fog begins to cover my mind as the melting pleasure makes me go crazy...")
ShowMessageFace("f_alraune_fc1",1,0,2,55)
ShowMessage("\\n<Aria>")
ShowMessage("Ufufu... I'll take care of you from now on, you don't have to think about anything else anymore. You just have to leak your fluids. ♪")
ShowMessageFace("",0,0,2,56)
ShowMessage("\\n<Luka>")
ShowMessage("Hauuuu...")
RunCommonEvent(104)
RunCommonEvent(105)
ShowMessageFace("",0,0,2,57)
ShowMessage("Aria's pleasant sucking continues as does the leaking of my fluids. Along with them, my consciousness starts to fade...")
RunCommonEvent(104)
RunCommonEvent(105)
ShowMessageFace("",0,0,2,58)
ShowMessage("As soon as I ejaculate, I faint. My vision goes dark, drowned in this sweet pleasure...")
221()
PictureClear(5)
PictureClear(6)
246(2)
ShowMessageFace("",0,0,2,59)
ShowMessage("Aria continues to drain out my fluids even after I've pathetically fainted...")
ShowMessageFace("",0,0,2,60)
ShowMessage("......")
RunCommonEvent(3998)
0()
