﻿// EVENT 5745
Name "Sonya Sex Toys 928"

PictureDisplay(5,"80_sonia_m1_st08",0,0,0,0,100,100,255,0)
ShowMessageFace("sonia_fc1",3,0,2,1)
ShowMessage("\\n<Sonya>")
ShowMessage("Luka, these...")
ShowMessage("Do you want me to train you with these special weapons?")
ShowMessageFace("",0,0,2,2)
ShowMessage("\\n<Luka>")
ShowMessage("Yea, ok.")
ShowMessageFace("",0,0,2,3)
ShowMessage("Thus, I go train with Sonya using special weapons...")
221()
PictureDisplay(1,"bg195",0,0,0,0,100,100,255,0)
PictureDisplay(5,"ev_sonia_hx928_01",0,0,0,0,100,100,255,0)
222()
241(bytes(0x04,0x08,0x6f,0x3a,0x0d,0x52,0x50,0x47,0x3a,0x3a,0x42,0x47,0x4d,0x08,0x3a,0x0a,0x40,0x6e,0x61,0x6d,0x65,0x49,0x22,0x09,0x65,0x72,0x6f,0x31,0x06,0x3a,0x06,0x45,0x54,0x3a,0x0c,0x40,0x76,0x6f,0x6c,0x75,0x6d,0x65,0x69,0x69,0x3a,0x0b,0x40,0x70,0x69,0x74,0x63,0x68,0x69,0x69))
ShowMessageFace("",0,0,2,4)
ShowMessage("\\n<Luka>")
ShowMessage("Ah, auuu...")
ShowMessageFace("sonia_fc1",2,0,2,5)
ShowMessage("\\n<Sonya>")
ShowMessage("Ufufu. I'm going to suck on you with this succubus tail. ♪")
ShowMessage("Your energy will be sucked up until you're all dried up~♪")
ShowMessageFace("sonia_fc1",2,0,2,6)
ShowMessage("\\n<Sonya>")
ShowMessage("...the things I have to do.")
ShowMessageFace("",0,0,2,7)
ShowMessage("My clothes are taken off and I'm forced on all fours.")
ShowMessage("Sonya's right hand equipped with the sex toy reaches for my crotch.")
ShowMessageFace("",0,0,2,8)
ShowMessage("\\n<Luka>")
ShowMessage("W-wait a minute Sonya... This is...")
ShowMessage("W-wasn't this supposed to be special training...?")
ShowMessageFace("sonia_fc1",2,0,2,9)
ShowMessage("\\n<Sonya>")
ShowMessage("Of course, it's special training using sex toys.")
ShowMessage("Now, I'm going to wring you dry with this sex toy...!")
245(bytes(0x04,0x08,0x6f,0x3a,0x0d,0x52,0x50,0x47,0x3a,0x3a,0x42,0x47,0x53,0x08,0x3a,0x0a,0x40,0x6e,0x61,0x6d,0x65,0x49,0x22,0x17,0x6d,0x6f,0x6e,0x5f,0x68,0x73,0x65,0x61,0x6e,0x31,0x37,0x5f,0x73,0x69,0x67,0x6f,0x6b,0x69,0x06,0x3a,0x06,0x45,0x54,0x3a,0x0c,0x40,0x76,0x6f,0x6c,0x75,0x6d,0x65,0x69,0x55,0x3a,0x0b,0x40,0x70,0x69,0x74,0x63,0x68,0x69,0x69))
PictureDisplay(5,"ev_sonia_hx928_02",0,0,0,0,100,100,255,0)
ShowMessageFace("",0,0,2,10)
ShowMessage("\\n<Luka>")
ShowMessage("Ah... Auuuu!")
ShowMessageFace("",0,0,2,11)
ShowMessage("The hole at the tip of the tail approaches my thing...")
ShowMessage("And, a tentacle, like a tongue, lick my glans.")
ShowMessageFace("sonia_fc1",2,0,2,12)
ShowMessage("\\n<Sonya>")
ShowMessage("Ufufu, it feels good doesn't it?")
ShowMessage("You can't wait till I put you inside this can you...?")
PictureDisplay(5,"ev_sonia_hx928_03",0,0,0,0,100,100,255,0)
ShowMessageFace("",0,0,2,13)
ShowMessage("\\n<Luka>")
ShowMessage("Hauuu... Aaah...")
ShowMessageFace("",0,0,2,14)
ShowMessage("The slimy tongue-like tentacle crawls around my glans.")
ShowMessage("The pleasant stimulation makes my waist shake.")
ShowMessageFace("sonia_fc1",2,0,2,15)
ShowMessage("\\n<Sonya>")
ShowMessage("What... Luka, you're already feeling it?")
ShowMessage("You're not going to come before I even get to put your penis inside are you?")
ShowMessageFace("",0,0,2,16)
ShowMessage("Sonya giggles as the tongue keeps playing with my penis.")
ShowMessage("It twines around my glans giving me sweet pleasure.")
PictureDisplay(5,"ev_sonia_hx928_04",0,0,0,0,100,100,255,0)
ShowMessageFace("",0,0,2,17)
ShowMessage("\\n<Luka>")
ShowMessage("Hauuu...!")
ShowMessageFace("",0,0,2,18)
ShowMessage("The overwhelming pleasure makes my tip drip out pre-come.")
ShowMessage("As expected, the tongue moves and licks my urethral opening lapping the juice leaking out...")
ShowMessageFace("sonia_fc1",2,0,2,19)
ShowMessage("\\n<Sonya>")
ShowMessage("Ha~ha, your male fluids are leaking...")
ShowMessage("Are you sure you don't want to finish inside it?")
ShowMessageFace("sonia_fc1",2,0,2,20)
ShowMessage("\\n<Sonya>")
ShowMessage("The inside is nice and tight and feels really good...")
ShowMessage("Don't you want it to suck on you till you spurt your semen inside?")
ShowMessageFace("",0,0,2,21)
ShowMessage("\\n<Luka>")
ShowMessage("Ah... Hauuu...!")
ShowMessageFace("",0,0,2,22)
ShowMessage("The tongue's movement becomes increasingly intense as it licks the entire surface of my glans.")
ShowMessage("At this rate, I'm going to come soon...")
ShowMessageFace("",0,0,2,23)
ShowMessage("\\n<Luka>")
ShowMessage("No... I'm coming...!")
ShowMessageFace("",0,0,2,24)
ShowMessage("The tongue traces around the neck of my penis, wiggling and licking my back muscle.")
ShowMessage("I writhe in agony as the sweet pleasure soaks my entire being.")
ShowMessageFace("sonia_fc1",2,0,2,25)
ShowMessage("\\n<Sonya>")
ShowMessage("Haha, it looks like you can't take it anymore.")
ShowMessage("Well then, come as the tongue keeps licking you. ♪")
ShowMessageFace("",0,0,2,26)
ShowMessage("\\n<Luka>")
ShowMessage("Ah, aaaaaah!!")
ShowMessageFace("",0,0,2,27)
ShowMessage("My mind goes blank as my glans continues to be licked.")
ShowMessage("As the feeling of release rises up in me, I give myself over to the sweet pleasure...")
RunCommonEvent(104)
PictureDisplay(5,"ev_sonia_hx928_05",0,0,0,0,100,100,255,0)
RunCommonEvent(105)
ShowMessageFace("",0,0,2,28)
ShowMessage("As if it were a sign of surrender, my semen shoots out.")
ShowMessage("My penis starts pulsating and with every pulse semen shoots out of it.")
ShowMessageFace("sonia_fc1",2,0,2,29)
ShowMessage("\\n<Sonya>")
ShowMessage("Haha, you came...♪")
ShowMessage("You leaked before I could put it inside. ♪")
ShowMessageFace("",0,0,2,30)
ShowMessage("\\n<Luka>")
ShowMessage("Hau... Ah, aaaaau...!!")
ShowMessageFace("",0,0,2,31)
ShowMessage("The tongue crawls all over my penis stimulating it even as I ejaculate.")
ShowMessage("My penis trembles and scatters my semen all over.")
ShowMessageFace("",0,0,2,32)
ShowMessage("\\n<Luka>")
ShowMessage("Ayee, hyaaaaa...!")
ShowMessage("Stop it, I'm already coming...!")
ShowMessageFace("sonia_fc1",2,0,2,33)
ShowMessage("\\n<Sonya>")
ShowMessage("You want me to stop? Then...")
PictureDisplay(5,"ev_sonia_hx928_06",0,0,0,0,100,100,255,0)
ShowMessageFace("",0,0,2,34)
ShowMessage("In an instant, the tail sucks my penis inside it.")
ShowMessage("I'm wrapped all of a sudden in a soft fleshy feeling...")
ShowMessageFace("",0,0,2,35)
ShowMessage("\\n<Luka>")
ShowMessage("Th-that's... Hauuu...!")
ShowMessageFace("",0,0,2,36)
ShowMessage("In the next moment, I feel like I've reached heaven.")
ShowMessage("The soft wrinkled flesh rubs gently on my penis from all sides...")
ShowMessageFace("sonia_fc1",2,0,2,37)
ShowMessage("\\n<Sonya>")
ShowMessage("Ahaha, I put you inside while your penis is still coming.")
ShowMessage("How is it? Does it feel good inside....?")
ShowMessageFace("",0,0,2,38)
ShowMessage("\\n<Luka>")
ShowMessage("Hau... Ugh...")
ShowMessageFace("",0,0,2,39)
ShowMessage("At once, my penis pulses, sending wave after wave of semen inside the fleshy hole.")
ShowMessage("I can't tell if I'm still ejaculating from before or if this is a consecutive ejaculation...")
ShowMessageFace("",0,0,2,40)
ShowMessage("\\n<Luka>")
ShowMessage("Th-that feels good... My penis, is melting...")
ShowMessageFace("sonia_fc1",2,0,2,41)
ShowMessage("\\n<Sonya>")
ShowMessage("Ufufu, heavenly isn't it?")
ShowMessage("Hoora, every drop of semen you leaked is sucked inside here...")
PictureDisplay(5,"ev_sonia_hx928_07",0,0,0,0,100,100,255,0)
ShowMessageFace("",0,0,2,42)
ShowMessage("My semen is squeezed out inside the fleshy hole as it drinks it.")
ShowMessage("The contractions of the flesh hole only serve to delight my male organ even more.")
ShowMessageFace("",0,0,2,43)
ShowMessage("\\n<Luka>")
ShowMessage("A-amazing... Fuaaaa...")
ShowMessageFace("sonia_fc1",2,0,2,44)
ShowMessage("\\n<Sonya>")
ShowMessage("Ahaha, you look like you're completely melting...")
ShowMessage("I wonder, does a real succubus' tail feel like this?")
ShowMessageFace("",0,0,2,45)
ShowMessage("\\n<Luka>")
ShowMessage("Ah... Hauuu...")
ShowMessageFace("",0,0,2,46)
ShowMessage("My waist trembles like crazy from the overwhelming pleasure.")
ShowMessage("The flesh hole seems to gulp down my penis and melt it...")
PictureDisplay(5,"ev_sonia_hx928_08",0,0,0,0,100,100,255,0)
ShowMessageFace("",0,0,2,47)
ShowMessage("\\n<Luka>")
ShowMessage("Aaah... I'm going to come again...")
ShowMessageFace("sonia_fc1",2,0,2,48)
ShowMessage("\\n<Sonya>")
ShowMessage("Haha, you're already going to leak?")
ShowMessage("Well then, shoot out a lot of your semen. ♪")
ShowMessageFace("",0,0,2,49)
ShowMessage("The meaty walls continue to wriggle and contract, continuously stimulating my penis.")
ShowMessage("It skillfully squeezes me from root to tip.")
ShowMessageFace("",0,0,2,50)
ShowMessage("At the same time, the walls move in such a way that it makes it feel that I'm being sucked...")
ShowMessage("The overwhelming pleasure makes me pathetically yield.")
ShowMessageFace("",0,0,2,51)
ShowMessage("\\n<Luka>")
ShowMessage("Hya... Ah, aaaah...!!")
RunCommonEvent(104)
PictureDisplay(5,"ev_sonia_hx928_10",0,0,0,0,100,100,255,0)
RunCommonEvent(105)
ShowMessageFace("",0,0,2,52)
ShowMessage("A large amount of semen shoots out of me straight into the flesh hole.")
ShowMessage("Even as I'm ejaculating, the meaty walls keep squeezing, forcing me to feel intense pleasure.")
ShowMessageFace("sonia_fc1",2,0,2,53)
ShowMessage("\\n<Sonya>")
ShowMessage("Fufu, you came. ♪")
ShowMessage("The tail is sucking up all of Luka's semen~♪")
ShowMessageFace("",0,0,2,54)
ShowMessage("\\n<Luka>")
ShowMessage("Hau... Ah, ugh...")
ShowMessageFace("sonia_fc1",2,0,2,55)
ShowMessage("\\n<Sonya>")
ShowMessage("Ahaha, what a pitiful display.")
ShowMessage("It's shameful to have your semen squeezed out for pleasure~♪")
ShowMessageFace("",0,0,2,56)
ShowMessage("My penis is sucked all throughout my ejaculation...")
ShowMessage("Like that, my semen is forcefully squeezed out.")
ShowMessageFace("",0,0,2,57)
ShowMessage("\\n<Luka>")
ShowMessage("Aaaaah...")
246(2)
ShowMessageFace("",0,0,2,58)
ShowMessage("I'm wrung out forcefully until my last drop...")
ShowMessage("And finally, the semen sucking comes to an end.")
ShowMessageFace("sonia_fc1",2,0,2,59)
ShowMessage("\\n<Sonya>")
ShowMessage("...Yes, we're finished. ♪")
ShowMessage("I wrung out a lot, did it feel good?")
ShowMessageFace("",0,0,2,60)
ShowMessage("\\n<Luka>")
ShowMessage("Hauuu...")
ShowMessageFace("",0,0,2,61)
ShowMessage("Misery fills me from having my semen squeezed into the weird flesh hole.")
ShowMessage("With the help of the device, I've been wrung out without even being able to resist...")
ShowMessageFace("sonia_fc1",2,0,2,62)
ShowMessage("\\n<Sonya>")
ShowMessage("Next, I'm going to try other sex toys. ♪")
ShowMessage("Any sex toy will make you leak immediately...")
ShowMessageFace("",0,0,2,63)
ShowMessage("\\n<Luka>")
ShowMessage("........")
ShowMessageFace("",0,0,2,64)
ShowMessage("I was nothing more than an animal to be forcefully wrung...")
ShowMessage("All I can do is immerse myself in the afterglow of the pleasure and humiliation.")
ShowMessageFace("",0,0,2,65)
ShowMessage("Next time, Sonya will try out another Sex Toy...")
ShowMessage("I shake in fear but also in expectation.")
221()
PictureClear(1)
PictureClear(5)
PictureClear(6)
246(2)
ShowMessageFace("",0,0,2,66)
ShowMessage("・・・・・・・・")
RunCommonEvent(3998)
0()
