﻿// EVENT 2073
Name "Seduction: Canceroid"

If(0,25,1)
 EndEventProcessing()
 0()
EndIf()
355("$game_troop.lose_event_id = 3073")
ChangeVariable(26,26,0,3,3,1,4)
ChangeVariable(26,26,4,0,10)
ShowMessageFace("kaniloid_fc1",2,0,2,1)
ShowMessage("\\n<Canceroid>I'm losing...\nThis body is also used as a tool for sexual processing.")
ShowMessageFace("kaniloid_fc1",0,0,2,2)
ShowMessage("\\n<Canceroid>If that's the case, then I have no choice but to receive you... Now, please insert your penis into my female genitalia...")
ShowMessageFace("",0,0,2,3)
ShowMessage("The Canceroid's lower mouth squirms invitingly.")
ChangeSwitch(98,98,0)
ChangeSwitch(96,96,0)
ShowChoices(strings("Ignore her","Give in to temptation"),1)
IfPlayerPicksChoice(0,"Ignore her")
 ShowMessageFace("",0,0,2,4)
 ShowMessage("Luka resists her temptation!")
 RunCommonEvent(1999)
 EndEventProcessing()
 0()
IfPlayerPicksChoice(1,"Give in to temptation")
 0()
404()
ShowMessageFace("",0,0,2,5)
ShowMessage("Luka gives in to temptation, and places his penis inside the Canceroid's lower mouth.")
ShowMessageFace("kaniloid_fc1",0,0,2,6)
ShowMessage("\\n<Canceroid>Yes, this is my female genitalia...\nNow, insert it...")
ChangeVariable(26,26,3,0,4)
250(bytes(0x04,0x08,0x6f,0x3a,0x0c,0x52,0x50,0x47,0x3a,0x3a,0x53,0x45,0x08,0x3a,0x0a,0x40,0x6e,0x61,0x6d,0x65,0x49,0x22,0x11,0x6d,0x6f,0x6e,0x5f,0x65,0x72,0x6f,0x5f,0x70,0x79,0x75,0x33,0x06,0x3a,0x06,0x45,0x54,0x3a,0x0b,0x40,0x70,0x69,0x74,0x63,0x68,0x69,0x69,0x3a,0x0c,0x40,0x76,0x6f,0x6c,0x75,0x6d,0x65,0x69,0x69))
311(0,1,1,1,26,true)
ShowMessageFace("",0,0,2,7)
ShowMessage("Luka pushes his waist forward and inserts his penis into the Canceroid's lower mouth! Her hot flesh tightly wraps around Luka's penis!\\D")
ShowMessage("Luka takes \\V[26] damage!")
ChangeVariable(27,27,0,3,3,1,2)
If(1,27,0,0,0)
 JumpToLabel("射精1")
 0()
EndIf()
ShowMessageFace("",0,0,2,8)
ShowMessage("\\n<Luka>Ah, aaah...!!")
ShowMessageFace("",0,0,2,9)
ShowMessage("The Canceroid's insides felt very pleasant.\nHer hole was very large though, and this felt out of place.")
ShowMessageFace("kaniloid_fc1",1,0,2,10)
ShowMessage("\\n<Canceroid>Kuku, foolish male...\nThis isn't my female genitalia, but my predation organ.")
ShowMessageFace("",0,0,2,11)
ShowMessage("\\n<Luka>Th-that's...!!")
ShowChoices(strings("Shake off the temptation","Let her suck on it"),1)
IfPlayerPicksChoice(0,"誘惑を振り払う")
 ShowMessageFace("",0,0,2,12)
 ShowMessage("\\n<Luka>Hii... Let go of me...!")
 ShowMessageFace("",0,0,2,13)
 ShowMessage("Luka tried to pull his penis out of the Canceroid's predation organ! But it's held tightly around his cock and cannot be separated!")
 ShowMessageFace("kaniloid_fc1",1,0,2,14)
 ShowMessage("\\n<Canceroid>Fufu, it's already too late...\nI'll be generous and let you come like this once...")
 0()
IfPlayerPicksChoice(1,"吸い付いてもらう")
 ShowMessageFace("",0,0,2,15)
 ShowMessage("\\n<Luka>But...it feels so good...")
 ShowMessageFace("",0,0,2,16)
 ShowMessage("Luka surrenders himself to the pleasure...")
 ShowMessageFace("kaniloid_fc1",1,0,2,17)
 ShowMessage("\\n<Canceroid>Fufu, you feel like mating with me...?\nWhat a pathetic male, thrusting into a place like that without hesitation...")
 0()
404()
250(bytes(0x04,0x08,0x6f,0x3a,0x0c,0x52,0x50,0x47,0x3a,0x3a,0x53,0x45,0x08,0x3a,0x0a,0x40,0x6e,0x61,0x6d,0x65,0x49,0x22,0x12,0x6d,0x6f,0x6e,0x5f,0x65,0x72,0x6f,0x5f,0x6e,0x61,0x6d,0x65,0x32,0x06,0x3a,0x06,0x45,0x54,0x3a,0x0b,0x40,0x70,0x69,0x74,0x63,0x68,0x69,0x69,0x3a,0x0c,0x40,0x76,0x6f,0x6c,0x75,0x6d,0x65,0x69,0x69))
311(0,1,1,1,26,true)
ShowMessageFace("",0,0,2,18)
ShowMessage("The Canceroid's predation organ sucks on Luka's penis!\nHer soft flesh undulates mysteriously, giving a melting stimulation!\\D")
ShowMessage("Luka takes \\V[26] damage!")
ChangeVariable(27,27,0,3,3,1,2)
If(1,27,0,0,0)
 JumpToLabel("射精1")
 0()
EndIf()
ShowMessageFace("kaniloid_fc1",1,0,2,19)
ShowMessage("\\n<Canceroid>Hora, I'll finish you quickly.\nPour your miserable semen into my predation organ.")
250(bytes(0x04,0x08,0x6f,0x3a,0x0c,0x52,0x50,0x47,0x3a,0x3a,0x53,0x45,0x08,0x3a,0x0a,0x40,0x6e,0x61,0x6d,0x65,0x49,0x22,0x12,0x6d,0x6f,0x6e,0x5f,0x65,0x72,0x6f,0x5f,0x6e,0x61,0x6d,0x65,0x32,0x06,0x3a,0x06,0x45,0x54,0x3a,0x0b,0x40,0x70,0x69,0x74,0x63,0x68,0x69,0x69,0x3a,0x0c,0x40,0x76,0x6f,0x6c,0x75,0x6d,0x65,0x69,0x69))
311(0,1,1,1,26,true)
ShowMessageFace("",0,0,2,20)
ShowMessage("The Canceroid's predation organ gives a fascinating crawling stimulation! Luka experiences melting pleasure as his penis is surrounded by her soft flesh!\\D")
ShowMessage("Luka takes \\V[26] damage!")
ChangeVariable(27,27,0,3,3,1,2)
If(1,27,0,0,0)
 JumpToLabel("射精1")
 0()
EndIf()
DefineLabel("射精1")
ShowMessageFace("",0,0,2,21)
ShowMessage("\\n<Luka>I-it feels so good... Aaah...")
RunCommonEvent(104)
RunCommonEvent(105)
ShowMessageFace("",0,0,2,22)
ShowMessage("I could not resist the raw pleasure of the Canceroid's stimulation. I shoot lots of my semen into her flesh hole.")
ShowMessageFace("kaniloid_fc1",1,0,2,23)
ShowMessage("\\n<Canceroid>Fufu, you poured your semen into my predatory organ...\nEven though it wasn't a female organ, what a pitiful male...")
RunCommonEvent(2000)
EndEventProcessing()
0()
