﻿// EVENT 7094
Name "Fuisz: Victory"

PictureClear(6)
PictureDisplay(5,"80_mob_gakusya1_st01",0,0,0,0,100,100,255,0)
ShowMessageFace("mob_gakusya1_fc1",0,0,2,1)
ShowMessage("\\n<Fizz>Time's up, I lost...")
250(bytes(0x04,0x08,0x6f,0x3a,0x0c,0x52,0x50,0x47,0x3a,0x3a,0x53,0x45,0x08,0x3a,0x0a,0x40,0x6e,0x61,0x6d,0x65,0x49,0x22,0x0d,0x6d,0x6f,0x6e,0x5f,0x6c,0x76,0x75,0x70,0x06,0x3a,0x06,0x45,0x54,0x3a,0x0b,0x40,0x70,0x69,0x74,0x63,0x68,0x69,0x69,0x3a,0x0c,0x40,0x76,0x6f,0x6c,0x75,0x6d,0x65,0x69,0x69))
ChangeSwitch(98,98,1)
ChangeSwitch(96,96,1)
ShowMessageFace("",0,0,2,2)
ShowMessage("Luka emerged from the battle fuck victorious!")
If(1,810,0,2,1)
 ShowMessageFace("mob_gakusya1_fc1",0,0,2,3)
 ShowMessage("\\n<Fizz>You already got a prize from me, did you not?\nSorry, but I can't give you anything.")
 0()
Else()
 ShowMessageFace("mob_gakusya1_fc1",0,0,2,4)
 ShowMessage("\\n<Fizz>Well then, I'll give you the prize.\nWith this, you can change jobs to a Scholar.")
 250(bytes(0x04,0x08,0x6f,0x3a,0x0c,0x52,0x50,0x47,0x3a,0x3a,0x53,0x45,0x08,0x3a,0x0a,0x40,0x6e,0x61,0x6d,0x65,0x49,0x22,0x0a,0x49,0x74,0x65,0x6d,0x31,0x06,0x3a,0x06,0x45,0x54,0x3a,0x0b,0x40,0x70,0x69,0x74,0x63,0x68,0x69,0x69,0x3a,0x0c,0x40,0x76,0x6f,0x6c,0x75,0x6d,0x65,0x69,0x55))
 ChangeInventory_Item(612,0,0,1)
 ChangeVariable(810,810,0,0,2)
 RunCommonEvent(6999)
 0()
EndIf()
ShowMessageFace("mob_gakusya1_fc1",0,0,2,5)
ShowMessage("\\n<Fizz>I'm disappointed at my loss.\nI'll get my revenge... But right now I'm quite busy.")
If(0,2331,1)
 PictureClear(5)
 281(1)
 TeleportPlayer(0,140,70,17,2,0)
 241(bytes(0x04,0x08,0x6f,0x3a,0x0d,0x52,0x50,0x47,0x3a,0x3a,0x42,0x47,0x4d,0x08,0x3a,0x0a,0x40,0x6e,0x61,0x6d,0x65,0x49,0x22,0x0a,0x63,0x69,0x74,0x79,0x31,0x06,0x3a,0x06,0x45,0x54,0x3a,0x0c,0x40,0x76,0x6f,0x6c,0x75,0x6d,0x65,0x69,0x69,0x3a,0x0b,0x40,0x70,0x69,0x74,0x63,0x68,0x69,0x69))
 216(0)
 0()
EndIf()
EndEventProcessing()
0()
