// EVENT 4161
Name "Rabbit Girl 1"

If(0,25,1)
 221()
 PictureClear(5)
 PictureClear(6)
 ShowMessageFace("",0,0,2,0)
 ShowMessage("......")
 242(2)
 Wait(120)
 241(bytes(0x04,0x08,0x6f,0x3a,0x0d,0x52,0x50,0x47,0x3a,0x3a,0x42,0x47,0x4d,0x08,0x3a,0x0a,0x40,0x6e,0x61,0x6d,0x65,0x49,0x22,0x0c,0x63,0x61,0x73,0x74,0x6c,0x65,0x36,0x06,0x3a,0x06,0x45,0x54,0x3a,0x0c,0x40,0x76,0x6f,0x6c,0x75,0x6d,0x65,0x69,0x69,0x3a,0x0b,0x40,0x70,0x69,0x74,0x63,0x68,0x69,0x69))
 EndEventProcessing()
 0()
EndIf()
PictureDisplay(5,"80_usagi_st03",0,0,0,0,100,100,255,0)
ShowMessageFace("usagi_fc1",2,0,2,1)
ShowMessage("\\n<Barbun>You want me to use my feet on you?\nBig sis is kind of busy right now...")
ShowMessageFace("usagi_fc1",2,0,2,2)
ShowMessage("\\n<Barbun>Fine, but I can't spend too much time, okay?")
ShowMessageFace("",0,0,2,3)
ShowMessage("\\n<Luka>Okay... please.")
ShowMessageFace("usagi_fc1",0,0,2,4)
ShowMessage("\\n<Barbun>Come to my room, then.")
ShowMessageFace("",0,0,2,5)
ShowMessage("Thus, I was invited to Barbun's room.")
221()
PictureDisplay(1,"bg195",0,0,0,0,100,100,255,0)
PictureDisplay(5,"ev_usagi_ha1",0,0,0,0,100,100,0,0)
222()
241(bytes(0x04,0x08,0x6f,0x3a,0x0d,0x52,0x50,0x47,0x3a,0x3a,0x42,0x47,0x4d,0x08,0x3a,0x0a,0x40,0x6e,0x61,0x6d,0x65,0x49,0x22,0x09,0x65,0x72,0x6f,0x31,0x06,0x3a,0x06,0x45,0x54,0x3a,0x0c,0x40,0x76,0x6f,0x6c,0x75,0x6d,0x65,0x69,0x69,0x3a,0x0b,0x40,0x70,0x69,0x74,0x63,0x68,0x69,0x69))
ShowMessageFace("usagi_fc1",0,0,2,6)
ShowMessage("\\n<Barbun>Such bad manners. Making big sis do this with her feet when she's busy. Troublesome kid.")
ShowMessageFace("",0,0,2,7)
ShowMessage("Barbun's feet slowly reach out towards my crotch...")
ShowMessage("Barbun dexterously pulls out my penis and holds it firmly between the soles of her feet.")
ShowMessageFace("",0,0,2,8)
ShowMessage("She applies a soft sensation of pressure on both sides through her stockings. Her feet are soft and warm, and the stockings are pleasantly smooth.")
ShowMessageFace("",0,0,2,9)
ShowMessage("\\n<Luka>Ah, auuuu!")
ShowMessageFace("usagi_fc1",0,0,2,10)
ShowMessage("\\n<Barbun>I've only just pulled it out, and you're already close to being finished?")
245(bytes(0x04,0x08,0x6f,0x3a,0x0d,0x52,0x50,0x47,0x3a,0x3a,0x42,0x47,0x53,0x08,0x3a,0x0a,0x40,0x6e,0x61,0x6d,0x65,0x49,0x22,0x17,0x6d,0x6f,0x6e,0x5f,0x68,0x73,0x65,0x61,0x6e,0x31,0x37,0x5f,0x73,0x69,0x67,0x6f,0x6b,0x69,0x06,0x3a,0x06,0x45,0x54,0x3a,0x0c,0x40,0x76,0x6f,0x6c,0x75,0x6d,0x65,0x69,0x55,0x3a,0x0b,0x40,0x70,0x69,0x74,0x63,0x68,0x69,0x69))
PictureDisplay(5,"ev_usagi_ha2",0,0,0,0,100,100,255,0)
ShowMessageFace("",0,0,2,11)
ShowMessage("Barbun squeezes my penis between her feet then begins moving them up and down, skillfully stroking my shaft.")
ShowMessageFace("",0,0,2,12)
ShowMessage("She rubs her soles against me from both sides, occasionally pausing to tightly press them together.")
ShowMessageFace("",0,0,2,13)
ShowMessage("\\n<Luka>Ah, aaaaah!")
ShowMessageFace("usagi_fc1",0,0,2,14)
ShowMessage("\\n<Barbun>Does is feel good to come with my stockings? It's going to be easy to make a kid like you come.")
ShowMessageFace("",0,0,2,15)
ShowMessage("Her stockings sweetly rub against my glans. Every time my tip gets stuck between her toes, the pleasure causes my waist to shake.")
ShowMessageFace("",0,0,2,16)
ShowMessage("In addition, I can feel her moist warmth on my skin whenever she presses her soles against me. If she keeps squeezing my dick like this...")
ShowMessageFace("",0,0,2,17)
ShowMessage("\\n<Luka>Aaaah, I'm going to come!")
ShowMessageFace("",0,0,2,18)
ShowMessage("I feel humiliated having my penis toyed with by her feet, but her technique is just so good...")
ShowMessageFace("",0,0,2,19)
ShowMessage("The humiliation and pleasure hit me together, and I feel the urge to ejaculate welling up. My penis begins to pulse as if going off by accident.")
ShowMessageFace("usagi_fc1",0,0,2,20)
ShowMessage("\\n<Barbun>How disappointing. I've barely even started. Fine, go ahead and come on my feet.")
ShowMessageFace("",0,0,2,21)
ShowMessage("\\n<Luka>C-coming...")
ShowMessage("Aaaaah!")
RunCommonEvent(104)
PictureDisplay(5,"ev_usagi_ha3",0,0,0,0,100,100,255,0)
RunCommonEvent(105)
ShowMessageFace("",0,0,2,22)
ShowMessage("I finished way too quickly from Barbun's footjob. My semen overflows in spurts, getting all over her stockings.")
PictureDisplay(5,"ev_usagi_ha4",0,0,0,0,100,100,255,0)
ShowMessageFace("usagi_fc1",0,0,2,23)
ShowMessage("\\n<Barbun>You came so much... was it enjoyable? Fufuu.")
ShowMessageFace("",0,0,2,24)
ShowMessage("\\n<Luka>Huhuu...")
ShowMessageFace("",0,0,2,25)
ShowMessage("Barbun strokes and squeezes the last drops of semen out of my penis while I'm ejaculating. Then, she removes her feet as if performing a routine chore...")
246(2)
ShowMessageFace("usagi_fc1",0,0,2,26)
ShowMessage("\\n<Barbun>Well, this is over. Good. Big sis has better things to do.")
ShowMessageFace("",0,0,2,27)
ShowMessage("\\n<Luka>......")
ShowMessageFace("",0,0,2,28)
ShowMessage("Barbun leaves the room, her schedule too busy to remain. I feel humiliated being treated like an administrative chore.")
221()
PictureClear(5)
ShowMessageFace("",0,0,2,29)
ShowMessage("......")
242(2)
Wait(120)
241(bytes(0x04,0x08,0x6f,0x3a,0x0d,0x52,0x50,0x47,0x3a,0x3a,0x42,0x47,0x4d,0x08,0x3a,0x0a,0x40,0x6e,0x61,0x6d,0x65,0x49,0x22,0x0c,0x63,0x61,0x73,0x74,0x6c,0x65,0x36,0x06,0x3a,0x06,0x45,0x54,0x3a,0x0c,0x40,0x76,0x6f,0x6c,0x75,0x6d,0x65,0x69,0x69,0x3a,0x0b,0x40,0x70,0x69,0x74,0x63,0x68,0x69,0x69))
0()
