// EVENT 3076
Name "Cursed Doll"

If(0,25,1)
 JumpToLabel("反省会")
 0()
EndIf()
PictureDisplay(5,"80_doll_st02",0,0,0,0,100,100,0,0)
PictureMove(5,null,0,0,0,0,100,100,255,0,30,true)
241(bytes(0x04,0x08,0x6f,0x3a,0x0d,0x52,0x50,0x47,0x3a,0x3a,0x42,0x47,0x4d,0x08,0x3a,0x0a,0x40,0x6e,0x61,0x6d,0x65,0x49,0x22,0x09,0x65,0x72,0x6f,0x31,0x06,0x3a,0x06,0x45,0x54,0x3a,0x0c,0x40,0x76,0x6f,0x6c,0x75,0x6d,0x65,0x69,0x69,0x3a,0x0b,0x40,0x70,0x69,0x74,0x63,0x68,0x69,0x69))
ShowMessageFace("",0,0,2,1)
ShowMessage("\\n<Luka>Ahh...")
ShowMessageFace("doll_fc1",1,0,2,2)
ShowMessage("\\n<Cursed Doll>Play with me more, big bro...")
ShowMessageFace("",0,0,2,3)
ShowMessage("The Cursed Doll stares intently at me as she leans over my vulnerable body.")
ShowMessageFace("",0,0,2,4)
ShowMessage("An orifice forms on the abdomen of the Cursed Doll's body while she straddles my waist. In contrast to her wooden figure, the opening is more similar to that of a human female's.")
ShowMessageFace("",0,0,2,5)
ShowMessage("The Cursed Doll wastes no time lowering herself onto me the moment her entrance finishes forming...")
245(bytes(0x04,0x08,0x6f,0x3a,0x0d,0x52,0x50,0x47,0x3a,0x3a,0x42,0x47,0x53,0x08,0x3a,0x0a,0x40,0x6e,0x61,0x6d,0x65,0x49,0x22,0x1e,0x6d,0x6f,0x6e,0x5f,0x68,0x73,0x65,0x61,0x6e,0x30,0x39,0x5f,0x69,0x6e,0x6e,0x65,0x72,0x77,0x6f,0x72,0x6b,0x73,0x5f,0x62,0x31,0x06,0x3a,0x06,0x45,0x54,0x3a,0x0c,0x40,0x76,0x6f,0x6c,0x75,0x6d,0x65,0x69,0x55,0x3a,0x0b,0x40,0x70,0x69,0x74,0x63,0x68,0x69,0x69))
PictureDisplay(5,"ev_doll_ha1",0,0,0,0,100,100,255,0)
ShowMessageFace("",0,0,2,6)
ShowMessage("She steadily drives my penis inside of her orifice while holding me in her lustful gaze!")
ShowMessageFace("",0,0,2,7)
ShowMessage("\\n<Luka>Ah! Ahhh!!")
ShowMessageFace("",0,0,2,8)
ShowMessage("The sensations immersing my cock are at complete odds with what I expected from her wooden body...")
ShowMessageFace("",0,0,2,9)
ShowMessage("The flesh surrounding my member gushes around it wetly as the warmth of her passage makes the journey inside of her surprisingly pleasant.")
ShowMessageFace("",0,0,2,10)
ShowMessage("\\n<Luka>What... Is this...? It feels so good...\nIt's curved...")
ShowMessageFace("doll_fc1",1,0,2,11)
ShowMessage("\\n<Cursed Doll>Ready to have fun, big bro...?")
ShowMessageFace("",0,0,2,12)
ShowMessage("She smiles lustfully at me while grinding her waist into mine in an effort to force me as far into her vagina as she can.")
ShowMessageFace("",0,0,2,13)
ShowMessage("My resistance melts before she even finishes her descent as my back arches from the stimulation.")
ShowMessageFace("doll_fc1",1,0,2,14)
ShowMessage("\\n<Cursed Doll>Let it out, big bro...")
ShowMessageFace("",0,0,2,15)
ShowMessage("The Cursed Doll impatiently pumps her hips as she finishes speaking. Forcing me in and out of her, the tip of my penis rubs along the wall of her curved vagina.")
ShowMessageFace("",0,0,2,16)
ShowMessage("While my tip is teased, the flesh surrounding my shaft begins to wetly squeeze it. The dual sensations send a rush of pleasure through my penis as it twitches in excitement.")
ShowMessageFace("",0,0,2,17)
ShowMessage("\\n<Luka>Uuu.... Ahhh...")
RunCommonEvent(104)
PictureDisplay(5,"ev_doll_ha2",0,0,0,0,100,100,255,0)
RunCommonEvent(105)
ShowMessageFace("",0,0,2,18)
ShowMessage("My orgasm hits me with surprising force as my penis pumps out shot after shot of semen. The waves of pleasure send quivers through my body as the Cursed Doll's vagina wrings out a quick defeat from me.")
ShowMessageFace("",0,0,2,19)
ShowMessage("\\n<Luka>Auuu...")
ShowMessageFace("",0,0,2,20)
ShowMessage("The swift loss brings a shameful grimace to my face as my orgasm tapers off. The Cursed Doll continues to shake her waist to draw out my sperm until she notices my ejaculation ending.")
ShowMessageFace("",0,0,2,21)
ShowMessage("The exertion of being forced to mate with her brings with it a greater sense of lethargy than normal. Her tiny body barely moves as I shiver under her from a new fear gripping me.")
ShowMessageFace("",0,0,2,22)
ShowMessage("My body won't possibly last if she continues this act. She'll take advantage of my helpless state and use me until I wither away...")
ShowMessageFace("doll_fc1",1,0,2,23)
ShowMessage("\\n<Cursed Doll>Big bro... I want to play more...")
ShowMessageFace("",0,0,2,24)
ShowMessage("\\n<Luka>Stop... Uuu...")
245(bytes(0x04,0x08,0x6f,0x3a,0x0d,0x52,0x50,0x47,0x3a,0x3a,0x42,0x47,0x53,0x08,0x3a,0x0a,0x40,0x6e,0x61,0x6d,0x65,0x49,0x22,0x1e,0x6d,0x6f,0x6e,0x5f,0x68,0x73,0x65,0x61,0x6e,0x31,0x30,0x5f,0x69,0x6e,0x6e,0x65,0x72,0x77,0x6f,0x72,0x6b,0x73,0x5f,0x62,0x32,0x06,0x3a,0x06,0x45,0x54,0x3a,0x0c,0x40,0x76,0x6f,0x6c,0x75,0x6d,0x65,0x69,0x55,0x3a,0x0b,0x40,0x70,0x69,0x74,0x63,0x68,0x69,0x69))
ShowMessageFace("",0,0,2,25)
ShowMessage("The Cursed Doll tightens her vagina around my member as she renews her efforts to coax another orgasm from me. My body nearly goes limp as she stimulates my penis back to a full erection.")
ShowMessageFace("",0,0,2,26)
ShowMessage("The irony of the situation is not lost on me as my body is used and played with like a doll as she instills pleasure in me...")
ShowMessageFace("",0,0,2,27)
ShowMessage("\\n<Luka>Aaah... Incredible...")
ShowMessageFace("",0,0,2,28)
ShowMessage("With her tiny body bouncing in my lap and my shaft being stroked by her narrow pussy, I feel sparks of pleasure travel from my base through my spine.")
ShowMessageFace("",0,0,2,29)
ShowMessage("I feel numbness spread throughout my body each time she plunges her waist and wrings my cock. A dull ache builds in my core as my penis spasms in pleasure.")
ShowMessageFace("",0,0,2,30)
ShowMessage("The tiny doll's maddening embrace saps the strength from my body. I can barely move anymore, let alone attempt to push her off...")
ShowMessageFace("doll_fc1",1,0,2,31)
ShowMessage("\\n<Cursed Doll>Let it out, big bro... It'll be fun for us both when you do... I want all of your white stuff in me...")
ShowMessageFace("",0,0,2,32)
ShowMessage("She grins at me as she eagerly milks me while tightening her vagina around my penis.")
ShowMessageFace("",0,0,2,33)
ShowMessage("I feel my orgasm build as her relentless assault on my body continues. My penis is immersed in ecstasy of her warm, wet pussy while my body sags in lethargy.")
ShowMessageFace("",0,0,2,34)
ShowMessage("\\n<Luka>Auu... If you do that... I can't...!")
ShowMessageFace("",0,0,2,35)
ShowMessage("The stimulation quickly forces me to another height as my penis twitches powerfully while my body shudders from the effort.")
RunCommonEvent(104)
PictureDisplay(5,"ev_doll_ha3",0,0,0,0,100,100,255,0)
RunCommonEvent(105)
ShowMessageFace("",0,0,2,36)
ShowMessage("My weakness builds as each lance of semen shoots out from my penis to coat her insides. Numbness spreads throughout my body, clouding my mind as my thoughts turn murky.")
ShowMessageFace("",0,0,2,37)
ShowMessage("My rationality plummets with the state of my body as I'm no longer resisting the temptation of mating with this strange doll.")
ShowMessageFace("",0,0,2,38)
ShowMessage("\\n<Luka>Faaa... Incredible...")
ShowMessageFace("doll_fc1",1,0,2,39)
ShowMessage("\\n<Cursed Doll>I want to play even more, big bro...")
ShowMessageFace("",0,0,2,40)
ShowMessage("The doll resumes thrusting her waist into mine, this time fully hilting me with every rise and fall. Her walls grip me tightly as she forces my length into her, rubbing my tip with her deepest parts.")
ShowMessageFace("",0,0,2,41)
ShowMessage("Another orgasm tears through me as my penis begins to give off a dull ache from the overstimulation.")
ShowMessageFace("",0,0,2,42)
ShowMessage("\\n<Luka>Aaaaaa!")
RunCommonEvent(104)
RunCommonEvent(105)
ShowMessageFace("",0,0,2,43)
ShowMessage("The endless rape clouds my mind with lust as my ejaculations continue to take their toll on my psyche.")
ShowMessageFace("doll_fc1",1,0,2,44)
ShowMessage("\\n<Cursed Doll>It's delicious, big bro... More... I want to play more...")
ShowMessageFace("",0,0,2,45)
ShowMessage("She mercilessly continues raping me, tightening her vagina and infusing pleasure into me each time my prick starts to wilt.")
ShowMessageFace("",0,0,2,46)
ShowMessage("Every climax takes more energy from me than the last. Each time she milks me of my sperm, I feel my life leak out alongside it.")
ShowMessageFace("",0,0,2,47)
ShowMessage("\\n<Luka>Auu... If you keep doing that...")
ShowMessageFace("doll_fc1",1,0,2,48)
ShowMessage("\\n<Cursed Doll>Give me more please, big bro... More... More... More...")
ShowMessageFace("",0,0,2,49)
ShowMessage("My fear moves to the back of my mind as lust replaces all thought. The Cursed Doll only wants me to feel one thing, anything else would get in the way of her fun...")
ShowMessageFace("",0,0,2,50)
ShowMessage("\\n<Luka>Auu...")
ShowMessageFace("doll_fc1",1,0,2,51)
ShowMessage("\\n<Cursed Doll>I want to play more...\nUntil big bro breaks...")
ShowMessageFace("",0,0,2,52)
ShowMessage("I fall to temptation as the Cursed Doll grips my penis tightly, never letting go even as she wrings out the last of my sperm. My penis twitches futilely inside her as she robs me of my energy.")
ShowMessageFace("",0,0,2,53)
ShowMessage("The moment she forced me to come, there could be no escape...")
ShowMessageFace("doll_fc1",1,0,2,54)
ShowMessage("\\n<Cursed Doll>Give me more... Big bro...")
ShowMessageFace("",0,0,2,55)
ShowMessage("\\n<Luka>Aaaa!!")
RunCommonEvent(104)
RunCommonEvent(105)
ShowMessageFace("",0,0,2,56)
ShowMessage("The act of ejaculating has lost all meaning inside this doll. Firmly impaled in her vagina, my energy is all that's left for her to take...")
ShowMessageFace("",0,0,2,57)
ShowMessage("My life itself withers away in the Cursed Doll's lustful embrace...")
ShowMessageFace("doll_fc1",1,0,2,58)
ShowMessage("\\n<Cursed Doll>More, more... More of what I want...")
ShowMessageFace("",0,0,2,59)
ShowMessage("\\n<Luka>Auuuu!")
RunCommonEvent(104)
RunCommonEvent(105)
ShowMessageFace("",0,0,2,60)
ShowMessage("I've lost count of how many times I've been forced to come. The numbness has encompassed the entirety of my body as all I can feel is a pleasurable, throbbing heat in my penis.")
ShowMessageFace("doll_fc1",1,0,2,61)
ShowMessage("\\n<Cursed Doll>Let's play more, big bro...")
ShowMessageFace("",0,0,2,62)
ShowMessage("\\n<Luka>Ahh...")
RunCommonEvent(104)
RunCommonEvent(105)
ShowMessageFace("",0,0,2,63)
ShowMessage("The Cursed Doll laughs as my vision starts to dim. With my fading sight, I can barely make out her sadistic face anymore.")
ShowMessageFace("",0,0,2,64)
ShowMessage("I'm barely able to keep a coherent thought... If this doesn't stop right now...")
ShowMessageFace("doll_fc1",1,0,2,65)
ShowMessage("\\n<Cursed Doll>What's wrong, big bro?\nYou aren't moving anymore...")
ShowMessageFace("",0,0,2,66)
ShowMessage("\\n<Luka>A...a...a...")
ShowMessageFace("",0,0,2,67)
ShowMessage("She continues moving her waist as she looks at my face questioningly.")
RunCommonEvent(104)
RunCommonEvent(105)
221()
PictureClear(5)
246(2)
ShowMessageFace("",0,0,2,68)
ShowMessage("While basking in that final orgasm, I lose consciousness.")
ShowMessage("All of my energy was sucked up by the Cursed Doll...")
ShowMessageFace("",0,0,2,69)
ShowMessage("I was raped to death by her...")
ShowMessage("But at least it felt good until the last moment...")
DefineLabel("反省会")
ShowMessageFace("",0,0,2,70)
ShowMessage("..................")
221()
242(1)
Wait(120)
355("memory_interruption")
ShowMessageFace("",0,0,2,71)
ShowMessage("You hear Ilias' voice calling out to you...")
ShowMessage("Receive her evaluation?")
ShowChoices(strings("Receive evaluation","Change difficulty","Reincarnate"),3)
IfPlayerPicksChoice(0,null)
 241(bytes(0x04,0x08,0x6f,0x3a,0x0d,0x52,0x50,0x47,0x3a,0x3a,0x42,0x47,0x4d,0x08,0x3a,0x0a,0x40,0x6e,0x61,0x6d,0x65,0x49,0x22,0x0a,0x69,0x72,0x69,0x61,0x73,0x06,0x3a,0x06,0x45,0x54,0x3a,0x0c,0x40,0x76,0x6f,0x6c,0x75,0x6d,0x65,0x69,0x5f,0x3a,0x0b,0x40,0x70,0x69,0x74,0x63,0x68,0x69,0x6e))
 PictureDisplay(1,"bg001",0,0,0,0,100,100,255,0)
 222()
 PictureDisplay(5,"80_iriasu_st04",0,0,0,0,100,100,0,0)
 PictureMove(5,null,0,0,0,0,100,100,255,0,30,true)
 ShowMessageFace("iriasu_fc1",3,0,2,72)
 ShowMessage("\\n<Ilias>Are you pleased to commune with a doll?\nSheesh, how shameful.")
 PictureDisplay(5,"80_iriasu_st01",0,0,0,0,100,100,255,0)
 ShowMessageFace("iriasu_fc1",0,0,2,73)
 ShowMessage("\\n<Ilias>She uses various pleasure attacks.\nBut her silence is highly annoying.")
 ShowMessageFace("iriasu_fc1",0,0,2,74)
 ShowMessage("\\n<Ilias>Beat her down before she can seal your skills.\nHer HP is low, so finishing her off is easy.")
 ShowMessageFace("iriasu_fc1",0,0,2,75)
 ShowMessage("\\n<Ilias>Since she's a doll, status abnormalities are almost useless.\nAlso note her elemental resistance is high over all.")
 PictureDisplay(5,"80_iriasu_st02",0,0,0,0,100,100,255,0)
 ShowMessageFace("iriasu_fc1",1,0,2,76)
 ShowMessage("\\n<Ilias>Now go, oh brave Luka.\nDestroy that strange doll.")
 242(1)
 221()
 PictureClear(5)
 PictureClear(1)
 Wait(60)
 0()
IfPlayerPicksChoice(1,null)
 ShowMessageFace("",0,0,2,77)
 ShowMessage("Please choose a difficulty level.")
 RunCommonEvent(110)
 0()
IfPlayerPicksChoice(2,null)
 0()
404()
RunCommonEvent(3000)
0()
