// EVENT 4291
Name "Rafflesia Girl"

If(0,25,1)
 221()
 PictureClear(5)
 PictureClear(6)
 ShowMessageFace("",0,0,2,0)
 ShowMessage("......")
 242(2)
 Wait(120)
 241(bytes(0x04,0x08,0x6f,0x3a,0x0d,0x52,0x50,0x47,0x3a,0x3a,0x42,0x47,0x4d,0x08,0x3a,0x0a,0x40,0x6e,0x61,0x6d,0x65,0x49,0x22,0x0c,0x63,0x61,0x73,0x74,0x6c,0x65,0x36,0x06,0x3a,0x06,0x45,0x54,0x3a,0x0c,0x40,0x76,0x6f,0x6c,0x75,0x6d,0x65,0x69,0x69,0x3a,0x0b,0x40,0x70,0x69,0x74,0x63,0x68,0x69,0x69))
 EndEventProcessing()
 0()
EndIf()
PictureDisplay(5,"80_rahure_st02",0,0,0,0,100,100,255,0)
ShowMessageFace("rahure_fc1",1,0,2,1)
ShowMessage("\\n<Fleesia>You want to pollinate me?\nWell then...")
250(bytes(0x04,0x08,0x6f,0x3a,0x0c,0x52,0x50,0x47,0x3a,0x3a,0x53,0x45,0x08,0x3a,0x0a,0x40,0x6e,0x61,0x6d,0x65,0x49,0x22,0x16,0x6d,0x6f,0x6e,0x5f,0x65,0x72,0x6f,0x5f,0x6d,0x61,0x6b,0x69,0x74,0x75,0x6b,0x69,0x32,0x06,0x3a,0x06,0x45,0x54,0x3a,0x0b,0x40,0x70,0x69,0x74,0x63,0x68,0x69,0x69,0x3a,0x0c,0x40,0x76,0x6f,0x6c,0x75,0x6d,0x65,0x69,0x69))
ShowMessageFace("",0,0,2,2)
ShowMessage("Fleesia's tentacle grabs my body!")
ShowMessageFace("rahure_fc1",1,0,2,3)
ShowMessage("\\n<Fleesia>I can breed a lot with your semen.\nI'm so happy that you're willing to donate by your own choice...")
ShowMessageFace("",0,0,2,4)
ShowMessage("\\n<Luka>Wait, I didn't mean breeding...\nAhhh!")
PictureDisplay(5,"ev_rahure_st11",0,0,0,0,100,100,255,0)
241(bytes(0x04,0x08,0x6f,0x3a,0x0d,0x52,0x50,0x47,0x3a,0x3a,0x42,0x47,0x4d,0x08,0x3a,0x0a,0x40,0x6e,0x61,0x6d,0x65,0x49,0x22,0x09,0x65,0x72,0x6f,0x31,0x06,0x3a,0x06,0x45,0x54,0x3a,0x0c,0x40,0x76,0x6f,0x6c,0x75,0x6d,0x65,0x69,0x69,0x3a,0x0b,0x40,0x70,0x69,0x74,0x63,0x68,0x69,0x69))
ShowMessageFace("",0,0,2,5)
ShowMessage("Wrapped in her tentacle, my body is forced into her flower mouth!")
ShowMessageFace("",0,0,2,6)
ShowMessage("The flower was filled with sticky mucus.")
ShowMessage("My lower body covered in the warm mucus, I feel my strength drain.")
ShowMessageFace("rahure_fc1",1,0,2,7)
ShowMessage("\\n<Fleesia>Now, let me sprinkle some pollen...")
245(bytes(0x04,0x08,0x6f,0x3a,0x0d,0x52,0x50,0x47,0x3a,0x3a,0x42,0x47,0x53,0x08,0x3a,0x0a,0x40,0x6e,0x61,0x6d,0x65,0x49,0x22,0x1a,0x6d,0x6f,0x6e,0x5f,0x68,0x73,0x65,0x61,0x6e,0x32,0x31,0x5f,0x74,0x65,0x6e,0x74,0x61,0x63,0x6c,0x65,0x32,0x06,0x3a,0x06,0x45,0x54,0x3a,0x0c,0x40,0x76,0x6f,0x6c,0x75,0x6d,0x65,0x69,0x55,0x3a,0x0b,0x40,0x70,0x69,0x74,0x63,0x68,0x69,0x69))
PictureDisplay(6,"ev_rahure_ct01",0,0,0,0,100,100,255,0)
ShowMessageFace("",0,0,2,8)
ShowMessage("Something like a tentacle starts to coil around my penis.")
ShowMessage("Full of pollen, numerous stamens start to rub me.")
ShowMessageFace("",0,0,2,9)
ShowMessage("\\n<Luka>Ahhh!")
ShowMessageFace("rahure_fc1",1,0,2,10)
ShowMessage("\\n<Fleesia>First, let me cover you with my pollen.")
ShowMessageFace("",0,0,2,11)
ShowMessage("The stamen surround my penis, spreading pollen all over me.")
ShowMessageFace("",0,0,2,12)
ShowMessage("They spread pollen all over my body, but pay special attention to the tip of my penis.")
ShowMessageFace("",0,0,2,13)
ShowMessage("The sticky pollen covers my urethral opening, as the massage brings me close to the edge.")
ShowMessageFace("",0,0,2,14)
ShowMessage("\\n<Luka>Auu... That's so good...")
ShowMessageFace("rahure_fc1",1,0,2,15)
ShowMessage("\\n<Fleesia>I haven't finished preparing it yet, but you're already feeling good?\nIf you feel this good with just my stamen, wait until you feel the pistil...")
ShowMessageFace("",0,0,2,16)
ShowMessage("The stimulation fills me with both pleasure and disgust, as she continues to rub pollen on me.")
ShowMessageFace("",0,0,2,17)
ShowMessage("\\n<Luka>Auuu... Not the stamen...")
ShowMessageFace("rahure_fc1",1,0,2,18)
ShowMessage("\\n<Fleesia>Hahaha, even if you say stamen, it isn't a male organ.\nI'm obviously a female, so relax.")
ShowMessageFace("",0,0,2,19)
ShowMessage("\\n<Luka>Auuu...")
ShowMessageFace("",0,0,2,20)
ShowMessage("Helplessly writhing, she finishes rubbing me with pollen.")
ShowMessageFace("",0,0,2,21)
ShowMessage("Unable to resist, my only choice is to try to endure the rising orgasm.")
ShowMessageFace("rahure_fc1",1,0,2,22)
ShowMessage("\\n<Fleesia>...That's it for the preparations.")
ShowMessageFace("rahure_fc1",1,0,2,23)
ShowMessage("\\n<Fleesia>Now, I'll use my pistil...\nMake sure you cover it fully.")
245(bytes(0x04,0x08,0x6f,0x3a,0x0d,0x52,0x50,0x47,0x3a,0x3a,0x42,0x47,0x53,0x08,0x3a,0x0a,0x40,0x6e,0x61,0x6d,0x65,0x49,0x22,0x1e,0x6d,0x6f,0x6e,0x5f,0x68,0x73,0x65,0x61,0x6e,0x30,0x31,0x5f,0x69,0x6e,0x6e,0x65,0x72,0x77,0x6f,0x72,0x6b,0x73,0x5f,0x61,0x31,0x06,0x3a,0x06,0x45,0x54,0x3a,0x0c,0x40,0x76,0x6f,0x6c,0x75,0x6d,0x65,0x69,0x55,0x3a,0x0b,0x40,0x70,0x69,0x74,0x63,0x68,0x69,0x69))
PictureDisplay(5,"ev_rahure_st11",0,0,0,0,100,100,255,0)
PictureDisplay(6,"ev_rahure_ct11",0,0,0,0,100,100,255,0)
ShowMessageFace("",0,0,2,24)
ShowMessage("Her slimy pistil starts to slowly wrap around my penis, as it stretches until it's all the way around.")
ShowMessageFace("",0,0,2,26)
ShowMessage("\\n<Luka>Ahhh!")
245(bytes(0x04,0x08,0x6f,0x3a,0x0d,0x52,0x50,0x47,0x3a,0x3a,0x42,0x47,0x53,0x08,0x3a,0x0a,0x40,0x6e,0x61,0x6d,0x65,0x49,0x22,0x1e,0x6d,0x6f,0x6e,0x5f,0x68,0x73,0x65,0x61,0x6e,0x31,0x30,0x5f,0x69,0x6e,0x6e,0x65,0x72,0x77,0x6f,0x72,0x6b,0x73,0x5f,0x62,0x32,0x06,0x3a,0x06,0x45,0x54,0x3a,0x0c,0x40,0x76,0x6f,0x6c,0x75,0x6d,0x65,0x69,0x55,0x3a,0x0b,0x40,0x70,0x69,0x74,0x63,0x68,0x69,0x69))
ShowMessageFace("",0,0,2,27)
ShowMessage("My penis, covered in her sticky pollen, causes the pistil to stick to its surface.")
ShowMessageFace("rahure_fc1",1,0,2,28)
ShowMessage("\\n<Fleesia>When you shoot out your seed on my pistil, it will mix with the pollen.")
ShowMessageFace("rahure_fc1",1,0,2,29)
ShowMessage("\\n<Fleesia>That's how a human male can fertilize me.")
ShowMessageFace("rahure_fc1",1,0,2,30)
ShowMessage("\\n<Fleesia>So just let it out...\nHere, I'll make you feel even better...")
ShowMessageFace("",0,0,2,31)
ShowMessage("\\n<Luka>Ahiii!")
ShowMessageFace("",0,0,2,32)
ShowMessage("The pistil coiled around my dick starts to move up and down, rubbing me with it's slimy membrane.")
ShowMessageFace("",0,0,2,33)
ShowMessage("My body writhes helplessly as I'm attacked by the soft slimy pleasure.")
ShowMessageFace("rahure_fc1",1,0,2,34)
ShowMessage("\\n<Fleesia>This is how you mate with a Rafflesia...\nYou're having sex with a plant...")
ShowMessageFace("rahure_fc1",1,0,2,35)
ShowMessage("\\n<Fleesia>Hey, how do you like it?")
ShowMessageFace("",0,0,2,36)
ShowMessage("\\n<Luka>This... Ahhhh!")
ShowMessageFace("",0,0,2,37)
ShowMessage("This is completely different from being with a human...")
ShowMessageFace("",0,0,2,38)
ShowMessage("The immorality of this pistil making me feel so good brings about a strange excitement in me.")
ShowMessageFace("rahure_fc1",1,0,2,39)
ShowMessage("\\n<Fleesia>You're feeling good, aren't you?\nSex with a plant... Much better than you thought, right?")
ShowMessageFace("rahure_fc1",1,0,2,40)
ShowMessage("\\n<Fleesia>Just come with your human penis like that...")
ShowMessageFace("",0,0,2,41)
ShowMessage("The pistil tightens around me, as if forcing me to ejaculate.")
ShowMessage("The tip of her pistil starts to rub my tip, as I twist helplessly.")
ShowMessageFace("",0,0,2,42)
ShowMessage("\\n<Luka>Auu... I'm going to come...")
ShowMessageFace("",0,0,2,43)
ShowMessage("If I can't endure, I'm going to inseminate this plant...")
ShowMessage("Fertilizing a monster plant...")
ShowMessageFace("",0,0,2,44)
ShowMessage("I have to avoid that at any cost...")
ShowMessageFace("",0,0,2,45)
ShowMessage("\\n<Luka>No... No...\nThis... No...")
ShowMessageFace("rahure_fc1",1,0,2,46)
ShowMessage("\\n<Fleesia>It's useless to try to endure.\nLike this, you have no choice but to pollinate me.")
ShowMessageFace("",0,0,2,47)
ShowMessage("The Rafflesia Girl laughs at me as I try to endure.")
ShowMessageFace("",0,0,2,48)
ShowMessage("Her pistil starts to move up and down as it's wrapped around me, crushing my resistance.")
ShowMessageFace("rahure_fc1",1,0,2,49)
ShowMessage("\\n<Fleesia>Come!\nPour your semen all over my pistil!")
ShowMessageFace("",0,0,2,50)
ShowMessage("I'm unable to endure her intense stimulation any longer...")
ShowMessage("I know it's forbidden, but I can't hold on any more...")
ShowMessageFace("",0,0,2,51)
ShowMessage("\\n<Luka>Aaaaah!")
RunCommonEvent(104)
PictureDisplay(5,"ev_rahure_st12",0,0,0,0,100,100,255,0)
PictureDisplay(6,"ev_rahure_ct12",0,0,0,0,100,100,255,0)
RunCommonEvent(105)
ShowMessageFace("",0,0,2,52)
ShowMessage("I explode, shooting my cloudy seed all over the pistil of the Rafflesia Girl.")
ShowMessageFace("",0,0,2,53)
ShowMessage("\\n<Luka>No... I came...")
ShowMessageFace("",0,0,2,54)
ShowMessage("I can't even begin to understand the act that I've just done.")
ShowMessage("Unable to stop the pleasure, I just pollinated Fleesia...")
ShowMessageFace("rahure_fc1",1,0,2,55)
ShowMessage("\\n<Fleesia>Fufu... With that, I've been successfully fertilized.\nThank you for helping to fertilize me.")
ShowMessageFace("",0,0,2,56)
ShowMessage("\\n<Luka>............")
ShowMessageFace("",0,0,2,57)
ShowMessage("My genes will mix with Fleesia's and create new life...")
ShowMessage("There's a mix of guilt and immoral feelings swirling in my head over that.")
221()
PictureClear(5)
PictureClear(6)
246(2)
ShowMessageFace("",0,0,2,58)
ShowMessage("............")
242(2)
Wait(120)
241(bytes(0x04,0x08,0x6f,0x3a,0x0d,0x52,0x50,0x47,0x3a,0x3a,0x42,0x47,0x4d,0x08,0x3a,0x0a,0x40,0x6e,0x61,0x6d,0x65,0x49,0x22,0x0c,0x63,0x61,0x73,0x74,0x6c,0x65,0x36,0x06,0x3a,0x06,0x45,0x54,0x3a,0x0c,0x40,0x76,0x6f,0x6c,0x75,0x6d,0x65,0x69,0x69,0x3a,0x0b,0x40,0x70,0x69,0x74,0x63,0x68,0x69,0x69))
0()
