﻿// EVENT 4486
Name "Fairy Twins"

If(0,25,1)
 221()
 PictureClear(5)
 PictureClear(6)
 ShowMessageFace("",0,0,2,1)
 ShowMessage("......")
 242(2)
 Wait(120)
 241(bytes(0x04,0x08,0x6f,0x3a,0x0d,0x52,0x50,0x47,0x3a,0x3a,0x42,0x47,0x4d,0x08,0x3a,0x0a,0x40,0x6e,0x61,0x6d,0x65,0x49,0x22,0x0c,0x63,0x61,0x73,0x74,0x6c,0x65,0x36,0x06,0x3a,0x06,0x45,0x54,0x3a,0x0c,0x40,0x76,0x6f,0x6c,0x75,0x6d,0x65,0x69,0x69,0x3a,0x0b,0x40,0x70,0x69,0x74,0x63,0x68,0x69,0x69))
 EndEventProcessing()
 0()
EndIf()
PictureDisplay(5,"80_tfairy_st02",0,0,0,0,100,100,255,0)
ShowMessageFace("tfairy_fc1",1,0,2,2)
ShowMessage("\\n<Mil>Hey, I want to hang out. ♪")
ShowMessageFace("tfairy_fc1",1,0,2,3)
ShowMessage("\\n<Lil>Not just hang out, I wanna play! ♪")
ShowMessageFace("",0,0,2,4)
ShowMessage("\\n<Luka>......")
ShowMessageFace("",0,0,2,5)
ShowMessage("Both Mil and Lil approach my crotch.\nEven though I saw it coming, there really was nothing I could do to stop it.")
241(bytes(0x04,0x08,0x6f,0x3a,0x0d,0x52,0x50,0x47,0x3a,0x3a,0x42,0x47,0x4d,0x08,0x3a,0x0a,0x40,0x6e,0x61,0x6d,0x65,0x49,0x22,0x09,0x65,0x72,0x6f,0x31,0x06,0x3a,0x06,0x45,0x54,0x3a,0x0c,0x40,0x76,0x6f,0x6c,0x75,0x6d,0x65,0x69,0x69,0x3a,0x0b,0x40,0x70,0x69,0x74,0x63,0x68,0x69,0x69))
245(bytes(0x04,0x08,0x6f,0x3a,0x0d,0x52,0x50,0x47,0x3a,0x3a,0x42,0x47,0x53,0x08,0x3a,0x0a,0x40,0x6e,0x61,0x6d,0x65,0x49,0x22,0x1e,0x6d,0x6f,0x6e,0x5f,0x68,0x73,0x65,0x61,0x6e,0x30,0x31,0x5f,0x69,0x6e,0x6e,0x65,0x72,0x77,0x6f,0x72,0x6b,0x73,0x5f,0x61,0x31,0x06,0x3a,0x06,0x45,0x54,0x3a,0x0c,0x40,0x76,0x6f,0x6c,0x75,0x6d,0x65,0x69,0x55,0x3a,0x0b,0x40,0x70,0x69,0x74,0x63,0x68,0x69,0x69))
PictureDisplay(6,"ev_tfairy_ct21",0,0,0,0,100,100,255,0)
ShowMessageFace("",0,0,2,6)
ShowMessage("Before I can react, both fairies hug my penis tightly.")
ShowMessageFace("",0,0,2,7)
ShowMessage("\\n<Luka>Aah...!")
ShowMessageFace("",0,0,2,8)
ShowMessage("Clinging to my penis, Mil and Lil begin rubbing it.\nAs they squeeze it from left and right, feeling their soft small muscles, I can't help but moan.")
ShowMessageFace("tfairy_fc1",1,0,2,9)
ShowMessage("\\n<Mil>Hehehe, come on sis, I'll do whatever you do...♪")
ShowMessageFace("tfairy_fc1",1,0,2,10)
ShowMessage("\\n<Lil>I'll shake it then! ♪")
ShowMessageFace("",0,0,2,11)
ShowMessage("Their two small bodies start rubbing up and down, facing my penis tip. The fairies start licking it with their tiny tongues.")
ShowMessageFace("",0,0,2,12)
ShowMessage("Both tongues smaller than a human finger creep up my glans. Such small fairies making me feel such pleasure.")
ShowMessageFace("",0,0,2,13)
ShowMessage("\\n<Luka>Unnngh...!")
ShowMessageFace("",0,0,2,14)
ShowMessage("Next, they focus on my urethra, moving their tongues inside. A man's most delicate part being licked and played with...")
ShowMessageFace("",0,0,2,15)
ShowMessage("Mil and Lil hug my penis tightly with both arms while licking the glans. Their grip is tight, showing no intention of letting go.")
ShowMessageFace("tfairy_fc1",1,0,2,16)
ShowMessage("\\n<Mil>Fufufu... Your cock has a strong taste, big bro. ♪")
ShowMessageFace("tfairy_fc1",1,0,2,17)
ShowMessage("\\n<Lil>Do you wash it properly? Hehe ♪")
ShowMessageFace("",0,0,2,18)
ShowMessage("Both girls put more strength into their thin arms, my dick trapped in-between. Keeping the foreskin pulled back, they leave the tip completely exposed when the dick has its most pleasing shape.")
ShowMessageFace("",0,0,2,19)
ShowMessage("The innocent fairies tease my dick in a manner that would please any man, and their movements feel extremely accurate. Is it a coincidence, or are these two already experienced at this?")
ShowMessageFace("",0,0,2,20)
ShowMessage("\\n<Luka>Ah, ugh...!!")
ShowMessageFace("",0,0,2,21)
ShowMessage("I underestimated these two, and now I'm forced into an aggressive and sweet stimulation. From the tip of my dick, pre-come starts to leak out.")
ShowMessageFace("",0,0,2,22)
ShowMessage("The curious duo notice it.")
ShowMessageFace("tfairy_fc1",1,0,2,23)
ShowMessage("\\n<Mil>Oh look, the liquid is coming out! ♪")
ShowMessageFace("tfairy_fc1",1,0,2,24)
ShowMessage("\\n<Lil>Its called presemen! It means he's getting excited! ♪")
ShowMessageFace("",0,0,2,25)
ShowMessage("Their two bodies move upwards to the tip to lick up the pre-come, collecting all the drops. As they drink up my pre-come like a meal, I tremble and my hips start shaking.")
ShowMessageFace("",0,0,2,26)
ShowMessage("With curiosity, both fairies lick and drink the pre-come, moving their tongues more and more. Stretching their tongues, they force them a bit into the urethral opening, licking the surface over and over.")
ShowMessageFace("",0,0,2,27)
ShowMessage("\\n<Luka>Ooooh...!")
ShowMessageFace("",0,0,2,28)
ShowMessage("The concentrated pleasure on the urethral opening makes me shiver, pleasure spreading to my waist.")
ShowMessageFace("",0,0,2,29)
ShowMessage("They push both their hands against the tip of the foreskin. All my sensitive spots are licked and teased at the same time.")
ShowMessageFace("tfairy_fc1",1,0,2,30)
ShowMessage("\\n<Mil>Wow, its throbbing! ♪")
ShowMessageFace("tfairy_fc1",1,0,2,31)
ShowMessage("\\n<Lil>That means the white stuff is about to come out! ♪")
ShowMessageFace("",0,0,2,32)
ShowMessage("The duo continues to tease me as if I'm a toy, bringing me closer and closer to the edge. Finally, I'm unable to withstand the pleasure any longer.")
ShowMessageFace("",0,0,2,33)
ShowMessage("\\n<Luka>Ah... Aaaaaah!!")
RunCommonEvent(104)
PictureDisplay(6,"ev_tfairy_ct22",0,0,0,0,100,100,255,0)
RunCommonEvent(105)
ShowMessageFace("",0,0,2,34)
ShowMessage("My head goes pure white from the pleasure of my orgasm.")
PictureDisplay(6,"ev_tfairy_ct23",0,0,0,0,100,100,255,0)
ShowMessageFace("",0,0,2,35)
ShowMessage("Quite a lot of semen falls down on my dick, coating both fairies.")
ShowMessageFace("tfairy_fc1",1,0,2,36)
ShowMessage("\\n<Mil>There we go it's finally out! ♪")
ShowMessageFace("tfairy_fc1",1,0,2,37)
ShowMessage("\\n<Lil>Wow, we made so much come out! ♪")
ShowMessageFace("",0,0,2,38)
ShowMessage("The fairies tease me mischievously, but it seems they don't plan to end their teasing there. Even after I just ejaculated, the two continue to toy with my penis like it was their plaything.")
ShowMessageFace("",0,0,2,39)
ShowMessage("They speed up the movement of their hands, teasing the glans. Stroking my dick with surprising synchronization, the fairies continue to jerk me off.")
ShowMessageFace("",0,0,2,40)
ShowMessage("\\n<Luka>Ooooh...!")
ShowMessageFace("",0,0,2,41)
ShowMessage("They play with my glans even more, moving their tongues in circles all over it. When they finish licking a spot with semen, they start licking another one more enthusiastically.")
ShowMessageFace("tfairy_fc1",1,0,2,42)
ShowMessage("\\n<Mil>Wow, he is twitching so much!\nSome white stuff is still leaking. ♪")
ShowMessageFace("tfairy_fc1",1,0,2,43)
ShowMessage("\\n<Lil>I bet even more will come out if we keep licking! ♪")
ShowMessageFace("",0,0,2,44)
ShowMessage("Every time they drink up the semen, they push their tongues into my urethra seeking more. As they lick more, more comes out and they keep pushing their tongues into my urethra.")
ShowMessageFace("",0,0,2,45)
ShowMessage("\\n<Luka>Ah... W-wait a second, don't push your tongues in there!")
ShowMessageFace("",0,0,2,46)
ShowMessage("Their sweet and persistent tongues continue to tease the entrance of my urethra relentlessly making pre-come come out.\n\nDrinking the pre-come that comes out, making even more leak, they continue that vicious cycle, drinking all that comes out.")
ShowMessageFace("",0,0,2,47)
ShowMessage("The continued licking of the urethra of my overly-sensitive dick due to my ejaculation makes my hands shake.\n\n\nMy precious reproductive organ being tinkered with like that while it's so sensitive makes the numbness spread to my waist.")
ShowMessageFace("tfairy_fc1",1,0,2,48)
ShowMessage("\\n<Mil>Haha, your face looks funny, big bro.\nBullying your penis is fun. ♪")
ShowMessageFace("tfairy_fc1",1,0,2,49)
ShowMessage("\\n<Lil>Yay! More bullying of big bro's penis. ♪")
ShowMessageFace("",0,0,2,50)
ShowMessage("The fairies now purposely tease my urethra, looking to make me shiver, clearly finding it amusing. Every time they lick and tease it, I can't help but shiver at giving in to their game.")
ShowMessageFace("",0,0,2,51)
ShowMessage("The fairies continue, using my sensitive organ like a plaything.")
ShowMessageFace("",0,0,2,52)
ShowMessage("\\n<Luka>Ah, aaah...I'm coming again...")
ShowMessageFace("tfairy_fc1",1,0,2,53)
ShowMessage("\\n<Mil>Yay! More delicious white stuff, let it out! ♪")
ShowMessageFace("tfairy_fc1",1,0,2,54)
ShowMessage("\\n<Lil>I want it too! ♪")
ShowMessageFace("",0,0,2,55)
ShowMessage("The fairies' hands flock to the head of my penis, along with their tongues.")
ShowMessageFace("",0,0,2,56)
ShowMessage("Four small hands rubbing me and two small tongues licking me up and down. The movements of the duo speed up, licking with more intensity clearly wanting me to come.")
ShowMessageFace("",0,0,2,57)
ShowMessage("With so much stimulation, my head goes white.")
ShowMessageFace("",0,0,2,58)
ShowMessage("\\n<Luka>Ah, aaaaaah!!")
RunCommonEvent(104)
RunCommonEvent(105)
ShowMessageFace("",0,0,2,59)
ShowMessage("Once again, both fairies' bodies are entirely covered in my semen. Fascinatingly enough, they both giggle and smile.")
ShowMessageFace("",0,0,2,60)
ShowMessage("They look up at me and let out a happy chuckle as they stare at my pleasured face. It really does feel like I'm just their toy.")
ShowMessageFace("tfairy_fc1",1,0,2,61)
ShowMessage("\\n<Mil>Hehe, big bro, your face looks so funny. ♪")
ShowMessageFace("tfairy_fc1",1,0,2,62)
ShowMessage("\\n<Lil>Yeah! We want to see more of that, let´s keep bullying his penis. ♪")
ShowMessageFace("",0,0,2,63)
ShowMessage("\\n<Luka>N-no way...")
ShowMessageFace("",0,0,2,64)
ShowMessage("The fairies speak with such innocence, it's hard to tell if they are malicious or just playing, even as they say such horrible things.\n\nEven though that's what I think, my penis reacts to their words throbbing as if wanting more, making me stay quiet about any protest I might have.")
ShowMessageFace("tfairy_fc1",1,0,2,65)
ShowMessage("\\n<Mil>More playing! ♪")
ShowMessageFace("tfairy_fc1",1,0,2,66)
ShowMessage("\\n<Lil>We have plenty of time! ♪")
ShowMessageFace("",0,0,2,67)
ShowMessage("\\n<Luka>Ah, aaah...wait.. please hold on...")
ShowMessageFace("",0,0,2,68)
ShowMessage("The duo doesn't listen, and they instead tighten their grip on my cock and start rubbing me once again. That stimulation coupled with their teasing brings me closer and closer.")
ShowMessageFace("",0,0,2,69)
ShowMessage("Eventually, I reach another orgasm.")
RunCommonEvent(104)
RunCommonEvent(105)
ShowMessageFace("",0,0,2,70)
ShowMessage("\\n<Luka>W...wait please, t...thats enough.")
ShowMessageFace("tfairy_fc1",1,0,2,71)
ShowMessage("\\n<Mil>It's no use, big bro! ♪")
ShowMessageFace("tfairy_fc1",1,0,2,72)
ShowMessage("\\n<Lil>We are going to keep bullying your dick until we are satisfied! ♪")
ShowMessageFace("",0,0,2,73)
ShowMessage("The mischievous fairies don't stop their teasing, licking and moving their hands around my male organ. My groin continues to be played with, I have no option but to pant, and let them do as they please.")
221()
PictureClear(5)
PictureClear(6)
246(2)
ShowMessageFace("",0,0,2,74)
ShowMessage("And thus they continue to toy with me for a long time.\nWhen they released me the next morning, I felt totally drained and exhausted.")
ShowMessageFace("",0,0,2,75)
ShowMessage("......")
242(2)
Wait(120)
241(bytes(0x04,0x08,0x6f,0x3a,0x0d,0x52,0x50,0x47,0x3a,0x3a,0x42,0x47,0x4d,0x08,0x3a,0x0a,0x40,0x6e,0x61,0x6d,0x65,0x49,0x22,0x0c,0x63,0x61,0x73,0x74,0x6c,0x65,0x36,0x06,0x3a,0x06,0x45,0x54,0x3a,0x0c,0x40,0x76,0x6f,0x6c,0x75,0x6d,0x65,0x69,0x69,0x3a,0x0b,0x40,0x70,0x69,0x74,0x63,0x68,0x69,0x69))
0()
