﻿// EVENT 0807
Name "魔法武器"

ChangeVariable(11,11,0,2,1,54)
If(1,11,0,1,0)
 ChangeInventoryWeapon(1451,0,0,1,false)
 EndEventProcessing()
 0()
EndIf()
If(1,11,0,2,0)
 ChangeInventoryWeapon(1452,0,0,1,false)
 EndEventProcessing()
 0()
EndIf()
If(1,11,0,3,0)
 ChangeInventoryWeapon(1453,0,0,1,false)
 EndEventProcessing()
 0()
EndIf()
If(1,11,0,4,0)
 ChangeInventoryWeapon(1456,0,0,1,false)
 EndEventProcessing()
 0()
EndIf()
If(1,11,0,5,0)
 ChangeInventoryWeapon(1457,0,0,1,false)
 EndEventProcessing()
 0()
EndIf()
If(1,11,0,6,0)
 ChangeInventoryWeapon(1458,0,0,1,false)
 EndEventProcessing()
 0()
EndIf()
If(1,11,0,7,0)
 ChangeInventoryWeapon(2251,0,0,1,false)
 EndEventProcessing()
 0()
EndIf()
If(1,11,0,8,0)
 ChangeInventoryWeapon(2252,0,0,1,false)
 EndEventProcessing()
 0()
EndIf()
If(1,11,0,9,0)
 ChangeInventoryWeapon(2253,0,0,1,false)
 EndEventProcessing()
 0()
EndIf()
If(1,11,0,10,0)
 ChangeInventoryWeapon(2254,0,0,1,false)
 EndEventProcessing()
 0()
EndIf()
If(1,11,0,11,0)
 ChangeInventoryWeapon(2255,0,0,1,false)
 EndEventProcessing()
 0()
EndIf()
If(1,11,0,12,0)
 ChangeInventoryWeapon(2256,0,0,1,false)
 EndEventProcessing()
 0()
EndIf()
If(1,11,0,13,0)
 ChangeInventoryWeapon(2261,0,0,1,false)
 EndEventProcessing()
 0()
EndIf()
If(1,11,0,14,0)
 ChangeInventoryWeapon(2262,0,0,1,false)
 EndEventProcessing()
 0()
EndIf()
If(1,11,0,15,0)
 ChangeInventoryWeapon(2263,0,0,1,false)
 EndEventProcessing()
 0()
EndIf()
If(1,11,0,16,0)
 ChangeInventoryWeapon(2264,0,0,1,false)
 EndEventProcessing()
 0()
EndIf()
If(1,11,0,17,0)
 ChangeInventoryWeapon(2265,0,0,1,false)
 EndEventProcessing()
 0()
EndIf()
If(1,11,0,18,0)
 ChangeInventoryWeapon(2266,0,0,1,false)
 EndEventProcessing()
 0()
EndIf()
If(1,11,0,19,0)
 ChangeInventoryWeapon(2351,0,0,1,false)
 EndEventProcessing()
 0()
EndIf()
If(1,11,0,20,0)
 ChangeInventoryWeapon(2352,0,0,1,false)
 EndEventProcessing()
 0()
EndIf()
If(1,11,0,21,0)
 ChangeInventoryWeapon(2353,0,0,1,false)
 EndEventProcessing()
 0()
EndIf()
If(1,11,0,22,0)
 ChangeInventoryWeapon(2354,0,0,1,false)
 EndEventProcessing()
 0()
EndIf()
If(1,11,0,23,0)
 ChangeInventoryWeapon(2355,0,0,1,false)
 EndEventProcessing()
 0()
EndIf()
If(1,11,0,24,0)
 ChangeInventoryWeapon(2356,0,0,1,false)
 EndEventProcessing()
 0()
EndIf()
If(1,11,0,25,0)
 ChangeInventoryWeapon(2361,0,0,1,false)
 EndEventProcessing()
 0()
EndIf()
If(1,11,0,26,0)
 ChangeInventoryWeapon(2362,0,0,1,false)
 EndEventProcessing()
 0()
EndIf()
If(1,11,0,27,0)
 ChangeInventoryWeapon(2363,0,0,1,false)
 EndEventProcessing()
 0()
EndIf()
If(1,11,0,28,0)
 ChangeInventoryWeapon(2364,0,0,1,false)
 EndEventProcessing()
 0()
EndIf()
If(1,11,0,29,0)
 ChangeInventoryWeapon(2365,0,0,1,false)
 EndEventProcessing()
 0()
EndIf()
If(1,11,0,30,0)
 ChangeInventoryWeapon(2366,0,0,1,false)
 EndEventProcessing()
 0()
EndIf()
If(1,11,0,31,0)
 ChangeInventoryWeapon(2451,0,0,1,false)
 EndEventProcessing()
 0()
EndIf()
If(1,11,0,32,0)
 ChangeInventoryWeapon(2452,0,0,1,false)
 EndEventProcessing()
 0()
EndIf()
If(1,11,0,33,0)
 ChangeInventoryWeapon(2453,0,0,1,false)
 EndEventProcessing()
 0()
EndIf()
If(1,11,0,34,0)
 ChangeInventoryWeapon(2454,0,0,1,false)
 EndEventProcessing()
 0()
EndIf()
If(1,11,0,35,0)
 ChangeInventoryWeapon(2455,0,0,1,false)
 EndEventProcessing()
 0()
EndIf()
If(1,11,0,36,0)
 ChangeInventoryWeapon(2456,0,0,1,false)
 EndEventProcessing()
 0()
EndIf()
If(1,11,0,37,0)
 ChangeInventoryWeapon(2461,0,0,1,false)
 EndEventProcessing()
 0()
EndIf()
If(1,11,0,38,0)
 ChangeInventoryWeapon(2462,0,0,1,false)
 EndEventProcessing()
 0()
EndIf()
If(1,11,0,39,0)
 ChangeInventoryWeapon(2463,0,0,1,false)
 EndEventProcessing()
 0()
EndIf()
If(1,11,0,40,0)
 ChangeInventoryWeapon(2464,0,0,1,false)
 EndEventProcessing()
 0()
EndIf()
If(1,11,0,41,0)
 ChangeInventoryWeapon(2465,0,0,1,false)
 EndEventProcessing()
 0()
EndIf()
If(1,11,0,42,0)
 ChangeInventoryWeapon(2466,0,0,1,false)
 EndEventProcessing()
 0()
EndIf()
If(1,11,0,43,0)
 ChangeInventoryWeapon(3651,0,0,1,false)
 EndEventProcessing()
 0()
EndIf()
If(1,11,0,44,0)
 ChangeInventoryWeapon(3652,0,0,1,false)
 EndEventProcessing()
 0()
EndIf()
If(1,11,0,45,0)
 ChangeInventoryWeapon(3653,0,0,1,false)
 EndEventProcessing()
 0()
EndIf()
If(1,11,0,46,0)
 ChangeInventoryWeapon(3654,0,0,1,false)
 EndEventProcessing()
 0()
EndIf()
If(1,11,0,47,0)
 ChangeInventoryWeapon(3655,0,0,1,false)
 EndEventProcessing()
 0()
EndIf()
If(1,11,0,48,0)
 ChangeInventoryWeapon(3656,0,0,1,false)
 EndEventProcessing()
 0()
EndIf()
If(1,11,0,49,0)
 ChangeInventoryWeapon(3661,0,0,1,false)
 EndEventProcessing()
 0()
EndIf()
If(1,11,0,50,0)
 ChangeInventoryWeapon(3662,0,0,1,false)
 EndEventProcessing()
 0()
EndIf()
If(1,11,0,51,0)
 ChangeInventoryWeapon(3663,0,0,1,false)
 EndEventProcessing()
 0()
EndIf()
If(1,11,0,52,0)
 ChangeInventoryWeapon(3664,0,0,1,false)
 EndEventProcessing()
 0()
EndIf()
If(1,11,0,53,0)
 ChangeInventoryWeapon(3665,0,0,1,false)
 EndEventProcessing()
 0()
EndIf()
If(1,11,0,54,0)
 ChangeInventoryWeapon(3666,0,0,1,false)
 EndEventProcessing()
 0()
EndIf()
0()
