// EVENT 4514
Name "Eva 4"

If(0,25,1)
 221()
 PictureClear(5)
 PictureClear(6)
 ShowMessageFace("",0,0,2,0)
 ShowMessage("......")
 242(2)
 Wait(120)
 241(bytes(0x04,0x08,0x6f,0x3a,0x0d,0x52,0x50,0x47,0x3a,0x3a,0x42,0x47,0x4d,0x08,0x3a,0x0a,0x40,0x6e,0x61,0x6d,0x65,0x49,0x22,0x0c,0x63,0x61,0x73,0x74,0x6c,0x65,0x36,0x06,0x3a,0x06,0x45,0x54,0x3a,0x0c,0x40,0x76,0x6f,0x6c,0x75,0x6d,0x65,0x69,0x69,0x3a,0x0b,0x40,0x70,0x69,0x74,0x63,0x68,0x69,0x69))
 EndEventProcessing()
 0()
EndIf()
PictureDisplay(5,"80_eva_st01",0,0,0,0,100,100,255,0)
ShowMessageFace("eva_fc1",0,0,2,1)
ShowMessage("\\n<Eva>Whaat? You want to do things with my armpit...?\nThat's a strange fetish you have...")
ShowMessageFace("",0,0,2,2)
ShowMessage("\\n<Luka>P-please...")
PictureDisplay(5,"80_eva_st02",0,0,0,0,100,100,255,0)
ShowMessageFace("eva_fc1",1,0,2,3)
ShowMessage("\\n<Eva>Fufu, look at you, asking your ally for something like that.\nAll right, I'll make you feel amazing...")
ShowMessageFace("",0,0,2,4)
ShowMessage("I follow Eva to her room...")
PictureDisplay(1,"bg195",0,0,0,0,100,100,255,0)
PictureDisplay(5,"80_eva_st02",0,0,0,0,100,100,255,0)
222()
241(bytes(0x04,0x08,0x6f,0x3a,0x0d,0x52,0x50,0x47,0x3a,0x3a,0x42,0x47,0x4d,0x08,0x3a,0x0a,0x40,0x6e,0x61,0x6d,0x65,0x49,0x22,0x09,0x65,0x72,0x6f,0x31,0x06,0x3a,0x06,0x45,0x54,0x3a,0x0c,0x40,0x76,0x6f,0x6c,0x75,0x6d,0x65,0x69,0x69,0x3a,0x0b,0x40,0x70,0x69,0x74,0x63,0x68,0x69,0x69))
ShowMessageFace("eva_fc1",1,0,2,5)
ShowMessage("\\n<Eva>All right, I'll give you pleasure...")
245(bytes(0x04,0x08,0x6f,0x3a,0x0d,0x52,0x50,0x47,0x3a,0x3a,0x42,0x47,0x53,0x08,0x3a,0x0a,0x40,0x6e,0x61,0x6d,0x65,0x49,0x22,0x17,0x6d,0x6f,0x6e,0x5f,0x68,0x73,0x65,0x61,0x6e,0x31,0x37,0x5f,0x73,0x69,0x67,0x6f,0x6b,0x69,0x06,0x3a,0x06,0x45,0x54,0x3a,0x0c,0x40,0x76,0x6f,0x6c,0x75,0x6d,0x65,0x69,0x55,0x3a,0x0b,0x40,0x70,0x69,0x74,0x63,0x68,0x69,0x69))
PictureDisplay(5,"ev_eva_ct21",0,0,0,0,100,100,0,0)
PictureMove(5,null,0,0,0,0,100,100,255,0,30,true)
ShowMessageFace("",0,0,2,6)
ShowMessage("Eva crouches and puts my penis inside her armpit.")
ShowMessage("A soft touch tightens my penis.")
ShowMessageFace("",0,0,2,7)
ShowMessage("\\n<Luka>Auuu...")
ShowMessageFace("eva_fc1",1,0,2,8)
ShowMessage("\\n<Eva>Fufu, it feels good even in my armpit?\nYou can try to endure it... but it will be impossible.")
ShowMessageFace("",0,0,2,9)
ShowMessage("While giggling, Eva starts moving her forearm.")
ShowMessage("At times she squeezes my penis in her armpit...")
ShowMessageFace("",0,0,2,10)
ShowMessage("\\n<Luka>Ah, aaah...!")
ShowMessageFace("",0,0,2,11)
ShowMessage("Eva's armpit is plump and soft.")
ShowMessage("Her squeezing my penis with her bare skin feels good.")
ShowMessageFace("",0,0,2,12)
ShowMessage("Her armpits are also a bit sweaty...")
ShowMessage("Caught in her armpit in a steady rhythm feels heavenly.")
ShowMessageFace("",0,0,2,13)
ShowMessage("\\n<Luka>D-don't... Hnnngh...!")
ShowMessageFace("eva_fc1",1,0,2,14)
ShowMessage("\\n<Eva>What, moaning already...?\nThen I'll make you come.")
ShowMessageFace("",0,0,2,15)
ShowMessage("All of a sudden, Eva moves her arm faster.")
ShowMessage("She moves her forearm back and forth crushing my penis in her armpit...")
ShowMessageFace("",0,0,2,16)
ShowMessage("\\n<Luka>Ah, aaaaaah!!")
ShowMessageFace("",0,0,2,17)
ShowMessage("I let out a moan of surprise from the intense stimulation.")
ShowMessage("Eva is trying to force me to come...")
ShowMessageFace("eva_fc1",1,0,2,18)
ShowMessage("\\n<Eva>Hoo~ra go, ahead...\nGive my armpit plenty of your semen...")
ShowMessageFace("",0,0,2,19)
ShowMessage("\\n<Luka>No... Coming...\nAh, aaaaaah!!")
RunCommonEvent(104)
PictureDisplay(5,"ev_eva_ct22",0,0,0,0,100,100,255,0)
RunCommonEvent(105)
ShowMessageFace("",0,0,2,20)
ShowMessage("With her intense stimulation, I come disappointingly fast.")
ShowMessage("My penis pulsates in her warm armpit and my semen gushes out...")
ShowMessageFace("",0,0,2,21)
ShowMessage("\\n<Luka>Nnngh...")
ShowMessageFace("",0,0,2,22)
ShowMessage("I bathe in the sweet feeling of release as she squeezes out my semen down till the last drop.")
ShowMessage("I've dirtied Eva's armpit with my semen...")
ShowMessageFace("eva_fc1",1,0,2,23)
ShowMessage("\\n<Eva>Haha, an instant kill.\nBut I'm not done yet, I'll show you much more pleasure than this...")
ShowMessageFace("",0,0,2,24)
ShowMessage("\\n<Luka>N...no way... Aaaaaah!!")
ShowMessageFace("",0,0,2,25)
ShowMessage("The relentless squeezing hits my penis right after I finish ejaculating.")
ShowMessage("Eva resumes her torture and crushes my penis in her armpit.")
ShowMessageFace("",0,0,2,26)
ShowMessage("She rubs and crushes my penis with her armpit...")
ShowMessage("With no time to rest she relentlessly assaults me right after I came.")
ShowMessageFace("",0,0,2,27)
ShowMessage("\\n<Luka>Hyaaa...! Th...that...!!\nIntense... Aaaaaah!!")
ShowMessageFace("eva_fc1",1,0,2,28)
ShowMessage("\\n<Eva>Fufu, I won't hold back any longer.\nShoot out your miserable sperm...!")
ShowMessageFace("",0,0,2,29)
ShowMessage("\\n<Luka>Ah, ah, aaaaaah!!")
ShowMessageFace("",0,0,2,30)
ShowMessage("An unforgiving and merciless stimulation.")
ShowMessage("I can't endure her armpit stimulation...")
RunCommonEvent(104)
PictureDisplay(5,"ev_eva_ct23",0,0,0,0,100,100,255,0)
RunCommonEvent(105)
ShowMessageFace("",0,0,2,31)
ShowMessage("\\n<Luka>Aaaaah...")
ShowMessageFace("",0,0,2,32)
ShowMessage("I came easily in Eva's armpit for a second time.")
ShowMessage("However, I have no time to feel defeat and humiliation...")
ShowMessageFace("eva_fc1",1,0,2,33)
ShowMessage("\\n<Eva>I want more...\nCry out in your pathetic voice and shoot out your semen...")
ShowMessageFace("",0,0,2,34)
ShowMessage("\\n<Luka>Ah, aaaaaah!!")
ShowMessageFace("",0,0,2,35)
ShowMessage("Another cry escapes my mouth as Eva violently dominates me with her armpit.")
ShowMessage("She keep rubbing my penis with her semen stained armpit...")
RunCommonEvent(104)
PictureDisplay(5,"ev_eva_ct24",0,0,0,0,100,100,255,0)
RunCommonEvent(105)
ShowMessageFace("",0,0,2,36)
ShowMessage("Forced to ejaculate yet again, my semen shoots everywhere.")
ShowMessage("Eva's side is covered in my semen...")
246(2)
ShowMessageFace("",0,0,2,37)
ShowMessage("\\n<Luka>Ah, aaah...")
ShowMessageFace("",0,0,2,38)
ShowMessage("Feeling my consciousness fading, I have no energy left to move.")
ShowMessage("Three consecutive ejaculations took a toll on my body.")
ShowMessageFace("eva_fc1",1,0,2,39)
ShowMessage("\\n<Eva>You got weak so fast...\nThat's because you're a premature ejaculator.")
ShowMessageFace("eva_fc1",1,0,2,40)
ShowMessage("\\n<Eva>Your life will be in danger if I went any further.\nI'll stop here for today.")
ShowMessageFace("",0,0,2,41)
ShowMessage("Eva looks down at me with a glint in her eyes.")
ShowMessage("I was completely dominated by a Succubus...")
221()
PictureClear(5)
PictureClear(6)
246(2)
ShowMessageFace("",0,0,2,42)
ShowMessage("......")
242(2)
Wait(120)
241(bytes(0x04,0x08,0x6f,0x3a,0x0d,0x52,0x50,0x47,0x3a,0x3a,0x42,0x47,0x4d,0x08,0x3a,0x0a,0x40,0x6e,0x61,0x6d,0x65,0x49,0x22,0x0c,0x63,0x61,0x73,0x74,0x6c,0x65,0x36,0x06,0x3a,0x06,0x45,0x54,0x3a,0x0c,0x40,0x76,0x6f,0x6c,0x75,0x6d,0x65,0x69,0x69,0x3a,0x0b,0x40,0x70,0x69,0x74,0x63,0x68,0x69,0x69))
0()
