﻿// EVENT 5596
Name "Trinity 1"

PictureDisplay(5,"80_trinity_st02",0,0,0,0,100,100,0,0)
PictureDisplay(6,"80_trinity_st12",0,0,0,0,100,100,0,0)
PictureDisplay(7,"80_trinity_st22",0,0,0,0,100,100,0,0)
PictureMove(5,null,0,0,0,0,100,100,255,0,30,false)
PictureMove(6,null,0,0,0,0,100,100,255,0,30,false)
PictureMove(7,null,0,0,0,0,100,100,255,0,30,true)
ShowMessageFace("",0,0,2,1)
ShowMessage("\\n<Luka>")
ShowMessage("P-please...")
ShowMessageFace("",0,0,2,2)
ShowMessage("The three angels give a gentle smile to my request.")
ShowMessageFace("trinity_fc1",1,0,2,3)
ShowMessage("\\n<Trinity A>")
ShowMessage("You wish to taste joy with us...")
ShowMessage("Very well, we shall allow you the gratification.")
241(bytes(0x04,0x08,0x6f,0x3a,0x0d,0x52,0x50,0x47,0x3a,0x3a,0x42,0x47,0x4d,0x08,0x3a,0x0a,0x40,0x6e,0x61,0x6d,0x65,0x49,0x22,0x09,0x65,0x72,0x6f,0x31,0x06,0x3a,0x06,0x45,0x54,0x3a,0x0c,0x40,0x76,0x6f,0x6c,0x75,0x6d,0x65,0x69,0x69,0x3a,0x0b,0x40,0x70,0x69,0x74,0x63,0x68,0x69,0x69))
PictureClear(7)
PictureDisplay(5,"ev_trinity_ha1",0,0,0,0,100,100,255,0)
PictureDisplay(6,"ev_trinity_ct01",0,0,0,0,100,100,255,0)
ShowMessageFace("",0,0,2,4)
ShowMessage("Two of the Trinities embrace my body.")
ShowMessage("As my movements get sealed, an angel approaches exposing her breasts...")
ShowMessageFace("trinity_fc1",1,0,2,5)
ShowMessage("\\n<Trinity A>")
ShowMessage("I have ascended over a hundred men with these breasts.")
ShowMessage("And they shall guide you to heaven as well...")
ShowMessageFace("",0,0,2,6)
ShowMessage("\\n<Luka>")
ShowMessage("A-aaaah...")
245(bytes(0x04,0x08,0x6f,0x3a,0x0d,0x52,0x50,0x47,0x3a,0x3a,0x42,0x47,0x53,0x08,0x3a,0x0a,0x40,0x6e,0x61,0x6d,0x65,0x49,0x22,0x17,0x6d,0x6f,0x6e,0x5f,0x68,0x73,0x65,0x61,0x6e,0x31,0x37,0x5f,0x73,0x69,0x67,0x6f,0x6b,0x69,0x06,0x3a,0x06,0x45,0x54,0x3a,0x0c,0x40,0x76,0x6f,0x6c,0x75,0x6d,0x65,0x69,0x55,0x3a,0x0b,0x40,0x70,0x69,0x74,0x63,0x68,0x69,0x69))
PictureDisplay(5,"ev_trinity_ha2",0,0,0,0,100,100,255,0)
PictureDisplay(6,"ev_trinity_ct02",0,0,0,0,100,100,255,0)
ShowMessageFace("",0,0,2,7)
ShowMessage("Trinity A inserts my penis between her breasts as if trying to conceal it.")
ShowMessage("My meat rod is buried in her soft chest...")
ShowMessageFace("",0,0,2,8)
ShowMessage("\\n<Luka>")
ShowMessage("Hauuuu...!")
ShowMessageFace("",0,0,2,9)
ShowMessage("That heavenly warmth and softness take over my senses instantly.")
ShowMessage("I begin to lose control of body and mind with that insertion alone.")
ShowMessageFace("trinity_fc2",1,0,2,10)
ShowMessage("\\n<Trinity B>")
ShowMessage("Fufu... you look like you're in paradise already.")
ShowMessageFace("trinity_fc3",1,0,2,11)
ShowMessage("\\n<Trinity C>")
ShowMessage("Make sure to fully savor this joy...")
ShowMessageFace("",0,0,2,12)
ShowMessage("The angels chuckle at the sight of my face.")
ShowMessageFace("trinity_fc1",1,0,2,13)
ShowMessage("\\n<Trinity A>")
ShowMessage("On top of this pleasant stimulation...")
ShowMessage("I shall cover you with my saliva...")
ShowMessageFace("",0,0,2,14)
ShowMessage("\\n<Luka>")
ShowMessage("A-aaaah...")
PictureDisplay(5,"ev_trinity_ha3",0,0,0,0,100,100,255,0)
PictureDisplay(6,"ev_trinity_ct03",0,0,0,0,100,100,255,0)
ShowMessageFace("",0,0,2,15)
ShowMessage("Trinity A covers my penis in saliva.")
ShowMessage("My meat rod is enchanted with this licking sensation...")
ShowMessageFace("",0,0,2,16)
ShowMessage("\\n<Luka>")
ShowMessage("Hauuu...")
ShowMessageFace("trinity_fc1",1,0,2,17)
ShowMessage("\\n<Trinity A>")
ShowMessage("With this, preparations are complete.")
ShowMessage("From now on, your journey into paradise begins...")
PictureDisplay(5,"ev_trinity_ha4",0,0,0,0,100,100,255,0)
PictureDisplay(6,"ev_trinity_ct04",0,0,0,0,100,100,255,0)
ShowMessageFace("",0,0,2,18)
ShowMessage("And then, Trinity A begins moving her breasts.")
ShowMessage("My penis receives gentle stimulation from the movements...")
ShowMessageFace("",0,0,2,19)
ShowMessage("\\n<Luka>")
ShowMessage("Hauuuu...!!")
ShowMessageFace("",0,0,2,20)
ShowMessage("This pleasant sensation makes my hips tremble.")
ShowMessage("When my body springs up from pleasure, it's pinned down by the two angels.")
ShowMessageFace("trinity_fc2",1,0,2,21)
ShowMessage("\\n<Trinity B>")
ShowMessage("You sure are sensitive, ufufu...")
ShowMessageFace("trinity_fc3",1,0,2,22)
ShowMessage("\\n<Trinity C>")
ShowMessage("At this rate you'll be finished soon...")
ShowMessageFace("trinity_fc1",1,0,2,23)
ShowMessage("\\n<Trinity A>")
ShowMessage("In that case, I will pleasure you slower from now on.")
ShowMessage("That way we can enjoy this thoroughly without rush...")
ShowMessageFace("",0,0,2,24)
ShowMessage("\\n<Luka>")
ShowMessage("Hauuuu...")
ShowMessageFace("",0,0,2,25)
ShowMessage("Trinity A gradually applies pressure on my penis from the sides.")
ShowMessage("I tremble involuntarily at the stimulation from her technique.")
ShowMessageFace("",0,0,2,26)
ShowMessage("I look half-dead.")
ShowMessage("I want her to be more intense and finish me off in one go...")
ShowMessageFace("",0,0,2,27)
ShowMessage("\\n<Luka>")
ShowMessage("Hauu...more...intense...")
ShowMessageFace("trinity_fc1",1,0,2,28)
ShowMessage("\\n<Trinity A>")
ShowMessage("You wish for a stronger stimulation? Well then, lets get a bit more intense.")
ShowMessage("How's this?")
ShowMessageFace("",0,0,2,29)
ShowMessage("Trinity A pushes my penis around by moving her breasts up, down and sideways simultaneously.")
ShowMessage("My meat rod is flattened and stroked by the soft skin...")
ShowMessageFace("",0,0,2,30)
ShowMessage("\\n<Luka>")
ShowMessage("A-amazing! Hauuuu...!!")
ShowMessageFace("trinity_fc2",1,0,2,31)
ShowMessage("\\n<Trinity B>")
ShowMessage("Ara ara, trembling like that...")
ShowMessageFace("trinity_fc3",1,0,2,32)
ShowMessage("\\n<Trinity C>")
ShowMessage("He is close to his limit.")
ShowMessage("Seems to be feeling really good...")
ShowMessageFace("trinity_fc1",1,0,2,33)
ShowMessage("\\n<Trinity A>")
ShowMessage("You can finish whenever you like.")
ShowMessage("Go on, dirty these breasts with your semen...")
ShowMessageFace("",0,0,2,34)
ShowMessage("Trinity A massages my penis with the bounce of her breasts.")
ShowMessage("The pleasure of her whole chest moving up and down becomes my ascension into paradise...")
ShowMessageFace("",0,0,2,35)
ShowMessage("\\n<Luka>")
ShowMessage("A-aaaah...")
RunCommonEvent(104)
PictureDisplay(5,"ev_trinity_ha5",0,0,0,0,100,100,255,0)
PictureDisplay(6,"ev_trinity_ct05",0,0,0,0,100,100,255,0)
RunCommonEvent(105)
ShowMessageFace("",0,0,2,36)
ShowMessage("Semen shoots out from my penis in large amounts.")
ShowMessage("It dirties Trinity's beautiful breasts...")
ShowMessageFace("",0,0,2,37)
ShowMessage("\\n<Luka>")
ShowMessage("Auuuu...")
ShowMessageFace("",0,0,2,38)
ShowMessage("\\n<Trinity A>")
ShowMessage("Did that feel good...?")
ShowMessage("You shall taste my softness even more...")
PictureDisplay(6,"ev_trinity_ct06",0,0,0,0,100,100,255,0)
ShowMessageFace("",0,0,2,39)
ShowMessage("Trinity tightly presses her breasts together against my penis...")
ShowMessage("Putting strength on both her arms to apply pressure on it.")
ShowMessageFace("",0,0,2,40)
ShowMessage("I can only tremble as my still sensitive penis receives this punishment.")
ShowMessage("My body is forced into trembling at this heavenly bliss...")
ShowMessageFace("",0,0,2,41)
ShowMessage("\\n<Luka>")
ShowMessage("Hauu... it feels so good...")
ShowMessageFace("trinity_fc2",1,0,2,42)
ShowMessage("\\n<Trinity B>")
ShowMessage("You are being so obedient...")
ShowMessageFace("trinity_fc3",1,0,2,43)
ShowMessage("\\n<Trinity C>")
ShowMessage("If you continue like that, you can be taken into paradise...")
ShowMessageFace("",0,0,2,44)
ShowMessage("Trinity A continues to pleasure my penis by pressing her softness against it.")
ShowMessage("Her smooth and warm skin rubbing against my meat rod.")
ShowMessageFace("",0,0,2,45)
ShowMessage("In moments I'm immersed in ecstasy.")
ShowMessage("My manhood under her breasts' custody forces me to surrender myself completely...")
ShowMessageFace("",0,0,2,46)
ShowMessage("\\n<Luka>")
ShowMessage("Hauuu... I'm coming again...")
ShowMessageFace("trinity_fc1",1,0,2,47)
ShowMessage("\\n<Trinity A>")
ShowMessage("Do not oppose the pleasure, accept it all...")
ShowMessage("Hoora, you can let my breasts handle your climax...")
ShowMessageFace("",0,0,2,48)
ShowMessage("The pressure from her breasts gradually increase.")
ShowMessage("My manhood gets gently crushed at the center of her chest...")
ShowMessageFace("",0,0,2,49)
ShowMessage("\\n<Luka>")
ShowMessage("I-I'm...faaaa...")
RunCommonEvent(104)
PictureDisplay(5,"ev_trinity_ha6",0,0,0,0,100,100,255,0)
RunCommonEvent(105)
ShowMessageFace("",0,0,2,50)
ShowMessage("With both body and mind entranced, I am driven to my limit.")
ShowMessage("Semen steadily flows from between Trinity A's chest...")
ShowMessageFace("trinity_fc1",1,0,2,51)
ShowMessage("\\n<Trinity A>")
ShowMessage("That was a lot...")
ShowMessage("I can extract your semen with my breasts as many times as you wish...")
ShowMessageFace("",0,0,2,52)
ShowMessage("\\n<Luka>")
ShowMessage("Hauu... A-aaaaah...")
PictureDisplay(6,"ev_trinity_ct07",0,0,0,0,100,100,255,0)
ShowMessageFace("",0,0,2,53)
ShowMessage("Trinity A alternates between moving her left and right breast.")
ShowMessage("Her tender chest, kneading my penis, renews my erection...")
ShowMessageFace("",0,0,2,54)
ShowMessage("\\n<Luka>")
ShowMessage("Faa... amazing...")
ShowMessageFace("trinity_fc2",1,0,2,55)
ShowMessage("\\n<Trinity B>")
ShowMessage("Drown in bliss...")
ShowMessageFace("trinity_fc3",1,0,2,56)
ShowMessage("\\n<Trinity C>")
ShowMessage("And become a slave to pleasure.")
ShowMessageFace("",0,0,2,57)
ShowMessage("Trinity A continues to violate me with the movement of her lovely breasts.")
ShowMessage("The tender meat covering my penis gently tightens around it...")
ShowMessageFace("",0,0,2,58)
ShowMessage("My penis is kneaded by the alternating motion...")
ShowMessage("This sophisticated massage proves she is more than just beautiful...")
ShowMessageFace("",0,0,2,59)
ShowMessage("Even my head goes blank at Trinity's blissful technique.")
ShowMessage("My body shivers while ecstatically drowning in pleasure...")
ShowMessageFace("",0,0,2,60)
ShowMessage("\\n<Luka>")
ShowMessage("Faaaaaa...")
RunCommonEvent(104)
PictureDisplay(6,"ev_trinity_ct08",0,0,0,0,100,100,255,0)
RunCommonEvent(105)
246(2)
ShowMessageFace("",0,0,2,61)
ShowMessage("With mind and body in total disorder, I reach my limit.")
ShowMessage("It feels as if I have ascended...")
ShowMessageFace("",0,0,2,62)
ShowMessage("\\n<Luka>")
ShowMessage("Hauuu...")
ShowMessageFace("trinity_fc1",1,0,2,63)
ShowMessage("\\n<Trinity A>")
ShowMessage("Fufu, did that feel good?")
ShowMessage("My breasts are covered with your answer...")
ShowMessageFace("trinity_fc2",1,0,2,64)
ShowMessage("\\n<Trinity B>")
ShowMessage("His head seems to be in the clouds.")
ShowMessage("Hehe... he is shaking like a newborn fawn...")
ShowMessageFace("trinity_fc3",1,0,2,65)
ShowMessage("\\n<Trinity C>")
ShowMessage("This is the pleasure of ascension...")
ShowMessage("Should you wish to taste it again, make sure to ask us.")
ShowMessageFace("",0,0,2,66)
ShowMessage("The Trinities holding me chuckle among themselves.")
ShowMessage("As I receive their blessing, my body begins to relax...")
221()
PictureClear(5)
PictureClear(6)
ShowMessageFace("",0,0,2,67)
ShowMessage("・・・・・・・・")
RunCommonEvent(3998)
0()
