// EVENT 4131
Name "Vampire Girl 1"

If(0,25,1)
 221()
 PictureClear(5)
 PictureClear(6)
 ShowMessageFace("",0,0,2,0)
 ShowMessage("......")
 242(2)
 Wait(120)
 241(bytes(0x04,0x08,0x6f,0x3a,0x0d,0x52,0x50,0x47,0x3a,0x3a,0x42,0x47,0x4d,0x08,0x3a,0x0a,0x40,0x6e,0x61,0x6d,0x65,0x49,0x22,0x0c,0x63,0x61,0x73,0x74,0x6c,0x65,0x36,0x06,0x3a,0x06,0x45,0x54,0x3a,0x0c,0x40,0x76,0x6f,0x6c,0x75,0x6d,0x65,0x69,0x69,0x3a,0x0b,0x40,0x70,0x69,0x74,0x63,0x68,0x69,0x69))
 EndEventProcessing()
 0()
EndIf()
PictureDisplay(5,"80_vgirl_st01",0,0,0,0,100,100,255,0)
ShowMessageFace("vgirl_fc1",0,0,2,1)
ShowMessage("\\n<Vanilla>What? You ask me to lick your dick?")
ShowMessageFace("",0,0,2,2)
ShowMessage("\\n<Luka>P... Please...")
ShowMessageFace("vgirl_fc1",1,0,2,3)
ShowMessage("\\n<Vanilla>Kuku, you have no shame asking that to your companions.\nThen, follow me to my room...")
ShowMessageFace("",0,0,2,4)
ShowMessage("And this is how I was invited to Vanilla's room...")
221()
PictureDisplay(1,"bg195",0,0,0,0,100,100,255,0)
PictureDisplay(6,"ev_vgirl_ct01",0,0,0,0,100,100,255,0)
222()
241(bytes(0x04,0x08,0x6f,0x3a,0x0d,0x52,0x50,0x47,0x3a,0x3a,0x42,0x47,0x4d,0x08,0x3a,0x0a,0x40,0x6e,0x61,0x6d,0x65,0x49,0x22,0x09,0x65,0x72,0x6f,0x31,0x06,0x3a,0x06,0x45,0x54,0x3a,0x0c,0x40,0x76,0x6f,0x6c,0x75,0x6d,0x65,0x69,0x69,0x3a,0x0b,0x40,0x70,0x69,0x74,0x63,0x68,0x69,0x69))
ShowMessageFace("vgirl_fc1",1,0,2,5)
ShowMessage("\\n<Vanilla>Kuku, this is what you wanted, right?\nYou should be ashamed...")
ShowMessageFace("",0,0,2,6)
ShowMessage("Vanilla bends her hips, and lightly crawls her tongue on my thing...")
ShowMessage("She then eats the tip!")
ShowMessageFace("",0,0,2,7)
ShowMessage("\\n<Luka>A, auuuuuu...!")
245(bytes(0x04,0x08,0x6f,0x3a,0x0d,0x52,0x50,0x47,0x3a,0x3a,0x42,0x47,0x53,0x08,0x3a,0x0a,0x40,0x6e,0x61,0x6d,0x65,0x49,0x22,0x10,0x6d,0x6f,0x6e,0x5f,0x68,0x76,0x6f,0x69,0x63,0x65,0x31,0x06,0x3a,0x06,0x45,0x54,0x3a,0x0c,0x40,0x76,0x6f,0x6c,0x75,0x6d,0x65,0x69,0x55,0x3a,0x0b,0x40,0x70,0x69,0x74,0x63,0x68,0x69,0x69))
PictureDisplay(6,"ev_vgirl_ct02",0,0,0,0,100,100,255,0)
ShowMessageFace("vgirl_fc1",1,0,2,8)
ShowMessage("\\n<Vanilla>Mmm... Delicious.\n*Lick* *Lick*")
ShowMessageFace("",0,0,2,9)
ShowMessage("Vanilla gulps my glans, and wets it by licking every part.")
ShowMessage("Even the overflowing precum is thoroughly licked away by her tongue...")
ShowMessageFace("",0,0,2,10)
ShowMessage("\\n<Luka>Faaaa!")
ShowMessageFace("",0,0,2,11)
ShowMessage("I start to writhe as she licks me.")
ShowMessageFace("vgirl_fc1",1,0,2,12)
ShowMessage("\\n<Vanilla>More... I want to taste more...\n*Sluuuuuuurp*")
245(bytes(0x04,0x08,0x6f,0x3a,0x0d,0x52,0x50,0x47,0x3a,0x3a,0x42,0x47,0x53,0x08,0x3a,0x0a,0x40,0x6e,0x61,0x6d,0x65,0x49,0x22,0x10,0x6d,0x6f,0x6e,0x5f,0x68,0x76,0x6f,0x69,0x63,0x65,0x33,0x06,0x3a,0x06,0x45,0x54,0x3a,0x0c,0x40,0x76,0x6f,0x6c,0x75,0x6d,0x65,0x69,0x55,0x3a,0x0b,0x40,0x70,0x69,0x74,0x63,0x68,0x69,0x69))
ShowMessageFace("",0,0,2,13)
ShowMessage("\\n<Luka>Haa... Ahh... Amazing...")
ShowMessageFace("",0,0,2,14)
ShowMessage("The vampire's tiny mouth is sucking on my dick as if she is savoring a piece of candy, as opposed to trying to give me pleasure.")
ShowMessageFace("",0,0,2,15)
ShowMessage("Her merciless mouth stimulating me, it feels like I'm starting to melt.")
ShowMessageFace("vgirl_fc1",1,0,2,16)
ShowMessage("\\n<Vanilla>Mmmm... *Slurp*")
ShowMessageFace("",0,0,2,17)
ShowMessage("\\n<Luka>Don't tell me you are sucking my energy...\nA, aaaaaa...!")
ShowMessageFace("",0,0,2,18)
ShowMessage("It seems Vanilla is sucking my energy through my penis.")
ShowMessage("While my strength slowly fade from my body, my legs start to shiver...")
ShowMessageFace("",0,0,2,19)
ShowMessage("Each lick inside her tiny mouth seems to be draining my energy.")
ShowMessage("Each caress of her tongue causes a strange pleasure to spread through my groin.")
ShowMessageFace("",0,0,2,20)
ShowMessage("Separate from the sexual pleasure, this foreign ecstasy starts to overpower me.")
ShowMessageFace("",0,0,2,21)
ShowMessage("\\n<Luka>Hyaaaaa...!\nIf you do that... I'll come...")
ShowMessageFace("vgirl_fc1",1,0,2,22)
ShowMessage("\\n<Vanilla>Haha... It's all right... Let it out!\n*Lick* *Sluuuurp*")
ShowMessageFace("",0,0,2,23)
ShowMessage("\\n<Luka>Ahh... It's leaking out...!\nAhhhh!")
ShowMessageFace("",0,0,2,24)
ShowMessage("Being violently caressed by her tongue, my resistance vanishes.")
RunCommonEvent(104)
PictureDisplay(6,"ev_vgirl_ct03",0,0,0,0,100,100,255,0)
RunCommonEvent(105)
ShowMessageFace("",0,0,2,25)
ShowMessage("I sadly climaxed from the oral skills of Vanilla.")
ShowMessageFace("vgirl_fc1",1,0,2,26)
ShowMessage("\\n<Vanilla>Mmmm... *Lick* *Slurp*")
ShowMessageFace("",0,0,2,27)
ShowMessage("\\n<Luka>Ahhii! Don't lick my tip like that...")
ShowMessageFace("",0,0,2,28)
ShowMessage("As I orgasm, the vampire's tongue flicks the tip of my penis.")
ShowMessageFace("",0,0,2,29)
ShowMessage("Still sensitive after coming, she sticks the tip of her tongue into my urethra to lick out all of my sperm.")
ShowMessageFace("vgirl_fc1",1,0,2,30)
ShowMessage("\\n<Vanilla>*Lick* *Lick*")
ShowMessageFace("",0,0,2,31)
ShowMessage("\\n<Luka>Haaaaa!")
ShowMessageFace("",0,0,2,32)
ShowMessage("Having both my semen and my energy being sucked by the vampire, she continues to play with my dick inside her mouth.")
ShowMessageFace("",0,0,2,33)
ShowMessage("No matter how much I writhe, she doesn't release her hold on me.")
PictureDisplay(6,"ev_vgirl_ct04",0,0,0,0,100,100,255,0)
ShowMessageFace("vgirl_fc1",1,0,2,34)
ShowMessage("\\n<Vanilla>More... More... You need to come more!\n*Lick* *Slurp* Delicious!")
ShowMessageFace("",0,0,2,35)
ShowMessage("\\n<Luka>Stop or... I'll come again...")
245(bytes(0x04,0x08,0x6f,0x3a,0x0d,0x52,0x50,0x47,0x3a,0x3a,0x42,0x47,0x53,0x08,0x3a,0x0a,0x40,0x6e,0x61,0x6d,0x65,0x49,0x22,0x10,0x6d,0x6f,0x6e,0x5f,0x68,0x76,0x6f,0x69,0x63,0x65,0x34,0x06,0x3a,0x06,0x45,0x54,0x3a,0x0c,0x40,0x76,0x6f,0x6c,0x75,0x6d,0x65,0x69,0x55,0x3a,0x0b,0x40,0x70,0x69,0x74,0x63,0x68,0x69,0x69))
ShowMessageFace("vgirl_fc1",1,0,2,36)
ShowMessage("\\n<Vanilla>*Lick* *Slurp*")
ShowMessageFace("",0,0,2,37)
ShowMessage("\\n<Luka>Aaaahhhh!")
RunCommonEvent(104)
PictureDisplay(6,"ev_vgirl_ct05",0,0,0,0,100,100,255,0)
RunCommonEvent(105)
ShowMessageFace("vgirl_fc1",1,0,2,38)
ShowMessage("\\n<Vanilla>*Lick* *Lick* *Slurp*")
ShowMessageFace("",0,0,2,39)
ShowMessage("Licking up everything I let out, the tiny vampire's tongue never lets up her violent assault.")
ShowMessageFace("",0,0,2,40)
ShowMessage("My energy and my semen...")
ShowMessage("This girl is sucking everything from me...")
ShowMessageFace("",0,0,2,42)
ShowMessage("\\n<Luka>Ahhhh...")
ShowMessageFace("",0,0,2,43)
ShowMessage("Drained of all my power, I can't even lift a finger anymore.")
ShowMessage("Exhausted, my vision starts to go black.")
ShowMessageFace("vgirl_fc1",1,0,2,44)
ShowMessage("\\n<Vanilla>*Lick* *Lick* *Slurp*")
ShowMessageFace("",0,0,2,45)
ShowMessage("\\n<Luka>Aa....a....a...")
RunCommonEvent(104)
PictureDisplay(6,"ev_vgirl_ct06",0,0,0,0,100,100,255,0)
RunCommonEvent(105)
ShowMessageFace("",0,0,2,46)
ShowMessage("As Vanilla releases me, I lose consciousness.")
221()
PictureClear(5)
PictureClear(6)
246(2)
ShowMessageFace("vgirl_fc1",2,0,2,47)
ShowMessage("\\n<Vanilla>It seems I sucked too much...\nI will carry you to the entrance so that nobody notices...")
ShowMessageFace("",0,0,2,48)
ShowMessage("Due to my neglectful request, my energy was sucked until I fainted.")
ShowMessage("While I was unconscious, she transfered me into the hall...")
ShowMessageFace("",0,0,2,49)
ShowMessage("..............")
242(2)
Wait(120)
241(bytes(0x04,0x08,0x6f,0x3a,0x0d,0x52,0x50,0x47,0x3a,0x3a,0x42,0x47,0x4d,0x08,0x3a,0x0a,0x40,0x6e,0x61,0x6d,0x65,0x49,0x22,0x0c,0x63,0x61,0x73,0x74,0x6c,0x65,0x36,0x06,0x3a,0x06,0x45,0x54,0x3a,0x0c,0x40,0x76,0x6f,0x6c,0x75,0x6d,0x65,0x69,0x69,0x3a,0x0b,0x40,0x70,0x69,0x74,0x63,0x68,0x69,0x69))
0()
