// EVENT 3180
Name "High Minotauros"

PictureDisplay(5,"80_h_mino_st01",0,0,0,0,100,100,0,0)
PictureMove(5,null,0,0,0,0,100,100,255,0,30,true)
241(bytes(0x04,0x08,0x6f,0x3a,0x0d,0x52,0x50,0x47,0x3a,0x3a,0x42,0x47,0x4d,0x08,0x3a,0x0a,0x40,0x6e,0x61,0x6d,0x65,0x49,0x22,0x09,0x65,0x72,0x6f,0x31,0x06,0x3a,0x06,0x45,0x54,0x3a,0x0c,0x40,0x76,0x6f,0x6c,0x75,0x6d,0x65,0x69,0x69,0x3a,0x0b,0x40,0x70,0x69,0x74,0x63,0x68,0x69,0x69))
ShowMessageFace("",0,0,2,1)
ShowMessage("\\n<Luka>Auu...")
ShowMessageFace("h_mino_fc1",0,0,2,2)
ShowMessage("\\n<High Minotauros>")
ShowMessage("Ufufu, you did your best.")
ShowMessage("Your big sister will pamper you some...")
ShowMessageFace("",0,0,2,3)
ShowMessage("\\n<Luka>Eh...?")
ShowMessageFace("",0,0,2,4)
ShowMessage("The Minotauros gently undresses me.")
ShowMessage("Unable to resist, I'm left naked.")
ShowMessageFace("",0,0,2,5)
ShowMessage("The Minotauros strips off her own clothes and armor.")
ShowMessage("Holding me, she pulls me to her...")
PictureDisplay(5,"ev_h_mino_hb1",0,0,0,0,100,100,0,0)
PictureMove(5,null,0,0,0,0,100,100,255,0,30,true)
ShowMessageFace("h_mino_fc1",0,0,2,6)
ShowMessage("\\n<High Minotauros>")
ShowMessage("Now, come inside...")
ShowMessageFace("",0,0,2,7)
ShowMessage("\\n<Luka>Wait... Uwaaa!")
ShowMessageFace("",0,0,2,8)
ShowMessage("I embrace her plump body.")
ShowMessage("My already erect penis presses against her opening...")
ShowMessageFace("h_mino_fc1",0,0,2,9)
ShowMessage("\\n<High Minotauros>")
ShowMessage("Ufufu, you're already so big.")
ShowMessage("You can put it into your big sister here.")
ShowMessageFace("",0,0,2,10)
ShowMessage("\\n<Luka>Th-that's... I can't mate with a monster...")
ShowMessageFace("",0,0,2,11)
ShowMessage("Even though I say that, I can't shake the feeling of her soft female body.")
ShowMessage("Feeling her warm skin against mine... My male instinct is reacting.")
ShowMessageFace("h_mino_fc1",0,0,2,12)
ShowMessage("\\n<High Minotauros>")
ShowMessage("You want to have sex with your big sister, don't you...?")
ShowMessage("I'll make it nice and tight, so you feel good...")
ShowMessageFace("",0,0,2,13)
ShowMessage("\\n<Luka>I-I can't...")
ShowMessageFace("h_mino_fc1",0,0,2,14)
ShowMessage("\\n<High Minotauros>")
ShowMessage("So stubborn.")
ShowMessage("Then I'll help you out...")
PictureDisplay(5,"ev_h_mino_hb2",0,0,0,0,100,100,255,0)
ShowMessageFace("",0,0,2,15)
ShowMessage("One of her legs reaches around me.")
ShowMessage("Pressing against me, she uses her leg to push me closer.")
245(bytes(0x04,0x08,0x6f,0x3a,0x0d,0x52,0x50,0x47,0x3a,0x3a,0x42,0x47,0x53,0x08,0x3a,0x0a,0x40,0x6e,0x61,0x6d,0x65,0x49,0x22,0x1e,0x6d,0x6f,0x6e,0x5f,0x68,0x73,0x65,0x61,0x6e,0x30,0x34,0x5f,0x69,0x6e,0x6e,0x65,0x72,0x77,0x6f,0x72,0x6b,0x73,0x5f,0x61,0x34,0x06,0x3a,0x06,0x45,0x54,0x3a,0x0c,0x40,0x76,0x6f,0x6c,0x75,0x6d,0x65,0x69,0x55,0x3a,0x0b,0x40,0x70,0x69,0x74,0x63,0x68,0x69,0x69))
ShowMessageFace("",0,0,2,16)
ShowMessage("Forcing me against her, my glans presses against her slit.")
ShowMessage("Feeling it, I'm slowly sinking into her...")
ShowMessageFace("h_mino_fc1",0,0,2,17)
ShowMessage("\\n<High Minotauros>")
ShowMessage("Ufufu, welcome. ♪")
ShowMessageFace("",0,0,2,18)
ShowMessage("\\n<Luka>A-Ahhh...!")
ShowMessageFace("",0,0,2,19)
ShowMessage("Like a surprise attack, I'm suddenly inside her.")
ShowMessage("Her warm insides tighten, holding me firmly in her.")
ShowMessageFace("",0,0,2,20)
ShowMessage("\\n<Luka>A-Amazing... This feels...")
ShowMessageFace("",0,0,2,21)
ShowMessage("My waist trembles.")
ShowMessage("At the same time, I feel a numb pleasure rise up my back.")
RunCommonEvent(104)
PictureDisplay(5,"ev_h_mino_hb3",0,0,0,0,100,100,255,0)
RunCommonEvent(105)
ShowMessageFace("",0,0,2,22)
ShowMessage("In the next moment, I explode.")
ShowMessage("Feeling too good, I came everywhere.")
ShowMessageFace("h_mino_fc1",0,0,2,23)
ShowMessage("\\n<High Minotauros>")
ShowMessage("Arara, did you already come...?")
ShowMessageFace("",0,0,2,24)
ShowMessage("\\n<Luka>Uh... Uuuu...")
ShowMessageFace("",0,0,2,25)
ShowMessage("Her sweet tightness made me come so quickly.")
ShowMessage("My body was brought down in moments before that.")
ShowMessageFace("",0,0,2,26)
ShowMessage("The humiliation at my quick orgasm mixes with the pleasure of release.")
ShowMessage("My white semen slowly dribbles out of her vagina as I shiver...")
ShowMessageFace("h_mino_fc1",1,0,2,27)
ShowMessage("\\n<High Minotauros>")
ShowMessage("I'm sorry... Your big sister here made it too tight for you, it seems.")
ShowMessage("Even when not trying, a Minotauros's vagina is very tight, you know...")
ShowMessageFace("",0,0,2,28)
ShowMessage("\\n<Luka>.........")
ShowMessageFace("h_mino_fc1",0,0,2,29)
ShowMessage("\\n<High Minotauros>")
ShowMessage("Aw, don't make such a sad face.")
ShowMessage("Your big sister will still spoil you... Ok?")
PictureDisplay(5,"ev_h_mino_hb4",0,0,0,0,100,100,255,0)
ShowMessageFace("",0,0,2,30)
ShowMessage("The Minotauros gently hugs me.")
ShowMessage("She softly leads my face to her breast.")
ShowMessageFace("",0,0,2,31)
ShowMessage("Pressed against her, I sink into her soft boob.")
ShowMessage("Just feeling it drains the strength from my body.")
ShowMessageFace("h_mino_fc1",0,0,2,32)
ShowMessage("\\n<High Minotauros>")
ShowMessage("Your big sister's boobs are soft, isn't it?")
ShowMessage("Don't be shy, you can suck on them...")
ShowMessageFace("",0,0,2,33)
ShowMessage("\\n<Luka>Nnn... nnn...")
ShowMessageFace("",0,0,2,34)
ShowMessage("No longer resisting, I've completely lost.")
ShowMessage("Like a baby, I start sucking on her nipple.")
ShowMessageFace("h_mino_fc1",0,0,2,35)
ShowMessage("\\n<High Minotauros>")
ShowMessage("Ufufu, such intensity...")
ShowMessage("Such a cute boy...")
ShowMessageFace("",0,0,2,36)
ShowMessage("\\n<Luka>Nnnn... nnnnn...")
PictureDisplay(5,"ev_h_mino_hb5",0,0,0,0,100,100,255,0)
ShowMessageFace("",0,0,2,37)
ShowMessage("Suddenly a sweet, warm flavor fills my mouth.")
ShowMessage("Milk is flowing out of her nipples.")
ShowMessageFace("h_mino_fc1",0,0,2,38)
ShowMessage("\\n<High Minotauros>")
ShowMessage("Ufufu, you got my milk flowing.")
ShowMessage("You're sucking on my nipples like a baby, after all...")
ShowMessageFace("",0,0,2,39)
ShowMessage("\\n<Luka>Nnnn...")
ShowMessageFace("",0,0,2,40)
ShowMessage("The taste of her milk seduces me.")
ShowMessage("With all of my heart, I suck on her nipple, desiring more.")
ShowMessageFace("",0,0,2,41)
ShowMessage("At the same time, my erect penis is still inside her.")
ShowMessage("Her warm, vaginal flesh seductively squeezes me as I suck on her.")
ShowMessageFace("h_mino_fc1",0,0,2,42)
ShowMessage("\\n<High Minotauros>")
ShowMessage("I'll pamper you, too.")
ShowMessage("But I won't make it overtight like before...")
ShowMessageFace("",0,0,2,43)
ShowMessage("\\n<Luka>Nnnn...Ahhh...")
ShowMessageFace("",0,0,2,44)
ShowMessage("Very slowly, she presses down on me.")
ShowMessage("Bit by bit, her sweet flesh envelops my erect penis.")
ShowMessageFace("",0,0,2,45)
ShowMessage("The slow pressure feels better and better.")
ShowMessage("Sighing in bliss, I drown myself in her increasing embrace.")
ShowMessageFace("",0,0,2,46)
ShowMessage("\\n<Luka>Faaa...")
ShowMessageFace("",0,0,2,47)
ShowMessage("Melting in pleasure, I relax my face on her large breast.")
ShowMessage("Tasting her milk, I entrust my body to her...")
ShowMessageFace("",0,0,2,48)
ShowMessage("It feels like I'm drowning in pleasure.")
ShowMessage("Gently stroking my head, the Minotauros smiles.")
ShowMessageFace("h_mino_fc1",0,0,2,49)
ShowMessage("\\n<High Minotauros>")
ShowMessage("Ufufu, it feels good, doesn't it?")
ShowMessage("When you want to come, just let it go...")
ShowMessageFace("",0,0,2,50)
ShowMessage("\\n<Luka>Nnnn...")
ShowMessageFace("",0,0,2,51)
ShowMessage("My hips tremble as I taste her breast milk.")
ShowMessage("Her tight vagina continues to squeeze down softly on me.")
ShowMessageFace("",0,0,2,52)
ShowMessage("That sweet pleasure fills me, causing a numbing ecstasy to fill me again.")
ShowMessage("Giving in to the impending release, I embrace it all...")
RunCommonEvent(104)
PictureDisplay(5,"ev_h_mino_hb6",0,0,0,0,100,100,255,0)
RunCommonEvent(105)
ShowMessageFace("",0,0,2,53)
ShowMessage("I reach a second climax.")
ShowMessage("A sweet release of body and mind...")
ShowMessageFace("",0,0,2,54)
ShowMessage("\\n<Luka>Hauuu... Uhh...")
ShowMessageFace("h_mino_fc1",0,0,2,55)
ShowMessage("\\n<High Minotauros>")
ShowMessage("Ufufu, you came again already...")
ShowMessage("Do you want to come more? I'll accept it as many times as you want...")
ShowMessageFace("",0,0,2,56)
ShowMessage("\\n<Luka>Nnnnn...")
PictureDisplay(5,"ev_h_mino_hb7",0,0,0,0,100,100,255,0)
ShowMessageFace("",0,0,2,57)
ShowMessage("It feels like my mind itself is regressing...")
ShowMessage("Forgetting everything, I just seek more of her breast milk.")
ShowMessageFace("",0,0,2,58)
ShowMessage("My penis is locked inside her, given to her attentive care.")
ShowMessage("Gently tightened, bringing me pleasure.")
ShowMessageFace("h_mino_fc1",0,0,2,59)
ShowMessage("\\n<High Minotauros>")
ShowMessage("Ufufu... You can't hold back any longer, can you?")
ShowMessage("Now come on, give it all to your big sister...")
ShowMessageFace("",0,0,2,60)
ShowMessage("\\n<Luka>Nnnn...")
ShowMessageFace("",0,0,2,61)
ShowMessage("A sweet feeling fills my body.")
ShowMessage("Tasting sweet milk, I relax my body in surrender.")
RunCommonEvent(104)
PictureDisplay(5,"ev_h_mino_hb8",0,0,0,0,100,100,255,0)
RunCommonEvent(105)
246(2)
ShowMessageFace("",0,0,2,62)
ShowMessage("I come inside her again, filling her up.")
ShowMessage("It feels like I'm drifting into a dream world of bliss...")
ShowMessageFace("",0,0,2,63)
ShowMessage("\\n<Luka>Haauuu...")
ShowMessageFace("",0,0,2,64)
ShowMessage("Pampered by the Minotauros, I've melted away in her embrace.")
ShowMessage("It's a drug-like pleasure...")
ShowMessageFace("h_mino_fc1",0,0,2,65)
ShowMessage("\\n<High Minotauros>")
ShowMessage("Ufufu... You're so spoiled.")
ShowMessage("Don't you just want your big sister to love you like this forever?")
ShowMessageFace("",0,0,2,66)
ShowMessage("\\n<Luka>Y-Yes...")
ShowMessageFace("h_mino_fc1",0,0,2,67)
ShowMessage("\\n<High Minotauros>")
ShowMessage("Then you'll be my child.")
ShowMessage("I'll give you plenty of love, boy...")
ShowMessageFace("",0,0,2,68)
ShowMessage("\\n<Luka>Nnnn...")
ShowMessageFace("",0,0,2,69)
ShowMessage("I can immerse myself in this pleasure from now on...")
ShowMessage("Delighting in it all, I continue sucking on her nipple...")
221()
PictureClear(5)
PictureClear(6)
ShowMessageFace("",0,0,2,70)
ShowMessage("Like that, I was captivated by the Minotauros.")
ShowMessage("With my mind and body drowning in her, I'm spoiled for the rest of my life...")
ShowMessageFace("",0,0,2,71)
ShowMessage("......")
221()
242(1)
Wait(120)
355("memory_interruption")
ShowMessageFace("",0,0,2,72)
ShowMessage("You hear Ilias' voice calling out to you...")
ShowMessage("Receive her evaluation?")
ShowChoices(strings("Receive evaluation","Change difficulty","Reincarnate"),3)
IfPlayerPicksChoice(0,"反省会に出る")
 241(bytes(0x04,0x08,0x6f,0x3a,0x0d,0x52,0x50,0x47,0x3a,0x3a,0x42,0x47,0x4d,0x08,0x3a,0x0a,0x40,0x6e,0x61,0x6d,0x65,0x49,0x22,0x0a,0x69,0x72,0x69,0x61,0x73,0x06,0x3a,0x06,0x45,0x54,0x3a,0x0c,0x40,0x76,0x6f,0x6c,0x75,0x6d,0x65,0x69,0x5f,0x3a,0x0b,0x40,0x70,0x69,0x74,0x63,0x68,0x69,0x6e))
 PictureDisplay(1,"bg001",0,0,0,0,100,100,255,0)
 222()
 PictureDisplay(5,"80_iriasu_st04",0,0,0,0,100,100,0,0)
 PictureMove(5,null,0,0,0,0,100,100,255,0,30,true)
 ShowMessageFace("iriasu_fc1",3,0,2,73)
 ShowMessage("\\n<Ilias>Pampered by an older woman, becoming her prisoner...")
 ShowMessage("That's kind of a twisted mother-child relationship, don't you think?")
 PictureDisplay(5,"80_iriasu_st02",0,0,0,0,100,100,255,0)
 ShowMessageFace("iriasu_fc1",1,0,2,74)
 ShowMessage("\\n<Ilias>...That seems like it could come back to hit me like a boomerang.")
 ShowMessage("I'll keep my mouth shut.")
 PictureDisplay(5,"80_iriasu_st01",0,0,0,0,100,100,255,0)
 ShowMessageFace("iriasu_fc1",0,0,2,75)
 ShowMessage("\\n<Ilias>The High Minotauros has very high attack power.")
 ShowMessage("Though her abnormal status defense is full of holes.")
 ShowMessageFace("iriasu_fc1",0,0,2,76)
 ShowMessage("\\n<Ilias>She will be a difficult opponent in a straight up fight, but easy if you abuse abnormal status moves.")
 ShowMessage("Use dirty tricks when fighting her.")
 PictureDisplay(5,"80_iriasu_st02",0,0,0,0,100,100,255,0)
 ShowMessageFace("iriasu_fc1",1,0,2,77)
 ShowMessage("\\n<Ilias>Now go, oh Brave Luka.")
 ShowMessage("Squeeze that breast monster dry.")
 ShowMessageFace("iriasu_fc1",1,0,2,78)
 ShowMessage("\\n<Ilias>...Being the milker would be new for you, I suppose.")
 242(1)
 221()
 PictureClear(5)
 PictureClear(1)
 Wait(60)
 0()
IfPlayerPicksChoice(1,"難易度を変更する")
 ShowMessageFace("",0,0,2,79)
 ShowMessage("Please choose a difficulty level.")
 RunCommonEvent(110)
 0()
IfPlayerPicksChoice(2,"輪廻に戻る")
 0()
404()
RunCommonEvent(3000)
0()
