﻿// EVENT 2214
Name "Seduction: Deana"

355("$game_troop.lose_event_id = 3214")
ChangeVariable(26,26,0,3,3,1,4)
ChangeVariable(26,26,4,0,10)
ShowMessageFace("dina_fc1",0,0,2,1)
ShowMessage("\\n<Deana>You're quite a threat.\nBut your flesh looks delicious...")
250(bytes(0x04,0x08,0x6f,0x3a,0x0c,0x52,0x50,0x47,0x3a,0x3a,0x53,0x45,0x08,0x3a,0x0a,0x40,0x6e,0x61,0x6d,0x65,0x49,0x22,0x16,0x6d,0x6f,0x6e,0x5f,0x65,0x72,0x6f,0x5f,0x6d,0x61,0x6b,0x69,0x74,0x75,0x6b,0x69,0x33,0x06,0x3a,0x06,0x45,0x54,0x3a,0x0b,0x40,0x70,0x69,0x74,0x63,0x68,0x69,0x69,0x3a,0x0c,0x40,0x76,0x6f,0x6c,0x75,0x6d,0x65,0x69,0x69))
355("battler_graphic_hide")
PictureDisplay(5,"ev_dina_h1",0,0,0,0,100,100,255,0)
ShowMessageFace("",0,0,2,2)
ShowMessage("Deana catches Luka's body in her predation organ!")
ShowMessageFace("dina_fc1",1,0,2,3)
ShowMessage("\\n<Deana>From now on, you will be melted.\nWrapped in my predation organ, I'll digest you like an insect.")
ChangeSwitch(98,98,0)
ChangeSwitch(96,96,0)
ShowChoices(strings("Ignore her","Give in to temptation"),1)
IfPlayerPicksChoice(0,"Ignore her")
 ShowMessageFace("",0,0,2,4)
 ShowMessage("Luka resists her temptation!")
 RunCommonEvent(1999)
 EndEventProcessing()
 0()
IfPlayerPicksChoice(1,"Give in to temptation")
 0()
404()
ShowMessageFace("dina_fc1",1,0,2,5)
ShowMessage("\\n<Deana>I'll cover every corner of your body in digestive juice.")
ChangeVariable(26,26,3,0,2)
250(bytes(0x04,0x08,0x6f,0x3a,0x0c,0x52,0x50,0x47,0x3a,0x3a,0x53,0x45,0x08,0x3a,0x0a,0x40,0x6e,0x61,0x6d,0x65,0x49,0x22,0x16,0x6d,0x6f,0x6e,0x5f,0x65,0x72,0x6f,0x5f,0x6d,0x61,0x6b,0x69,0x74,0x75,0x6b,0x69,0x33,0x06,0x3a,0x06,0x45,0x54,0x3a,0x0b,0x40,0x70,0x69,0x74,0x63,0x68,0x69,0x69,0x3a,0x0c,0x40,0x76,0x6f,0x6c,0x75,0x6d,0x65,0x69,0x69))
311(0,1,1,1,26,true)
ShowMessageFace("",0,0,2,6)
ShowMessage("The protrusions of Deana's soft walls wriggle, tasting Luka's entire body!\\D")
ShowMessage("Luka takes \\V[26] damage!")
ChangeVariable(27,27,0,3,3,1,2)
If(1,27,0,0,0)
 JumpToLabel("射精1")
 0()
EndIf()
ShowMessageFace("dina_fc1",1,0,2,7)
ShowMessage("\\n<Deana>My digestion feels really good, doesn't it?")
250(bytes(0x04,0x08,0x6f,0x3a,0x0c,0x52,0x50,0x47,0x3a,0x3a,0x53,0x45,0x08,0x3a,0x0a,0x40,0x6e,0x61,0x6d,0x65,0x49,0x22,0x16,0x6d,0x6f,0x6e,0x5f,0x65,0x72,0x6f,0x5f,0x6d,0x61,0x6b,0x69,0x74,0x75,0x6b,0x69,0x33,0x06,0x3a,0x06,0x45,0x54,0x3a,0x0b,0x40,0x70,0x69,0x74,0x63,0x68,0x69,0x69,0x3a,0x0c,0x40,0x76,0x6f,0x6c,0x75,0x6d,0x65,0x69,0x69))
311(0,1,1,1,26,true)
ShowMessageFace("",0,0,2,8)
ShowMessage("Deana's soft walls wriggle all around Luka's body, giving him a pleasant massage!\\D")
ShowMessage("Luka takes \\V[26] damage!")
ChangeVariable(27,27,0,3,3,1,2)
If(1,27,0,0,0)
 JumpToLabel("射精1")
 0()
EndIf()
ShowMessageFace("dina_fc1",1,0,2,9)
ShowMessage("\\n<Deana>Does it feel good to be eaten alive?")
250(bytes(0x04,0x08,0x6f,0x3a,0x0c,0x52,0x50,0x47,0x3a,0x3a,0x53,0x45,0x08,0x3a,0x0a,0x40,0x6e,0x61,0x6d,0x65,0x49,0x22,0x16,0x6d,0x6f,0x6e,0x5f,0x65,0x72,0x6f,0x5f,0x6d,0x61,0x6b,0x69,0x74,0x75,0x6b,0x69,0x33,0x06,0x3a,0x06,0x45,0x54,0x3a,0x0b,0x40,0x70,0x69,0x74,0x63,0x68,0x69,0x69,0x3a,0x0c,0x40,0x76,0x6f,0x6c,0x75,0x6d,0x65,0x69,0x69))
311(0,1,1,1,26,true)
ShowMessageFace("",0,0,2,10)
ShowMessage("The digestive juices covering Luka's body give a warm sensation!\\D")
ShowMessage("Luka takes \\V[26] damage!")
ChangeVariable(27,27,0,3,3,1,2)
If(1,27,0,0,0)
 JumpToLabel("射精1")
 0()
EndIf()
ShowMessageFace("dina_fc1",1,0,2,11)
ShowMessage("\\n<Deana>I will also melt your penis as well.")
250(bytes(0x04,0x08,0x6f,0x3a,0x0c,0x52,0x50,0x47,0x3a,0x3a,0x53,0x45,0x08,0x3a,0x0a,0x40,0x6e,0x61,0x6d,0x65,0x49,0x22,0x16,0x6d,0x6f,0x6e,0x5f,0x65,0x72,0x6f,0x5f,0x6d,0x61,0x6b,0x69,0x74,0x75,0x6b,0x69,0x33,0x06,0x3a,0x06,0x45,0x54,0x3a,0x0b,0x40,0x70,0x69,0x74,0x63,0x68,0x69,0x69,0x3a,0x0c,0x40,0x76,0x6f,0x6c,0x75,0x6d,0x65,0x69,0x69))
311(0,1,1,1,26,true)
ShowMessageFace("",0,0,2,12)
ShowMessage("Deana's overflowing digestive juices cling to Luka's penis, giving a melting sensation!\\D")
ShowMessage("Luka takes \\V[26] damage!")
ChangeVariable(27,27,0,3,3,1,2)
If(1,27,0,0,0)
 JumpToLabel("射精1")
 0()
EndIf()
ShowMessageFace("dina_fc1",1,0,2,13)
ShowMessage("\\n<Deana>Does the melting feel too good, or do you not have the energy to resist?")
ChangeVariable(26,26,3,0,2)
250(bytes(0x04,0x08,0x6f,0x3a,0x0c,0x52,0x50,0x47,0x3a,0x3a,0x53,0x45,0x08,0x3a,0x0a,0x40,0x6e,0x61,0x6d,0x65,0x49,0x22,0x16,0x6d,0x6f,0x6e,0x5f,0x65,0x72,0x6f,0x5f,0x6d,0x61,0x6b,0x69,0x74,0x75,0x6b,0x69,0x33,0x06,0x3a,0x06,0x45,0x54,0x3a,0x0b,0x40,0x70,0x69,0x74,0x63,0x68,0x69,0x69,0x3a,0x0c,0x40,0x76,0x6f,0x6c,0x75,0x6d,0x65,0x69,0x69))
311(0,1,1,1,26,true)
ShowMessageFace("",0,0,2,14)
ShowMessage("Her soft walls stick to Luka's body as her digestive juices drip out!\\D")
ShowMessage("Luka takes \\V[26] damage!")
ChangeVariable(27,27,0,3,3,1,2)
If(1,27,0,0,0)
 JumpToLabel("射精1")
 0()
EndIf()
DefineLabel("射精1")
ShowMessageFace("",0,0,2,15)
ShowMessage("\\n<Luka>No, I'm coming... Aaaah...")
RunCommonEvent(104)
PictureDisplay(5,"ev_dina_h2",0,0,0,0,100,100,255,0)
RunCommonEvent(105)
ShowMessageFace("",0,0,2,16)
ShowMessage("I ejaculate while tasting the pleasure of being slowly digested. Deana's soft inner walls are covered in my semen.")
ShowMessageFace("dina_fc1",0,0,2,17)
ShowMessage("\\n<Deana>Did it feel good being eaten by me?\nIt'll get much better once your body becomes sticky.")
RunCommonEvent(2000)
EndEventProcessing()
0()
