﻿// EVENT 7264
Name "Rufa: Victory"

PictureDisplay(5,"80_mob_gakusya2_st01",0,0,0,0,100,100,255,0)
PictureClear(6)
ShowMessageFace("mob_gakusya2_fc1",1,0,2,1)
ShowMessage("\\n<Rufa>Ah, I've run out of time.\nI've lost...")
250(bytes(0x04,0x08,0x6f,0x3a,0x0c,0x52,0x50,0x47,0x3a,0x3a,0x53,0x45,0x08,0x3a,0x0a,0x40,0x6e,0x61,0x6d,0x65,0x49,0x22,0x0d,0x6d,0x6f,0x6e,0x5f,0x6c,0x76,0x75,0x70,0x06,0x3a,0x06,0x45,0x54,0x3a,0x0b,0x40,0x70,0x69,0x74,0x63,0x68,0x69,0x69,0x3a,0x0c,0x40,0x76,0x6f,0x6c,0x75,0x6d,0x65,0x69,0x69))
ChangeSwitch(98,98,1)
ChangeSwitch(96,96,1)
ShowMessageFace("",0,0,2,2)
ShowMessage("Luka emerged from the battle fuck victorious!")
If(1,827,0,2,1)
 ShowMessageFace("mob_gakusya2_fc1",1,0,2,3)
 ShowMessage("\\n<Rufa>Sorry, I don't have any more items to give you...\nI've already handed you the Angel Ring.")
 0()
Else()
 ShowMessageFace("mob_gakusya2_fc1",0,0,2,4)
 ShowMessage("\\n<Rufa>Well, congratulations!\nThe prize is this accessory here. This one automatically recovers MP, make good use of it. ♪")
 250(bytes(0x04,0x08,0x6f,0x3a,0x0c,0x52,0x50,0x47,0x3a,0x3a,0x53,0x45,0x08,0x3a,0x0a,0x40,0x6e,0x61,0x6d,0x65,0x49,0x22,0x0a,0x49,0x74,0x65,0x6d,0x31,0x06,0x3a,0x06,0x45,0x54,0x3a,0x0b,0x40,0x70,0x69,0x74,0x63,0x68,0x69,0x69,0x3a,0x0c,0x40,0x76,0x6f,0x6c,0x75,0x6d,0x65,0x69,0x55))
 ChangeInventoryArmor(1072,0,0,1,false)
 ChangeVariable(827,827,0,0,2)
 RunCommonEvent(6999)
 0()
EndIf()
ShowMessageFace("mob_gakusya2_fc1",0,0,2,5)
ShowMessage("\\n<Rufa>Hey, come play with me again, okay?\nI definitely won't lose next time!")
If(0,2331,1)
 PictureClear(5)
 241(bytes(0x04,0x08,0x6f,0x3a,0x0d,0x52,0x50,0x47,0x3a,0x3a,0x42,0x47,0x4d,0x08,0x3a,0x0a,0x40,0x6e,0x61,0x6d,0x65,0x49,0x22,0x12,0x64,0x75,0x6e,0x67,0x65,0x6f,0x6e,0x5f,0x74,0x6f,0x73,0x79,0x6f,0x06,0x3a,0x06,0x45,0x54,0x3a,0x0c,0x40,0x76,0x6f,0x6c,0x75,0x6d,0x65,0x69,0x69,0x3a,0x0b,0x40,0x70,0x69,0x74,0x63,0x68,0x69,0x69))
 216(0)
 0()
EndIf()
EndEventProcessing()
0()
