// EVENT 1121
Name "Talk: Oni"

If(1,20,0,1,0)
 JumpToLabel("情報")
 0()
EndIf()
If(1,20,0,2,0)
 JumpToLabel("質問")
 0()
EndIf()
If(1,20,0,3,0)
 JumpToLabel("要求")
 0()
EndIf()
If(1,20,0,4,0)
 JumpToLabel("贈与")
 0()
EndIf()
DefineLabel("情報")
ChangeVariable(13,13,0,2,1,100)
If(1,13,0,10,2)
 ShowMessageFace("kooni_fc1",0,0,2,1)
 ShowMessage("\\n<Oni>I was born in Yamatai! I have traveled really far for my training! ♪")
 EndEventProcessing()
 0()
EndIf()
If(1,13,0,20,2)
 ShowMessageFace("kooni_fc1",0,0,2,2)
 ShowMessage("\\n<Oni>An Oni's pride is their large club! Naturally, we are weak with magic or pleasure skills.")
 EndEventProcessing()
 0()
EndIf()
If(1,13,0,30,2)
 ShowMessageFace("kooni_fc1",0,0,2,3)
 ShowMessage("\\n<Oni>My goal: Muscles from head to toe! Until I become an excellent Oni, it's intensive training for meee!")
 EndEventProcessing()
 0()
EndIf()
If(1,13,0,40,2)
 ShowMessageFace("kooni_fc1",0,0,2,4)
 ShowMessage("\\n<Oni>I'll eat lots of meat and become a wonderful Oniii!")
 EndEventProcessing()
 0()
EndIf()
If(1,13,0,50,2)
 ShowMessageFace("kooni_fc1",0,0,2,5)
 ShowMessage("\\n<Oni>With this club, I'll blow you awayyy!")
 EndEventProcessing()
 0()
EndIf()
If(1,13,0,60,2)
 ShowMessageFace("kooni_fc1",0,0,2,6)
 ShowMessage("\\n<Oni>Leave it to me, the little Oni mercenary! ♪\nNow, I have a lot of work todayyy!")
 EndEventProcessing()
 0()
EndIf()
If(1,13,0,70,2)
 ShowMessageFace("kooni_fc1",0,0,2,7)
 ShowMessage("\\n<Oni>I wonder what Gob is doing right now?")
 EndEventProcessing()
 0()
EndIf()
If(1,13,0,80,2)
 ShowMessageFace("kooni_fc1",0,0,2,8)
 ShowMessage("\\n<Oni>Alriiight! After I beat you, I'll eat my lunch!")
 EndEventProcessing()
 0()
EndIf()
If(1,13,0,90,2)
 ShowMessageFace("kooni_fc1",0,0,2,9)
 ShowMessage("\\n<Oni>My goal: A body of muscles! I'm going to eat a lot and bulk uuup!")
 EndEventProcessing()
 0()
EndIf()
If(1,13,0,100,2)
 ShowMessageFace("kooni_fc1",0,0,2,10)
 ShowMessage("\\n<Oni>I work as a mercenary, but I choose my clients carefully. I choose the side I agree with, this job included.")
 EndEventProcessing()
 0()
EndIf()
DefineLabel("質問")
ChangeVariable(13,13,0,2,1,50)
If(1,13,0,10,2)
 ShowMessageFace("kooni_fc1",0,0,2,11)
 ShowMessage("\\n<Oni>My goal is to become a wonderful Oni! Do you think I will reach it?")
 ShowChoices(strings("Definitely","That's impossible","You are already wonderful"),0)
 IfPlayerPicksChoice(0,"きっと叶う")
  ShowMessageFace("kooni_fc1",0,0,2,12)
  ShowMessage("\\n<Oni>Yeaaah! I'm puuumped!")
  355("change_friend(10)")
  0()
 IfPlayerPicksChoice(1,"無理だ")
  ShowMessageFace("kooni_fc1",3,0,2,13)
  ShowMessage("\\n<Oni>Why would you say thaaat?! I'm going to pummel you!")
  355("change_friend(-5)")
  0()
 IfPlayerPicksChoice(2,"すでに立派だ")
  ShowMessageFace("kooni_fc1",2,0,2,14)
  ShowMessage("\\n<Oni>Like this?! I want to be waaay bigger!")
  0()
 404()
 EndEventProcessing()
 0()
EndIf()
If(1,13,0,20,2)
 ShowMessageFace("kooni_fc1",0,0,2,15)
 ShowMessage("\\n<Oni>Why do you think I am working as a mercenary?")
 ShowChoices(strings("For training","For money","You like hurting people"),0)
 IfPlayerPicksChoice(0,"修行のため")
  ShowMessageFace("kooni_fc1",0,0,2,16)
  ShowMessage("\\n<Oni>Yeah, that's half right. I'm doing it for money and training.")
  355("change_friend(10)")
  0()
 IfPlayerPicksChoice(1,"金稼ぎ")
  ShowMessageFace("kooni_fc1",0,0,2,17)
  ShowMessage("\\n<Oni>Yeah, that's half right. I'm doing it for money and training.")
  355("change_friend(10)")
  0()
 IfPlayerPicksChoice(2,"人を傷付けるのが好きだから")
  ShowMessageFace("kooni_fc1",2,0,2,18)
  ShowMessage("\\n<Oni>I am not that kind of Oniii!")
  355("change_friend(-5)")
  0()
 404()
 EndEventProcessing()
 0()
EndIf()
If(1,13,0,30,2)
 ShowMessageFace("kooni_fc1",0,0,2,19)
 ShowMessage("\\n<Oni>Which part of an Oni's body do you think is the hardest?")
 ShowChoices(strings("The fangs","The horns","The club"),0)
 IfPlayerPicksChoice(0,"牙")
  ShowMessageFace("kooni_fc1",0,0,2,20)
  ShowMessage("\\n<Oni>My fangs are pretty hard... But my horns are the hardest. ♪")
  0()
 IfPlayerPicksChoice(1,"角")
  ShowMessageFace("kooni_fc1",1,0,2,21)
  ShowMessage("\\n<Oni>Correct! ♪\nThese horns are very hard!")
  355("change_friend(10)")
  0()
 IfPlayerPicksChoice(2,"棍棒")
  ShowMessageFace("kooni_fc1",2,0,2,22)
  ShowMessage("\\n<Oni>No... Our clubs are not part of our bodies.")
  0()
 404()
 EndEventProcessing()
 0()
EndIf()
If(1,13,0,40,2)
 ShowMessageFace("kooni_fc1",2,0,2,23)
 ShowMessage("\\n<Oni>The local boys throw beans at me... What should I do?")
 ShowChoices(strings("Just bear it without fighting back","Throw beans back","Rape them","Crush them with your club"),0)
 IfPlayerPicksChoice(0,"無抵抗で受け入れる")
  ShowMessageFace("kooni_fc1",2,0,2,24)
  ShowMessage("\\n<Oni>That's true. That's how everyone became a wonderful Oni.")
  0()
 IfPlayerPicksChoice(1,"豆を投げ返す")
  ShowMessageFace("kooni_fc1",1,0,2,25)
  ShowMessage("\\n<Oni>That's fine by me! All right, I'll need to buy a looot of beans!")
  355("change_friend(10)")
  0()
 IfPlayerPicksChoice(2,"逆レイプする")
  ShowMessageFace("kooni_fc1",0,0,2,26)
  ShowMessage("\\n<Oni>Yeah, I'll try that next time!")
  0()
 IfPlayerPicksChoice(3,"棍棒で潰す")
  ShowMessageFace("kooni_fc1",3,0,2,27)
  ShowMessage("\\n<Oni>That's terrible! Oni! Demon!")
  355("change_friend(-5)")
  0()
 404()
 EndEventProcessing()
 0()
EndIf()
If(1,13,0,50,2)
 ShowMessageFace("kooni_fc1",0,0,2,28)
 ShowMessage("\\n<Oni>Now, a question! Which Tarou has nothing to do with me?")
 ShowChoices(strings("Momotarou","Kintarou","Urashima Tarou","Ultraman Tarou"),0)
 IfPlayerPicksChoice(0,"モモタロウ")
  ShowMessageFace("kooni_fc1",3,0,2,29)
  ShowMessage("\\n<Oni>I will never forgive him...")
  355("change_friend(-5)")
  0()
 IfPlayerPicksChoice(1,"キンタロウ")
  ShowMessageFace("kooni_fc1",3,0,2,30)
  ShowMessage("\\n<Oni>I will never forgive him...")
  355("change_friend(-5)")
  0()
 IfPlayerPicksChoice(2,"ウラシマタロウ")
  ShowMessageFace("kooni_fc1",1,0,2,31)
  ShowMessage("\\n<Oni>That's right! I don't have any grudge against him!")
  355("change_friend(10)")
  0()
 IfPlayerPicksChoice(3,"ウルトラ○ンタロウ")
  ShowMessageFace("kooni_fc1",2,0,2,32)
  ShowMessage("\\n<Oni>Who?!")
  0()
 404()
 EndEventProcessing()
 0()
EndIf()
DefineLabel("要求")
ChangeVariable(13,13,0,2,1,30)
If(1,13,0,10,2)
 If(8,7)
  ShowMessageFace("kooni_fc1",2,0,2,33)
  ShowMessage("\\n<Oni>I'm exhausted today... Hey, do you have a boost drink?")
  ChangeVariable(24,24,0,3,0,7,0)
  ShowMessageFace("",0,0,2,34)
  ShowMessage("Do you want to give a \\ii[7]? (Have:\\V[24])")
  ShowChoices(strings("Yes","No"),2)
  IfPlayerPicksChoice(0,"Yes")
   ShowMessageFace("kooni_fc1",1,0,2,35)
   ShowMessage("\\n<Oni>Horaaay! Thank you! ♪")
   ChangeInventory_Item(7,1,0,1)
   355("change_friend(20)")
   EndEventProcessing()
   0()
  IfPlayerPicksChoice(1,"No")
   ShowMessageFace("kooni_fc1",3,0,2,36)
   ShowMessage("\\n<Oni>Fine! Stingyyy!")
   EndEventProcessing()
   0()
  404()
  0()
 Else()
  ChangeVariable(13,13,0,0,20)
  0()
 EndIf()
 0()
EndIf()
If(1,13,0,20,2)
 If(8,361)
  ShowMessageFace("kooni_fc1",2,0,2,37)
  ShowMessage("\\n<Oni>I'm hungryyy! Hey, do you have any rice balls?")
  ChangeVariable(24,24,0,3,0,361,0)
  ShowMessageFace("",0,0,2,38)
  ShowMessage("Do you want to give a \\ii[361]? (Have:\\V[24])")
  ShowChoices(strings("Yes","No"),2)
  IfPlayerPicksChoice(0,"Yes")
   ShowMessageFace("kooni_fc1",1,0,2,39)
   ShowMessage("\\n<Oni>Horaaay! Thank you! ♪")
   ChangeInventory_Item(361,1,0,1)
   355("change_friend(30)")
   EndEventProcessing()
   0()
  IfPlayerPicksChoice(1,"No")
   ShowMessageFace("kooni_fc1",3,0,2,40)
   ShowMessage("\\n<Oni>Fine! Stingyyy!")
   EndEventProcessing()
   0()
  404()
  0()
 Else()
  ChangeVariable(13,13,0,0,30)
  0()
 EndIf()
 0()
EndIf()
If(1,13,0,30,2)
 ShowMessageFace("kooni_fc1",2,0,2,41)
 ShowMessage("\\n<Oni>I want to go plaaay! Hey, can I have some money?")
 If(7,429,0)
  ChangeVariable(24,24,0,3,7,2,0)
  ShowMessageFace("",0,0,2,42)
  ShowMessage("Do you want to give 429G? (Remaining: \\V[24])")
  ShowChoices(strings("Yes","No"),2)
  IfPlayerPicksChoice(0,"Yes")
   ShowMessageFace("kooni_fc1",1,0,2,43)
   ShowMessage("\\n<Oni>Horaaay! Thank you! ♪")
   125(1,0,429)
   355("change_friend(25)")
   EndEventProcessing()
   0()
  IfPlayerPicksChoice(1,"No")
   ShowMessageFace("kooni_fc1",3,0,2,44)
   ShowMessage("\\n<Oni>Fine! Stingyyy!")
   EndEventProcessing()
   0()
  404()
  0()
 Else()
  ShowMessageFace("kooni_fc1",2,0,2,45)
  ShowMessage("\\n<Oni>...Or so I thought, but you don't have any money. That's unfortunate.")
  EndEventProcessing()
  0()
 EndIf()
 0()
EndIf()
DefineLabel("贈与")
ChangeVariable(13,13,0,2,1,30)
If(1,25,0,1,0)
 ChangeVariable(13,13,0,0,30)
 ChangeVariable(25,25,0,0,0)
 0()
EndIf()
If(1,25,0,2,0)
 ChangeVariable(13,13,0,2,1,20)
 ChangeVariable(25,25,0,0,0)
 0()
EndIf()
If(1,13,0,10,2)
 ShowMessageFace("kooni_fc1",1,0,2,46)
 ShowMessage("\\n<Oni>Replacement horns grew in. ♪\nYou can have this one. ♪")
 250(bytes(0x04,0x08,0x6f,0x3a,0x0c,0x52,0x50,0x47,0x3a,0x3a,0x53,0x45,0x08,0x3a,0x0a,0x40,0x6e,0x61,0x6d,0x65,0x49,0x22,0x0a,0x49,0x74,0x65,0x6d,0x31,0x06,0x3a,0x06,0x45,0x54,0x3a,0x0b,0x40,0x70,0x69,0x74,0x63,0x68,0x69,0x69,0x3a,0x0c,0x40,0x76,0x6f,0x6c,0x75,0x6d,0x65,0x69,0x55))
 ChangeInventory_Item(196,0,0,1)
 ShowMessageFace("",0,0,2,47)
 ShowMessage("The Oni gave you a \\ii[196]!")
 EndEventProcessing()
 0()
EndIf()
If(1,13,0,20,2)
 ShowMessageFace("kooni_fc1",1,0,2,48)
 ShowMessage("\\n<Oni>I got a new metal club! ♪\nYou can have the old one. ♪")
 250(bytes(0x04,0x08,0x6f,0x3a,0x0c,0x52,0x50,0x47,0x3a,0x3a,0x53,0x45,0x08,0x3a,0x0a,0x40,0x6e,0x61,0x6d,0x65,0x49,0x22,0x0a,0x49,0x74,0x65,0x6d,0x31,0x06,0x3a,0x06,0x45,0x54,0x3a,0x0b,0x40,0x70,0x69,0x74,0x63,0x68,0x69,0x69,0x3a,0x0c,0x40,0x76,0x6f,0x6c,0x75,0x6d,0x65,0x69,0x55))
 ChangeInventoryWeapon(412,0,0,1,false)
 ShowMessageFace("",0,0,2,49)
 ShowMessage("The Oni gave you \\iw[412]!")
 EndEventProcessing()
 0()
EndIf()
If(1,13,0,30,2)
 ShowMessageFace("kooni_fc1",1,0,2,50)
 ShowMessage("\\n<Oni>I worked hard this month and earned a looot! ♪\nYou're my friend, so I'll give you some. ♪")
 250(bytes(0x04,0x08,0x6f,0x3a,0x0c,0x52,0x50,0x47,0x3a,0x3a,0x53,0x45,0x08,0x3a,0x0a,0x40,0x6e,0x61,0x6d,0x65,0x49,0x22,0x0a,0x49,0x74,0x65,0x6d,0x31,0x06,0x3a,0x06,0x45,0x54,0x3a,0x0b,0x40,0x70,0x69,0x74,0x63,0x68,0x69,0x69,0x3a,0x0c,0x40,0x76,0x6f,0x6c,0x75,0x6d,0x65,0x69,0x55))
 125(0,0,715)
 ShowMessageFace("",0,0,2,51)
 ShowMessage("The Oni gave you 715G!")
 EndEventProcessing()
 0()
EndIf()
0()
