// EVENT 3282
Name "Candy"

PictureDisplay(5,"80_candy_st02",0,0,0,0,100,100,0,0)
PictureMove(5,null,0,0,0,0,100,100,255,0,30,true)
241(bytes(0x04,0x08,0x6f,0x3a,0x0d,0x52,0x50,0x47,0x3a,0x3a,0x42,0x47,0x4d,0x08,0x3a,0x0a,0x40,0x6e,0x61,0x6d,0x65,0x49,0x22,0x09,0x65,0x72,0x6f,0x31,0x06,0x3a,0x06,0x45,0x54,0x3a,0x0c,0x40,0x76,0x6f,0x6c,0x75,0x6d,0x65,0x69,0x69,0x3a,0x0b,0x40,0x70,0x69,0x74,0x63,0x68,0x69,0x69))
ShowMessageFace("",0,0,2,1)
ShowMessage("\\n<Luka>")
ShowMessage("Ungh...")
ShowMessageFace("candy_fc1",1,0,2,2)
ShowMessage("\\n<Candy>")
ShowMessage("Ehehe, you can't resist anymore, can you?")
ShowMessage("Well then, it's time to eat.")
245(bytes(0x04,0x08,0x6f,0x3a,0x0d,0x52,0x50,0x47,0x3a,0x3a,0x42,0x47,0x53,0x08,0x3a,0x0a,0x40,0x6e,0x61,0x6d,0x65,0x49,0x22,0x17,0x6d,0x6f,0x6e,0x5f,0x68,0x73,0x65,0x61,0x6e,0x31,0x38,0x5f,0x73,0x6c,0x69,0x6d,0x65,0x31,0x06,0x3a,0x06,0x45,0x54,0x3a,0x0c,0x40,0x76,0x6f,0x6c,0x75,0x6d,0x65,0x69,0x55,0x3a,0x0b,0x40,0x70,0x69,0x74,0x63,0x68,0x69,0x69))
PictureDisplay(5,"ev_candy_hb01",0,0,0,0,100,100,0,0)
PictureMove(5,null,0,0,0,0,100,100,255,0,30,true)
ShowMessageFace("",0,0,2,3)
ShowMessage("Candy takes off my clothes and hugs me.")
ShowMessage("A huge tongue crawls out of her skirt and grabs my lower body.")
ShowMessageFace("",0,0,2,4)
ShowMessage("A warm and wet feeling wraps me from the waist down.")
ShowMessage("I tremble as my body is hit by this strange feeling.")
ShowMessageFace("",0,0,2,5)
ShowMessage("\\n<Luka>")
ShowMessage("S-stop it... Let me go.")
ShowMessageFace("candy_fc1",1,0,2,6)
ShowMessage("\\n<Candy>")
ShowMessage("It's okay, don't be scared.")
ShowMessage("Here, I will give you some sweet cake. ♪")
ShowMessageFace("",0,0,2,7)
ShowMessage("Candy brings the cake to my mouth.")
ShowMessage("A sweet and delicious fragrance enters my nose.")
ShowMessageFace("",0,0,2,8)
ShowMessage("\\n<Luka>")
ShowMessage("Ugh, stop...")
ShowMessageFace("",0,0,2,9)
ShowMessage("I have no intention of eating such a strange thing.")
ShowMessage("I try and brush it aside.")
ShowMessageFace("",0,0,2,10)
ShowMessage("However, the sweet fragrance erodes my brain like magic.")
ShowMessage("I can't give in to this temptation...")
PictureDisplay(5,"ev_candy_hb02",0,0,0,0,100,100,255,0)
ShowMessageFace("",0,0,2,11)
ShowMessage("\\n<Luka>")
ShowMessage("Ugh...")
ShowMessageFace("",0,0,2,12)
ShowMessage("I put it in my mouth despite my better judgement.")
ShowMessage("The sweet taste spreads and melts in my mouth.")
ShowMessageFace("",0,0,2,13)
ShowMessage("All the power fades from my body and I feel weak and helpless.")
ShowMessage("Its magical sweetness takes away my fear and resistance.")
PictureDisplay(5,"ev_candy_hb03",0,0,0,0,100,100,255,0)
ShowMessageFace("",0,0,2,14)
ShowMessage("\\n<Luka>")
ShowMessage("Ha... Ah...")
ShowMessageFace("",0,0,2,15)
ShowMessage("My reason is blown away.")
ShowMessage("Immersed in ecstasy, I give my body and mind over to Candy.")
ShowMessageFace("candy_fc1",1,0,2,16)
ShowMessage("\\n<Candy>")
ShowMessage("Wasn't it delicious?")
ShowMessage("Well then, let me have a taste~♪")
PictureDisplay(5,"ev_candy_hb04",0,0,0,0,100,100,255,0)
ShowMessageFace("",0,0,2,17)
ShowMessage("A thick tongue wraps around my penis.")
ShowMessage("It soaks it with saliva.")
ShowMessageFace("",0,0,2,18)
ShowMessage("Her tongue is tasting me in a dirty fashion...")
ShowMessage("My penis is covered with saliva and is thoroughly licked by her gooey tongue.")
ShowMessageFace("",0,0,2,19)
ShowMessage("\\n<Luka>")
ShowMessage("Fuaaaa...")
ShowMessageFace("candy_fc1",1,0,2,20)
ShowMessage("\\n<Candy>")
ShowMessage("Ufufu, ta~sty ♪")
ShowMessageFace("",0,0,2,21)
ShowMessage("My penis is licked and I revel in ecstasy.")
ShowMessage("It feels like a sweet pleasure.")
ShowMessageFace("",0,0,2,22)
ShowMessage("The tongue rubs the tip and covers it with saliva.")
ShowMessage("The sweet way it's tasting me drives me crazy...")
ShowMessageFace("candy_fc1",1,0,2,23)
ShowMessage("\\n<Candy>")
ShowMessage("*Shhhhlurp* *Lick*")
ShowMessageFace("",0,0,2,24)
ShowMessage("\\n<Luka>")
ShowMessage("Auuuu... That feels so good...")
ShowMessageFace("",0,0,2,25)
ShowMessage("Candy tastes my body as I taste pleasure.")
ShowMessage("I indulge in this desire as I'm drowning in pleasure.")
ShowMessageFace("",0,0,2,26)
ShowMessage("A sweet tingling wells up, while my penis is being licked to the point of coming.")
ShowMessage("My body trembles.")
ShowMessageFace("",0,0,2,27)
ShowMessage("\\n<Luka>")
ShowMessage("Auu... Aaaaah...")
RunCommonEvent(104)
PictureDisplay(5,"ev_candy_hb05",0,0,0,0,100,100,255,0)
RunCommonEvent(105)
ShowMessageFace("",0,0,2,28)
ShowMessage("While being licked, I ejaculate.")
ShowMessage("Semen gushes up and soils her thick tongue.")
ShowMessageFace("candy_fc1",1,0,2,29)
ShowMessage("\\n<Candy>")
ShowMessage("Ufufu, you let it out...")
ShowMessage("This is very tasty...")
ShowMessageFace("",0,0,2,30)
ShowMessage("Candy tastes the cloudy liquid I shoot out.")
ShowMessage("The tongue moves around the tip as I writhe in agony.")
ShowMessageFace("",0,0,2,31)
ShowMessage("She licks up the semen and swallows it.")
ShowMessage("Candy looks at me and flashes me a charming smile.")
ShowMessageFace("candy_fc1",1,0,2,32)
ShowMessage("\\n<Candy>")
ShowMessage("Your semen is very tasty. ♪")
ShowMessage("Now let me taste it with my upper mouth...♪")
PictureDisplay(5,"ev_candy_hb06",0,0,0,0,100,100,255,0)
ShowMessageFace("",0,0,2,33)
ShowMessage("Candy picks up a luxurious tea cup.")
ShowMessage("She brings it close to my crotch.")
ShowMessageFace("",0,0,2,34)
ShowMessage("At the same time, her tongue begins to move.")
ShowMessage("She stimulates my penis in a wave-like motion.")
ShowMessageFace("",0,0,2,35)
ShowMessage("\\n<Luka>")
ShowMessage("Ah...Haaaa...")
ShowMessageFace("",0,0,2,36)
ShowMessage("It's different from the way she licked me earlier.")
ShowMessage("Her tongue tightens around my penis as she gently rubs it.")
ShowMessageFace("",0,0,2,37)
ShowMessage("That tongue isn't used to taste, but to make men ejaculate...")
ShowMessage("The tongue's licking gets me drunk on the pleasure.")
ShowMessageFace("",0,0,2,38)
ShowMessage("\\n<Luka>")
ShowMessage("Fuaaa...Aaaaah...")
ShowMessageFace("candy_fc1",1,0,2,39)
ShowMessage("\\n<Candy>")
ShowMessage("Ufufu, thank you for letting me taste your semen.")
ShowMessage("In return, let me treat you to some of my milk. ♪")
PictureDisplay(5,"ev_candy_hb07",0,0,0,0,100,100,255,0)
ShowMessageFace("",0,0,2,40)
ShowMessage("Candy hugs my head tightly.")
ShowMessage("My face is pressed against her soft breasts.")
PictureDisplay(5,"ev_candy_hb08",0,0,0,0,100,100,255,0)
ShowMessageFace("",0,0,2,41)
ShowMessage("\\n<Luka>")
ShowMessage("Ah... Haaa...")
ShowMessageFace("",0,0,2,42)
ShowMessage("I can't resist this soft temptation.")
ShowMessage("I suck Candy's nipple.")
ShowMessageFace("",0,0,2,43)
ShowMessage("A sweet taste spreads through my mouth.")
PictureDisplay(5,"ev_candy_hb09",0,0,0,0,100,100,255,0)
ShowMessageFace("",0,0,2,44)
ShowMessage("\\n<Luka>")
ShowMessage("Fuaaaa...")
ShowMessageFace("",0,0,2,45)
ShowMessage("I am immersed in pleasure.")
ShowMessage("Sucking on Candy's sweet milk, my body relaxes.")
PictureDisplay(5,"ev_candy_hb10",0,0,0,0,100,100,255,0)
ShowMessageFace("candy_fc1",1,0,2,46)
ShowMessage("\\n<Candy>")
ShowMessage("Do you feel good?")
ShowMessage("Well then, please let out a lot of your white stuff...")
ShowMessageFace("",0,0,2,47)
ShowMessage("Immersed in ecstasy, her tongue continues to wind around my penis.")
ShowMessage("She continues to stimulate me, driving me to another ejaculation...")
ShowMessageFace("",0,0,2,48)
ShowMessage("\\n<Luka>")
ShowMessage("Nnnn...Nghnnn...")
RunCommonEvent(104)
PictureDisplay(5,"ev_candy_hb11",0,0,0,0,100,100,255,0)
RunCommonEvent(105)
ShowMessageFace("",0,0,2,49)
ShowMessage("My semen is shot into the cup.")
ShowMessage("After the discharge, my body starts to relax.")
PictureDisplay(5,"ev_candy_hb12",0,0,0,0,100,100,255,0)
ShowMessageFace("candy_fc1",1,0,2,50)
ShowMessage("\\n<Candy>")
ShowMessage("Ufufu, you shot out a lot.")
ShowMessage("Now to drink your milk~♪")
PictureDisplay(5,"ev_candy_hb13",0,0,0,0,100,100,255,0)
ShowMessageFace("",0,0,2,51)
ShowMessage("Candy moves the cup to her mouth and drinks it.")
ShowMessage("She delicately tastes the semen that I released.")
PictureDisplay(5,"ev_candy_hb14",0,0,0,0,100,100,255,0)
ShowMessageFace("candy_fc1",1,0,2,52)
ShowMessage("\\n<Candy>")
ShowMessage("Ufufu, absolutely delicious...♪")
ShowMessageFace("",0,0,2,53)
ShowMessage("Candy smiles, apparently satisfied.")
ShowMessage("As I lay relaxed, she turns her gaze to me...")
ShowMessageFace("candy_fc1",1,0,2,54)
ShowMessage("\\n<Candy>")
ShowMessage("Now it's time for the main dish...")
ShowMessageFace("",0,0,2,55)
ShowMessage("\\n<Luka>")
ShowMessage("Eh...? Aaaaah...")
ShowMessageFace("",0,0,2,56)
ShowMessage("The tongue entangled around my lower body begins to move...")
PictureDisplay(5,"ev_candy_hb15",0,0,0,0,100,100,255,0)
ShowMessageFace("",0,0,2,57)
ShowMessage("And starts sucking down my lower body!")
ShowMessage("It's pulling me inside the skirt's mouth!")
ShowMessageFace("",0,0,2,58)
ShowMessage("\\n<Luka>")
ShowMessage("Hyaaaaa! S-stop!")
ShowMessageFace("",0,0,2,59)
ShowMessage("I instantly come to my senses from the ecstasy and start struggling.")
ShowMessage("She's trying to swallow me alive...")
ShowMessageFace("candy_fc1",1,0,2,60)
ShowMessage("\\n<Candy>")
ShowMessage("You can't struggle anymore~♪")
ShowMessage("I'm going to feast on your delicious body~♪")
ShowMessageFace("",0,0,2,61)
ShowMessage("\\n<Luka>")
ShowMessage("Ah... Aaaaaaah...!!")
PictureDisplay(5,"ev_candy_hb16",0,0,0,0,100,100,255,0)
ShowMessageFace("",0,0,2,62)
ShowMessage("It sucks me up to my neck inside.")
ShowMessage("My body rejoices as her tongue keeps licking, as if welcoming me.")
ShowMessageFace("",0,0,2,63)
ShowMessage("\\n<Luka>")
ShowMessage("This is... Fuaaaa...")
ShowMessageFace("candy_fc1",1,0,2,64)
ShowMessage("\\n<Candy>")
ShowMessage("Ehehe, time to eat~♪")
ShowMessageFace("",0,0,2,65)
ShowMessage("\\n<Luka>")
ShowMessage("Ah... Aaaaah...")
PictureDisplay(5,"ev_candy_hb17",0,0,0,0,100,100,255,0)
ShowMessageFace("",0,0,2,66)
ShowMessage("With a slurp, my entire body is inside her.")
ShowMessage("My entire body is mercilessly swallowed.")
ShowMessageFace("",0,0,2,67)
ShowMessage("Her tongue entangles my whole body.")
ShowMessage("She continues to lick my crotch as I am wrapped in her meaty walls.")
ShowMessageFace("",0,0,2,68)
ShowMessage("\\n<Luka>")
ShowMessage("Oh... Ah!")
RunCommonEvent(104)
PictureDisplay(5,"ev_candy_hb18",0,0,0,0,100,100,255,0)
RunCommonEvent(105)
ShowMessageFace("",0,0,2,69)
ShowMessage("Even as my body melts, I still release my semen...")
ShowMessage("It melts inside her sticky stomach...")
246(2)
ShowMessageFace("",0,0,2,70)
ShowMessage("I'm digested in mere moments.")
ShowMessage("Eaten by Candy, my body and mind end up as nothing more than nourishment for her...")
ShowMessageFace("candy_fc1",1,0,2,71)
ShowMessage("\\n<Candy>")
ShowMessage("Ufufu, thank you for the meal. ♪")
221()
PictureClear(5)
PictureClear(6)
ShowMessageFace("",0,0,2,72)
ShowMessage("......")
221()
242(1)
Wait(120)
355("memory_interruption")
ShowMessageFace("",0,0,2,73)
ShowMessage("You hear Ilias' voice calling out to you...")
ShowMessage("Receive her evaluation?")
ShowChoices(strings("Receive Evaluation","Change Difficulty","Reincarnate"),3)
IfPlayerPicksChoice(0,"Receive Evaluation")
 241(bytes(0x04,0x08,0x6f,0x3a,0x0d,0x52,0x50,0x47,0x3a,0x3a,0x42,0x47,0x4d,0x08,0x3a,0x0a,0x40,0x6e,0x61,0x6d,0x65,0x49,0x22,0x0a,0x69,0x72,0x69,0x61,0x73,0x06,0x3a,0x06,0x45,0x54,0x3a,0x0c,0x40,0x76,0x6f,0x6c,0x75,0x6d,0x65,0x69,0x5f,0x3a,0x0b,0x40,0x70,0x69,0x74,0x63,0x68,0x69,0x6e))
 PictureDisplay(1,"bg001",0,0,0,0,100,100,255,0)
 222()
 PictureDisplay(5,"80_iriasu_st04",0,0,0,0,100,100,0,0)
 PictureMove(5,null,0,0,0,0,100,100,255,0,30,true)
 ShowMessageFace("iriasu_fc1",3,0,2,74)
 ShowMessage("\\n<Ilias>")
 ShowMessage("This enemy has made me hungry...")
 ShowMessage("Can we go over this quickly this time?")
 PictureDisplay(5,"80_iriasu_st01",0,0,0,0,100,100,255,0)
 ShowMessageFace("iriasu_fc1",0,0,2,75)
 ShowMessage("\\n<Ilias>")
 ShowMessage("Candy's party-wide physical attack is surprisingly powerful.")
 ShowMessage("She does slam into you with her huge body...")
 ShowMessageFace("iriasu_fc1",0,0,2,76)
 ShowMessage("\\n<Ilias>")
 ShowMessage("Her elemental resistances are average, she's not particularly weak to anything.")
 ShowMessage("It's easy to inflict sleep on her and she's vulnerable to digestion skills.")
 PictureDisplay(5,"80_iriasu_st02",0,0,0,0,100,100,255,0)
 ShowMessageFace("iriasu_fc1",1,0,2,77)
 ShowMessage("\\n<Ilias>")
 ShowMessage("Now go, oh Brave Luka.")
 ShowMessage("Next time you come here, bring some cake with you.")
 242(1)
 221()
 PictureClear(5)
 PictureClear(1)
 Wait(60)
 0()
IfPlayerPicksChoice(1,"Change difficulty")
 ShowMessageFace("",0,0,2,78)
 ShowMessage("Please choose a difficulty level.")
 RunCommonEvent(110)
 0()
IfPlayerPicksChoice(2,"Reincarnate")
 0()
404()
RunCommonEvent(3000)
0()
