// EVENT 4171
Name "Sully"

If(0,25,1)
 221()
 PictureClear(5)
 PictureClear(6)
 ShowMessageFace("",0,0,2,0)
 ShowMessage("......")
 242(2)
 Wait(120)
 241(bytes(0x04,0x08,0x6f,0x3a,0x0d,0x52,0x50,0x47,0x3a,0x3a,0x42,0x47,0x4d,0x08,0x3a,0x0a,0x40,0x6e,0x61,0x6d,0x65,0x49,0x22,0x0c,0x63,0x61,0x73,0x74,0x6c,0x65,0x36,0x06,0x3a,0x06,0x45,0x54,0x3a,0x0c,0x40,0x76,0x6f,0x6c,0x75,0x6d,0x65,0x69,0x69,0x3a,0x0b,0x40,0x70,0x69,0x74,0x63,0x68,0x69,0x69))
 EndEventProcessing()
 0()
EndIf()
PictureDisplay(5,"80_syuree_st01",0,0,0,0,100,100,255,0)
ShowMessageFace("syuree_fc1",0,0,2,1)
ShowMessage("\\n<Sully>You want me to make your penis all nice and pretty~?")
ShowMessageFace("",0,0,2,2)
ShowMessage("\\n<Luka>P-please...")
ShowMessageFace("syuree_fc1",1,0,2,3)
ShowMessage("\\n<Sully>Okay~♪")
241(bytes(0x04,0x08,0x6f,0x3a,0x0d,0x52,0x50,0x47,0x3a,0x3a,0x42,0x47,0x4d,0x08,0x3a,0x0a,0x40,0x6e,0x61,0x6d,0x65,0x49,0x22,0x09,0x65,0x72,0x6f,0x31,0x06,0x3a,0x06,0x45,0x54,0x3a,0x0c,0x40,0x76,0x6f,0x6c,0x75,0x6d,0x65,0x69,0x69,0x3a,0x0b,0x40,0x70,0x69,0x74,0x63,0x68,0x69,0x69))
PictureDisplay(5,"ev_syuree_h01",0,0,0,0,100,100,0,0)
PictureMove(5,null,0,0,0,0,100,100,255,0,30,true)
ShowMessageFace("",0,0,2,4)
ShowMessage("Sully's feet clamp down on me, exposing my penis!")
ShowMessageFace("syuree_fc1",0,0,2,5)
ShowMessage("\\n<Sully>I've got your penis all the way to the base♪\nI won't let you go anywhere now~♪")
ShowMessageFace("syuree_fc1",0,0,2,6)
ShowMessage("\\n<Sully>Now to make it nice and clean...\nLoots and loooots♪ I'll treat it nice like the good boy it is♪")
ShowMessageFace("",0,0,2,7)
ShowMessage("\\n<Luka>Ah, aaah...")
ShowMessageFace("",0,0,2,8)
ShowMessage("Sully's oversized abdomen slowly creeps toward me.")
ShowMessage("But with her legs pinning me down so tightly, there's no escape.")
ShowMessageFace("syuree_fc1",0,0,2,9)
ShowMessage("\\n<Sully>Teehee. Look, phimosis~♪\nLet's get Mr. Pink Turtle to show himself, shall we?")
ShowMessageFace("",0,0,2,10)
ShowMessage("\\n<Luka>......")
ShowMessageFace("syuree_fc1",0,0,2,11)
ShowMessage("\\n<Sully>I looove phimosis♪\nI'm happy to wash it all clean♪")
ShowMessageFace("syuree_fc1",0,0,2,12)
ShowMessage("\\n<Sully>Time to peel it back~♪")
PictureDisplay(5,"ev_syuree_h02",0,0,0,0,100,100,255,0)
ShowMessageFace("",0,0,2,13)
ShowMessage("Tiny legs reach out from Sully's abdomen toward me.")
ShowMessage("It grabs the skin of my penis, and pulls it back.")
ShowMessageFace("",0,0,2,14)
ShowMessage("\\n<Luka>Ah... Th...This...!")
ShowMessageFace("syuree_fc1",0,0,2,15)
ShowMessage("\\n<Sully>Well...? Is Mr. Turtle in pain?")
ShowMessageFace("syuree_fc1",0,0,2,16)
ShowMessage("\\n<Sully>It might get a little intense once my juices start flowing...\nPlease tell me if it starts to hurt, ok?")
ShowMessageFace("",0,0,2,17)
ShowMessage("Liquid from Sully's abdomen flows out, getting my penis wet.")
ShowMessage("Using that as lubricant, she pulls my foreskin down even further.")
ShowMessageFace("syuree_fc1",0,0,2,18)
ShowMessage("\\n<Sully>Pull it all back like this...\nWoah, it smells dirty♪")
ShowMessageFace("syuree_fc1",0,0,2,19)
ShowMessage("\\n<Sully>Now to put a little more force into it♪\nLet's get started~♪")
PictureDisplay(5,"ev_syuree_h03",0,0,0,0,100,100,255,0)
ShowMessageFace("",0,0,2,20)
ShowMessage("Sully peels the rest of my foreskin back, fully exposing everything inside.")
ShowMessage("Slimy mucus covers it.")
ShowMessageFace("",0,0,2,21)
ShowMessage("\\n<Luka>Ah... Unnngh...")
ShowMessageFace("syuree_fc1",0,0,2,22)
ShowMessage("\\n<Sully>Hello Mr. Turtle♪\nIt's nice to see you too, Mr. Pee Hole♪")
ShowMessageFace("syuree_fc1",0,0,2,23)
ShowMessage("\\n<Sully>Huh? Is there already some juice coming out of Mr. Hole?\nIt looks like you liked it when I was a bit forceful...♪")
ShowMessageFace("",0,0,2,24)
ShowMessage("\\n<Luka>......")
ShowMessageFace("",0,0,2,25)
ShowMessage("The friction from peeling back my skin...")
ShowMessage("And the unique touch of her tiny legs touching me.")
ShowMessageFace("",0,0,2,26)
ShowMessage("That stimulus was enough to make me tremble.")
ShowMessage("Looking down at my squirming form, Sully laughs.")
ShowMessageFace("syuree_fc1",0,0,2,27)
ShowMessage("\\n<Sully>Teehee...♪\nIs that all it took to get you to leak some?")
ShowMessageFace("syuree_fc1",0,0,2,28)
ShowMessage("\\n<Sully>All right, now for the rest all at once♪\nWith you like this, it may be way too much...♪")
PictureDisplay(5,"ev_syuree_h04",0,0,0,0,100,100,255,0)
ShowMessageFace("",0,0,2,29)
ShowMessage("She peels my foreskin down past the neck of my penis.")
ShowMessage("My glans is fully exposed in front of Sully.")
ShowMessageFace("syuree_fc1",0,0,2,30)
ShowMessage("\\n<Sully>Wah, amazing♪\nLook at it twitch all energetically♪")
ShowMessageFace("",0,0,2,31)
ShowMessage("The feeling of my own skin peeling away from my glans...")
ShowMessage("The stimulation brings a sweet sensation to my waist.")
ShowMessageFace("syuree_fc1",0,0,2,32)
ShowMessage("\\n<Sully>Just like a newborn, it's so pink and cute~♪\nIt's good to take care of phimosis♪")
ShowMessageFace("syuree_fc1",0,0,2,33)
ShowMessage("\\n<Sully>Now then, let's...\nEh? What are you doing...?")
ShowMessageFace("",0,0,2,34)
ShowMessage("My body trembles as Sully looks at me.")
ShowMessageFace("",0,0,2,35)
ShowMessage("\\n<Luka>Ah, aaaah...!")
RunCommonEvent(104)
PictureDisplay(5,"ev_syuree_h05",0,0,0,0,100,100,255,0)
RunCommonEvent(105)
ShowMessageFace("",0,0,2,36)
ShowMessage("I go over the edge.")
ShowMessage("The pleasure from peeling back my foreskin was too much.")
ShowMessageFace("syuree_fc1",2,0,2,37)
ShowMessage("\\n<Sully>No...Mr. Turtle, what happened!?\nI didn't do anything yet, and you already went Pew Pew?")
ShowMessageFace("syuree_fc1",2,0,2,38)
ShowMessage("\\n<Sully>Wah, it isn't stopping...\nI was just pulling it back, but you already came...")
ShowMessageFace("",0,0,2,39)
ShowMessage("My semen shoots out in front of Sully's surprised face.")
ShowMessage("The pitiful ejaculation leaves me feeling even weaker than before.")
PictureDisplay(5,"ev_syuree_h06",0,0,0,0,100,100,255,0)
ShowMessageFace("syuree_fc1",0,0,2,40)
ShowMessage("\\n<Sully>Hmm, you sure let out a lot~♪\nI'm still surprised you came so fast though~♪")
ShowMessageFace("syuree_fc1",0,0,2,41)
ShowMessage("\\n<Sully>Hey, can you see?\nYou shot semen eeeeverywhere♪")
ShowMessageFace("",0,0,2,42)
ShowMessage("Sully shows off the semen I shot onto her.")
ShowMessage("Seeing the proof of my easy defeat just makes me feel even worse.")
PictureDisplay(5,"ev_syuree_h07",0,0,0,0,100,100,255,0)
ShowMessageFace("syuree_fc1",0,0,2,43)
ShowMessage("\\n<Sully>Your penis interrupted the preparations, you know～?\nIt's not good to come right before being washed, you know~?")
ShowMessageFace("syuree_fc1",0,0,2,44)
ShowMessage("\\n<Sully>I was trying to be gentle due to your phimosis, too...♪\nBut to come so fast... You can't blame that on phimosis♪")
ShowMessageFace("syuree_fc1",0,0,2,45)
ShowMessage("\\n<Sully>Is Mr. Turtle just that sensitive?\nI'll have to take care of him properly then♪")
PictureDisplay(5,"ev_syuree_h08",0,0,0,0,100,100,255,0)
ShowMessageFace("syuree_fc1",0,0,2,46)
ShowMessage("\\n<Sully>Okay, let's continue then♪\nThis time, I'll wash it nice and clean♪")
ShowMessageFace("",0,0,2,47)
ShowMessage("Sully's abdomen opens up, showcasing a bizarre organ.")
ShowMessage("A mouth-like thing opens up, looking like a throat.")
ShowMessageFace("",0,0,2,48)
ShowMessage("Is that... What she's going to wash me with...?")
ShowMessageFace("",0,0,2,49)
ShowMessage("\\n<Luka>Ah, aaah...")
ShowMessageFace("syuree_fc1",0,0,2,50)
ShowMessage("\\n<Sully>Don't be scared~♪\nIt feels reeeeally good~♪")
ShowMessageFace("",0,0,2,51)
ShowMessage("Sully brings my penis closer to that opening...")
ShowMessageFace("",0,0,2,52)
ShowMessage("\\n<Luka>S...Stop...! Aaaah...!")
PictureDisplay(5,"ev_syuree_h09",0,0,0,0,100,100,255,0)
245(bytes(0x04,0x08,0x6f,0x3a,0x0d,0x52,0x50,0x47,0x3a,0x3a,0x42,0x47,0x53,0x08,0x3a,0x0a,0x40,0x6e,0x61,0x6d,0x65,0x49,0x22,0x15,0x6d,0x6f,0x6e,0x5f,0x68,0x73,0x65,0x61,0x6e,0x32,0x33,0x5f,0x77,0x61,0x73,0x68,0x06,0x3a,0x06,0x45,0x54,0x3a,0x0c,0x40,0x76,0x6f,0x6c,0x75,0x6d,0x65,0x69,0x55,0x3a,0x0b,0x40,0x70,0x69,0x74,0x63,0x68,0x69,0x69))
ShowMessageFace("",0,0,2,53)
ShowMessage("Then...")
ShowMessage("A strange sensation assaults my penis!")
ShowMessageFace("",0,0,2,54)
ShowMessage("Just thinking of that thing using me fills me with shame.")
ShowMessage("Tiny little bumps ring around its opening, too.")
ShowMessageFace("",0,0,2,55)
ShowMessage("\\n<Luka>Ahh, no...Nnngh...")
ShowMessageFace("syuree_fc1",0,0,2,56)
ShowMessage("\\n<Sully>I'm proud of my scrubbing, how is it?\nThe tiny bumps make it even nicer, too~♪")
ShowMessageFace("syuree_fc1",0,0,2,57)
ShowMessage("\\n<Sully>For a newborn like Mr. Turtle, is it too much?\nYour penis is so sensitive... Teehee.♪")
ShowMessageFace("syuree_fc1",0,0,2,58)
ShowMessage("\\n<Sully>Now to start the washing.\nDo your best not to come during it, ok?")
PictureDisplay(5,"ev_syuree_h10",0,0,0,0,100,100,255,0)
ShowMessageFace("",0,0,2,59)
ShowMessage("Liquid drips from Sully's breasts.")
ShowMessage("More comes from her scissors, sticking all over my penis.")
ShowMessageFace("",0,0,2,60)
ShowMessage("The strange liquid feels surprisingly good.")
ShowMessage("My waist twitches unconsciously at the sensation.")
ShowMessageFace("syuree_fc1",0,0,2,61)
ShowMessage("\\n<Sully>This is my washing juice♪\nI'll use this juice to scrub you clean...")
PictureDisplay(5,"ev_syuree_h11",0,0,0,0,100,100,255,0)
ShowMessageFace("",0,0,2,62)
ShowMessage("The viscous fluid starts to foam.")
ShowMessage("Instantly, the foam covers my whole lower body.")
ShowMessageFace("",0,0,2,63)
ShowMessage("\\n<Luka>Ah, aaah...!")
ShowMessageFace("",0,0,2,64)
ShowMessage("The foamy bubbles start to wash my penis.")
ShowMessage("Inside the bubbles, the tiny protrusions in her start to rub against me.")
ShowMessageFace("",0,0,2,65)
ShowMessage("My body starts to tremble from the intense stimulation.")
ShowMessageFace("syuree_fc1",0,0,2,66)
ShowMessage("\\n<Sully>Ahaha, it's amazing, right?♪\nI can see you twitching♪")
ShowMessageFace("syuree_fc1",0,0,2,67)
ShowMessage("\\n<Sully>I need to clean Mr. Turtle good, too♪\nAlso the back here...~♪")
ShowMessageFace("",0,0,2,68)
ShowMessage("\\n<Luka>Hnnngh...!!")
ShowMessageFace("",0,0,2,69)
ShowMessage("My back muscle is washed inside the bubbles.")
ShowMessage("My whole body trembles at the stimulation.")
ShowMessageFace("syuree_fc1",0,0,2,70)
ShowMessage("\\n<Sully>Scrub scrub♪\n...Aaah! I found somewhere extra dirty♪")
PictureDisplay(5,"ev_syuree_h12",0,0,0,0,100,100,255,0)
ShowMessageFace("",0,0,2,71)
ShowMessage("Sully starts to focus on the skin right under the neck of my penis.")
ShowMessageFace("syuree_fc1",0,0,2,72)
ShowMessage("\\n<Sully>Ehehe, I know...\nLots of dirt collects here, right?")
ShowMessageFace("",0,0,2,73)
ShowMessage("\\n<Luka>Ah, aaaah...!!")
ShowMessageFace("",0,0,2,74)
ShowMessage("The bubble scrub attacks my tip.")
ShowMessage("One of Sully's tiny protrusions rubs hard against it.")
ShowMessageFace("syuree_fc1",0,0,2,75)
ShowMessage("\\n<Sully>Mr. Penis must be so happy...\nIt's natural for little boys to get dirty here♪")
ShowMessageFace("syuree_fc1",0,0,2,76)
ShowMessage("\\n<Sully>Ehehe, you're just the same...♪\nYou always forget to wash here.♪")
ShowMessageFace("syuree_fc1",0,0,2,77)
ShowMessage("\\n<Sully>So leave it all to me♪\nI'll make it nice and clean~♪")
PictureDisplay(5,"ev_syuree_h13",0,0,0,0,100,100,255,0)
ShowMessageFace("",0,0,2,78)
ShowMessage("\\n<Luka>Ngh... Ah, aaaah...!")
ShowMessageFace("syuree_fc1",2,0,2,79)
ShowMessage("\\n<Sully>Arere? What's wrong~?\nIs your penis hurting?")
ShowMessageFace("",0,0,2,80)
ShowMessage("\\n<Luka>N-no... I'm going to come...")
ShowMessageFace("syuree_fc1",2,0,2,81)
ShowMessage("\\n<Sully>Ehhh~? That's way too fast.\nI mean, you just came a minute ago...?")
ShowMessageFace("",0,0,2,82)
ShowMessage("\\n<Luka>B-But... I can't...!")
ShowMessageFace("syuree_fc1",0,0,2,83)
ShowMessage("\\n<Sully>I mean, I only just started the washing, you know?\nI wasn't trying to make you come or anything...")
ShowMessageFace("",0,0,2,84)
ShowMessage("While scolding me, Sully's arms continue to move.")
ShowMessage("The sweet sensations overwhelm me, as my body goes numb.")
ShowMessageFace("",0,0,2,85)
ShowMessage("\\n<Luka>Aah...! Aaaaaah!!")
RunCommonEvent(104)
PictureDisplay(5,"ev_syuree_h14",0,0,0,0,100,100,255,0)
RunCommonEvent(105)
ShowMessageFace("",0,0,2,86)
ShowMessage("With a moan, I reach a climax as she washes me.")
ShowMessage("My semen scatters among the foam.")
ShowMessageFace("syuree_fc1",2,0,2,87)
ShowMessage("\\n<Sully>Ah, oh no...\nYou leaked...")
ShowMessageFace("syuree_fc1",2,0,2,88)
ShowMessage("\\n<Sully>I was just making progress, too...\nThen you pew pew'd everywhere...")
ShowMessageFace("",0,0,2,89)
ShowMessage("\\n<Luka>Nnngh...")
ShowMessageFace("",0,0,2,90)
ShowMessage("Her rebukes make me feel even worse about my miserable climax.")
ShowMessage("But Sully's arms don't move an inch away from my penis...")
PictureDisplay(5,"ev_syuree_h15",0,0,0,0,100,100,255,0)
ShowMessageFace("syuree_fc1",0,0,2,91)
ShowMessage("\\n<Sully>Just because it was touched a little bit...\nIt spewed everywhere? Is it really that weak?")
ShowMessageFace("syuree_fc1",0,0,2,92)
ShowMessage("\\n<Sully>So pathetic...\nIt's the first time I've ever seen one this weak.")
ShowMessageFace("",0,0,2,93)
ShowMessage("\\n<Luka>......")
ShowMessageFace("",0,0,2,94)
ShowMessage("Her words only make me feel worse about myself.")
ShowMessage("My eyes drop low as I shiver in shame.")
PictureDisplay(5,"ev_syuree_h16",0,0,0,0,100,100,255,0)
ShowMessageFace("syuree_fc1",0,0,2,95)
ShowMessage("\\n<Sully>Ahaha, don't look like that.♪\nEven if your penis is pathetic, I'll still clean it♪")
ShowMessageFace("syuree_fc1",0,0,2,96)
ShowMessage("\\n<Sully>If it's going to spew semen everywhere from just a tiny amount of touching...\nI guess I'll have to get alllll of your semen out before I can wash it.♪")
ShowMessageFace("",0,0,2,97)
ShowMessage("More liquid drips from her nipples.")
ShowMessage("It quickly drenches my penis, leaving it covered.")
ShowMessageFace("syuree_fc1",0,0,2,98)
ShowMessage("\\n<Sully>All right, it's time for me to get serious♪\nI'll make you leak it all out with both hands...♪")
PictureDisplay(5,"ev_syuree_h17",0,0,0,0,100,100,255,0)
ShowMessageFace("",0,0,2,99)
ShowMessage("Sully grabs hold of my penis with both hands!")
ShowMessageFace("",0,0,2,100)
ShowMessage("\\n<Luka>Aah...! Ah, aaaah...!!")
ShowMessageFace("",0,0,2,101)
ShowMessage("Her fingers wriggle against me from the base to the tip.")
ShowMessage("Together with the bubbles, it's a violent pleasure.")
ShowMessageFace("",0,0,2,102)
ShowMessage("\\n<Luka>Ah, aaah! It's too much...!")
ShowMessageFace("syuree_fc1",0,0,2,103)
ShowMessage("\\n<Sully>But your penis was naughty, you know?\nIf it could have endured properly, it would have had a nice wash instead♪")
ShowMessageFace("syuree_fc1",0,0,2,104)
ShowMessage("\\n<Sully>A weak, worthless penis only deserves to be bullied♪\nNow come on, keep coming until you're empty~♪")
ShowMessageFace("",0,0,2,105)
ShowMessage("\\n<Luka>D-don't do... Unnngh...!!")
ShowMessageFace("",0,0,2,106)
ShowMessage("My body convulses in the intense stroking.")
ShowMessage("But Sully doesn't let go of me, no matter how much I tremble.")
PictureDisplay(5,"ev_syuree_h18",0,0,0,0,100,100,255,0)
ShowMessageFace("syuree_fc1",0,0,2,107)
ShowMessage("\\n<Sully>Ehehe...There's no escape when I use both hands.\nYou have no choice but to release all of your semen~♪")
ShowMessageFace("syuree_fc1",0,0,2,108)
ShowMessage("\\n<Sully>I'll scrub every inch of it♪\nEvery corner will be sparkling clean~♪")
ShowMessageFace("",0,0,2,109)
ShowMessage("\\n<Luka>Ah... Ahii... Aaaah...!!")
ShowMessageFace("",0,0,2,110)
ShowMessage("The sweet, ticklish sensation is too much for me.")
ShowMessage("My penis is completely at her mercy.")
ShowMessageFace("",0,0,2,111)
ShowMessage("My waist gets number and number.")
ShowMessage("In no time at all, I reach another edge.")
ShowMessageFace("syuree_fc1",0,0,2,112)
ShowMessage("\\n<Sully>Ehehe, are you going to come...?\nYour penis is twitching, so I can tell~♪")
ShowMessageFace("syuree_fc1",0,0,2,113)
ShowMessage("\\n<Sully>Then, let's...")
PictureDisplay(5,"ev_syuree_h19",0,0,0,0,100,100,255,0)
ShowMessageFace("",0,0,2,114)
ShowMessage("Sully's scissors begin to violently squirm.")
ShowMessageFace("",0,0,2,115)
ShowMessage("The bubbles start to get even more intense.")
ShowMessage("My penis feels like it's stuck in a bubbly, foamy hell!")
ShowMessageFace("",0,0,2,116)
ShowMessage("\\n<Luka>Ah...! Aaaah!!")
ShowMessageFace("syuree_fc1",0,0,2,117)
ShowMessage("\\n<Sully>Hoora, it's a bully washing session~♪\nNow spurt out everywhere~♪")
ShowMessageFace("",0,0,2,118)
ShowMessage("Sully drives me quickly to another climax.")
ShowMessage("The stimulation is too much for even my tired body to withstand.")
ShowMessageFace("",0,0,2,119)
ShowMessage("\\n<Luka>Don't...! Ah, ah, aaah...")
RunCommonEvent(104)
PictureDisplay(5,"ev_syuree_h20",0,0,0,0,100,100,255,0)
RunCommonEvent(105)
ShowMessageFace("",0,0,2,120)
ShowMessage("I scream in crazed pleasure as my waist trembles.")
ShowMessage("But even as I come, her hands never stop washing me.")
PictureDisplay(5,"ev_syuree_h21",0,0,0,0,100,100,255,0)
ShowMessageFace("",0,0,2,121)
ShowMessage("\\n<Luka>Hyaaa...! Stop, let me rest...!")
ShowMessageFace("syuree_fc1",0,0,2,122)
ShowMessage("\\n<Sully>Didn't you hear me...?\nI need to extract all of your white stuff.")
ShowMessageFace("syuree_fc1",0,0,2,123)
ShowMessage("\\n<Sully>Now come on, shoot it all out.\nOtherwise it will never be clean and pretty.")
ShowMessageFace("",0,0,2,124)
ShowMessage("\\n<Luka>Stop, stooop...Aaaah!!")
ShowMessageFace("",0,0,2,125)
ShowMessage("She ignores me as she continues her ruthless washing.")
ShowMessage("My penis starts to pulse again in the foam...")
RunCommonEvent(104)
PictureDisplay(5,"ev_syuree_h22",0,0,0,0,100,100,255,0)
RunCommonEvent(105)
ShowMessageFace("",0,0,2,126)
ShowMessage("\\n<Luka>Ah...! Ah, aaaah...!!")
ShowMessageFace("",0,0,2,127)
ShowMessage("I'm easily brought to another consecutive climax.")
ShowMessage("My back archs forward in the crazy bubble pleasure.")
PictureDisplay(5,"ev_syuree_h23",0,0,0,0,100,100,255,0)
ShowMessageFace("syuree_fc1",0,0,2,128)
ShowMessage("\\n<Sully>Ahaha, you leaked again.\nI'll extract more and more!")
ShowMessageFace("",0,0,2,129)
ShowMessage("Relentlessly, carefully, ruthlessly...")
ShowMessage("She washes my penis, forcing pleasure into me.")
ShowMessageFace("",0,0,2,130)
ShowMessage("\\n<Luka>Ahii... A-Aaaah!!")
ShowMessageFace("",0,0,2,131)
ShowMessage("Stimulation just to force me to come more.")
ShowMessage("My penis twitches and writhes in this foamy torture.")
ShowMessageFace("",0,0,2,132)
ShowMessage("In agonizing ecstasy, I can do nothing but continue to climax.")
ShowMessage("No matter how I plead, she just continues...")
PictureDisplay(5,"ev_syuree_h24",0,0,0,0,100,100,255,0)
ShowMessageFace("",0,0,2,133)
ShowMessage("\\n<Luka>Ah... Unnngh...Ahiii...")
ShowMessageFace("syuree_fc1",0,0,2,134)
ShowMessage("\\n<Sully>What's wrong? Are you choking?\nAlso, your penis is twitching like crazy...")
ShowMessageFace("",0,0,2,135)
ShowMessage("A strange feeling rises up from my waist.")
ShowMessage("Right after my last, another forced orgasm is coming...")
ShowMessageFace("",0,0,2,136)
ShowMessage("\\n<Luka>Hya... Aaaah!!")
RunCommonEvent(104)
PictureDisplay(5,"ev_syuree_h25",0,0,0,0,100,100,255,0)
RunCommonEvent(105)
ShowMessageFace("syuree_fc1",1,0,2,137)
ShowMessage("\\n<Sully>Hya! What's this...!?")
ShowMessageFace("",0,0,2,138)
ShowMessage("But it wasn't semen that shot out.")
ShowMessage("A clear liquid shoots out instead of the milky white semen I expected.")
PictureDisplay(5,"ev_syuree_h26",0,0,0,0,100,100,255,0)
ShowMessageFace("syuree_fc1",0,0,2,139)
ShowMessage("\\n<Sully>I see, I know what this is~♪\nThis is male squirting♪")
ShowMessageFace("syuree_fc1",0,0,2,140)
ShowMessage("\\n<Sully>Hey, show me more♪\nSquirt more for me...♪")
ShowMessageFace("",0,0,2,141)
ShowMessage("\\n<Luka>D-don't...! It's still...!\nAh... Aaaah!!")
ShowMessageFace("",0,0,2,142)
ShowMessage("She starts washing me even harder as I'm still reeling from my orgasm.")
RunCommonEvent(104)
PictureDisplay(5,"ev_syuree_h27",0,0,0,0,100,100,255,0)
RunCommonEvent(105)
ShowMessageFace("",0,0,2,143)
ShowMessage("\\n<Luka>Hyaaa!")
ShowMessageFace("",0,0,2,144)
ShowMessage("Before my last climax faded, I'm sent to a new height.")
ShowMessage("It's as if a storm of pleasure is bouncing around in my brain.")
ShowMessageFace("",0,0,2,145)
ShowMessage("\\n<Luka>S-Sto... Stoooop~!")
ShowMessageFace("syuree_fc1",0,0,2,146)
ShowMessage("\\n<Sully>Ahaha, that's so interesting♪\nYou're twitching all over~♪")
ShowMessageFace("",0,0,2,147)
ShowMessage("Sully continues to wash me as she chuckles.")
ShowMessage("The clear liquid continues to shoot out under her merciless assault.")
ShowMessageFace("",0,0,2,148)
ShowMessage("\\n<Luka>Ahii... Ah, ah, aaaaah!!")
RunCommonEvent(104)
PictureDisplay(5,"ev_syuree_h28",0,0,0,0,100,100,255,0)
RunCommonEvent(105)
ShowMessageFace("",0,0,2,149)
ShowMessage("The storm of ecstasy doesn't subside.")
ShowMessage("My whole body convulses as the surge overwhelms my sanity.")
PictureDisplay(5,"ev_syuree_h29",0,0,0,0,100,100,255,0)
ShowMessageFace("",0,0,2,150)
ShowMessage("I start to feel my consciousness fade away in bliss.")
ShowMessage("As if to escape from the hell of pleasure, my body tries to cut off all sensation...")
ShowMessageFace("",0,0,2,151)
ShowMessage("\\n<Luka>Ah...! Ah, ah, aaah...")
ShowMessageFace("syuree_fc1",0,0,2,152)
ShowMessage("\\n<Sully>Are you fainting?\nThat's OK, take a little nap♪")
ShowMessageFace("syuree_fc1",0,0,2,153)
ShowMessage("\\n<Sully>After you fall asleep, leave it all to me♪\nI'll make you all nice and clean before you even know it♪")
ShowMessageFace("",0,0,2,154)
ShowMessage("\\n<Luka>Aaah...Ah...")
ShowMessageFace("",0,0,2,155)
ShowMessage("My spasms start to subside...")
ShowMessage("At last, all I see is darkness...")
221()
PictureClear(5)
246(1)
ShowMessageFace("",0,0,2,156)
ShowMessage("I fainted.")
ShowMessage("Unable to withstand the pleasure, my body shut itself off to protect itself.")
ShowMessageFace("",0,0,2,157)
ShowMessage("......")
ShowMessageFace("",0,0,2,158)
ShowMessage("Then...")
PictureDisplay(5,"ev_syuree_h30",0,0,0,0,100,100,255,0)
222()
ShowMessageFace("",0,0,2,159)
ShowMessage("\\n<Luka>Ah... Ugh...")
ShowMessageFace("syuree_fc1",0,0,2,160)
ShowMessage("\\n<Sully>Heeey~\nHow are you~♪")
ShowMessageFace("",0,0,2,161)
ShowMessage("My eyes open to Sully's happy face.")
ShowMessageFace("syuree_fc1",0,0,2,162)
ShowMessage("\\n<Sully>Look, your penis is nice and clean~♪\nSee? Isn't it just sparkling...?")
ShowMessageFace("",0,0,2,163)
ShowMessage("\\n<Luka>......")
PictureDisplay(5,"ev_syuree_h31",0,0,0,0,100,100,255,0)
ShowMessageFace("syuree_fc1",0,0,2,164)
ShowMessage("\\n<Sully>Ahaha♪\nWhen your penis got smaller, the skin went back~♪")
ShowMessageFace("syuree_fc1",0,0,2,165)
ShowMessage("\\n<Sully>See? See? Isn't it nice and clean?")
ShowMessageFace("",0,0,2,166)
ShowMessage("\\n<Luka>Yeah...")
ShowMessageFace("",0,0,2,167)
ShowMessage("Still in a somewhat dazed state, I can only nod and agree.")
ShowMessage("Overstimulated, all of my senses are fried.")
PictureDisplay(5,"ev_syuree_h32",0,0,0,0,100,100,255,0)
ShowMessageFace("syuree_fc1",0,0,2,168)
ShowMessage("\\n<Sully>Ok, you can go now♪\nIf it gets dirty again, I'll wash it for you♪")
ShowMessageFace("",0,0,2,169)
ShowMessage("Sully gazes at my penis with satisfaction as she observes her handiwork.")
ShowMessage("I barely manage to crawl out of her room.")
221()
PictureClear(5)
246(2)
ShowMessageFace("",0,0,2,170)
ShowMessage("......")
242(2)
Wait(120)
241(bytes(0x04,0x08,0x6f,0x3a,0x0d,0x52,0x50,0x47,0x3a,0x3a,0x42,0x47,0x4d,0x08,0x3a,0x0a,0x40,0x6e,0x61,0x6d,0x65,0x49,0x22,0x0c,0x63,0x61,0x73,0x74,0x6c,0x65,0x36,0x06,0x3a,0x06,0x45,0x54,0x3a,0x0c,0x40,0x76,0x6f,0x6c,0x75,0x6d,0x65,0x69,0x69,0x3a,0x0b,0x40,0x70,0x69,0x74,0x63,0x68,0x69,0x69))
0()
