﻿// EVENT 4686
Name "Vetala 1"

If(0,25,1)
 221()
 PictureClear(5)
 PictureClear(6)
 ShowMessageFace("",0,0,2,0)
 ShowMessage("......")
 242(2)
 Wait(120)
 241(bytes(0x04,0x08,0x6f,0x3a,0x0d,0x52,0x50,0x47,0x3a,0x3a,0x42,0x47,0x4d,0x08,0x3a,0x0a,0x40,0x6e,0x61,0x6d,0x65,0x49,0x22,0x0c,0x63,0x61,0x73,0x74,0x6c,0x65,0x36,0x06,0x3a,0x06,0x45,0x54,0x3a,0x0c,0x40,0x76,0x6f,0x6c,0x75,0x6d,0x65,0x69,0x69,0x3a,0x0b,0x40,0x70,0x69,0x74,0x63,0x68,0x69,0x69))
 EndEventProcessing()
 0()
EndIf()
PictureDisplay(5,"80_vetala_st02",0,0,0,0,100,100,255,0)
241(bytes(0x04,0x08,0x6f,0x3a,0x0d,0x52,0x50,0x47,0x3a,0x3a,0x42,0x47,0x4d,0x08,0x3a,0x0a,0x40,0x6e,0x61,0x6d,0x65,0x49,0x22,0x09,0x65,0x72,0x6f,0x31,0x06,0x3a,0x06,0x45,0x54,0x3a,0x0c,0x40,0x76,0x6f,0x6c,0x75,0x6d,0x65,0x69,0x69,0x3a,0x0b,0x40,0x70,0x69,0x74,0x63,0x68,0x69,0x69))
ShowMessageFace("vetala_fc1",1,0,2,1)
ShowMessage("\\n<Vetala>Teehee...\nYou want to play with your big sis?")
ShowMessageFace("",0,0,2,2)
ShowMessage("\\n<Luka>P-please...")
ShowMessageFace("",0,0,2,3)
ShowMessage("Vetala slides next to my defenseless body.\nWith her tall body, she holds me in her arms tightly.")
ShowMessageFace("",0,0,2,4)
ShowMessage("\\n<Luka>Wh-what...")
ShowMessageFace("vetala_fc1",1,0,2,5)
ShowMessage("\\n<Vetala>Ufufu, you wanted to play didn't you?\nThen with this mouth...")
ShowMessageFace("",0,0,2,6)
ShowMessage("The mouth on Vetala's body opens wide.")
ShowMessageFace("",0,0,2,7)
ShowMessage("\\n<Luka>Ugh... Aaaah...!!")
PictureDisplay(5,"ev_vetala_ha01",0,0,0,0,100,100,0,0)
PictureMove(5,null,0,0,0,0,100,100,255,0,30,true)
ShowMessageFace("",0,0,2,8)
ShowMessage("And with a slurp, she swallows my body!")
ShowMessageFace("vetala_fc1",1,0,2,9)
ShowMessage("\\n<Vetala>Boy... Your big sis will eat you now.\nI'll melt and digest you and you'll become my nourishment...")
ShowMessageFace("",0,0,2,10)
ShowMessage("\\n<Luka>Th-that... I don't want that!")
ShowMessageFace("",0,0,2,11)
ShowMessage("I feel the inside of Vetala's body wrapping around my own.\nThe mucous membranes inside her body vibrate and rub me all over.")
ShowMessageFace("vetala_fc1",1,0,2,12)
ShowMessage("\\n<Vetala>Right, I can't eat you...\nSo I'll give you one last chance, boy.")
ShowMessageFace("vetala_fc1",1,0,2,13)
ShowMessage("\\n<Vetala>If you lose boy... I won't eat you.\nHowever, if you win...")
ShowMessageFace("vetala_fc1",1,0,2,14)
ShowMessage("\\n<Vetala>Fufuu, I will eat you.")
ShowMessageFace("",0,0,2,15)
ShowMessage("\\n<Luka>If I lose, you won't eat me...?")
ShowMessageFace("",0,0,2,16)
ShowMessage("Normally, it's the other way around...\nVetala smiles at my confused face.")
ShowMessageFace("vetala_fc1",1,0,2,17)
ShowMessage("\\n<Vetala>Fufuu, you'll understand soon enough.\nIt won't be bad...")
ShowMessageFace("",0,0,2,18)
ShowMessage("\\n<Luka>What the...\nAh, aaaah...!")
PictureDisplay(5,"ev_vetala_ha02",0,0,0,0,100,100,255,0)
245(bytes(0x04,0x08,0x6f,0x3a,0x0d,0x52,0x50,0x47,0x3a,0x3a,0x42,0x47,0x53,0x08,0x3a,0x0a,0x40,0x6e,0x61,0x6d,0x65,0x49,0x22,0x1e,0x6d,0x6f,0x6e,0x5f,0x68,0x73,0x65,0x61,0x6e,0x31,0x31,0x5f,0x69,0x6e,0x6e,0x65,0x72,0x77,0x6f,0x72,0x6b,0x73,0x5f,0x63,0x31,0x06,0x3a,0x06,0x45,0x54,0x3a,0x0c,0x40,0x76,0x6f,0x6c,0x75,0x6d,0x65,0x69,0x55,0x3a,0x0b,0x40,0x70,0x69,0x74,0x63,0x68,0x69,0x69))
ShowMessageFace("",0,0,2,19)
ShowMessage("Vetala's body starts vibrating and squeezing.\nThe soft flesh surrounding my body starts moving in a wave-like motion.")
ShowMessageFace("",0,0,2,20)
ShowMessage("With my clothes already gone, her soft flesh is in direct contact with my skin. The gentle waves of the soft flesh mildly stimulate my entire body.")
ShowMessageFace("",0,0,2,21)
ShowMessage("\\n<Luka>Ah, ugh...")
PictureDisplay(5,"ev_vetala_ha03",0,0,0,0,100,100,255,0)
ShowMessageFace("vetala_fc1",1,0,2,22)
ShowMessage("\\n<Vetala>Well then, I'll taste your whole body...\nInside your big sis' body...")
ShowMessageFace("",0,0,2,23)
ShowMessage("\\n<Luka>Ah... Hyaaa...!!")
ShowMessageFace("",0,0,2,24)
ShowMessage("Tentacles, or rather tongues crawl all over my body...\nIt feels as if my whole body is licked and tasted.")
ShowMessageFace("vetala_fc1",1,0,2,25)
ShowMessage("\\n<Vetala>Haha♪ You're tasty...\nYour body seems to be of high quality, boy.")
ShowMessageFace("vetala_fc1",1,0,2,26)
ShowMessage("\\n<Vetala>I want to eat your semen-filled balls...\nSwallow you whole and melt you to mush...")
ShowMessageFace("",0,0,2,27)
ShowMessage("A tongue creeps over to my balls.\nIt starts playing with them and tasting the surface of my scrotum...")
ShowMessageFace("vetala_fc1",1,0,2,28)
ShowMessage("\\n<Vetala>Your nipples got hard from this...\nEven though you're a boy, how naughty...fufufu. ♪")
ShowMessageFace("",0,0,2,29)
ShowMessage("My left and right nipples are overrun by her tongues, giving me sweet pleasure. The tongues roll around my nipples and tease them, forcing me to feel pleasure.")
ShowMessageFace("",0,0,2,30)
ShowMessage("\\n<Luka>Ngh... Aaah...")
ShowMessageFace("vetala_fc1",1,0,2,31)
ShowMessage("\\n<Vetala>But the most delicious part is...here. ♪")
ShowMessageFace("",0,0,2,32)
ShowMessage("At last, a long tongue extends to my penis.\nIt winds around my now fully erect penis.")
ShowMessageFace("",0,0,2,33)
ShowMessage("\\n<Luka>Ah... Aaaah...!!")
ShowMessageFace("",0,0,2,34)
ShowMessage("My whole penis from root to glans is licked.\nThe tongue crawls all over my penis, tasting every last bit of it.")
ShowMessageFace("vetala_fc1",1,0,2,35)
ShowMessage("\\n<Vetala>Out of all of a man's body, the most delicious part is here. Boy, your penis, I want to melt it...")
ShowMessageFace("vetala_fc1",1,0,2,36)
ShowMessage("\\n<Vetala>Teehee... How do you like big sis' tongue skills? I'll lick you all over inside my body, it'll feel like heaven...")
ShowMessageFace("",0,0,2,37)
ShowMessage("Tongues cling and run all over my body, stimulating me.\nThey focus especially on my penis, giving me agonizing pleasure.")
ShowMessageFace("",0,0,2,38)
ShowMessage("\\n<Luka>Ngh... Aaah...")
ShowMessageFace("vetala_fc1",1,0,2,39)
ShowMessage("\\n<Vetala>Ufufu... What a sensitive boy.\nEven though I'm just tasting you, you let out such cute moans. ♪")
ShowMessageFace("vetala_fc1",1,0,2,40)
ShowMessage("\\n<Vetala>Ara? Your penis is trembling.\nYou're already coming...? Finish then.")
ShowMessageFace("",0,0,2,41)
ShowMessage("Her slippery tongue glosses over my penis, licking it clean. It's carefully stimulating my glans and my back muscle.")
ShowMessageFace("",0,0,2,42)
ShowMessage("\\n<Luka>Huaaa... N-no!!")
ShowMessageFace("",0,0,2,43)
ShowMessage("I sense the impending feeling of ejaculation rising from my waist. I can't resist this sudden feeling of release...")
ShowMessageFace("",0,0,2,44)
ShowMessage("\\n<Luka>Ah... Aaah...")
RunCommonEvent(104)
PictureDisplay(5,"ev_vetala_ha04",0,0,0,0,100,100,255,0)
RunCommonEvent(105)
ShowMessageFace("",0,0,2,45)
ShowMessage("A steady stream of semen shoots out from my penis.\nI finally come as my whole body is being licked.")
ShowMessageFace("vetala_fc1",1,0,2,46)
ShowMessage("\\n<Vetala>Arara, you already came...♪\nBoy, you lost so quickly...")
ShowMessageFace("vetala_fc1",1,0,2,47)
ShowMessage("\\n<Vetala>Ufufu...\nThe boy's semen is sticky and tasty...♪")
ShowMessageFace("",0,0,2,48)
ShowMessage("\\n<Luka>Ah... Aaah...")
ShowMessageFace("",0,0,2,49)
ShowMessage("The tongue wrapped around my penis starts licking the semen off it. It tastes the semen thoroughly and seems to be absorbing it.")
ShowMessageFace("vetala_fc1",1,0,2,50)
ShowMessage("\\n<Vetala>Nnn... *lick* *slurp* *burp* ♪")
ShowMessageFace("vetala_fc1",1,0,2,51)
ShowMessage("\\n<Vetala>I'm sorry, excuse my manners...\nBoy, your semen was delicious.")
PictureDisplay(5,"ev_vetala_ha05",0,0,0,0,100,100,255,0)
ShowMessageFace("",0,0,2,52)
ShowMessage("\\n<Luka>Aaaaah...")
ShowMessageFace("",0,0,2,53)
ShowMessage("I feel very weak from being inside Vetala's mouth.\nMy whole body is covered in her saliva.")
ShowMessageFace("vetala_fc1",1,0,2,54)
ShowMessage("\\n<Vetala>Ufufu... Big sis was able to eat the boy's children. Your hard work wasted, your sperm just turned to food.")
ShowMessageFace("vetala_fc1",1,0,2,55)
ShowMessage("\\n<Vetala>Boy, you can't defeat me like this...\nI'll let you go as I promised.")
ShowMessageFace("",0,0,2,56)
ShowMessage("\\n<Luka>R-really, are you letting me go?")
ShowMessageFace("vetala_fc1",1,0,2,57)
ShowMessage("\\n<Vetala>Mhm... Big sis doesn't cheat.\nIf you won boy, I would have done something like this...")
ShowMessageFace("",0,0,2,58)
ShowMessage("\\n<Luka>Eh? Ah, aaaaaah!!")
PictureDisplay(5,"ev_vetala_ha06",0,0,0,0,100,100,255,0)
ShowMessageFace("",0,0,2,59)
ShowMessage("Her inside narrows sharply, squeezing me tight.\nAt the same time, all her tongues start wriggling all over me.")
ShowMessageFace("",0,0,2,60)
ShowMessage("Her soft flesh is squeezing and caressing my whole body.\nAnd her tongues leave no spot of my body untouched!")
ShowMessageFace("vetala_fc1",1,0,2,61)
ShowMessage("\\n<Vetala>Hooora, hora I would have squeezed you. ♪\nLicked and melted you...♪")
ShowMessageFace("vetala_fc1",1,0,2,62)
ShowMessage("\\n<Vetala>Would have turned you to mush...\nYou could have been eaten by big sis...♪")
ShowMessageFace("",0,0,2,63)
ShowMessage("\\n<Luka>Aah...! Aaaaaah!!")
ShowMessageFace("",0,0,2,64)
ShowMessage("The crazy stimulation from her predation skills wrap around my whole body. The feeling of being crushed and licked devastates me.")
ShowMessageFace("",0,0,2,65)
ShowMessage("It gives a man the most exquisite pleasure before his final moments. A once in a lifetime pleasure that you can only taste in exchange for your life...")
ShowMessageFace("vetala_fc1",1,0,2,66)
ShowMessage("\\n<Vetala>Ufufu, don't worry...\nI told you I'll let you go if you lost.")
ShowMessageFace("vetala_fc1",1,0,2,67)
ShowMessage("\\n<Vetala>If the boy won, he could have been eaten like this... Don't worry, you lost so you can now be on your way.")
ShowMessageFace("",0,0,2,68)
ShowMessage("\\n<Luka>Hya... Aaaah!!")
RunCommonEvent(104)
PictureDisplay(5,"ev_vetala_ha08",0,0,0,0,100,100,255,0)
RunCommonEvent(105)
ShowMessageFace("",0,0,2,69)
ShowMessage("A steady stream of semen erupts from my penis.\nI come while being preyed upon...")
ShowMessageFace("vetala_fc1",1,0,2,70)
ShowMessage("\\n<Vetala>Arara, you came again.\nWhat a pathetic boy, teehee...♪")
ShowMessageFace("vetala_fc1",1,0,2,71)
ShowMessage("\\n<Vetala>I guess it can't be helped.\nIt feels very good to be eaten.")
ShowMessageFace("",0,0,2,72)
ShowMessage("\\n<Luka>Ugh... Ah! Aaaah!!")
ShowMessageFace("",0,0,2,73)
ShowMessage("*lick* *lick* Her tongue continues to torture my body with pleasure. I relax in the soft flesh of her body.")
ShowMessageFace("",0,0,2,74)
ShowMessage("This paralyzing pleasure takes away men's lives...\nI taste it and it drives me crazy.")
ShowMessageFace("",0,0,2,75)
ShowMessage("\\n<Luka>Aiyee...! Ah, aaaah!!")
RunCommonEvent(104)
PictureDisplay(5,"ev_vetala_ha09",0,0,0,0,100,100,255,0)
RunCommonEvent(105)
ShowMessageFace("",0,0,2,76)
ShowMessage("Semen streams out of me once more.\nIn this swamp of pleasure, I feel like I'm turning to mush.")
ShowMessageFace("",0,0,2,77)
ShowMessage("I want to melt like this.\nI want to be dissolved while feeling this sweet pleasure...")
ShowMessageFace("vetala_fc1",1,0,2,78)
ShowMessage("\\n<Vetala>Ufufu... If you won then you would have got to feel this. You could have been eaten like this. Teehee...")
ShowMessageFace("vetala_fc1",1,0,2,79)
ShowMessage("\\n<Vetala>But, I can't eat the boy.\nAll right...")
ShowMessageFace("",0,0,2,80)
ShowMessage("\\n<Luka>...Eh?")
246(1)
PictureDisplay(5,"ev_vetala_ha10",0,0,0,0,100,100,255,0)
ShowMessageFace("",0,0,2,81)
ShowMessage("With a *plop!* sound, my body is released from inside her.\nThe cool air rubs against my mucus-coated body.")
ShowMessageFace("",0,0,2,82)
ShowMessage("\\n<Luka>Ah... Aaah...")
ShowMessageFace("vetala_fc1",1,0,2,83)
ShowMessage("\\n<Vetala>What's with that face? I'm wondering what's wrong...♪ Didn't I say I would release the boy if he lost?")
ShowMessageFace("",0,0,2,84)
ShowMessage("\\n<Luka>N...no way...")
ShowMessageFace("vetala_fc1",1,0,2,85)
ShowMessage("\\n<Vetala>Hooora, you can go.\nYou played with your big sis enough, right?")
ShowMessageFace("",0,0,2,86)
ShowMessage("\\n<Luka>......")
ShowMessageFace("",0,0,2,87)
ShowMessage("But, my body doesn't move.\nIf I wanted to escape now, I could.")
ShowMessageFace("vetala_fc1",1,0,2,88)
ShowMessage("\\n<Vetala>Ara, what's wrong?\nHooora, you can escape... Teehee...♪")
ShowMessageFace("",0,0,2,89)
ShowMessage("My body remembers the pleasures of her predation...\nIt wins over my mind which desperately screams for me to escape.")
ShowMessageFace("",0,0,2,90)
ShowMessage("I want to be eaten...\nThis ruinous desire prevents me from moving.")
ShowMessageFace("vetala_fc1",1,0,2,91)
ShowMessage("\\n<Vetala>Perhaps... You want big sis to eat you?")
ShowMessageFace("",0,0,2,92)
ShowMessage("\\n<Luka>N...no way... I-I don't want to die.")
ShowMessageFace("",0,0,2,93)
ShowMessage("My sanity returns at the last moment and my breath stops for a moment.")
ShowMessage("A sadistic smile appears on Vetala's face.")
ShowMessageFace("vetala_fc1",1,0,2,94)
ShowMessage("\\n<Vetala>It doesn't matter boy...\nYour penis is twitching like crazy...")
ShowMessageFace("",0,0,2,95)
ShowMessage("\\n<Luka>......")
ShowMessageFace("vetala_fc1",1,0,2,96)
ShowMessage("\\n<Vetala>If you want me to eat you, just say so.\nIt'll be different from what we agreed upon but I guess it can't be helped if you ask.")
ShowMessageFace("vetala_fc1",1,0,2,97)
ShowMessage("\\n<Vetala>If you beg me...\nI'll eat you, just like I did before.")
ShowMessageFace("",0,0,2,98)
ShowMessage("\\n<Luka>Wh-who would...s-such a thing...")
ShowMessageFace("",0,0,2,99)
ShowMessage("I should take my leave as fast as I can...")
ShowMessage("Even if I think that, my legs refuse to move.")
ShowMessageFace("",0,0,2,100)
ShowMessage("It's not weakness that's holding my legs from moving, I'd still be able to walk.")
ShowMessage("And yet...")
ShowMessageFace("vetala_fc1",1,0,2,101)
ShowMessage("\\n<Vetala>What's wrong? Not going to run away?")
ShowMessageFace("",0,0,2,102)
ShowMessage("\\n<Luka>......")
ShowMessageFace("",0,0,2,103)
ShowMessage("I tasted that pleasure of being preyed upon and now it's engraved in my mind. My body not only wants, it's demanding it.")
ShowMessageFace("",0,0,2,104)
ShowMessage("Even though I can escape, I...")
ShowMessageFace("",0,0,2,105)
ShowMessage("\\n<Luka>E-eat...")
ShowMessageFace("",0,0,2,106)
ShowMessage("I make a ruinous, yet fascinating choice.\nMy instincts talked, not my mind...")
ShowMessageFace("vetala_fc1",1,0,2,107)
ShowMessage("\\n<Vetala>Boy, did you say something?\nTell your big sis properly what you want...")
ShowMessageFace("",0,0,2,108)
ShowMessage("\\n<Luka>I-I want to be eaten!")
ShowMessageFace("vetala_fc1",1,0,2,109)
ShowMessage("\\n<Vetala>Teehee...I told you.\nWell I guess it can't be helped, if the boy begged.")
PictureDisplay(5,"ev_vetala_ha12",0,0,0,0,100,100,255,0)
ShowMessageFace("",0,0,2,110)
ShowMessage("A long tongue stretches out from Vetala's torso.\nIt gently wraps around my body...")
ShowMessageFace("",0,0,2,111)
ShowMessage("\\n<Luka>Ah, aaaah!!")
If(0,95,0)
 246(2)
 221()
 ShowMessageFace("",0,0,2,112)
 ShowMessage("＊＊＊The rest of the vore scene is being skipped.＊＊＊")
 JumpToLabel("zzz")
 0()
EndIf()
PictureDisplay(5,"ev_vetala_ha13",0,0,0,0,100,100,255,0)
245(bytes(0x04,0x08,0x6f,0x3a,0x0d,0x52,0x50,0x47,0x3a,0x3a,0x42,0x47,0x53,0x08,0x3a,0x0a,0x40,0x6e,0x61,0x6d,0x65,0x49,0x22,0x1e,0x6d,0x6f,0x6e,0x5f,0x68,0x73,0x65,0x61,0x6e,0x31,0x31,0x5f,0x69,0x6e,0x6e,0x65,0x72,0x77,0x6f,0x72,0x6b,0x73,0x5f,0x63,0x31,0x06,0x3a,0x06,0x45,0x54,0x3a,0x0c,0x40,0x76,0x6f,0x6c,0x75,0x6d,0x65,0x69,0x55,0x3a,0x0b,0x40,0x70,0x69,0x74,0x63,0x68,0x69,0x69))
ShowMessageFace("",0,0,2,113)
ShowMessage("And in the blink of an eye, I'm back inside Vetala's body!\nHer predation organ gently wraps around my whole body...")
ShowMessageFace("vetala_fc1",1,0,2,114)
ShowMessage("\\n<Vetala>Hooora, is this what you wanted?\nYou wanted big sis to lick and suck and melt you, right?")
ShowMessageFace("vetala_fc1",1,0,2,115)
ShowMessage("\\n<Vetala>Taste it fully, the pleasure you traded your life for... Enjoy the feeling of being melted until your last moments...")
ShowMessageFace("",0,0,2,116)
ShowMessage("\\n<Luka>Ah... Aaaah!!")
PictureDisplay(5,"ev_vetala_ha14",0,0,0,0,100,100,255,0)
ShowMessageFace("",0,0,2,117)
ShowMessage("The soft flesh tightly wraps around my body, squeezing, rubbing, and caressing me as it melts me. Its wavy motions slowly digest me.")
ShowMessageFace("",0,0,2,118)
ShowMessage("My body is hit with a crazy pleasure as her slimy digestion organ keeps stimulating me. I'm being mercilessly digested inside Vetala's body...")
ShowMessageFace("vetala_fc1",1,0,2,119)
ShowMessage("\\n<Vetala>Well, does it feel good?\nWas it worth trading your life for this?")
ShowMessageFace("",0,0,2,120)
ShowMessage("\\n<Luka>Aiyee...! Ah, ah, aaaah!!")
RunCommonEvent(104)
PictureDisplay(5,"ev_vetala_ha15",0,0,0,0,100,100,255,0)
RunCommonEvent(105)
ShowMessageFace("",0,0,2,121)
ShowMessage("My semen gushes out of my penis while it's being played with. I feel like my penis is melting from all this slimy pleasure...")
ShowMessageFace("vetala_fc1",1,0,2,122)
ShowMessage("\\n<Vetala>This is the pleasure of being digested...\nOf course your penis will also melt...")
ShowMessageFace("",0,0,2,123)
ShowMessage("\\n<Luka>Hya... Ah, aaah...")
RunCommonEvent(104)
RunCommonEvent(105)
ShowMessageFace("",0,0,2,124)
ShowMessage("Semen keeps leaking out of me until there's none left.\nI understand that my body is being melted and turned into mush...")
ShowMessageFace("",0,0,2,125)
ShowMessage("The crazy pleasure erodes my brain and I can't keep my sanity any longer. However, my whole body was soaked in ecstasy as I was melted.")
ShowMessageFace("",0,0,2,126)
ShowMessage("\\n<Luka>Huaaa... Aaah...")
RunCommonEvent(104)
RunCommonEvent(105)
ShowMessageFace("vetala_fc1",1,0,2,127)
ShowMessage("\\n<Vetala>Teehee... The boy's body will completely melt. ♪\nI hope you thoroughly enjoy it.")
ShowMessageFace("vetala_fc1",1,0,2,128)
ShowMessage("\\n<Vetala>Now, turn into food for your big sis...\nGoodbye boy.")
ShowMessageFace("",0,0,2,129)
ShowMessage("\\n<Luka>Ah...ah...")
RunCommonEvent(104)
RunCommonEvent(105)
221()
PictureClear(5)
246(2)
ShowMessageFace("",0,0,2,130)
ShowMessage("At last, completely drowned in ecstasy, I feel my consciousness fade away. Thus, I was eaten by Vetala.")
ShowMessageFace("",0,0,2,131)
ShowMessage("Even though I could have saved myself, I chose to be eaten.\nAnd so, I die a miserable death.")
ShowMessageFace("",0,0,2,132)
ShowMessage("......")
DefineLabel("zzz")
242(2)
Wait(120)
ChangeVariable(1002,1002,0,0,0)
216(1)
355("forced_transfer(154,18,52)")
355("release_temp_actors")
355("$game_map.screen.clear")
0()
