// EVENT 0307
Name "Bunny Event"

PictureDisplay(5,"80_bunnyslime_st04",0,0,0,0,100,100,255,0)
ShowMessageFace("bunnyslime_fc1",2,0,2,1)
ShowMessage("\\n<Bunni>I eat so many carrots, yet I still haven't become a rabbit...")
If(0,6,0)
 ShowMessageFace("sonia_fc4",0,0,2,2)
 ShowMessage("\\n<Sonya>Look, eating carrots won't ever turn you into a rabbit.")
 0()
Else()
 ShowMessageFace("ruka_fc1",0,0,2,3)
 ShowMessage("\\n<Luka>I don't think you can become a rabbit from eating carrots...")
 0()
EndIf()
PictureDisplay(5,"80_bunnyslime_st02",0,0,0,0,100,100,255,0)
ShowMessageFace("bunnyslime_fc1",1,0,2,4)
ShowMessage("\\n<Bunni>You're wrong!\nI just have to eat way more and then I'll show you!")
PictureClear(5)
ShowMessageFace("",0,0,2,5)
ShowMessage("As Bunni stuffs her slime with carrots, one of my companions walks over to her.")
241(bytes(0x04,0x08,0x6f,0x3a,0x0d,0x52,0x50,0x47,0x3a,0x3a,0x42,0x47,0x4d,0x08,0x3a,0x0a,0x40,0x6e,0x61,0x6d,0x65,0x49,0x22,0x0a,0x73,0x74,0x65,0x69,0x6e,0x06,0x3a,0x06,0x45,0x54,0x3a,0x0c,0x40,0x76,0x6f,0x6c,0x75,0x6d,0x65,0x69,0x69,0x3a,0x0b,0x40,0x70,0x69,0x74,0x63,0x68,0x69,0x69))
PictureDisplay(5,"80_stein_st31",0,0,0,0,100,100,0,0)
PictureMove(5,null,0,0,0,0,100,100,255,0,30,true)
205(75,bytes(0x04,0x08,0x6f,0x3a,0x13,0x52,0x50,0x47,0x3a,0x3a,0x4d,0x6f,0x76,0x65,0x52,0x6f,0x75,0x74,0x65,0x09,0x3a,0x0c,0x40,0x72,0x65,0x70,0x65,0x61,0x74,0x46,0x3a,0x0f,0x40,0x73,0x6b,0x69,0x70,0x70,0x61,0x62,0x6c,0x65,0x46,0x3a,0x0a,0x40,0x77,0x61,0x69,0x74,0x54,0x3a,0x0a,0x40,0x6c,0x69,0x73,0x74,0x5b,0x08,0x6f,0x3a,0x15,0x52,0x50,0x47,0x3a,0x3a,0x4d,0x6f,0x76,0x65,0x43,0x6f,0x6d,0x6d,0x61,0x6e,0x64,0x07,0x3a,0x0a,0x40,0x63,0x6f,0x64,0x65,0x69,0x29,0x3a,0x10,0x40,0x70,0x61,0x72,0x61,0x6d,0x65,0x74,0x65,0x72,0x73,0x5b,0x00,0x6f,0x3b,0x0a,0x07,0x3b,0x0b,0x69,0x1e,0x3b,0x0c,0x5b,0x00,0x6f,0x3b,0x0a,0x07,0x3b,0x0b,0x69,0x00,0x3b,0x0c,0x5b,0x00))
505(bytes(0x04,0x08,0x6f,0x3a,0x15,0x52,0x50,0x47,0x3a,0x3a,0x4d,0x6f,0x76,0x65,0x43,0x6f,0x6d,0x6d,0x61,0x6e,0x64,0x07,0x3a,0x0a,0x40,0x63,0x6f,0x64,0x65,0x69,0x29,0x3a,0x10,0x40,0x70,0x61,0x72,0x61,0x6d,0x65,0x74,0x65,0x72,0x73,0x5b,0x00))
505(bytes(0x04,0x08,0x6f,0x3a,0x15,0x52,0x50,0x47,0x3a,0x3a,0x4d,0x6f,0x76,0x65,0x43,0x6f,0x6d,0x6d,0x61,0x6e,0x64,0x07,0x3a,0x0a,0x40,0x63,0x6f,0x64,0x65,0x69,0x1e,0x3a,0x10,0x40,0x70,0x61,0x72,0x61,0x6d,0x65,0x74,0x65,0x72,0x73,0x5b,0x00))
ShowMessageFace("stein_fc2",0,0,2,6)
ShowMessage("\\n<Promestein>My name is Promestein. I'm a seeker of truth and knowledge.")
ShowMessageFace("stein_fc2",0,0,2,7)
ShowMessage("\\n<Promestein>So you want to become a rabbit? My research may be able to grant you your wish.")
PictureDisplay(5,"80_bunnyslime_st01",0,0,-150,0,100,100,255,0)
PictureDisplay(6,"80_stein_st31",0,0,150,0,100,100,255,0)
ShowMessageFace("bunnyslime_fc1",0,0,2,8)
ShowMessage("\\n<Bunni>...eh? You can make me a rabbit?\nOkay, do it!")
ShowMessageFace("stein_fc2",0,0,2,9)
ShowMessage("\\n<Promestein>Okay, I need to inject this medicine into you. It will change your body into that of a beast.")
ShowMessageFace("bunnyslime_fc1",0,0,2,10)
ShowMessage("\\n<Bunni>Medicine? Oh, so it's like carrot extract!")
ShowMessageFace("stein_fc2",0,0,2,11)
ShowMessage("\\n<Promestein>This is a sample of beast DNA that...")
PictureDisplay(6,"80_stein_st32",0,0,150,0,100,100,255,0)
ShowMessageFace("stein_fc2",1,0,2,12)
ShowMessage("\\n<Promestein>...never mind. You're right, it's carrot extract.")
If(0,6,0)
 ShowMessageFace("sonia_fc3",2,0,2,13)
 ShowMessage("\\n<Sonya>It most assuredly is not!")
 0()
Else()
 ShowMessageFace("ruka_fc1",0,0,2,14)
 ShowMessage("\\n<Luka>It most assuredly is not!")
 0()
EndIf()
ShowMessageFace("stein_fc2",1,0,2,15)
ShowMessage("\\n<Promestein>All right, hold out your arm.\nThat's good... and there!")
250(bytes(0x04,0x08,0x6f,0x3a,0x0c,0x52,0x50,0x47,0x3a,0x3a,0x53,0x45,0x08,0x3a,0x0a,0x40,0x6e,0x61,0x6d,0x65,0x49,0x22,0x0e,0x6d,0x6f,0x6e,0x5f,0x70,0x6f,0x77,0x65,0x72,0x06,0x3a,0x06,0x45,0x54,0x3a,0x0b,0x40,0x70,0x69,0x74,0x63,0x68,0x69,0x69,0x3a,0x0c,0x40,0x76,0x6f,0x6c,0x75,0x6d,0x65,0x69,0x69))
ShowMessageFace("bunnyslime_fc1",0,0,2,16)
ShowMessage("\\n<Bunni>Oooh? Ooooooooooh, I feel something happening!")
250(bytes(0x04,0x08,0x6f,0x3a,0x0c,0x52,0x50,0x47,0x3a,0x3a,0x53,0x45,0x08,0x3a,0x0a,0x40,0x6e,0x61,0x6d,0x65,0x49,0x22,0x0d,0x6d,0x6f,0x6e,0x5f,0x77,0x61,0x72,0x6d,0x06,0x3a,0x06,0x45,0x54,0x3a,0x0b,0x40,0x70,0x69,0x74,0x63,0x68,0x69,0x69,0x3a,0x0c,0x40,0x76,0x6f,0x6c,0x75,0x6d,0x65,0x69,0x69))
PictureDisplay(10,"sys_white",0,0,0,0,100,100,0,0)
PictureMove(10,null,0,0,0,0,100,100,255,0,30,true)
PictureMove(10,null,0,0,0,0,100,100,0,0,30,true)
PictureClear(10)
250(bytes(0x04,0x08,0x6f,0x3a,0x0c,0x52,0x50,0x47,0x3a,0x3a,0x53,0x45,0x08,0x3a,0x0a,0x40,0x6e,0x61,0x6d,0x65,0x49,0x22,0x0d,0x4d,0x6f,0x6e,0x73,0x74,0x65,0x72,0x31,0x06,0x3a,0x06,0x45,0x54,0x3a,0x0b,0x40,0x70,0x69,0x74,0x63,0x68,0x69,0x69,0x3a,0x0c,0x40,0x76,0x6f,0x6c,0x75,0x6d,0x65,0x69,0x55))
ShowMessageFace("bunnyslime_fc1",0,0,2,17)
ShowMessage("\\n<Bunni>Grrrrr!")
321(54,232)
ShowMessageFace("",0,0,2,18)
ShowMessage("Bunni became a beast monster!")
ShowMessageFace("stein_fc2",1,0,2,19)
ShowMessage("\\n<Promestein>The experiment appears to have succeeded. You're manifesting the genes of a beast-type monster.")
ShowMessageFace("stein_fc2",1,0,2,20)
ShowMessage("\\n<Promestein>You can always change back to a slime at Ilias Temple. Now excuse me, I need to go write a report on these results.")
PictureClear(5)
PictureClear(6)
241(bytes(0x04,0x08,0x6f,0x3a,0x0d,0x52,0x50,0x47,0x3a,0x3a,0x42,0x47,0x4d,0x08,0x3a,0x0a,0x40,0x6e,0x61,0x6d,0x65,0x49,0x22,0x0a,0x63,0x69,0x74,0x79,0x31,0x06,0x3a,0x06,0x45,0x54,0x3a,0x0c,0x40,0x76,0x6f,0x6c,0x75,0x6d,0x65,0x69,0x69,0x3a,0x0b,0x40,0x70,0x69,0x74,0x63,0x68,0x69,0x69))
250(bytes(0x04,0x08,0x6f,0x3a,0x0c,0x52,0x50,0x47,0x3a,0x3a,0x53,0x45,0x08,0x3a,0x0a,0x40,0x6e,0x61,0x6d,0x65,0x49,0x22,0x0d,0x4d,0x6f,0x6e,0x73,0x74,0x65,0x72,0x31,0x06,0x3a,0x06,0x45,0x54,0x3a,0x0b,0x40,0x70,0x69,0x74,0x63,0x68,0x69,0x69,0x3a,0x0c,0x40,0x76,0x6f,0x6c,0x75,0x6d,0x65,0x69,0x55))
ShowMessageFace("bunnyslime_fc1",0,0,2,21)
ShowMessage("\\n<Bunni>Yaaay! I'm a rabbit now! Grrrrrr!")
If(0,6,0)
 ShowMessageFace("sonia_fc4",0,0,2,22)
 ShowMessage("\\n<Sonya>I'm not sure that makes her a rabbit...")
 0()
EndIf()
ShowMessageFace("ruka_fc1",0,0,2,23)
ShowMessage("\\n<Luka>......")
ShowMessageFace("",0,0,2,24)
ShowMessage("Whatever, as long as she's happy with it.")
EndEventProcessing()
0()
