// EVENT 3114
Name "Large Spider"

If(0,25,1)
 JumpToLabel("反省会")
 0()
EndIf()
PictureDisplay(5,"80_oogumo_st02",0,0,0,0,100,100,0,0)
PictureMove(5,null,0,0,0,0,100,100,255,0,30,true)
241(bytes(0x04,0x08,0x6f,0x3a,0x0d,0x52,0x50,0x47,0x3a,0x3a,0x42,0x47,0x4d,0x08,0x3a,0x0a,0x40,0x6e,0x61,0x6d,0x65,0x49,0x22,0x09,0x65,0x72,0x6f,0x31,0x06,0x3a,0x06,0x45,0x54,0x3a,0x0c,0x40,0x76,0x6f,0x6c,0x75,0x6d,0x65,0x69,0x69,0x3a,0x0b,0x40,0x70,0x69,0x74,0x63,0x68,0x69,0x69))
ShowMessageFace("",0,0,2,1)
ShowMessage("\\n<Luka>Urhg...")
ShowMessageFace("oogumo_fc1",1,0,2,2)
ShowMessage("\\n<Large Spider>You cannot resist anymore!\nThen, I will prey on you...!")
250(bytes(0x04,0x08,0x6f,0x3a,0x0c,0x52,0x50,0x47,0x3a,0x3a,0x53,0x45,0x08,0x3a,0x0a,0x40,0x6e,0x61,0x6d,0x65,0x49,0x22,0x10,0x6d,0x6f,0x6e,0x5f,0x65,0x72,0x6f,0x5f,0x69,0x74,0x6f,0x06,0x3a,0x06,0x45,0x54,0x3a,0x0b,0x40,0x70,0x69,0x74,0x63,0x68,0x69,0x69,0x3a,0x0c,0x40,0x76,0x6f,0x6c,0x75,0x6d,0x65,0x69,0x69))
PictureDisplay(5,"ev_oogumo_h01",0,0,0,0,100,100,0,0)
PictureMove(5,null,0,0,0,0,100,100,255,0,30,true)
ShowMessageFace("",0,0,2,3)
ShowMessage("The Large Spider shoots her web and rolls me up in it.")
ShowMessage("My movement is sealed and I'm held in a humiliating posture with my penis exposed...")
ShowMessageFace("",0,0,2,4)
ShowMessage("\\n<Luka>Ugh...! Let me go...!")
ShowMessageFace("oogumo_fc1",1,0,2,5)
ShowMessage("\\n<Large Spider>I want to say that I'll eat you...\nBut I don't eat meat.")
PictureDisplay(5,"ev_oogumo_h02",0,0,0,0,100,100,255,0)
ShowMessageFace("oogumo_fc1",1,0,2,6)
ShowMessage("\\n<Large Spider>I'm a spider monster so I suck out energy.\nFrom men's penises, ahaha...")
ShowMessageFace("",0,0,2,7)
ShowMessage("The Large Spider looks expectantly at my crotch...")
ShowMessageFace("oogumo_fc1",1,0,2,8)
ShowMessage("\\n<Large Spider>Ahaha, your penis is getting big!\nFrom this I can squeeze out lots of semen...♪")
ShowMessageFace("",0,0,2,9)
ShowMessage("\\n<Luka>That's...I don't want...")
PictureDisplay(5,"ev_oogumo_h03",0,0,0,0,100,100,255,0)
ShowMessageFace("oogumo_fc1",1,0,2,10)
ShowMessage("\\n<Large Spider>Don't say that...*Slurp*")
ShowMessageFace("",0,0,2,11)
ShowMessage("The Large Spider's tongue wiggles over to me with saliva dripping from it.")
ShowMessage("Her tongue stretches out and licks my shoulder and my face...")
ShowMessageFace("",0,0,2,12)
ShowMessage("\\n<Luka>S...Stop...!")
PictureDisplay(5,"ev_oogumo_h04",0,0,0,0,100,100,255,0)
ShowMessageFace("oogumo_fc1",1,0,2,13)
ShowMessage("\\n<Large Spider>Shut up...*Shluurp*")
ShowMessageFace("",0,0,2,14)
ShowMessage("\\n<Luka>Nnn...! *Mmpch* *Mmpch*...")
ShowMessageFace("",0,0,2,15)
ShowMessage("The Large Spider's tongue crawls inside my mouth.")
ShowMessage("It seems more like she's raping my mouth rather than kissing.")
ShowMessageFace("",0,0,2,16)
ShowMessage("I writhe around, overwhelmed by her licking in my mouth.")
ShowMessage("In the next moment, I get a good taste of her saliva...")
PictureDisplay(5,"ev_oogumo_h05",0,0,0,0,100,100,255,0)
ShowMessageFace("",0,0,2,17)
ShowMessage("\\n<Luka>Nnn...! Ngh...Nnnnn...")
ShowMessageFace("",0,0,2,18)
ShowMessage("And then...the power in my body vanishes.")
ShowMessage("The sweet feeling erodes my body and paralyzes me...")
ShowMessageFace("",0,0,2,19)
ShowMessage("\\n<Luka>What...Is this...")
ShowMessageFace("oogumo_fc1",1,0,2,20)
ShowMessage("\\n<Large Spider>My saliva contains an ecstasy-inducing toxin.\nDoesn't it feel like you can't resist anymore...?")
ShowMessageFace("oogumo_fc1",1,0,2,21)
ShowMessage("\\n<Large Spider>Well then... Time to make your penis feel good!\nMate with my fallopian tube and let out a lot of your semen!")
ShowMessageFace("",0,0,2,22)
ShowMessage("\\n<Luka>M-mate...? That's...")
PictureDisplay(5,"ev_oogumo_h07",0,0,0,0,100,100,255,0)
ShowMessageFace("",0,0,2,23)
ShowMessage("A long, meaty tube extends from the Large Spider's abdomen.")
ShowMessage("It quickly opens its mouth and shows its insides...")
ShowMessageFace("",0,0,2,24)
ShowMessage("\\n<Luka>Aaah...")
ShowMessageFace("",0,0,2,25)
ShowMessage("From the mouth, a string of mucus hangs down like it's salivating.")
ShowMessage("The inside of it is lined with a dense layer of wart-like protrusions...")
ShowMessageFace("",0,0,2,26)
ShowMessage("Each and every one of them was moving like it was a beating heart.")
ShowMessage("They're all shaking, making it seem like the whole interior is undulating...")
ShowMessageFace("oogumo_fc1",1,0,2,27)
ShowMessage("\\n<Large Spider>Do you like it? Would you like to feel good inside here?\nUse my fallopian tube and mate with me...")
ShowMessageFace("oogumo_fc1",1,0,2,28)
ShowMessage("\\n<Large Spider>I'll connect this fallopian tube to your penis...\nIt'll suck out your semen and fertilize my eggs...")
ShowMessageFace("",0,0,2,29)
ShowMessage("\\n<Luka>N-nooo...!")
ShowMessageFace("",0,0,2,30)
ShowMessage("Mating with such a horrible monster...")
ShowMessage("But no matter how disgusted I am, I can't do anything about it anymore.")
ShowMessageFace("",0,0,2,31)
ShowMessage("I look with fear and despair at how her fallopian tube looms over my penis...")
ShowMessage("Then...")
ShowMessageFace("",0,0,2,32)
ShowMessage("\\n<Luka>Don't, stop...!\nAh, aaaah...!!")
245(bytes(0x04,0x08,0x6f,0x3a,0x0d,0x52,0x50,0x47,0x3a,0x3a,0x42,0x47,0x53,0x08,0x3a,0x0a,0x40,0x6e,0x61,0x6d,0x65,0x49,0x22,0x1e,0x6d,0x6f,0x6e,0x5f,0x68,0x73,0x65,0x61,0x6e,0x31,0x32,0x5f,0x69,0x6e,0x6e,0x65,0x72,0x77,0x6f,0x72,0x6b,0x73,0x5f,0x63,0x32,0x06,0x3a,0x06,0x45,0x54,0x3a,0x0c,0x40,0x76,0x6f,0x6c,0x75,0x6d,0x65,0x69,0x55,0x3a,0x0b,0x40,0x70,0x69,0x74,0x63,0x68,0x69,0x69))
PictureDisplay(5,"ev_oogumo_h08",0,0,0,0,100,100,255,0)
ShowMessageFace("",0,0,2,33)
ShowMessage("In the next moment, my penis is surrounded by a strange feeling!")
ShowMessage("The Large Spider's oviduct swallows my penis...")
ShowMessageFace("",0,0,2,34)
ShowMessage("The feeling of the wart-shaped protrusions surrounds my penis...")
ShowMessage("They fill me with a sweet pleasure.")
ShowMessageFace("",0,0,2,35)
ShowMessage("\\n<Luka>Ah...! Ngh...Hnnngh...!!")
ShowMessageFace("oogumo_fc1",1,0,2,36)
ShowMessage("\\n<Large Spider>Haha, we're connected...\nYou're mating with me...")
ShowMessageFace("",0,0,2,37)
ShowMessage("\\n<Luka>I don't want, to mate...\nUgh, Oooh...")
PictureDisplay(5,"ev_oogumo_h09",0,0,0,0,100,100,255,0)
ShowMessageFace("",0,0,2,38)
ShowMessage("The irresistible movement of the warts encourage me to ejaculate...")
ShowMessage("She slips her tongue in my mouth again.")
ShowMessageFace("oogumo_fc1",1,0,2,39)
ShowMessage("\\n<Large Spider>Don't say stuff like that, just shoot your semen in my fallopian tube...\nNnn...*Kiss*...*Shhlurp*")
ShowMessageFace("",0,0,2,40)
ShowMessage("\\n<Luka>Nnn...Unnngh...")
ShowMessageFace("",0,0,2,41)
ShowMessage("I feel a sweet weakness spread from my mouth to my whole body as she's raping it with hers.")
ShowMessage("Her ecstasy toxin erodes even my reasoning.")
ShowMessageFace("",0,0,2,42)
ShowMessage("As if hunting my penis, countless warts envelop my glans and crawl all over it.")
ShowMessage("I get drunk on the pleasure as this feeling erodes my mind...")
ShowMessageFace("",0,0,2,43)
ShowMessage("\\n<Luka>N-noooo...! I'm coming...!\nAaaah...!!")
RunCommonEvent(104)
PictureDisplay(5,"ev_oogumo_h10",0,0,0,0,100,100,255,0)
RunCommonEvent(105)
ShowMessageFace("",0,0,2,44)
ShowMessage("I release a healthy amount of semen inside her oviduct...")
ShowMessage("I mated with and fertilized this hideous monster.")
ShowMessageFace("oogumo_fc1",1,0,2,45)
ShowMessage("\\n<Large Spider>Ahaha, it came out...\nMating with me felt so good you couldn't even last one minute.")
ShowMessageFace("oogumo_fc1",1,0,2,46)
ShowMessage("\\n<Large Spider>But since I have a lot of eggs, I need more semen!\nHora hora, please give me more...!")
ShowMessageFace("",0,0,2,47)
ShowMessage("\\n<Luka>Don't, anymore and...\nAh, aaaah...!!")
ShowMessageFace("",0,0,2,48)
ShowMessage("The Large Spider starts moving her abdomen up and down, rubbing my penis inside it!")
ShowMessage("A sweet sensation washes over me as her warts wriggle and rub my entire penis.")
ShowMessageFace("",0,0,2,49)
ShowMessage("They rub and squeeze my penis gently from all sides...")
ShowMessage("On top of that, I can feel the piston movement as well.")
ShowMessageFace("",0,0,2,50)
ShowMessage("\\n<Luka>Ngh... Ah, aaaaaah!!")
ShowMessageFace("",0,0,2,51)
ShowMessage("They stimulate me without mercy.")
ShowMessage("The Large Spider's oviduct is designed to make the male penis ejaculate instantly.")
ShowMessageFace("",0,0,2,52)
ShowMessage("It squeezes semen out in the most efficient way possible.")
ShowMessage("From the moment she inserted me inside it, there was no way I could endure it...")
ShowMessageFace("",0,0,2,53)
ShowMessage("\\n<Luka>Ah... Aaaah...!")
RunCommonEvent(104)
PictureDisplay(5,"ev_oogumo_h11",0,0,0,0,100,100,255,0)
RunCommonEvent(105)
ShowMessageFace("",0,0,2,54)
ShowMessage("My vision goes pure white and I shoot my semen in the fallopian tube.")
ShowMessage("My semen is sucked through the fallopian tube to the Large Spider's womb...")
ShowMessageFace("",0,0,2,55)
ShowMessage("\\n<Luka>Nnngh... Aaah...")
ShowMessageFace("",0,0,2,56)
ShowMessage("Her tube squeezes out every last drop of my semen.")
ShowMessage("After I finish ejaculating, the Large Spider shows me a warm smile...")
246(2)
ShowMessageFace("oogumo_fc1",1,0,2,57)
ShowMessage("\\n<Large Spider>...Fertilized me enough?\nDid mating with me feel good?")
PictureClear(5)
ShowMessageFace("",0,0,2,58)
ShowMessage("The web restraining me unwinds from my body and I fall to the ground.")
ShowMessage("I lay down on the ground, unable to even move anymore...")
ShowMessageFace("",0,0,2,59)
ShowMessage("\\n<Luka>Unnngh...")
ShowMessageFace("oogumo_fc1",1,0,2,60)
ShowMessage("\\n<Large Spider>Well then, I'll let you go.\nYou are the father of these children after all!")
ShowMessageFace("",0,0,2,61)
ShowMessage("After the Large Spider squeezes its prey of semen, it has no further use for it and abandons it.")
ShowMessage("I was abandoned there in my misery as well...")
221()
PictureClear(5)
ShowMessageFace("",0,0,2,62)
ShowMessage("After that, I continued to drown in the forbidden pleasure of mating with monsters.")
ShowMessage("Each day, I go to their territory and get attacked...")
ShowMessageFace("",0,0,2,63)
ShowMessage("Each day I give my semen to these girls and I feel happy.")
ShowMessage("Thus, my adventure comes to an end...")
DefineLabel("反省会")
ShowMessageFace("",0,0,2,64)
ShowMessage("......")
221()
242(1)
Wait(120)
355("memory_interruption")
ShowMessageFace("",0,0,2,65)
ShowMessage("You hear Ilias' voice calling out to you...")
ShowMessage("Receive her evaluation?")
ShowChoices(strings("Receive evaluation","Change difficulty","Reincarnate"),3)
IfPlayerPicksChoice(0,null)
 241(bytes(0x04,0x08,0x6f,0x3a,0x0d,0x52,0x50,0x47,0x3a,0x3a,0x42,0x47,0x4d,0x08,0x3a,0x0a,0x40,0x6e,0x61,0x6d,0x65,0x49,0x22,0x0a,0x69,0x72,0x69,0x61,0x73,0x06,0x3a,0x06,0x45,0x54,0x3a,0x0c,0x40,0x76,0x6f,0x6c,0x75,0x6d,0x65,0x69,0x5f,0x3a,0x0b,0x40,0x70,0x69,0x74,0x63,0x68,0x69,0x6e))
 PictureDisplay(1,"bg001",0,0,0,0,100,100,255,0)
 222()
 PictureDisplay(5,"80_iriasu_st04",0,0,0,0,100,100,0,0)
 PictureMove(5,null,0,0,0,0,100,100,255,0,30,true)
 ShowMessageFace("iriasu_fc1",3,0,2,66)
 ShowMessage("\\n<Ilias>You became a victim of the Large Spider?\nI was expecting it but I'm not glad about it.")
 PictureDisplay(5,"80_iriasu_st01",0,0,0,0,100,100,255,0)
 ShowMessageFace("iriasu_fc1",0,0,2,67)
 ShowMessage("\\n<Ilias>The Large Spider attacks with powerful physical and Binding attacks.\nShe's a difficult enemy because she can use Time Magic.")
 ShowMessageFace("iriasu_fc1",0,0,2,68)
 ShowMessage("\\n<Ilias>Seal her magic with Silence.\nYou can also Blind her to lessen the physical attacks.")
 ShowMessageFace("iriasu_fc1",0,0,2,69)
 ShowMessage("\\n<Ilias>She is a tough enemy because both her HP and her defense are quite high.\nKeep your eye on your own HP when fighting her.")
 PictureDisplay(5,"80_iriasu_st02",0,0,0,0,100,100,255,0)
 ShowMessageFace("iriasu_fc1",1,0,2,70)
 ShowMessage("\\n<Ilias>Now go, oh brave Luka.\nThe spider is a useful insect, but I hate it, so get rid of it.")
 242(1)
 221()
 PictureClear(5)
 PictureClear(1)
 Wait(60)
 0()
IfPlayerPicksChoice(1,null)
 ShowMessageFace("",0,0,2,71)
 ShowMessage("Please choose a difficulty level.")
 RunCommonEvent(110)
 0()
IfPlayerPicksChoice(2,null)
 0()
404()
RunCommonEvent(3000)
0()
