// EVENT 4041
Name "Promestein 1"

If(0,25,1)
 221()
 PictureClear(5)
 PictureClear(6)
 ShowMessageFace("",0,0,2,0)
 ShowMessage("......")
 242(2)
 Wait(120)
 241(bytes(0x04,0x08,0x6f,0x3a,0x0d,0x52,0x50,0x47,0x3a,0x3a,0x42,0x47,0x4d,0x08,0x3a,0x0a,0x40,0x6e,0x61,0x6d,0x65,0x49,0x22,0x0c,0x63,0x61,0x73,0x74,0x6c,0x65,0x36,0x06,0x3a,0x06,0x45,0x54,0x3a,0x0c,0x40,0x76,0x6f,0x6c,0x75,0x6d,0x65,0x69,0x69,0x3a,0x0b,0x40,0x70,0x69,0x74,0x63,0x68,0x69,0x69))
 EndEventProcessing()
 0()
EndIf()
PictureDisplay(5,"80_stein_st31",0,0,0,0,100,100,255,0)
ShowMessageFace("stein_fc2",0,0,2,1)
ShowMessage("\\n<Promestein>Excuse me, would you help me collect semen?\nI only need a little...")
ShowMessageFace("",0,0,2,2)
ShowMessage("\\n<Luka>U-Uh... Okay...")
ShowMessageFace("stein_fc2",0,0,2,3)
ShowMessage("\\n<Promestein>Then, please follow me...")
ShowMessageFace("",0,0,2,4)
ShowMessage("I follow her to a private room...")
221()
PictureDisplay(1,"bg195",0,0,0,0,100,100,255,0)
PictureDisplay(5,"ev_stein_hsb1",0,0,0,0,100,100,255,0)
222()
241(bytes(0x04,0x08,0x6f,0x3a,0x0d,0x52,0x50,0x47,0x3a,0x3a,0x42,0x47,0x4d,0x08,0x3a,0x0a,0x40,0x6e,0x61,0x6d,0x65,0x49,0x22,0x09,0x65,0x72,0x6f,0x31,0x06,0x3a,0x06,0x45,0x54,0x3a,0x0c,0x40,0x76,0x6f,0x6c,0x75,0x6d,0x65,0x69,0x69,0x3a,0x0b,0x40,0x70,0x69,0x74,0x63,0x68,0x69,0x69))
ShowMessageFace("stein_fc2",0,0,2,5)
ShowMessage("\\n<Promestein>Now then, let's get this done quickly.\nI'll use my hand, so come quickly please.")
ShowMessageFace("",0,0,2,6)
ShowMessage("As soon as I enter the room, she removes my pants and underwear.")
ShowMessage("And grabs my exposed penis with her gloved hands.")
245(bytes(0x04,0x08,0x6f,0x3a,0x0d,0x52,0x50,0x47,0x3a,0x3a,0x42,0x47,0x53,0x08,0x3a,0x0a,0x40,0x6e,0x61,0x6d,0x65,0x49,0x22,0x17,0x6d,0x6f,0x6e,0x5f,0x68,0x73,0x65,0x61,0x6e,0x31,0x37,0x5f,0x73,0x69,0x67,0x6f,0x6b,0x69,0x06,0x3a,0x06,0x45,0x54,0x3a,0x0c,0x40,0x76,0x6f,0x6c,0x75,0x6d,0x65,0x69,0x55,0x3a,0x0b,0x40,0x70,0x69,0x74,0x63,0x68,0x69,0x69))
ShowMessageFace("",0,0,2,7)
ShowMessage("Getting right to work, she strokes me up and down.")
ShowMessage("With her face expressionless, she's focused on the work.")
ShowMessageFace("",0,0,2,8)
ShowMessage("\\n<Luka>Unnngh...Why are you wearing gloves...?")
ShowMessageFace("stein_fc2",0,0,2,9)
ShowMessage("\\n<Promestein>I must not directly touch the semen to use in an experiment by hand.")
ShowMessageFace("",0,0,2,10)
ShowMessage("Promestein rubs my penis against her gloved hand.")
ShowMessage("It's as if she's doing no more than using a tool...")
ShowMessageFace("stein_fc2",0,0,2,11)
ShowMessage("\\n<Promestein>Won't you ejaculate quickly?\nI want to collect your semen quickly so I can start my experiment...")
ShowMessageFace("",0,0,2,12)
ShowMessage("Promestein looks up at me with a troubled face.")
ShowMessage("Her skillful hand never stops rubbing me for a moment.")
ShowMessageFace("",0,0,2,13)
ShowMessage("Her palm rubs against my shaft.")
ShowMessage("At the same time, she squeezes my glans.")
ShowMessageFace("",0,0,2,14)
ShowMessage("Both of her thumbs press against my back muscle.")
ShowMessage("Her skilled fingers only increased the amazing sensation of her handjob.")
ShowMessageFace("",0,0,2,15)
ShowMessage("\\n<Luka>Ah, aaah...That feels good...")
ShowMessageFace("stein_fc2",0,0,2,16)
ShowMessage("\\n<Promestein>Stop your pathetic moans, and just ejaculate already.\nHere, how about this...")
ShowMessageFace("",0,0,2,17)
ShowMessage("Rubbing her hands up and down, Promestein uses her fingers to rub around the neck of my penis.")
ShowMessage("Moving much faster than before, I unconsciously thrust my hips up.")
ShowMessageFace("",0,0,2,18)
ShowMessage("\\n<Luka>Ah... Hnnngh...!")
ShowMessageFace("stein_fc2",0,0,2,19)
ShowMessage("\\n<Promestein>You'll ejaculate with this, won't you?\nGood, go ahead...")
ShowMessageFace("",0,0,2,20)
ShowMessage("With apathy in her voice, Promestein urges me to come.")
ShowMessage("The stimulus is quickly driving me over...")
ShowMessageFace("",0,0,2,21)
ShowMessage("\\n<Luka>Ah... I'm coming...!")
ShowMessageFace("stein_fc2",0,0,2,22)
ShowMessage("\\n<Promestein>......")
RunCommonEvent(104)
PictureDisplay(5,"ev_stein_hsb2",0,0,0,0,100,100,255,0)
RunCommonEvent(105)
ShowMessageFace("",0,0,2,23)
ShowMessage("Too quickly, I come into Promestein's hands.")
ShowMessage("She looks at it without changing her expression at all.")
ShowMessageFace("",0,0,2,24)
ShowMessage("\\n<Luka>Nnngh...")
ShowMessageFace("stein_fc2",0,0,2,25)
ShowMessage("\\n<Promestein>Is that it?\nI can't do the experiment without 50cc...")
ShowMessageFace("",0,0,2,26)
ShowMessage("Promestein clenches her hands tighter around my penis.")
ShowMessage("My hips quiver at the sudden tightness.")
ShowMessageFace("stein_fc2",0,0,2,27)
ShowMessage("\\n<Promestein>I'll have you come multiple times.\nSheesh, this is really troublesome...")
ShowMessageFace("",0,0,2,28)
ShowMessage("\\n<Luka>N...no way...\nAaah...")
ShowMessageFace("",0,0,2,29)
ShowMessage("Right after my ejaculation, she starts rubbing me with her gloved hands again.")
ShowMessage("Squeezing and rubbing, even her thumb is pressing against me.")
ShowMessageFace("",0,0,2,30)
ShowMessage("\\n<Luka>D-don't... Aaah...")
ShowMessageFace("",0,0,2,31)
ShowMessage("Bored and emotionless, she continues to stimulate me.")
ShowMessage("It's like mundane work she has to perform...")
ShowMessageFace("",0,0,2,32)
ShowMessage("In response to that, my penis is twitching in pleasure.")
ShowMessage("My penis quivers in her hand as I near another climax...")
ShowMessageFace("",0,0,2,33)
ShowMessage("\\n<Luka>Ah... I'm coming again...!")
ShowMessageFace("stein_fc2",0,0,2,34)
ShowMessage("\\n<Promestein>Ok, just come then.\nI need to collect it afterwards, so try not to get it everywhere.")
ShowMessageFace("",0,0,2,35)
ShowMessage("\\n<Luka>Ah, aaaah...!")
RunCommonEvent(104)
PictureDisplay(5,"ev_stein_hsb3",0,0,0,0,100,100,255,0)
RunCommonEvent(105)
ShowMessageFace("",0,0,2,36)
ShowMessage("I'm driven to a second orgasm in her hands.")
ShowMessage("Shooting out, my semen covers her gloved hands.")
ShowMessageFace("stein_fc2",0,0,2,37)
ShowMessage("\\n<Promestein>You're still a little short.\nI'll have you ejaculate again...")
ShowMessageFace("",0,0,2,38)
ShowMessage("\\n<Luka>Th...that... Impossible...\nAaaah...!")
ShowMessageFace("stein_fc2",0,0,2,39)
ShowMessage("\\n<Promestein>I'll get it out, even if you think you can't.\nYou should be able to do it once more...")
ShowMessageFace("",0,0,2,40)
ShowMessage("Promestein continues stroking me, her expression unchanged.")
ShowMessage("Her merciless, clerical extraction...")
ShowMessageFace("",0,0,2,41)
ShowMessage("\\n<Luka>I can't come anymore... I can't come, so...")
ShowMessageFace("stein_fc2",0,0,2,42)
ShowMessage("\\n<Promestein>......")
ShowMessageFace("",0,0,2,43)
ShowMessage("She ignores me begging her to stop.")
ShowMessage("Instead, she just quickens her pace.")
ShowMessageFace("",0,0,2,44)
ShowMessage("She's completely focused on making me come...")
ShowMessage("Touching me in all of my weakest points, there's no enduring this.")
ShowMessageFace("",0,0,2,45)
ShowMessage("\\n<Luka>N-noooo... Aaah...")
246(1)
RunCommonEvent(104)
PictureDisplay(5,"ev_stein_hsb4",0,0,0,0,100,100,255,0)
RunCommonEvent(105)
ShowMessageFace("",0,0,2,46)
ShowMessage("Driven to the edge, I'm forced to come for a third time.")
ShowMessage("My body twitches as more semen flows out.")
ShowMessageFace("",0,0,2,47)
ShowMessage("\\n<Luka>Ah...ah...")
ShowMessageFace("stein_fc2",0,0,2,48)
ShowMessage("\\n<Promestein>...It took three times to get the necessary amount.\nShall we stop here for today?")
ShowMessageFace("stein_fc2",0,0,2,49)
ShowMessage("\\n<Promestein>With that, we're done here.\nThanks for your hard work.")
ShowMessageFace("",0,0,2,50)
ShowMessage("\\n<Luka>......")
ShowMessageFace("",0,0,2,51)
ShowMessage("Promestein forced me to three consecutive orgasms with her hand...")
ShowMessage("Mentally and physically exhausted, I just collapse backwards.")
ShowMessageFace("stein_fc2",0,0,2,52)
ShowMessage("\\n<Promestein>I'll call you if I need to collect more semen from now on.\nPlease come back again.")
ShowMessageFace("stein_fc2",0,0,2,53)
ShowMessage("\\n<Promestein>It's quite inefficient to squeeze it out by hand.\nNext time, perhaps I'll try using some sampling equipment...")
ShowMessageFace("",0,0,2,54)
ShowMessage("\\n<Luka>......")
ShowMessageFace("",0,0,2,55)
ShowMessage("Just what is she going to try next time...?")
ShowMessage("Weak on my legs, I stumble out of the room...")
221()
PictureClear(5)
PictureClear(6)
246(2)
ShowMessageFace("",0,0,2,56)
ShowMessage("......")
242(2)
Wait(120)
241(bytes(0x04,0x08,0x6f,0x3a,0x0d,0x52,0x50,0x47,0x3a,0x3a,0x42,0x47,0x4d,0x08,0x3a,0x0a,0x40,0x6e,0x61,0x6d,0x65,0x49,0x22,0x0c,0x63,0x61,0x73,0x74,0x6c,0x65,0x36,0x06,0x3a,0x06,0x45,0x54,0x3a,0x0c,0x40,0x76,0x6f,0x6c,0x75,0x6d,0x65,0x69,0x69,0x3a,0x0b,0x40,0x70,0x69,0x74,0x63,0x68,0x69,0x69))
0()
