// EVENT 5248
Name "ウィッチ縮小パイズリ"

PictureDisplay(5,"80_witchs_st14",0,0,0,0,100,100,0,0)
PictureMove(5,null,0,0,0,0,100,100,255,0,30,true)
ShowMessageFace("witchs_fc1",0,0,2,1)
ShowMessage("\\n<Witch>")
ShowMessage("You want to do something lewd...?")
ShowMessage("What a naughty little Hero.")
ShowMessageFace("",0,0,2,2)
ShowMessage("\\n<Luka>P-Please...")
ShowMessageFace("witchs_fc1",2,0,2,3)
ShowMessage("\\n<Witch>")
ShowMessage("Well then, come to my room.")
ShowMessage("We can play around for a bit...")
ShowMessageFace("",0,0,2,4)
ShowMessage("Invited, I follow her to her room...")
221()
PictureDisplay(1,"bg195",0,0,0,0,100,100,255,0)
PictureDisplay(5,"80_witchs_st14",0,0,0,0,100,100,255,0)
222()
241(bytes(0x04,0x08,0x6f,0x3a,0x0d,0x52,0x50,0x47,0x3a,0x3a,0x42,0x47,0x4d,0x08,0x3a,0x0a,0x40,0x6e,0x61,0x6d,0x65,0x49,0x22,0x09,0x65,0x72,0x6f,0x31,0x06,0x3a,0x06,0x45,0x54,0x3a,0x0c,0x40,0x76,0x6f,0x6c,0x75,0x6d,0x65,0x69,0x69,0x3a,0x0b,0x40,0x70,0x69,0x74,0x63,0x68,0x69,0x69))
ShowMessageFace("witchs_fc1",2,0,2,5)
ShowMessage("\\n<Witch>")
ShowMessage("Well then...")
ShowMessage("I'll make you into a toy with my treasured magic.")
ShowMessageFace("",0,0,2,6)
ShowMessage("Gathering magic power in her hands, Witch directs it at me.")
ShowMessage("As soon as it hit my body...")
ShowMessageFace("",0,0,2,7)
ShowMessage("\\n<Luka>W-What is this...!?")
PictureDisplay(5,"ev_witchs_hb1",0,0,0,0,100,100,255,0)
ShowMessageFace("",0,0,2,8)
ShowMessage("My body is completely shrunk by her strange magic.")
ShowMessage("And across from me, Witch is gigantic!")
ShowMessageFace("witchs_fc1",2,0,2,9)
ShowMessage("\\n<Witch>")
ShowMessage("Ahaha, you're tiny now~♪")
ShowMessage("I'll be playing with you a lot, so get ready.")
PictureDisplay(5,"ev_witchs_hb2",0,0,0,0,100,100,255,0)
ShowMessageFace("",0,0,2,10)
ShowMessage("My small body is easily picked up.")
ShowMessage("Like that, I'm stuck between her breasts!")
ShowMessageFace("",0,0,2,11)
ShowMessage("\\n<Luka>A....Ahhh!!")
ShowMessageFace("",0,0,2,12)
ShowMessage("My whole body is sandwiched in her soft warmth.")
ShowMessage("The soft pressure of her breasts press against my whole body.")
ShowMessageFace("witchs_fc1",2,0,2,13)
ShowMessage("\\n<Witch>")
ShowMessage("Isn't it heavenly to be wrapped in breasts?")
ShowMessageFace("",0,0,2,14)
ShowMessage("\\n<Luka>Hauuu...")
ShowMessageFace("",0,0,2,15)
ShowMessage("Relaxing in her warm embrace, I feel myself getting excited.")
ShowMessage("As my penis gets larger, it presses into her breasts.")
ShowMessageFace("witchs_fc1",2,0,2,16)
ShowMessage("\\n<Witch>")
ShowMessage("Ufufu, are you entranced?")
ShowMessage("Horahorahora... I'll crush you with my breasts~♪")
245(bytes(0x04,0x08,0x6f,0x3a,0x0d,0x52,0x50,0x47,0x3a,0x3a,0x42,0x47,0x53,0x08,0x3a,0x0a,0x40,0x6e,0x61,0x6d,0x65,0x49,0x22,0x17,0x6d,0x6f,0x6e,0x5f,0x68,0x73,0x65,0x61,0x6e,0x31,0x37,0x5f,0x73,0x69,0x67,0x6f,0x6b,0x69,0x06,0x3a,0x06,0x45,0x54,0x3a,0x0c,0x40,0x76,0x6f,0x6c,0x75,0x6d,0x65,0x69,0x55,0x3a,0x0b,0x40,0x70,0x69,0x74,0x63,0x68,0x69,0x69))
ShowMessageFace("",0,0,2,17)
ShowMessage("Suddenly, the pressure of her breasts increases.")
ShowMessage("Using her hands, she presses her breasts hard into me.")
ShowMessageFace("",0,0,2,18)
ShowMessage("\\n<Luka>Ah...Ahhh!!")
ShowMessageFace("",0,0,2,19)
ShowMessage("Her soft breasts crush my tiny body between them.")
ShowMessage("As I struggle in vain, my penis rubs against her skin.")
ShowMessageFace("",0,0,2,20)
ShowMessage("\\n<Luka>S-Stop... Let me go...")
ShowMessageFace("",0,0,2,21)
ShowMessage("I feebly struggle between her massive breasts.")
ShowMessage("Looking like she's enjoying herself, Witch uses her breasts to toy with me.")
ShowMessageFace("",0,0,2,22)
ShowMessage("Squeezing me, my whole body sinks into her breasts.")
ShowMessage("At the same time, my penis rubs against her smooth skin.")
ShowMessageFace("witchs_fc1",2,0,2,23)
ShowMessage("\\n<Witch>")
ShowMessage("Go ahead and come like that, wrapped in my breasts. ♪")
ShowMessageFace("",0,0,2,24)
ShowMessage("\\n<Luka>Haauu...!!")
ShowMessageFace("",0,0,2,25)
ShowMessage("Drowning in her cleavage, I start to tremble.")
ShowMessage("As the numb pleasure fills me, I relax and give in.")
RunCommonEvent(104)
PictureDisplay(5,"ev_witchs_hb3",0,0,0,0,100,100,255,0)
RunCommonEvent(105)
ShowMessageFace("",0,0,2,26)
ShowMessage("I come, stuck between her breasts.")
ShowMessage("My penis pulses, shooting tiny drops of semen onto her chest.")
ShowMessageFace("",0,0,2,27)
ShowMessage("\\n<Luka>Auuu...")
ShowMessageFace("witchs_fc1",2,0,2,28)
ShowMessage("\\n<Witch>")
ShowMessage("Fufu, you came.")
ShowMessage("It feels good to be a toy like this, doesn't it?")
ShowMessageFace("witchs_fc1",2,0,2,29)
ShowMessage("\\n<Witch>")
ShowMessage("I want to play with you more...")
ShowMessage("Hoora, horahora...")
ShowMessageFace("",0,0,2,30)
ShowMessage("Still stuck between them, Witch starts to move her breasts up and down.")
ShowMessage("Tossed side to side, my whole body is easily toyed with.")
ShowMessageFace("",0,0,2,31)
ShowMessage("\\n<Luka>A-Ahhh...!")
ShowMessageFace("",0,0,2,32)
ShowMessage("I pant in pleasure as her breasts squish and rub against me.")
ShowMessage("Buried in her warmth, she's forcing pleasure into me...")
ShowMessageFace("",0,0,2,33)
ShowMessage("Even if I struggle, my limbs just get bounced back by her soft breasts.")
ShowMessage("Instead of helping me resist, rubbing against her skin just makes it all feel even better.")
ShowMessageFace("witchs_fc1",2,0,2,34)
ShowMessage("\\n<Witch>")
ShowMessage("Even if you struggle, I won't let you go.")
ShowMessage("Not until you come more...")
ShowMessageFace("",0,0,2,35)
ShowMessage("Witch continues to seductively move her breasts.")
ShowMessage("With my entire body stuck inside, it's a crazy paizuri...")
ShowMessageFace("",0,0,2,36)
ShowMessage("Moving up and down alternatingly, my whole body is tossed between them.")
ShowMessage("My glans rubs against her soft skin as she tosses me around, only increasing the pleasure.")
ShowMessageFace("",0,0,2,37)
ShowMessage("\\n<Luka>A-Ahhh...")
ShowMessageFace("witchs_fc1",2,0,2,38)
ShowMessage("\\n<Witch>")
ShowMessage("Ara...? Is your struggling getting weaker?")
ShowMessage("Are you feeling too good to resist?")
ShowMessageFace("",0,0,2,39)
ShowMessage("Her soft breasts slowly press into my body...")
ShowMessage("My erect penis presses hard into her, almost sinking inside.")
ShowMessageFace("",0,0,2,40)
ShowMessage("\\n<Luka>A-Ahhhh!!")
ShowMessageFace("",0,0,2,41)
ShowMessage("Feeling too much, my body stiffens.")
ShowMessage("My waist tingles as I feeel my penis start to pulse again...")
RunCommonEvent(104)
PictureDisplay(5,"ev_witchs_hb4",0,0,0,0,100,100,255,0)
RunCommonEvent(105)
ShowMessageFace("",0,0,2,42)
ShowMessage("More semen shoots out in her cleavage.")
ShowMessage("Sighing in ecstasy, my body goes weak between her breasts.")
ShowMessageFace("witchs_fc1",2,0,2,43)
ShowMessage("\\n<Witch>")
ShowMessage("Fufu, you leaked again.")
ShowMessage("Aren't my breasts heavenly?")
ShowMessageFace("",0,0,2,44)
ShowMessage("\\n<Luka>Ahh...")
ShowMessageFace("",0,0,2,45)
ShowMessage("I'm totally weak.")
ShowMessage("Drowning in pleasure, I just surrender myself to her.")
ShowMessageFace("witchs_fc1",2,0,2,46)
ShowMessage("\\n<Witch>")
ShowMessage("There's a lot more to go, so leak out more.")
ShowMessageFace("",0,0,2,47)
ShowMessage("Witch shakes her chest again.")
ShowMessage("My whole body is massaged by her huge breasts.")
ShowMessageFace("",0,0,2,48)
ShowMessage("\\n<Luka>Faaa... That feels good...")
ShowMessageFace("witchs_fc1",2,0,2,49)
ShowMessage("\\n<Witch>")
ShowMessage("Arara, did my breasts already put you in a trance?")
ShowMessage("What a cute boy. Fufufu...")
ShowMessageFace("",0,0,2,50)
ShowMessage("Bouncing her boobs up and down, my body is tossed around like a toy.")
ShowMessage("Rubbing against her, my penis is throbbing in ecstasy.")
ShowMessageFace("",0,0,2,51)
ShowMessage("I'm a total captive of her breasts.")
ShowMessage("With my whole body being kneaded by her breasts, I can only moan and pant.")
ShowMessageFace("",0,0,2,52)
ShowMessage("\\n<Luka>Faa... Ahhh...")
ShowMessageFace("witchs_fc1",2,0,2,53)
ShowMessage("\\n<Witch>")
ShowMessage("Fufu, you're totally melting away.")
ShowMessage("Then, come again...")
ShowMessageFace("",0,0,2,54)
ShowMessage("Witch crushes my body between her breasts as hard as she can.")
ShowMessage("Caressed all over my body, I eagerly give in to the sensations...")
ShowMessageFace("",0,0,2,55)
ShowMessage("\\n<Luka>A-Ahhh...")
RunCommonEvent(104)
PictureDisplay(5,"ev_witchs_hb5",0,0,0,0,100,100,255,0)
RunCommonEvent(105)
246(2)
ShowMessageFace("",0,0,2,56)
ShowMessage("Feeling too good, I come all over.")
ShowMessage("Crushed between her breasts, I've lost all sense of reason.")
ShowMessageFace("witchs_fc1",2,0,2,57)
ShowMessage("\\n<Witch>")
ShowMessage("Fufu, well?")
ShowMessage("Did you taste heaven?")
ShowMessageFace("",0,0,2,58)
ShowMessage("\\n<Luka>Auu...")
ShowMessageFace("",0,0,2,59)
ShowMessage("With my head pure white, I can't even reply.")
ShowMessage("Giving myself over to Witch, I just sigh and relax...")
221()
PictureClear(5)
PictureClear(6)
246(2)
ShowMessageFace("",0,0,2,60)
ShowMessage("......")
RunCommonEvent(3998)
0()
