﻿// EVENT 2064
Name "Seduction: Page 17"

If(0,25,1)
 EndEventProcessing()
 0()
EndIf()
355("$game_troop.lose_event_id = 3064")
ChangeVariable(26,26,0,3,3,1,4)
ChangeVariable(26,26,4,0,10)
ShowMessageFace("page17_fc1",0,0,2,1)
ShowMessage("\\n<Page 17>My power isn't enough...\nAll right, I'll be your plaything...")
ShowMessageFace("",0,0,2,2)
ShowMessage("Page 17 appears to be surrendering...")
ShowMessageFace("page17_fc1",0,0,2,3)
ShowMessage("\\n<Page 17>This mouth is used for sexual treatment...\nThat is the fate of the defeated...")
ChangeSwitch(98,98,0)
ChangeSwitch(96,96,0)
ShowChoices(strings("Ignore her","Give in to temptation"),1)
IfPlayerPicksChoice(0,"Ignore her")
 ShowMessageFace("",0,0,2,4)
 ShowMessage("Luka resists her temptation!")
 RunCommonEvent(1999)
 EndEventProcessing()
 0()
IfPlayerPicksChoice(1,"Give in to temptation")
 0()
404()
ShowMessageFace("page17_fc1",0,0,2,5)
ShowMessage("\\n<Page 17>I accept my fate as the loser...\nI will serve you until you are satisfied...")
355("display_skill_name(\"Paralyzing Pacifier\")")
ChangeVariable(26,26,3,0,2)
250(bytes(0x04,0x08,0x6f,0x3a,0x0c,0x52,0x50,0x47,0x3a,0x3a,0x53,0x45,0x08,0x3a,0x0a,0x40,0x6e,0x61,0x6d,0x65,0x49,0x22,0x13,0x6d,0x6f,0x6e,0x5f,0x65,0x72,0x6f,0x5f,0x63,0x68,0x75,0x70,0x61,0x31,0x06,0x3a,0x06,0x45,0x54,0x3a,0x0b,0x40,0x70,0x69,0x74,0x63,0x68,0x69,0x69,0x3a,0x0c,0x40,0x76,0x6f,0x6c,0x75,0x6d,0x65,0x69,0x69))
311(0,1,1,1,26,true)
ShowMessageFace("",0,0,2,6)
ShowMessage("Page 17 takes Luka's penis into her mouth and sucks greedily on it! A stinging twinge causes Luka's body to go numb!\\D")
ShowMessage("Luka takes \\V[26] damage!")
ShowMessageFace("",0,0,2,7)
ShowMessage("Luka's body has been paralyzed!")
355("clear_skill_name")
ChangeVariable(27,27,0,3,3,1,2)
If(1,27,0,0,0)
 JumpToLabel("射精1")
 0()
EndIf()
ShowMessageFace("",0,0,2,8)
ShowMessage("\\n<Luka>Uh...Uuu...")
ShowMessageFace("page17_fc1",0,0,2,9)
ShowMessage("\\n<Page 17>I'm surprised how easily I caught you.\nMy saliva contains paralyzing toxins...")
355("display_skill_name(\"Paralyzing Pacifier\")")
250(bytes(0x04,0x08,0x6f,0x3a,0x0c,0x52,0x50,0x47,0x3a,0x3a,0x53,0x45,0x08,0x3a,0x0a,0x40,0x6e,0x61,0x6d,0x65,0x49,0x22,0x13,0x6d,0x6f,0x6e,0x5f,0x65,0x72,0x6f,0x5f,0x63,0x68,0x75,0x70,0x61,0x31,0x06,0x3a,0x06,0x45,0x54,0x3a,0x0b,0x40,0x70,0x69,0x74,0x63,0x68,0x69,0x69,0x3a,0x0c,0x40,0x76,0x6f,0x6c,0x75,0x6d,0x65,0x69,0x69))
311(0,1,1,1,26,true)
ShowMessageFace("",0,0,2,10)
ShowMessage("Page 17 greedily sucks on Luka's penis!\nThe numbing stimulus gives a sweet pleasure!\\D")
ShowMessage("Luka takes \\V[26] damage!")
355("clear_skill_name")
ChangeVariable(27,27,0,3,3,1,2)
If(1,27,0,0,0)
 JumpToLabel("射精1")
 0()
EndIf()
ShowMessageFace("page17_fc1",0,0,2,11)
ShowMessage("\\n<Page 17>How unsightly...\nUnable to move your body, do you regret meeting your end with nothing you can do about it...?")
355("display_skill_name(\"Paralyzing Pacifier\")")
250(bytes(0x04,0x08,0x6f,0x3a,0x0c,0x52,0x50,0x47,0x3a,0x3a,0x53,0x45,0x08,0x3a,0x0a,0x40,0x6e,0x61,0x6d,0x65,0x49,0x22,0x13,0x6d,0x6f,0x6e,0x5f,0x65,0x72,0x6f,0x5f,0x63,0x68,0x75,0x70,0x61,0x31,0x06,0x3a,0x06,0x45,0x54,0x3a,0x0b,0x40,0x70,0x69,0x74,0x63,0x68,0x69,0x69,0x3a,0x0c,0x40,0x76,0x6f,0x6c,0x75,0x6d,0x65,0x69,0x69))
311(0,1,1,1,26,true)
ShowMessageFace("",0,0,2,12)
ShowMessage("Page 17 sweetly sips Luka's penis!\nHer persistent sucking brings about an incredible stimulation!\\D")
ShowMessage("Luka takes \\V[26] damage!")
355("clear_skill_name")
ChangeVariable(27,27,0,3,3,1,2)
If(1,27,0,0,0)
 JumpToLabel("射精1")
 0()
EndIf()
ShowMessageFace("page17_fc1",0,0,2,13)
ShowMessage("\\n<Page 17>Are you about to come soon?\nYou can let it out in my mouth...")
355("display_skill_name(\"Paralyzing Pacifier\")")
250(bytes(0x04,0x08,0x6f,0x3a,0x0c,0x52,0x50,0x47,0x3a,0x3a,0x53,0x45,0x08,0x3a,0x0a,0x40,0x6e,0x61,0x6d,0x65,0x49,0x22,0x13,0x6d,0x6f,0x6e,0x5f,0x65,0x72,0x6f,0x5f,0x63,0x68,0x75,0x70,0x61,0x31,0x06,0x3a,0x06,0x45,0x54,0x3a,0x0b,0x40,0x70,0x69,0x74,0x63,0x68,0x69,0x69,0x3a,0x0c,0x40,0x76,0x6f,0x6c,0x75,0x6d,0x65,0x69,0x69))
311(0,1,1,1,26,true)
ShowMessageFace("",0,0,2,14)
ShowMessage("Page 17 licks Luka's glans!\nA stimulation is given as her tongue coils around his tip!\\D")
ShowMessage("Luka takes \\V[26] damage!")
355("clear_skill_name")
ChangeVariable(27,27,0,3,3,1,2)
If(1,27,0,0,0)
 JumpToLabel("射精1")
 0()
EndIf()
ShowMessageFace("page17_fc1",0,0,2,15)
ShowMessage("\\n<Page 17>This is the end...\nNow, finish...")
355("display_skill_name(\"Paralyzing Pacifier\")")
250(bytes(0x04,0x08,0x6f,0x3a,0x0c,0x52,0x50,0x47,0x3a,0x3a,0x53,0x45,0x08,0x3a,0x0a,0x40,0x6e,0x61,0x6d,0x65,0x49,0x22,0x13,0x6d,0x6f,0x6e,0x5f,0x65,0x72,0x6f,0x5f,0x63,0x68,0x75,0x70,0x61,0x31,0x06,0x3a,0x06,0x45,0x54,0x3a,0x0b,0x40,0x70,0x69,0x74,0x63,0x68,0x69,0x69,0x3a,0x0c,0x40,0x76,0x6f,0x6c,0x75,0x6d,0x65,0x69,0x69))
311(0,1,1,1,26,true)
ShowMessageFace("",0,0,2,16)
ShowMessage("Page 17 intently sucks on Luka's glans!\nHer crazy vacuum brings a sweet feeling of release!\\D")
ShowMessage("Luka takes \\V[26] damage!")
355("clear_skill_name")
ChangeVariable(27,27,0,3,3,1,2)
If(1,27,0,0,0)
 JumpToLabel("射精1")
 0()
EndIf()
DefineLabel("射精1")
ShowMessageFace("",0,0,2,17)
ShowMessage("\\n<Luka>Fwaaaah...")
RunCommonEvent(104)
RunCommonEvent(105)
ShowMessageFace("",0,0,2,18)
ShowMessage("The gradually spreading numbness from Page 17's fellatio gave me a peculiar pleasure. At last, I shoot my semen into her mouth.")
ShowMessageFace("page17_fc1",0,0,2,19)
ShowMessage("\\n<Page 17>It's over...\nWhat an unsightly man, being so frail against pleasure...")
RunCommonEvent(2000)
EndEventProcessing()
0()
