// EVENT 3084
Name "Elf"

If(0,25,1)
 JumpToLabel("反省会")
 0()
EndIf()
PictureDisplay(5,"80_elf_st02",0,0,0,0,100,100,0,0)
PictureMove(5,null,0,0,0,0,100,100,255,0,30,true)
241(bytes(0x04,0x08,0x6f,0x3a,0x0d,0x52,0x50,0x47,0x3a,0x3a,0x42,0x47,0x4d,0x08,0x3a,0x0a,0x40,0x6e,0x61,0x6d,0x65,0x49,0x22,0x09,0x65,0x72,0x6f,0x31,0x06,0x3a,0x06,0x45,0x54,0x3a,0x0c,0x40,0x76,0x6f,0x6c,0x75,0x6d,0x65,0x69,0x69,0x3a,0x0b,0x40,0x70,0x69,0x74,0x63,0x68,0x69,0x69))
ShowMessageFace("",0,0,2,1)
ShowMessage("\\n<Luka>Oooh...")
PictureDisplay(5,"ev_elf_h1",0,0,0,0,100,100,255,0)
ShowMessageFace("",0,0,2,2)
ShowMessage("Too weak to resist her, the Elf throws me to the ground.")
ShowMessage("Sitting on top of me, she puts the entrance of her vagina right next to my penis.")
ShowMessageFace("elf_fc1",1,0,2,3)
ShowMessage("\\n<Elf>I'm going to violate you in a few seconds...")
ShowMessageFace("elf_fc1",1,0,2,4)
ShowMessage("\\n<Elf>To make sure you never return,\nI'll force you to go crazy.")
ShowMessageFace("",0,0,2,5)
ShowMessage("\\n<Luka>Ah, aaah...Stop, stop...!")
ShowMessageFace("elf_fc1",1,0,2,6)
ShowMessage("\\n<Elf>Haha... Raping a man who resists makes me a little happy.")
PictureDisplay(5,"ev_elf_h2",0,0,0,0,100,100,255,0)
245(bytes(0x04,0x08,0x6f,0x3a,0x0d,0x52,0x50,0x47,0x3a,0x3a,0x42,0x47,0x53,0x08,0x3a,0x0a,0x40,0x6e,0x61,0x6d,0x65,0x49,0x22,0x1e,0x6d,0x6f,0x6e,0x5f,0x68,0x73,0x65,0x61,0x6e,0x30,0x32,0x5f,0x69,0x6e,0x6e,0x65,0x72,0x77,0x6f,0x72,0x6b,0x73,0x5f,0x61,0x32,0x06,0x3a,0x06,0x45,0x54,0x3a,0x0c,0x40,0x76,0x6f,0x6c,0x75,0x6d,0x65,0x69,0x55,0x3a,0x0b,0x40,0x70,0x69,0x74,0x63,0x68,0x69,0x69))
ShowMessageFace("",0,0,2,7)
ShowMessage("Saying that, the Elf forces me all the way inside her!")
ShowMessageFace("",0,0,2,8)
ShowMessage("As soon as I'm inside her, I'm instantly attacked by the feeling of her soft walls!")
ShowMessage("Just like being forced into jelly, her soft walls tighten around me!")
ShowMessageFace("",0,0,2,9)
ShowMessage("The comforting pleasure of being slid inside her vagina makes me moan in pleasure.")
ShowMessage("Warm, sticky liquid starts to flow out from inside of her.")
ShowMessageFace("",0,0,2,10)
ShowMessage("\\n<Luka>Unnngh...!!")
ShowMessageFace("elf_fc1",1,0,2,11)
ShowMessage("\\n<Elf>Haha... A female elf's genitals are unmatched.")
ShowMessageFace("",0,0,2,12)
ShowMessage("Letting out a sadistic laugh, the Elf looks down at me.")
245(bytes(0x04,0x08,0x6f,0x3a,0x0d,0x52,0x50,0x47,0x3a,0x3a,0x42,0x47,0x53,0x08,0x3a,0x0a,0x40,0x6e,0x61,0x6d,0x65,0x49,0x22,0x1e,0x6d,0x6f,0x6e,0x5f,0x68,0x73,0x65,0x61,0x6e,0x30,0x38,0x5f,0x69,0x6e,0x6e,0x65,0x72,0x77,0x6f,0x72,0x6b,0x73,0x5f,0x61,0x38,0x06,0x3a,0x06,0x45,0x54,0x3a,0x0c,0x40,0x76,0x6f,0x6c,0x75,0x6d,0x65,0x69,0x55,0x3a,0x0b,0x40,0x70,0x69,0x74,0x63,0x68,0x69,0x69))
ShowMessageFace("",0,0,2,13)
ShowMessage("And starts to grind her waist back and forth!")
ShowMessageFace("",0,0,2,14)
ShowMessage("\\n<Luka>Ah... Aaaaaah!!")
ShowMessageFace("",0,0,2,15)
ShowMessage("Erotic sounds fill the clearing of the forest as I'm forced in and out of her.")
ShowMessageFace("",0,0,2,16)
ShowMessage("My penis rubs against the walls in the neck of her vagina,")
ShowMessage("The sense of oppression wraps me from glans to my tip...")
ShowMessageFace("elf_fc1",1,0,2,17)
ShowMessage("\\n<Elf>Hehe... I just moved a little bit\nand you're already moaning that loudly?")
ShowMessageFace("",0,0,2,18)
ShowMessage("While bouncing her waist up and down, she looks at me with a triumphant face.")
ShowMessage("Underneath her, I bite my lip as I try to endure the pleasure.")
ShowMessageFace("",0,0,2,19)
ShowMessage("Mercilessly raping me, I have no way to stop her...")
ShowMessage("All I can do is endure...")
ShowMessageFace("elf_fc1",1,0,2,20)
ShowMessage("\\n<Elf>Hehe... Are you humiliated?\nIt's pointless to try to endure... There's no escape.")
ShowMessageFace("",0,0,2,21)
ShowMessage("The Elf speeds up her pumping as she states that.")
ShowMessage("Strangled by her amazing pussy, I finally break down and give in.")
ShowMessageFace("",0,0,2,22)
ShowMessage("\\n<Luka>Haaaaaa!\nI'm going to come!")
ShowMessageFace("elf_fc1",1,0,2,23)
ShowMessage("\\n<Elf>So pathetic! Let it out you wimp!\nI'll squeeze out every drop of your defeat!")
ShowMessageFace("",0,0,2,24)
ShowMessage("As if doing a killing move, the Elf twists her hips around in a circle.")
ShowMessageFace("",0,0,2,25)
ShowMessage("As the obscene noise echoes through the forest, my vision goes white.")
ShowMessageFace("",0,0,2,26)
ShowMessage("\\n<Luka>Ah, aaaaaah!!")
RunCommonEvent(104)
PictureDisplay(5,"ev_elf_h3",0,0,0,0,100,100,255,0)
RunCommonEvent(105)
ShowMessageFace("",0,0,2,27)
ShowMessage("I explode inside of the Elf, as if shooting out a white flag of surrender.")
ShowMessageFace("",0,0,2,28)
ShowMessage("\\n<Luka>Unnngh...")
ShowMessageFace("",0,0,2,29)
ShowMessage("I tremble in pleasure as I ejaculate.")
ShowMessage("In the end, I wasn't able to endure...")
ShowMessageFace("elf_fc1",1,0,2,30)
ShowMessage("\\n<Elf>Hehe... Was it good?")
ShowMessageFace("",0,0,2,31)
ShowMessage("The Elf looks down at me with a sadistic smile as I bask in the feelings of the humiliating orgasm.")
ShowMessage("While being forced to look at her triumphant face, my ejaculation ends.")
ShowMessageFace("elf_fc1",1,0,2,32)
ShowMessage("\\n<Elf>How pathetic.\nRaped by a female as you come helplessly.")
ShowMessageFace("elf_fc1",1,0,2,33)
ShowMessage("\\n<Elf>Even though you're a man, you don't even try to fight back!")
ShowMessageFace("",0,0,2,34)
ShowMessage("As the Elf laughs at me, she starts to move her waist again.")
ShowMessage("Now moving around in a circle, the stimulation is twice as powerful as moments ago.")
ShowMessageFace("",0,0,2,35)
ShowMessage("\\n<Luka>Ah... Aaaaaah!!")
ShowMessageFace("elf_fc1",1,0,2,36)
ShowMessage("\\n<Elf>Is it really that good?\nHahaha... Crying out in pleasure while being raped! How pathetic!")
ShowMessageFace("",0,0,2,37)
ShowMessage("\\n<Luka>Unnngh...!")
ShowMessageFace("",0,0,2,38)
ShowMessage("Even if I try to endure this, her movements are too intense.")
ShowMessageFace("",0,0,2,39)
ShowMessage("Too weak to move, I can't do anything but be flooded by the pleasure.")
ShowMessageFace("elf_fc1",1,0,2,40)
ShowMessage("\\n<Elf>Hehe... So miserable.")
ShowMessageFace("",0,0,2,41)
ShowMessage("My penis is being mercilessly tortured by pleasure inside of her.")
ShowMessage("Whenever she stops moving her waist, she tightens around my penis instead.")
ShowMessageFace("",0,0,2,42)
ShowMessage("As her jelly-like walls close tighter around my penis, I can feel every inch of her soft walls.")
ShowMessageFace("",0,0,2,43)
ShowMessage("\\n<Luka>Faaaaa...")
ShowMessageFace("elf_fc1",1,0,2,44)
ShowMessage("\\n<Elf>Hora, Hora, hora...!\nIt looks like you're going to come again.")
ShowMessageFace("",0,0,2,45)
ShowMessage("While squeezing me even tighter, the Elf starts to make small movements.")
ShowMessage("Squeezed tightly by her pussy, the small movements force pleasure into every inch of my penis.")
ShowMessageFace("elf_fc1",1,0,2,46)
ShowMessage("\\n<Elf>You look like you're about to come...\nSuch a shameless Hero!")
ShowMessageFace("",0,0,2,47)
ShowMessage("The Elf starts to rhythmically contract her pussy.")
ShowMessage("As if milking me, she starts from the entrance of her pussy and moves all the way to the deepest point.")
ShowMessageFace("",0,0,2,48)
ShowMessage("Instantly cornered by this change in stimulation, I'm forced over the edge.")
ShowMessageFace("",0,0,2,49)
ShowMessage("\\n<Luka>Auu... I'm coming again!")
ShowMessageFace("elf_fc1",1,0,2,50)
ShowMessage("\\n<Elf>Then I'll finish you...\nHora... Now... Come!")
ShowMessageFace("",0,0,2,51)
ShowMessage("Finishing me off just like she said, she clamps down around every inch of my penis, squeezing me with all her power.")
ShowMessage("Squeezed tighter than ever before, a powerful orgasm blows through my body.")
RunCommonEvent(104)
PictureDisplay(5,"ev_elf_h4",0,0,0,0,100,100,255,0)
RunCommonEvent(105)
ShowMessageFace("",0,0,2,52)
ShowMessage("\\n<Luka>Faaa!")
ShowMessageFace("",0,0,2,53)
ShowMessage("Flooded in ecstasy, I've finally surrendered my body and mind to the Elf.")
ShowMessageFace("",0,0,2,54)
ShowMessage("Broken by the pleasure, I can't think of anything but wanting to feel more of her...")
ShowMessageFace("elf_fc1",1,0,2,55)
ShowMessage("\\n<Elf>Oh? Did you give in?\nAre you already a slave to my pussy?")
ShowMessageFace("",0,0,2,56)
ShowMessage("The Elf shakes her waist as a triumphant smile flashes on her face.")
ShowMessageFace("",0,0,2,57)
ShowMessage("\\n<Luka>Ah, aaaah...!")
ShowMessageFace("",0,0,2,58)
ShowMessage("I tremble in joy at the merciless pleasure.")
ShowMessage("Rejoicing inside of her pussy, I accept my new role.")
ShowMessageFace("elf_fc1",1,0,2,59)
ShowMessage("\\n<Elf>It can't be helped, I guess.\nIf you've become like this, I have no choice but to take care of you.")
ShowMessageFace("elf_fc1",1,0,2,60)
ShowMessage("\\n<Elf>I'll keep you in this forest for the rest of your life as my pet.\nHora, hora...")
ShowMessageFace("",0,0,2,61)
ShowMessage("\\n<Luka>Auu... Incredible...\nI'm coming again......")
RunCommonEvent(104)
PictureDisplay(5,"ev_elf_h5",0,0,0,0,100,100,255,0)
RunCommonEvent(105)
ShowMessageFace("",0,0,2,62)
ShowMessage("I come again quickly after my last orgasm.")
ShowMessage("Accepting the pleasure of this humiliation, I immerse myself in the sensations.")
ShowMessageFace("elf_fc1",1,0,2,63)
ShowMessage("\\n<Elf>You aren't allowed to rest yet.\nYou don't have your own will anymore... You're just my pet.")
ShowMessageFace("",0,0,2,64)
ShowMessage("\\n<Luka>Aaah... That feels so good...")
RunCommonEvent(104)
RunCommonEvent(105)
221()
PictureClear(5)
246(2)
ShowMessageFace("",0,0,2,65)
ShowMessage("Robbed of my free will by her amazing pussy, it's not possible for me to return.")
ShowMessage("Unable to leave the forest, I spend every day at the Elf's side.")
ShowMessageFace("",0,0,2,66)
ShowMessage("But since she violates me every day, I'm happy...")
DefineLabel("反省会")
ShowMessageFace("",0,0,2,67)
ShowMessage("......")
221()
242(1)
Wait(120)
355("memory_interruption")
ShowMessageFace("",0,0,2,68)
ShowMessage("You hear Ilias' voice calling out to you...")
ShowMessage("Receive her evaluation?")
ShowChoices(strings("Receive Evaluation","Change Difficulty","Reincarnate"),3)
IfPlayerPicksChoice(0,null)
 241(bytes(0x04,0x08,0x6f,0x3a,0x0d,0x52,0x50,0x47,0x3a,0x3a,0x42,0x47,0x4d,0x08,0x3a,0x0a,0x40,0x6e,0x61,0x6d,0x65,0x49,0x22,0x0a,0x69,0x72,0x69,0x61,0x73,0x06,0x3a,0x06,0x45,0x54,0x3a,0x0c,0x40,0x76,0x6f,0x6c,0x75,0x6d,0x65,0x69,0x5f,0x3a,0x0b,0x40,0x70,0x69,0x74,0x63,0x68,0x69,0x6e))
 PictureDisplay(1,"bg001",0,0,0,0,100,100,255,0)
 222()
 PictureDisplay(5,"80_iriasu_st04",0,0,0,0,100,100,0,0)
 PictureMove(5,null,0,0,0,0,100,100,255,0,30,true)
 ShowMessageFace("iriasu_fc1",3,0,2,69)
 ShowMessage("\\n<Ilias>Violated by an Elf... Are you going to quit your adventure now?\nIs your only purpose on this journey to end up as a monster's prey?")
 PictureDisplay(5,"80_iriasu_st01",0,0,0,0,100,100,255,0)
 ShowMessageFace("iriasu_fc1",0,0,2,70)
 ShowMessage("\\n<Ilias>Elves use powerful bow skills.\nShe is really annoying because she uses Paralysis Arrow.")
 ShowMessageFace("iriasu_fc1",0,0,2,71)
 ShowMessage("\\n<Ilias>She is strong against Wind, Water, Earth and status ailments...\nShe generally is resilient but she is weak to Pleasure attacks.")
 ShowMessageFace("iriasu_fc1",0,0,2,72)
 ShowMessage("\\n<Ilias>Pleasure related status ailments work well against her as well so make use of them.\nWhat a lewd creature...")
 PictureDisplay(5,"80_iriasu_st02",0,0,0,0,100,100,255,0)
 ShowMessageFace("iriasu_fc1",1,0,2,73)
 ShowMessage("\\n<Ilias>Now go, oh Brave Luka.\nCut down that arrogant self-proclaimed Guardian of the Forest.")
 242(1)
 221()
 PictureClear(5)
 PictureClear(1)
 Wait(60)
 0()
IfPlayerPicksChoice(1,null)
 ShowMessageFace("",0,0,2,74)
 ShowMessage("Please choose a difficulty level.")
 RunCommonEvent(110)
 0()
IfPlayerPicksChoice(2,null)
 0()
404()
RunCommonEvent(3000)
0()
