﻿// EVENT 2166
Name "Seduction: Sea Slug Marine"

355("$game_troop.lose_event_id = 3166")
ChangeVariable(26,26,0,3,3,1,4)
ChangeVariable(26,26,4,0,10)
ShowMessageFace("umiusi_k_fc1",0,0,2,1)
ShowMessage("\\n<Sea Slug Marine>I've been driven into a corner...\n...So it's come to this!")
355("battler_graphic_hide")
PictureDisplay(5,"ev_umiusi_k_hb1",0,0,0,0,100,100,255,0)
ShowMessageFace("",0,0,2,2)
ShowMessage("The Sea Slug Marine grabs onto Luka's body!\nHer slimy mucus comes into contact with his entire body!")
ShowMessageFace("umiusi_k_fc1",1,0,2,3)
ShowMessage("\\n<Sea Slug Marine>Would you like to mate with me like this?\nIt will feel really good once you let out a lot of semen...♪")
ChangeSwitch(98,98,0)
ChangeSwitch(96,96,0)
ShowChoices(strings("Ignore her","Give in to temptation"),1)
IfPlayerPicksChoice(0,"Ignore her")
 ShowMessageFace("",0,0,2,4)
 ShowMessage("Luka resists her temptation!")
 RunCommonEvent(1999)
 EndEventProcessing()
 0()
IfPlayerPicksChoice(1,"Give in to temptation")
 0()
404()
ShowMessageFace("umiusi_k_fc1",1,0,2,5)
ShowMessage("\\n<Sea Slug Marine>In that case, I'm putting it in... Squishy. ♪")
ChangeVariable(26,26,3,0,4)
250(bytes(0x04,0x08,0x6f,0x3a,0x0c,0x52,0x50,0x47,0x3a,0x3a,0x53,0x45,0x08,0x3a,0x0a,0x40,0x6e,0x61,0x6d,0x65,0x49,0x22,0x13,0x6d,0x6f,0x6e,0x5f,0x65,0x72,0x6f,0x5f,0x62,0x75,0x63,0x68,0x75,0x31,0x06,0x3a,0x06,0x45,0x54,0x3a,0x0b,0x40,0x70,0x69,0x74,0x63,0x68,0x69,0x69,0x3a,0x0c,0x40,0x76,0x6f,0x6c,0x75,0x6d,0x65,0x69,0x69))
311(0,1,1,1,26,true)
ShowMessageFace("",0,0,2,6)
ShowMessage("The Sea Slug Marine brings Luka's penis into her semen cavity! His penis sinks into her squishy, slimy flesh hole!\\D")
ShowMessage("Luka takes \\V[26] damage!")
ChangeVariable(27,27,0,3,3,1,2)
If(1,27,0,0,0)
 JumpToLabel("射精1")
 0()
EndIf()
ShowMessageFace("umiusi_k_fc1",1,0,2,7)
ShowMessage("\\n<Sea Slug Marine>Isn't it wet and slimy inside?\nPlease put out lots of semen...♪")
250(bytes(0x04,0x08,0x6f,0x3a,0x0c,0x52,0x50,0x47,0x3a,0x3a,0x53,0x45,0x08,0x3a,0x0a,0x40,0x6e,0x61,0x6d,0x65,0x49,0x22,0x13,0x6d,0x6f,0x6e,0x5f,0x65,0x72,0x6f,0x5f,0x63,0x68,0x75,0x70,0x61,0x34,0x06,0x3a,0x06,0x45,0x54,0x3a,0x0b,0x40,0x70,0x69,0x74,0x63,0x68,0x69,0x69,0x3a,0x0c,0x40,0x76,0x6f,0x6c,0x75,0x6d,0x65,0x69,0x69))
311(0,1,1,1,26,true)
ShowMessageFace("",0,0,2,8)
ShowMessage("The Sea Slug Marine's semen cavity undulates!\nHer flesh walls wriggle mysteriously, giving a melting pleasure!\\D")
ShowMessage("Luka takes \\V[26] damage!")
ChangeVariable(27,27,0,3,3,1,2)
If(1,27,0,0,0)
 JumpToLabel("射精2")
 0()
EndIf()
ShowMessageFace("umiusi_k_fc1",1,0,2,9)
ShowMessage("\\n<Sea Slug Marine>I'll tighten it like this...\nAre you going to come soon?")
250(bytes(0x04,0x08,0x6f,0x3a,0x0c,0x52,0x50,0x47,0x3a,0x3a,0x53,0x45,0x08,0x3a,0x0a,0x40,0x6e,0x61,0x6d,0x65,0x49,0x22,0x13,0x6d,0x6f,0x6e,0x5f,0x65,0x72,0x6f,0x5f,0x63,0x68,0x75,0x70,0x61,0x34,0x06,0x3a,0x06,0x45,0x54,0x3a,0x0b,0x40,0x70,0x69,0x74,0x63,0x68,0x69,0x69,0x3a,0x0c,0x40,0x76,0x6f,0x6c,0x75,0x6d,0x65,0x69,0x69))
311(0,1,1,1,26,true)
ShowMessageFace("",0,0,2,10)
ShowMessage("Her flesh hole narrows and tightens, skillfully pressuring Luka's penis! Her slimy mucus sticks to his glans, giving him pleasure!\\D")
ShowMessage("Luka takes \\V[26] damage!")
ChangeVariable(27,27,0,3,3,1,2)
If(1,27,0,0,0)
 JumpToLabel("射精2")
 0()
EndIf()
DefineLabel("射精1")
ShowMessageFace("",0,0,2,11)
ShowMessage("\\n<Luka>No, I'm coming... Aaaah...")
RunCommonEvent(104)
PictureDisplay(5,"ev_umiusi_k_hb2",0,0,0,0,100,100,255,0)
RunCommonEvent(105)
ShowMessageFace("",0,0,2,12)
ShowMessage("I accidentally ejaculate inside the Sea Slug Marine's semen cavity. My semen steadily pours into her slimy flesh hole.")
ShowMessageFace("umiusi_k_fc1",1,0,2,13)
ShowMessage("\\n<Sea Slug Marine>Aha, you came already...\nDid it feel nice and sticky inside of me?")
RunCommonEvent(2000)
EndEventProcessing()
DefineLabel("射精1")
ShowMessageFace("",0,0,2,14)
ShowMessage("\\n<Luka>No, I'm coming... Aaaah...")
RunCommonEvent(104)
PictureDisplay(5,"ev_umiusi_k_hb2",0,0,0,0,100,100,255,0)
RunCommonEvent(105)
ShowMessageFace("",0,0,2,15)
ShowMessage("I miserably ejaculate inside the Sea Slug Marine's semen cavity. My semen steadily pours into her slimy flesh hole.")
ShowMessageFace("umiusi_k_fc1",1,0,2,16)
ShowMessage("\\n<Sea Slug Marine>Aha, you put out a lot...\nDid it feel nice and sticky inside of me?")
RunCommonEvent(2000)
EndEventProcessing()
0()
