﻿// EVENT 3062
Name "Anglerfish Girl"

If(0,25,1)
 JumpToLabel("反省会")
 0()
EndIf()
PictureDisplay(5,"80_ankou_st01",0,0,0,0,100,100,0,0)
PictureMove(5,null,0,0,0,0,100,100,255,0,30,true)
241(bytes(0x04,0x08,0x6f,0x3a,0x0d,0x52,0x50,0x47,0x3a,0x3a,0x42,0x47,0x4d,0x08,0x3a,0x0a,0x40,0x6e,0x61,0x6d,0x65,0x49,0x22,0x09,0x65,0x72,0x6f,0x31,0x06,0x3a,0x06,0x45,0x54,0x3a,0x0c,0x40,0x76,0x6f,0x6c,0x75,0x6d,0x65,0x69,0x69,0x3a,0x0b,0x40,0x70,0x69,0x74,0x63,0x68,0x69,0x69))
ShowMessageFace("",0,0,2,1)
ShowMessage("\\n<Luka>Urhg...")
ShowMessageFace("",0,0,2,2)
ShowMessage("The Anglerfish Girl slowly approaches me.\nHer soft abdomen presses against me, adhering to me.")
ShowMessageFace("",0,0,2,3)
ShowMessage("\\n<Luka>Hiii! What is this...?!")
PictureDisplay(6,"ev_ankou_cta01",0,0,0,0,100,100,255,0)
ShowMessageFace("",0,0,2,4)
ShowMessage("In the next moment, my lower body sinks into hers!\nHer soft body draws me into it.")
ShowMessageFace("",0,0,2,5)
ShowMessage("\\n<Luka>Uwaaa!")
ShowMessageFace("",0,0,2,6)
ShowMessage("My body sinks into the soft flesh of the Anglerfish Girl.\nIt's as if I'm sinking into a giant bowl of warm jelly.")
ShowMessageFace("",0,0,2,7)
ShowMessage("I can't pull myself out this time, either.\nInstead, I'm being pulled deeper into her.")
ShowMessageFace("",0,0,2,8)
ShowMessage("\\n<Luka>S...Stop...!")
PictureDisplay(6,"ev_ankou_cta03",0,0,0,0,100,100,255,0)
ShowMessageFace("",0,0,2,9)
ShowMessage("Even if I struggle, I only sink deeper.\nBeing swallowed into her body, all resistance is pointless...")
245(bytes(0x04,0x08,0x6f,0x3a,0x0d,0x52,0x50,0x47,0x3a,0x3a,0x42,0x47,0x53,0x08,0x3a,0x0a,0x40,0x6e,0x61,0x6d,0x65,0x49,0x22,0x1a,0x6d,0x6f,0x6e,0x5f,0x68,0x73,0x65,0x61,0x6e,0x32,0x31,0x5f,0x74,0x65,0x6e,0x74,0x61,0x63,0x6c,0x65,0x32,0x06,0x3a,0x06,0x45,0x54,0x3a,0x0c,0x40,0x76,0x6f,0x6c,0x75,0x6d,0x65,0x69,0x55,0x3a,0x0b,0x40,0x70,0x69,0x74,0x63,0x68,0x69,0x69))
PictureDisplay(6,"ev_ankou_ctb01",0,0,0,0,100,100,255,0)
ShowMessageFace("",0,0,2,10)
ShowMessage("My body is absorbed all the way up to my neck.\nCompletely stuck in this strange organ... What's going to happen next?")
ShowMessageFace("",0,0,2,11)
ShowMessage("\\n<Luka>Aaa...")
ShowMessageFace("",0,0,2,12)
ShowMessage("Bizarre fleshy tentacles reach out and start to cover the exposed areas of my body. Her weird body seems to be fusing with mine.")
ShowMessageFace("",0,0,2,13)
ShowMessage("\\n<Luka>Uaaaa!")
ShowMessageFace("",0,0,2,14)
ShowMessage("Even if I struggle, my hands and feet are both already inside of her. In addition, my penis is already stuck inside of her flesh.")
ShowMessageFace("",0,0,2,15)
ShowMessage("\\n<Luka>Auu... Stop it...")
ShowMessageFace("",0,0,2,16)
ShowMessage("The jelly-like flesh moves and turns around my penis as I struggle helplessly.")
ShowMessageFace("",0,0,2,17)
ShowMessage("The movements force more pleasure into me as I pitifully struggle. The feeling of being completely wrapped up inside of her gives a feeling too good to endure.")
ShowMessageFace("",0,0,2,18)
ShowMessage("\\n<Luka>Faaa! I'm going to come...!")
ShowMessageFace("",0,0,2,19)
ShowMessage("The feeling of her soft flesh around me is too much, as the overpowering desire to ejaculate rises through my waist. Unable to endure any longer, I explode inside of her.")
RunCommonEvent(104)
PictureDisplay(6,"ev_ankou_ctb02",0,0,0,0,100,100,255,0)
RunCommonEvent(105)
ShowMessageFace("",0,0,2,20)
ShowMessage("\\n<Luka>Faaa...")
ShowMessageFace("",0,0,2,21)
ShowMessage("The unexpected pleasure inside of her forces me to come. Having my entire body violated like this, I feel miserable.")
ShowMessageFace("",0,0,2,22)
ShowMessage("The strength I had left fades as the lingering feelings from the orgasm mix with the humiliation. The flesh that's enveloping my body continues to gently wrap around my body.")
ShowMessageFace("",0,0,2,23)
ShowMessage("Then I noticed a strange sensation.")
ShowMessageFace("",0,0,2,24)
ShowMessage("My skin starts to slowly dissolve and mix with hers, fusing me to her body.")
If(0,95,0)
 246(2)
 221()
 ShowMessageFace("",0,0,2,25)
 ShowMessage("＊＊＊The rest of the vore scene is being skipped.＊＊＊")
 JumpToLabel("zzz")
 0()
EndIf()
ShowMessageFace("",0,0,2,26)
ShowMessage("\\n<Luka>Is this... Her absorbing me...?")
ShowMessageFace("",0,0,2,27)
ShowMessage("I twist my body in a panic, but I'm already too attached to her skin to move. The sticky feeling covering my body... I've already started to be united with her.")
ShowMessageFace("",0,0,2,28)
ShowMessage("It doesn't feel bad though...\nAs more of my body fuses with hers, a sweet sensation washes over my body.")
ShowMessageFace("",0,0,2,29)
ShowMessage("Before I had noticed, it was already too late.")
ShowMessageFace("",0,0,2,30)
ShowMessage("\\n<Luka>Aaa...")
245(bytes(0x04,0x08,0x6f,0x3a,0x0d,0x52,0x50,0x47,0x3a,0x3a,0x42,0x47,0x53,0x08,0x3a,0x0a,0x40,0x6e,0x61,0x6d,0x65,0x49,0x22,0x1a,0x6d,0x6f,0x6e,0x5f,0x68,0x73,0x65,0x61,0x6e,0x32,0x32,0x5f,0x74,0x65,0x6e,0x74,0x61,0x63,0x6c,0x65,0x33,0x06,0x3a,0x06,0x45,0x54,0x3a,0x0c,0x40,0x76,0x6f,0x6c,0x75,0x6d,0x65,0x69,0x55,0x3a,0x0b,0x40,0x70,0x69,0x74,0x63,0x68,0x69,0x69))
ShowMessageFace("",0,0,2,31)
ShowMessage("My penis is also beginning to fuse with her body.\nThe feeling of uniting with her is too much for my mind to take.")
ShowMessageFace("",0,0,2,32)
ShowMessage("\\n<Luka>Aaa.. Incredible... Ahhh...")
RunCommonEvent(104)
PictureDisplay(6,"ev_ankou_ctb03",0,0,0,0,100,100,255,0)
RunCommonEvent(105)
ShowMessageFace("",0,0,2,33)
ShowMessage("Semen gushes out of me as more of my body fuses with hers.")
ShowMessageFace("",0,0,2,34)
ShowMessage("\\n<Luka>Aiee! Ahhh!")
ShowMessageFace("",0,0,2,35)
ShowMessage("Her body continues to cover more of the exposed areas of mine as the melting sensation spreads.")
ShowMessageFace("",0,0,2,37)
ShowMessage("\\n<Luka>Aaa...")
RunCommonEvent(104)
PictureDisplay(6,"ev_ankou_ctb04",0,0,0,0,100,100,255,0)
RunCommonEvent(105)
ShowMessageFace("",0,0,2,38)
ShowMessage("I ejaculate a final time as my waist finally fuses with her body.")
ShowMessageFace("",0,0,2,39)
ShowMessage("The only feeling I can feel from my lower body is just a lingering sweet pleasure.")
ShowMessageFace("",0,0,2,40)
ShowMessage("\\n<Luka>A...a...a...")
ShowMessageFace("",0,0,2,41)
ShowMessage("I feel more and more of myself absorbed into her.\nBut I can't break free of the intoxication.")
ShowMessageFace("",0,0,2,42)
ShowMessage("Feeling neither fear nor horror, I just feel at peace as the rest of my being is absorbed into her.")
ShowMessageFace("",0,0,2,43)
ShowMessage("\\n<Luka>...............")
ShowMessageFace("",0,0,2,44)
ShowMessage("My thoughts begin to fade to nothing as well.\nHaving taken even my mind, my entire essence is absorbed by the Anglerfish Girl.")
221()
PictureClear(5)
PictureClear(6)
246(2)
ShowMessageFace("",0,0,2,45)
ShowMessage("A normal anglerfish absorbs their mate and digests their body, until only their genitals remain. Like that, the Anglerfish Girl monster absorbs and digests her prey.")
ShowMessageFace("",0,0,2,46)
ShowMessage("Thus, a boy was made into the prey of the Anglerfish Girl...")
DefineLabel("反省会")
ShowMessageFace("",0,0,2,47)
ShowMessage("...............")
DefineLabel("zzz")
221()
242(1)
Wait(120)
355("memory_interruption")
ShowMessageFace("",0,0,2,48)
ShowMessage("You hear Ilias' voice calling out to you...\nReceive her evaluation?")
ShowChoices(strings("Receive Evaluation","Change Difficulty","Reincarnate"),3)
IfPlayerPicksChoice(0,null)
 241(bytes(0x04,0x08,0x6f,0x3a,0x0d,0x52,0x50,0x47,0x3a,0x3a,0x42,0x47,0x4d,0x08,0x3a,0x0a,0x40,0x6e,0x61,0x6d,0x65,0x49,0x22,0x0a,0x69,0x72,0x69,0x61,0x73,0x06,0x3a,0x06,0x45,0x54,0x3a,0x0c,0x40,0x76,0x6f,0x6c,0x75,0x6d,0x65,0x69,0x5f,0x3a,0x0b,0x40,0x70,0x69,0x74,0x63,0x68,0x69,0x6e))
 PictureDisplay(1,"bg001",0,0,0,0,100,100,255,0)
 222()
 PictureDisplay(5,"80_iriasu_st04",0,0,0,0,100,100,0,0)
 PictureMove(5,null,0,0,0,0,100,100,255,0,30,true)
 ShowMessageFace("iriasu_fc1",3,0,2,49)
 ShowMessage("\\n<Ilias>You've been absorbed and assimilated by the Anglerfish Girl... I'm sure you're pleased because it felt good.")
 PictureDisplay(5,"80_iriasu_st01",0,0,0,0,100,100,255,0)
 ShowMessageFace("iriasu_fc1",0,0,2,50)
 ShowMessage("\\n<Ilias>The Anglerfish Girl's behavior is quite monotonous. She has very high vitality and it takes quite some time to beat her.")
 ShowMessageFace("iriasu_fc1",0,0,2,51)
 ShowMessage("\\n<Ilias>She's weak to earth and lightning, so try to use those kind of skills. Using status ailments should make things easier.")
 PictureDisplay(5,"80_iriasu_st02",0,0,0,0,100,100,255,0)
 ShowMessageFace("iriasu_fc1",1,0,2,52)
 ShowMessage("\\n<Ilias>Now go, oh brave Luka.\nIt's hard to find someone to replace you.")
 242(1)
 221()
 PictureClear(5)
 PictureClear(1)
 Wait(60)
 0()
IfPlayerPicksChoice(1,null)
 ShowMessageFace("",0,0,2,53)
 ShowMessage("Please choose a difficulty level.")
 RunCommonEvent(110)
 0()
IfPlayerPicksChoice(2,null)
 0()
404()
RunCommonEvent(3000)
0()
