// EVENT 7042
Name "Bunny: Match"

ChangeSwitch(96,96,0)
ChangeSwitch(98,98,0)
ShowMessageFace("mob_bunny1_fc1",0,0,2,1)
ShowMessage("\\n<Bunny-chan>All right, battle start! ♪\nMy weapons of choice are these fabulous thighs of mine. ♪")
PictureDisplay(6,"ev_mob_bunny1_h1",0,0,120,50,100,100,255,0)
250(bytes(0x04,0x08,0x6f,0x3a,0x0c,0x52,0x50,0x47,0x3a,0x3a,0x53,0x45,0x08,0x3a,0x0a,0x40,0x6e,0x61,0x6d,0x65,0x49,0x22,0x12,0x6d,0x6f,0x6e,0x5f,0x65,0x72,0x6f,0x5f,0x6b,0x6f,0x6b,0x69,0x31,0x06,0x3a,0x06,0x45,0x54,0x3a,0x0b,0x40,0x70,0x69,0x74,0x63,0x68,0x69,0x69,0x3a,0x0c,0x40,0x76,0x6f,0x6c,0x75,0x6d,0x65,0x69,0x69))
ChangeVariable(11,11,0,2,13,15)
311(0,1,1,1,11,true)
ShowMessageFace("",0,0,2,2)
ShowMessage("Bunny leans over Luka and slowly works his penis between her tender thighs!\\D")
ShowMessage("Luka takes \\V[11] damage!")
ChangeVariable(27,27,0,3,3,1,2)
If(1,27,0,0,0)
 RunCommonEvent(7043)
 EndEventProcessing()
 0()
EndIf()
ShowMessageFace("mob_bunny1_fc1",0,0,2,3)
ShowMessage("\\n<Bunny-chan>My thighs are soft, aren't they? There are men who have came just from insertion. ♪")
250(bytes(0x04,0x08,0x6f,0x3a,0x0c,0x52,0x50,0x47,0x3a,0x3a,0x53,0x45,0x08,0x3a,0x0a,0x40,0x6e,0x61,0x6d,0x65,0x49,0x22,0x12,0x6d,0x6f,0x6e,0x5f,0x65,0x72,0x6f,0x5f,0x6b,0x6f,0x6b,0x69,0x31,0x06,0x3a,0x06,0x45,0x54,0x3a,0x0b,0x40,0x70,0x69,0x74,0x63,0x68,0x69,0x69,0x3a,0x0c,0x40,0x76,0x6f,0x6c,0x75,0x6d,0x65,0x69,0x69))
ChangeVariable(11,11,0,2,13,15)
311(0,1,1,1,11,true)
ShowMessageFace("",0,0,2,4)
ShowMessage("Her soft thighs wrap around Luka's penis! Their elasticity and warmth pressing from all sides elicits a wonderfully sweet sensation!\\D")
ShowMessage("Luka takes \\V[11] damage!")
ChangeVariable(27,27,0,3,3,1,2)
If(1,27,0,0,0)
 RunCommonEvent(7043)
 EndEventProcessing()
 0()
EndIf()
ShowMessageFace("mob_bunny1_fc1",0,0,2,5)
ShowMessage("\\n<Bunny-chan>All right, time to start tightening up. Hehehe, I wonder how long you can bear it. ♪")
250(bytes(0x04,0x08,0x6f,0x3a,0x0c,0x52,0x50,0x47,0x3a,0x3a,0x53,0x45,0x08,0x3a,0x0a,0x40,0x6e,0x61,0x6d,0x65,0x49,0x22,0x12,0x6d,0x6f,0x6e,0x5f,0x65,0x72,0x6f,0x5f,0x6b,0x6f,0x6b,0x69,0x31,0x06,0x3a,0x06,0x45,0x54,0x3a,0x0b,0x40,0x70,0x69,0x74,0x63,0x68,0x69,0x69,0x3a,0x0c,0x40,0x76,0x6f,0x6c,0x75,0x6d,0x65,0x69,0x69))
ChangeVariable(11,11,0,2,13,15)
311(0,1,1,1,11,true)
ShowMessageFace("",0,0,2,6)
ShowMessage("Bunny gradually flexes her thighs, increasing the tender, elastic sense of pressure on Luka's penis!\\D")
ShowMessage("Luka takes \\V[11] damage!")
ChangeVariable(27,27,0,3,3,1,2)
If(1,27,0,0,0)
 RunCommonEvent(7044)
 EndEventProcessing()
 0()
EndIf()
ShowMessageFace("mob_bunny1_fc1",0,0,2,7)
ShowMessage("\\n<Bunny-chan>Ahaha, how is it? Feels like sliding deeper into a vagina, I bet. ♪")
250(bytes(0x04,0x08,0x6f,0x3a,0x0c,0x52,0x50,0x47,0x3a,0x3a,0x53,0x45,0x08,0x3a,0x0a,0x40,0x6e,0x61,0x6d,0x65,0x49,0x22,0x12,0x6d,0x6f,0x6e,0x5f,0x65,0x72,0x6f,0x5f,0x6b,0x6f,0x6b,0x69,0x31,0x06,0x3a,0x06,0x45,0x54,0x3a,0x0b,0x40,0x70,0x69,0x74,0x63,0x68,0x69,0x69,0x3a,0x0c,0x40,0x76,0x6f,0x6c,0x75,0x6d,0x65,0x69,0x69))
ChangeVariable(11,11,0,2,13,15)
311(0,1,1,1,11,true)
ShowMessageFace("",0,0,2,8)
ShowMessage("The tightness intensifies, constricting around Luka's shaft! The soft flesh of her thighs especially digs in underneath the head, sending shivers up Luka's spine!\\D")
ShowMessage("Luka takes \\V[11] damage!")
ChangeVariable(27,27,0,3,3,1,2)
If(1,27,0,0,0)
 RunCommonEvent(7044)
 EndEventProcessing()
 0()
EndIf()
ShowMessageFace("mob_bunny1_fc1",0,0,2,9)
ShowMessage("\\n<Bunny-chan>Half of my opponents come just from the tightening, but not you. I wonder how you'll react when I start moving, though.")
250(bytes(0x04,0x08,0x6f,0x3a,0x0c,0x52,0x50,0x47,0x3a,0x3a,0x53,0x45,0x08,0x3a,0x0a,0x40,0x6e,0x61,0x6d,0x65,0x49,0x22,0x12,0x6d,0x6f,0x6e,0x5f,0x65,0x72,0x6f,0x5f,0x6b,0x6f,0x6b,0x69,0x31,0x06,0x3a,0x06,0x45,0x54,0x3a,0x0b,0x40,0x70,0x69,0x74,0x63,0x68,0x69,0x69,0x3a,0x0c,0x40,0x76,0x6f,0x6c,0x75,0x6d,0x65,0x69,0x69))
ChangeVariable(11,11,0,2,13,15)
311(0,1,1,1,11,true)
ShowMessageFace("",0,0,2,10)
ShowMessage("Bunny begins rubbing her thighs together! With his penis sandwiched between them, her inner thighs massage it!\\D")
ShowMessage("Luka takes \\V[11] damage!")
ChangeVariable(27,27,0,3,3,1,2)
If(1,27,0,0,0)
 RunCommonEvent(7044)
 EndEventProcessing()
 0()
EndIf()
If(1,27,0,70,4)
 ShowMessageFace("ruka_fc1",0,0,2,11)
 ShowMessage("\\n<Luka>Ah, aaaah...")
 ShowMessageFace("mob_bunny1_fc1",0,0,2,12)
 ShowMessage("\\n<Bunny-chan>Ahaha, coming already? You weren't so tough. ♪")
 0()
Else()
 ShowMessageFace("mob_bunny1_fc1",0,0,2,13)
 ShowMessage("\\n<Bunny-chan>Still holding back? Then let me get serious!")
 0()
EndIf()
250(bytes(0x04,0x08,0x6f,0x3a,0x0c,0x52,0x50,0x47,0x3a,0x3a,0x53,0x45,0x08,0x3a,0x0a,0x40,0x6e,0x61,0x6d,0x65,0x49,0x22,0x12,0x6d,0x6f,0x6e,0x5f,0x65,0x72,0x6f,0x5f,0x6b,0x6f,0x6b,0x69,0x31,0x06,0x3a,0x06,0x45,0x54,0x3a,0x0b,0x40,0x70,0x69,0x74,0x63,0x68,0x69,0x69,0x3a,0x0c,0x40,0x76,0x6f,0x6c,0x75,0x6d,0x65,0x69,0x69))
ChangeVariable(11,11,0,2,13,15)
311(0,1,1,1,11,true)
ShowMessageFace("",0,0,2,14)
ShowMessage("Bunny rubs her thighs together to stimulate Luka's penis between them! Her plump, meaty legs smoosh into Luka's shaft!\\D")
ShowMessage("Luka takes \\V[11] damage!")
ChangeVariable(27,27,0,3,3,1,2)
If(1,27,0,0,0)
 RunCommonEvent(7044)
 EndEventProcessing()
 0()
EndIf()
ShowMessageFace("mob_bunny1_fc1",0,0,2,15)
ShowMessage("\\n<Bunny-chan>I'm not done torturing you yet! Again, again, again! ♪")
250(bytes(0x04,0x08,0x6f,0x3a,0x0c,0x52,0x50,0x47,0x3a,0x3a,0x53,0x45,0x08,0x3a,0x0a,0x40,0x6e,0x61,0x6d,0x65,0x49,0x22,0x12,0x6d,0x6f,0x6e,0x5f,0x65,0x72,0x6f,0x5f,0x6b,0x6f,0x6b,0x69,0x31,0x06,0x3a,0x06,0x45,0x54,0x3a,0x0b,0x40,0x70,0x69,0x74,0x63,0x68,0x69,0x69,0x3a,0x0c,0x40,0x76,0x6f,0x6c,0x75,0x6d,0x65,0x69,0x69))
ChangeVariable(11,11,0,2,13,15)
311(0,1,1,1,11,true)
ShowMessageFace("",0,0,2,16)
ShowMessage("Her thighs continue grinding, getting progressively more intense with each passing second! The elastic flesh squashes against Luka's, massaging his penis!\\D")
ShowMessage("Luka takes \\V[11] damage!")
ChangeVariable(27,27,0,3,3,1,2)
If(1,27,0,0,0)
 RunCommonEvent(7044)
 EndEventProcessing()
 0()
EndIf()
ShowMessageFace("mob_bunny1_fc1",0,0,2,17)
ShowMessage("\\n<Bunny-chan>You want me to go easy on you? Not a chance! ♪")
250(bytes(0x04,0x08,0x6f,0x3a,0x0c,0x52,0x50,0x47,0x3a,0x3a,0x53,0x45,0x08,0x3a,0x0a,0x40,0x6e,0x61,0x6d,0x65,0x49,0x22,0x12,0x6d,0x6f,0x6e,0x5f,0x65,0x72,0x6f,0x5f,0x6b,0x6f,0x6b,0x69,0x31,0x06,0x3a,0x06,0x45,0x54,0x3a,0x0b,0x40,0x70,0x69,0x74,0x63,0x68,0x69,0x69,0x3a,0x0c,0x40,0x76,0x6f,0x6c,0x75,0x6d,0x65,0x69,0x69))
ChangeVariable(11,11,0,2,13,15)
311(0,1,1,1,11,true)
ShowMessageFace("",0,0,2,18)
ShowMessage("Bunny focuses her crushing massage on rubbing underneath Luka's tip! Her warm body feels like it's stroking his penis!\\D")
ShowMessage("Luka takes \\V[11] damage!")
ChangeVariable(27,27,0,3,3,1,2)
If(1,27,0,0,0)
 RunCommonEvent(7044)
 EndEventProcessing()
 0()
EndIf()
ShowMessageFace("mob_bunny1_fc1",0,0,2,19)
ShowMessage("\\n<Bunny-chan>It's about time for my finishing move. It'll make you come for sure! ♪")
250(bytes(0x04,0x08,0x6f,0x3a,0x0c,0x52,0x50,0x47,0x3a,0x3a,0x53,0x45,0x08,0x3a,0x0a,0x40,0x6e,0x61,0x6d,0x65,0x49,0x22,0x12,0x6d,0x6f,0x6e,0x5f,0x65,0x72,0x6f,0x5f,0x6b,0x6f,0x6b,0x69,0x31,0x06,0x3a,0x06,0x45,0x54,0x3a,0x0b,0x40,0x70,0x69,0x74,0x63,0x68,0x69,0x69,0x3a,0x0c,0x40,0x76,0x6f,0x6c,0x75,0x6d,0x65,0x69,0x69))
ChangeVariable(11,11,0,2,13,15)
311(0,1,1,1,11,true)
ShowMessageFace("",0,0,2,20)
ShowMessage("Bunny puts more force into her thighs, tightly squeezing Luka's penis! The sensation is intense as she grinds them back and forth!\\D")
ShowMessage("Luka takes \\V[11] damage!")
ChangeVariable(27,27,0,3,3,1,2)
If(1,27,0,0,0)
 RunCommonEvent(7044)
 EndEventProcessing()
 0()
EndIf()
ShowMessageFace("mob_bunny1_fc1",0,0,2,21)
ShowMessage("\\n<Bunny-chan>Come on, shoot it all out between my thighs. ♪\nIt'll feel really good to finally let go... ♪")
250(bytes(0x04,0x08,0x6f,0x3a,0x0c,0x52,0x50,0x47,0x3a,0x3a,0x53,0x45,0x08,0x3a,0x0a,0x40,0x6e,0x61,0x6d,0x65,0x49,0x22,0x12,0x6d,0x6f,0x6e,0x5f,0x65,0x72,0x6f,0x5f,0x6b,0x6f,0x6b,0x69,0x31,0x06,0x3a,0x06,0x45,0x54,0x3a,0x0b,0x40,0x70,0x69,0x74,0x63,0x68,0x69,0x69,0x3a,0x0c,0x40,0x76,0x6f,0x6c,0x75,0x6d,0x65,0x69,0x69))
ChangeVariable(11,11,0,2,13,15)
311(0,1,1,1,11,true)
ShowMessageFace("",0,0,2,22)
ShowMessage("Bunny's thighs move to finish Luka off! They give his penis a back-and-forth massage as they squeeze down tight!\\D")
ShowMessage("Luka takes \\V[11] damage!")
ChangeVariable(27,27,0,3,3,1,2)
If(1,27,0,0,0)
 RunCommonEvent(7044)
 EndEventProcessing()
 0()
EndIf()
RunCommonEvent(7046)
EndEventProcessing()
0()
