// EVENT 2043
Name "Seduction: Catfish Girl"

If(0,25,1)
 EndEventProcessing()
 0()
EndIf()
355("$game_troop.lose_event_id = 3043")
ChangeVariable(26,26,0,3,3,1,4)
ChangeVariable(26,26,4,0,10)
ShowMessageFace("namazu_fc1",2,0,2,1)
ShowMessage("\\n<Catfish Girl>It seems like I don't have much chance of winning.\nNo helping it, I have to follow the laws of nature.")
ShowMessageFace("namazu_fc1",2,0,2,2)
ShowMessage("\\n<Catfish Girl>Hey, why not violate me?\nLosers are obliged to submit to the victors.")
ShowMessageFace("",0,0,2,3)
ShowMessage("The Catfish Girl exposes her slimy lower body.")
ShowMessage("She shows off a hole, that seems to be some sort of female genitalia...")
ShowMessageFace("",0,0,2,4)
ShowMessage("It's wet, and dripping with mucus.")
ShowMessage("She spreads it open, as if waiting to be entered.")
ChangeSwitch(98,98,0)
ChangeSwitch(96,96,0)
ShowChoices(strings("Ignore her","Give in to temptation"),1)
IfPlayerPicksChoice(0,"Ignore her")
 ShowMessageFace("",0,0,2,5)
 ShowMessage("Luka resists her temptation!")
 RunCommonEvent(1999)
 EndEventProcessing()
 0()
IfPlayerPicksChoice(1,"誘惑に乗る")
 0()
404()
ShowMessageFace("",0,0,2,6)
ShowMessage("Luka positions his penis near her hole...")
ShowMessageFace("namazu_fc1",1,0,2,7)
ShowMessage("\\n<Catfish Girl>Good, violate me as is your right...\nMy vagina is tight, and slimy all the way to the back.")
ChangeVariable(26,26,3,0,4)
250(bytes(0x04,0x08,0x6f,0x3a,0x0c,0x52,0x50,0x47,0x3a,0x3a,0x53,0x45,0x08,0x3a,0x0a,0x40,0x6e,0x61,0x6d,0x65,0x49,0x22,0x11,0x6d,0x6f,0x6e,0x5f,0x65,0x72,0x6f,0x5f,0x70,0x79,0x75,0x32,0x06,0x3a,0x06,0x45,0x54,0x3a,0x0b,0x40,0x70,0x69,0x74,0x63,0x68,0x69,0x69,0x3a,0x0c,0x40,0x76,0x6f,0x6c,0x75,0x6d,0x65,0x69,0x69))
311(0,1,1,1,26,true)
ShowMessageFace("",0,0,2,8)
ShowMessage("Luka steps forward, and pushes himself into her!")
ShowMessage("Her slimy, tight vagina envelops his penis!\\D")
ShowMessage("Luka takes \\V[26] damage!")
ChangeVariable(27,27,0,3,3,1,2)
If(1,27,0,0,0)
 JumpToLabel("射精1")
 0()
EndIf()
ShowMessageFace("",0,0,2,9)
ShowMessage("\\n<Luka>あAah...!\nIt's so slimy, and tight...")
ShowMessageFace("namazu_fc1",1,0,2,10)
ShowMessage("\\n<Catfish Girl>Fufu, so naïve.\nJust a little seduction, and you commit suicide.")
ShowMessageFace("namazu_fc1",1,0,2,11)
ShowMessage("\\n<Catfish Girl>Now you have no chance of victory.\nGive up and give me your semen.")
250(bytes(0x04,0x08,0x6f,0x3a,0x0c,0x52,0x50,0x47,0x3a,0x3a,0x53,0x45,0x08,0x3a,0x0a,0x40,0x6e,0x61,0x6d,0x65,0x49,0x22,0x12,0x6d,0x6f,0x6e,0x5f,0x65,0x72,0x6f,0x5f,0x6e,0x61,0x6d,0x65,0x31,0x06,0x3a,0x06,0x45,0x54,0x3a,0x0b,0x40,0x70,0x69,0x74,0x63,0x68,0x69,0x69,0x3a,0x0c,0x40,0x76,0x6f,0x6c,0x75,0x6d,0x65,0x69,0x69))
311(0,1,1,1,26,true)
ShowMessageFace("",0,0,2,12)
ShowMessage("The flesh around Luka's penis starts to squirm!")
ShowMessage("Her vagina gives a melting pleasure to Luka!\\D")
ShowMessage("Luka takes \\V[26] damage!")
ChangeVariable(27,27,0,3,3,1,2)
If(1,27,0,0,0)
 JumpToLabel("射精2")
 0()
EndIf()
ShowMessageFace("namazu_fc1",1,0,2,13)
ShowMessage("\\n<Catfish Girl>Hore, it feels good doesn't it?\nSurrender yourself, and it will feel even better...")
250(bytes(0x04,0x08,0x6f,0x3a,0x0c,0x52,0x50,0x47,0x3a,0x3a,0x53,0x45,0x08,0x3a,0x0a,0x40,0x6e,0x61,0x6d,0x65,0x49,0x22,0x12,0x6d,0x6f,0x6e,0x5f,0x65,0x72,0x6f,0x5f,0x6e,0x61,0x6d,0x65,0x31,0x06,0x3a,0x06,0x45,0x54,0x3a,0x0b,0x40,0x70,0x69,0x74,0x63,0x68,0x69,0x69,0x3a,0x0c,0x40,0x76,0x6f,0x6c,0x75,0x6d,0x65,0x69,0x69))
311(0,1,1,1,26,true)
ShowMessageFace("",0,0,2,14)
ShowMessage("The Catfish Girl's masterpiece vagina stimulates Luka!")
ShowMessage("Her slimy vagina forces him to climax!\\D")
ShowMessage("Luka takes \\V[26] damage!")
ChangeVariable(27,27,0,3,3,1,2)
If(1,27,0,0,0)
 JumpToLabel("射精2")
 0()
EndIf()
DefineLabel("射精1")
ShowMessageFace("",0,0,2,15)
ShowMessage("\\n<Luka>Ah...Coming...")
RunCommonEvent(104)
RunCommonEvent(105)
ShowMessageFace("",0,0,2,16)
ShowMessage("The moment Luka pushes inside, he climaxes!")
ShowMessage("Her slimy vagina felt too good for him...")
ShowMessageFace("namazu_fc1",1,0,2,17)
ShowMessage("\\n<Catfish Girl>Oh my, you finished already.\nFufu, such a youngster.")
RunCommonEvent(2000)
EndEventProcessing()
DefineLabel("射精2")
ShowMessageFace("",0,0,2,18)
ShowMessage("\\n<Luka>Aaah... Coming...")
RunCommonEvent(104)
RunCommonEvent(105)
ShowMessageFace("",0,0,2,19)
ShowMessage("While tasting her amazing pussy, I climax.")
ShowMessage("My semen pours into her slimy hole.")
ShowMessageFace("namazu_fc1",1,0,2,20)
ShowMessage("\\n<Catfish Girl>Fufu, you seem to have come a lot.\nWas my famed pussy as good as you were thinking?")
RunCommonEvent(2000)
EndEventProcessing()
0()
