﻿// EVENT 1247
Name "Talk: Mud Golem"

If(1,20,0,1,0)
 JumpToLabel("情報")
 0()
EndIf()
If(1,20,0,2,0)
 JumpToLabel("質問")
 0()
EndIf()
If(1,20,0,3,0)
 JumpToLabel("要求")
 0()
EndIf()
If(1,20,0,4,0)
 JumpToLabel("贈与")
 0()
EndIf()
DefineLabel("情報")
ChangeVariable(13,13,0,2,1,50)
If(1,13,0,10,2)
 ShowMessageFace("madgolem_fc1",0,0,2,1)
 ShowMessage("\\n<Mud Golem Girl>ELIMINATE ENEMIES...")
 EndEventProcessing()
 0()
EndIf()
If(1,13,0,20,2)
 ShowMessageFace("madgolem_fc1",0,0,2,2)
 ShowMessage("\\n<Mud Golem Girl>MUDDY...")
 EndEventProcessing()
 0()
EndIf()
If(1,13,0,30,2)
 ShowMessageFace("madgolem_fc1",0,0,2,3)
 ShowMessage("\\n<Mud Golem Girl>COMBAT IN PROGRESS! COMBAT IN PROGRESS!")
 EndEventProcessing()
 0()
EndIf()
If(1,13,0,40,2)
 ShowMessageFace("madgolem_fc1",0,0,2,4)
 ShowMessage("\\n<Mud Golem Girl>MADE FROM HIGH-QUALITY MUD...")
 EndEventProcessing()
 0()
EndIf()
If(1,13,0,50,2)
 ShowMessageFace("madgolem_fc1",0,0,2,5)
 ShowMessage("\\n<Mud Golem Girl>QUEEN...")
 EndEventProcessing()
 0()
EndIf()
DefineLabel("質問")
ChangeVariable(13,13,0,2,1,30)
If(1,13,0,10,2)
 ShowMessageFace("madgolem_fc1",0,0,2,6)
 ShowMessage("\\n<Mud Golem Girl>VERIFY THE PURPOSE OF YOUR ACTIONS...")
 ShowChoices(strings("Tourism","Employment","Invasion"),0)
 IfPlayerPicksChoice(0,"観光")
  ShowMessageFace("madgolem_fc1",0,0,2,7)
  ShowMessage("\\n<Mud Golem Girl>THEN, I WILL INVITE YOU TO SIGHTSEEING...")
  ShowMessageFace("madgolem_fc1",0,0,2,8)
  ShowMessage("\\n<Mud Golem Girl>...IN HELL!!")
  0()
 IfPlayerPicksChoice(1,"就労")
  ShowMessageFace("madgolem_fc1",0,0,2,9)
  ShowMessage("\\n<Mud Golem Girl>WORKFORCE IS SUFFICIENT.\nUNAUTHORIZED LABOR MUST LEAVE THE COUNTRY...")
  0()
 IfPlayerPicksChoice(2,"侵略")
  ShowMessageFace("madgolem_fc1",0,0,2,10)
  ShowMessage("\\n<Mud Golem Girl>INVADER DETECTED!\nINITIATING MOBILIZATION...!")
  355("change_friend(-5)")
  0()
 404()
 EndEventProcessing()
 0()
EndIf()
If(1,13,0,20,2)
 ShowMessageFace("madgolem_fc1",0,0,2,11)
 ShowMessage("\\n<Mud Golem Girl>REVIEWING MY PURPOSE...")
 ShowChoices(strings("Combat","Construction work","Sex processing"),0)
 IfPlayerPicksChoice(0,"戦闘用")
  ShowMessageFace("madgolem_fc1",0,0,2,12)
  ShowMessage("\\n<Mud Golem Girl>UNDERSTOOD.\nRESUMING COMBAT...")
  0()
 IfPlayerPicksChoice(1,"土木作業用")
  ShowMessageFace("madgolem_fc1",0,0,2,13)
  ShowMessage("\\n<Mud Golem Girl>UNDERSTOOD.\nAFTER COMBAT IS FINISHED, BEGIN CONSTRUCTION WORK...")
  0()
 IfPlayerPicksChoice(2,"性処理用")
  ShowMessageFace("madgolem_fc1",0,0,2,14)
  ShowMessage("\\n<Mud Golem Girl>UNDERSTOOD.\nAFTER COMBAT IS FINISHED, BEGIN SEXUAL PROCESSING OF TARGET...")
  355("change_friend(10)")
  0()
 404()
 EndEventProcessing()
 0()
EndIf()
If(1,13,0,30,2)
 ShowMessageFace("madgolem_fc1",0,0,2,15)
 ShowMessage("\\n<Mud Golem Girl>ASKING WHAT IS THE MEANING OF MUD GOLEM'S \"MUD\"...")
 ShowChoices(strings("Mud","Mad","Moron"),0)
 IfPlayerPicksChoice(0,"泥")
  ShowMessageFace("madgolem_fc1",0,0,2,16)
  ShowMessage("\\n<Mud Golem Girl>I AM A MUD GOLEM...")
  355("change_friend(10)")
  0()
 IfPlayerPicksChoice(1,"狂う")
  ShowMessageFace("madgolem_fc1",0,0,2,17)
  ShowMessage("\\n<Mud Golem Girl>I AM A MAD GOLEM...?!\nTHAT... IS NOT...")
  0()
 IfPlayerPicksChoice(2,"愚か者")
  ShowMessageFace("madgolem_fc1",0,0,2,18)
  ShowMessage("\\n<Mud Golem Girl>THAT MEANS YOUR DEATH...")
  355("change_friend(-5)")
  0()
 404()
 EndEventProcessing()
 0()
EndIf()
DefineLabel("要求")
ChangeVariable(13,13,0,2,1,30)
If(1,13,0,10,2)
 If(8,67)
  ShowMessageFace("madgolem_fc1",0,0,2,19)
  ShowMessage("\\n<Mud Golem Girl>REQUESTING POWER OF EARTH...")
  ChangeVariable(24,24,0,3,0,67,0)
  ShowMessageFace("",0,0,2,20)
  ShowMessage("Do you want to give an \\ii[67]? (Have:\\V[24])")
  ShowChoices(strings("Yes","No"),2)
  IfPlayerPicksChoice(0,"Yes")
   ShowMessageFace("madgolem_fc1",0,0,2,21)
   ShowMessage("\\n<Mud Golem Girl>REPLENISHMENT APPRECIATED...")
   ChangeInventory_Item(67,1,0,1)
   355("change_friend(20)")
   EndEventProcessing()
   0()
  IfPlayerPicksChoice(1,"No")
   ShowMessageFace("madgolem_fc1",0,0,2,22)
   ShowMessage("\\n<Mud Golem Girl>............")
   EndEventProcessing()
   0()
  404()
  0()
 Else()
  ChangeVariable(13,13,0,0,20)
  0()
 EndIf()
 0()
EndIf()
If(1,13,0,20,2)
 If(8,19)
  ShowMessageFace("madgolem_fc1",0,0,2,23)
  ShowMessage("\\n<Mud Golem Girl>REQUESTING HOLY WATER...")
  ChangeVariable(24,24,0,3,0,19,0)
  ShowMessageFace("",0,0,2,24)
  ShowMessage("Do you want to give some \\ii[19]? (Have:\\V[24])")
  ShowChoices(strings("Yes","No"),2)
  IfPlayerPicksChoice(0,"Yes")
   ShowMessageFace("madgolem_fc1",0,0,2,25)
   ShowMessage("\\n<Mud Golem Girl>REPLENISHMENT APPRECIATED...")
   ChangeInventory_Item(19,1,0,1)
   355("change_friend(30)")
   EndEventProcessing()
   0()
  IfPlayerPicksChoice(1,"No")
   ShowMessageFace("madgolem_fc1",0,0,2,26)
   ShowMessage("\\n<Mud Golem Girl>............")
   EndEventProcessing()
   0()
  404()
  0()
 Else()
  ChangeVariable(13,13,0,0,30)
  0()
 EndIf()
 0()
EndIf()
If(1,13,0,30,2)
 ShowMessageFace("madgolem_fc1",0,0,2,27)
 ShowMessage("\\n<Mud Golem Girl>REQUESTING MONEY...")
 If(7,2196,0)
  ChangeVariable(24,24,0,3,7,2,0)
  ShowMessageFace("",0,0,2,28)
  ShowMessage("Do you want to give 2196G? (Remaining:\\V[24])")
  ShowChoices(strings("Yes","No"),2)
  IfPlayerPicksChoice(0,"Yes")
   ShowMessageFace("madgolem_fc1",0,0,2,29)
   ShowMessage("\\n<Mud Golem Girl>REPLENISHMENT APPRECIATED...")
   125(1,0,2196)
   355("change_friend(25)")
   EndEventProcessing()
   0()
  IfPlayerPicksChoice(1,"No")
   ShowMessageFace("madgolem_fc1",0,0,2,30)
   ShowMessage("\\n<Mud Golem Girl>............")
   EndEventProcessing()
   0()
  404()
  0()
 Else()
  ShowMessageFace("madgolem_fc1",0,0,2,31)
  ShowMessage("\\n<Mud Golem Girl>UNABLE TO COLLECT...INSUFFICIENT FUNDS?")
  EndEventProcessing()
  0()
 EndIf()
 0()
EndIf()
DefineLabel("贈与")
ChangeVariable(13,13,0,2,1,30)
If(1,25,0,1,0)
 ChangeVariable(13,13,0,0,30)
 ChangeVariable(25,25,0,0,0)
 0()
EndIf()
If(1,25,0,2,0)
 ChangeVariable(13,13,0,2,1,20)
 ChangeVariable(25,25,0,0,0)
 0()
EndIf()
If(1,13,0,10,2)
 ShowMessageFace("madgolem_fc1",0,0,2,32)
 ShowMessage("\\n<Mud Golem Girl>A GEAR WAS FOUND, I DO NOT RECOGNIZE THIS PART... PLEASE ACCEPT IT...")
 250(bytes(0x04,0x08,0x6f,0x3a,0x0c,0x52,0x50,0x47,0x3a,0x3a,0x53,0x45,0x08,0x3a,0x0a,0x40,0x6e,0x61,0x6d,0x65,0x49,0x22,0x0a,0x49,0x74,0x65,0x6d,0x31,0x06,0x3a,0x06,0x45,0x54,0x3a,0x0b,0x40,0x70,0x69,0x74,0x63,0x68,0x69,0x69,0x3a,0x0c,0x40,0x76,0x6f,0x6c,0x75,0x6d,0x65,0x69,0x55))
 ChangeInventory_Item(219,0,0,1)
 ShowMessageFace("",0,0,2,33)
 ShowMessage("The Mud Golem Girl gave you a \\ii[219]!")
 EndEventProcessing()
 0()
EndIf()
If(1,13,0,20,2)
 ShowMessageFace("madgolem_fc1",0,0,2,34)
 ShowMessage("\\n<Mud Golem Girl>PLEASE ACCEPT THIS...")
 250(bytes(0x04,0x08,0x6f,0x3a,0x0c,0x52,0x50,0x47,0x3a,0x3a,0x53,0x45,0x08,0x3a,0x0a,0x40,0x6e,0x61,0x6d,0x65,0x49,0x22,0x0a,0x49,0x74,0x65,0x6d,0x31,0x06,0x3a,0x06,0x45,0x54,0x3a,0x0b,0x40,0x70,0x69,0x74,0x63,0x68,0x69,0x69,0x3a,0x0c,0x40,0x76,0x6f,0x6c,0x75,0x6d,0x65,0x69,0x55))
 ChangeInventory_Item(336,0,0,1)
 ShowMessageFace("",0,0,2,35)
 ShowMessage("The Mud Golem Girl gave you an \\ii[336]!")
 EndEventProcessing()
 0()
EndIf()
If(1,13,0,30,2)
 ShowMessageFace("madgolem_fc1",0,0,2,36)
 ShowMessage("\\n<Mud Golem Girl>PLEASE ACCEPT THIS...")
 250(bytes(0x04,0x08,0x6f,0x3a,0x0c,0x52,0x50,0x47,0x3a,0x3a,0x53,0x45,0x08,0x3a,0x0a,0x40,0x6e,0x61,0x6d,0x65,0x49,0x22,0x0a,0x49,0x74,0x65,0x6d,0x31,0x06,0x3a,0x06,0x45,0x54,0x3a,0x0b,0x40,0x70,0x69,0x74,0x63,0x68,0x69,0x69,0x3a,0x0c,0x40,0x76,0x6f,0x6c,0x75,0x6d,0x65,0x69,0x55))
 125(0,0,3660)
 ShowMessageFace("",0,0,2,37)
 ShowMessage("The Mud Golem Girl gave you 3660G!")
 EndEventProcessing()
 0()
EndIf()
0()
