﻿// EVENT 1233
Name "Talk: Ant Girl"

If(1,20,0,1,0)
 JumpToLabel("情報")
 0()
EndIf()
If(1,20,0,2,0)
 JumpToLabel("質問")
 0()
EndIf()
If(1,20,0,3,0)
 JumpToLabel("要求")
 0()
EndIf()
If(1,20,0,4,0)
 JumpToLabel("贈与")
 0()
EndIf()
DefineLabel("情報")
ChangeVariable(13,13,0,2,1,100)
If(1,13,0,10,2)
 ShowMessageFace("ant_fc1",0,0,2,1)
 ShowMessage("\\n<Ant Girl>WORKING...")
 EndEventProcessing()
 0()
EndIf()
If(1,13,0,20,2)
 ShowMessageFace("ant_fc1",0,0,2,2)
 ShowMessage("\\n<Ant Girl>FOR THE QUEEN...")
 EndEventProcessing()
 0()
EndIf()
If(1,13,0,30,2)
 ShowMessageFace("ant_fc1",0,0,2,3)
 ShowMessage("\\n<Ant Girl>SUGAR IS GONE...")
 EndEventProcessing()
 0()
EndIf()
If(1,13,0,40,2)
 ShowMessageFace("ant_fc1",0,0,2,4)
 ShowMessage("\\n<Ant Girl>BEES ATTACKED, TOOK AWAY HONEY...")
 EndEventProcessing()
 0()
EndIf()
If(1,13,0,50,2)
 ShowMessageFace("ant_fc1",0,0,2,5)
 ShowMessage("\\n<Ant Girl>HARD WORK IS A VIRTUE...")
 EndEventProcessing()
 0()
EndIf()
If(1,13,0,60,2)
 ShowMessageFace("ant_fc1",0,0,2,6)
 ShowMessage("\\n<Ant Girl>LIKE WORKING. ♪")
 EndEventProcessing()
 0()
EndIf()
If(1,13,0,70,2)
 ShowMessageFace("ant_fc1",0,0,2,7)
 ShowMessage("\\n<Ant Girl>HORNETS ARE FRIENDS!")
 EndEventProcessing()
 0()
EndIf()
If(1,13,0,80,2)
 ShowMessageFace("ant_fc1",0,0,2,8)
 ShowMessage("\\n<Ant Girl>WORKER ANTS ALSO FIGHT ENEMIES!")
 EndEventProcessing()
 0()
EndIf()
If(1,13,0,90,2)
 ShowMessageFace("ant_fc1",0,0,2,9)
 ShowMessage("\\n<Ant Girl>I WILL BRING THE QUEEN SWEET FOOD!")
 EndEventProcessing()
 0()
EndIf()
If(1,13,0,100,2)
 ShowMessageFace("ant_fc1",0,0,2,10)
 ShowMessage("\\n<Ant Girl>QUEEN IS BEST IN THE WORLD!")
 EndEventProcessing()
 0()
EndIf()
DefineLabel("質問")
ChangeVariable(13,13,0,2,1,50)
If(1,13,0,10,2)
 ShowMessageFace("ant_fc1",0,0,2,11)
 ShowMessage("\\n<Ant Girl>SWEET POTATOES, MY FAVORITE...\nWHAT FOOD DO YOU LIKE?")
 ShowChoices(strings("Sweet food","Spicy food","Ant Girls"),0)
 IfPlayerPicksChoice(0,"甘いもの")
  ShowMessageFace("ant_fc1",0,0,2,12)
  ShowMessage("\\n<Ant Girl>LIKE YOU...")
  355("change_friend(10)")
  0()
 IfPlayerPicksChoice(1,"辛いもの")
  ShowMessageFace("ant_fc1",0,0,2,13)
  ShowMessage("\\n<Ant Girl>DON'T LIKE...")
  0()
 IfPlayerPicksChoice(2,"アリ娘")
  ShowMessageFace("ant_fc1",1,0,2,14)
  ShowMessage("\\n<Ant Girl>ANTS NOT TASTY...")
  355("change_friend(-5)")
  0()
 404()
 EndEventProcessing()
 0()
EndIf()
If(1,13,0,20,2)
 ShowMessageFace("ant_fc1",0,0,2,15)
 ShowMessage("\\n<Ant Girl>WORKING, DO YOU LIKE...?")
 ShowChoices(strings("Like","Hate","HUMAN, LIKE WORKING"),0)
 IfPlayerPicksChoice(0,"好き")
  ShowMessageFace("ant_fc1",0,0,2,16)
  ShowMessage("\\n<Ant Girl>HARD WORK IS A VIRTUE...")
  355("change_friend(10)")
  0()
 IfPlayerPicksChoice(1,"嫌い")
  ShowMessageFace("ant_fc1",0,0,2,17)
  ShowMessage("\\n<Ant Girl>WORK...")
  355("change_friend(-5)")
  0()
 IfPlayerPicksChoice(2,"人間、働クノ好キ……")
  ShowMessageFace("ant_fc1",0,0,2,18)
  ShowMessage("\\n<Ant Girl>YOU'RE TIRED, NEED REST...\nWORKING TOO HARD, NOT GOOD...")
  355("change_friend(10)")
  0()
 404()
 EndEventProcessing()
 0()
EndIf()
If(1,13,0,30,2)
 ShowMessageFace("ant_fc1",0,0,2,19)
 ShowMessage("\\n<Ant Girl>HUMANS WORK, ANTS WORK TOO...\nARE HUMANS AND ANTS THE SAME...?")
 ShowChoices(strings("Same","Not the same!","People are like ants"),0)
 IfPlayerPicksChoice(0,"同じ")
  ShowMessageFace("ant_fc1",0,0,2,20)
  ShowMessage("\\n<Ant Girl>SAME! HUMANS AND ANTS THE SAME!")
  355("change_friend(10)")
  0()
 IfPlayerPicksChoice(1,"違う！")
  ShowMessageFace("ant_fc1",0,0,2,21)
  ShowMessage("\\n<Ant Girl>WORK...")
  355("change_friend(-5)")
  0()
 IfPlayerPicksChoice(2,"人がアリのようだ")
  ShowMessageFace("ant_fc1",0,0,2,22)
  ShowMessage("\\n<Ant Girl>CALM DOWN!")
  0()
 404()
 EndEventProcessing()
 0()
EndIf()
If(1,13,0,40,2)
 ShowMessageFace("ant_fc1",0,0,2,23)
 ShowMessage("\\n<Ant Girl>THERE ARE 30,000 ANT GIRLS...\nHOW MANY HUMANS?")
 ShowChoices(strings("50 million","Just one","A lot"),0)
 IfPlayerPicksChoice(0,"五千万匹")
  ShowMessageFace("ant_fc1",0,0,2,24)
  ShowMessage("\\n<Ant Girl>IS THAT SO?! AMAZING!")
  355("change_friend(10)")
  0()
 IfPlayerPicksChoice(1,"一匹")
  ShowMessageFace("ant_fc1",0,0,2,25)
  ShowMessage("\\n<Ant Girl>THEN YOU ARE THE LAST ONE?!\nIMPORTANT TO PROTECT...")
  355("change_friend(10)")
  0()
 IfPlayerPicksChoice(2,"たくさん")
  ShowMessageFace("ant_fc1",0,0,2,26)
  ShowMessage("\\n<Ant Girl>I UNDERSTAND.\nMORE THAN THREE HUMANS CAN'T BE COUNTED...")
  0()
 404()
 EndEventProcessing()
 0()
EndIf()
If(1,13,0,50,2)
 ShowMessageFace("ant_fc1",0,0,2,27)
 ShowMessage("\\n<Ant Girl>OUR QUEEN IS QUEEN ANT!\nWHO IS YOUR QUEEN...?")
 ShowChoices(strings("Sonya","Queen Ant","No one"),0)
 IfPlayerPicksChoice(0,"ソニア")
  ShowMessageFace("ant_fc1",0,0,2,28)
  ShowMessage("\\n<Ant Girl>I SEE... THEN, WORK FOR THE QUEEN!")
  0()
 IfPlayerPicksChoice(1,"クィーンアント")
  ShowMessageFace("ant_fc1",0,0,2,29)
  ShowMessage("\\n<Ant Girl>THEN... YOU ANT GIRL TOO...")
  ShowMessageFace("ant_fc1",1,0,2,30)
  ShowMessage("\\n<Ant Girl>...NOT!")
  ShowMessageFace("ant_fc1",1,0,2,31)
  ShowMessage("\\n<Ant Girl>......?!?!?!")
  355("change_friend(-5)")
  0()
 IfPlayerPicksChoice(2,"いない")
  ShowMessageFace("ant_fc1",0,0,2,32)
  ShowMessage("\\n<Ant Girl>AREN'T YOU LONELY...?")
  355("change_friend(10)")
  0()
 404()
 EndEventProcessing()
 0()
EndIf()
DefineLabel("要求")
ChangeVariable(13,13,0,2,1,30)
If(1,13,0,10,2)
 If(8,436)
  ShowMessageFace("ant_fc1",0,0,2,33)
  ShowMessage("\\n<Ant Girl>GATHERING SWEET POTATOES... WANT HONEY...")
  ChangeVariable(24,24,0,3,0,436,0)
  ShowMessageFace("",0,0,2,34)
  ShowMessage("Do you want to give \\ii[436]? (Have:\\V[24])")
  ShowChoices(strings("Yes","No"),2)
  IfPlayerPicksChoice(0,"Yes")
   ShowMessageFace("ant_fc1",0,0,2,35)
   ShowMessage("\\n<Ant Girl>OKAY TO HAVE IT...?")
   ChangeInventory_Item(436,1,0,1)
   355("change_friend(20)")
   EndEventProcessing()
   0()
  IfPlayerPicksChoice(1,"No")
   ShowMessageFace("ant_fc1",0,0,2,36)
   ShowMessage("\\n<Ant Girl>GATHER ON MY OWN...")
   EndEventProcessing()
   0()
  404()
  0()
 Else()
  ChangeVariable(13,13,0,0,20)
  0()
 EndIf()
 0()
EndIf()
If(1,13,0,20,2)
 If(8,414)
  ShowMessageFace("ant_fc1",0,0,2,37)
  ShowMessage("\\n<Ant Girl>GATHERING SWEET POTATOES... WANT CHOCOLATE...")
  ChangeVariable(24,24,0,3,0,414,0)
  ShowMessageFace("",0,0,2,38)
  ShowMessage("Do you want to give some \\ii[414]? (Have:\\V[24])")
  ShowChoices(strings("Yes","No"),2)
  IfPlayerPicksChoice(0,"Yes")
   ShowMessageFace("ant_fc1",0,0,2,39)
   ShowMessage("\\n<Ant Girl>OKAY TO HAVE IT...?")
   ChangeInventory_Item(414,1,0,1)
   355("change_friend(30)")
   EndEventProcessing()
   0()
  IfPlayerPicksChoice(1,"No")
   ShowMessageFace("ant_fc1",0,0,2,40)
   ShowMessage("\\n<Ant Girl>GATHER ON MY OWN...")
   EndEventProcessing()
   0()
  404()
  0()
 Else()
  ChangeVariable(13,13,0,0,30)
  0()
 EndIf()
 0()
EndIf()
If(1,13,0,30,2)
 ShowMessageFace("ant_fc1",0,0,2,41)
 ShowMessage("\\n<Ant Girl>GATHERING MONEY...")
 If(7,885,0)
  ChangeVariable(24,24,0,3,7,2,0)
  ShowMessageFace("",0,0,2,42)
  ShowMessage("Do you want to give 885G? (Remaining:\\V[24])")
  ShowChoices(strings("Yes","No"),2)
  IfPlayerPicksChoice(0,"Yes")
   ShowMessageFace("ant_fc1",0,0,2,43)
   ShowMessage("\\n<Ant Girl>OKAY TO HAVE IT...?")
   125(1,0,885)
   355("change_friend(25)")
   EndEventProcessing()
   0()
  IfPlayerPicksChoice(1,"No")
   ShowMessageFace("ant_fc1",0,0,2,44)
   ShowMessage("\\n<Ant Girl>GATHER ON MY OWN...")
   EndEventProcessing()
   0()
  404()
  0()
 Else()
  ShowMessageFace("ant_fc1",0,0,2,45)
  ShowMessage("\\n<Ant Girl>...YOU DON'T HAVE ANY?")
  EndEventProcessing()
  0()
 EndIf()
 0()
EndIf()
DefineLabel("贈与")
ChangeVariable(13,13,0,2,1,30)
If(1,25,0,1,0)
 ChangeVariable(13,13,0,0,30)
 ChangeVariable(25,25,0,0,0)
 0()
EndIf()
If(1,25,0,2,0)
 ChangeVariable(13,13,0,2,1,20)
 ChangeVariable(25,25,0,0,0)
 0()
EndIf()
If(1,13,0,10,2)
 ShowMessageFace("ant_fc1",0,0,2,46)
 ShowMessage("\\n<Ant Girl>GIVE YOU MEDICINE...")
 250(bytes(0x04,0x08,0x6f,0x3a,0x0c,0x52,0x50,0x47,0x3a,0x3a,0x53,0x45,0x08,0x3a,0x0a,0x40,0x6e,0x61,0x6d,0x65,0x49,0x22,0x0a,0x49,0x74,0x65,0x6d,0x31,0x06,0x3a,0x06,0x45,0x54,0x3a,0x0b,0x40,0x70,0x69,0x74,0x63,0x68,0x69,0x69,0x3a,0x0c,0x40,0x76,0x6f,0x6c,0x75,0x6d,0x65,0x69,0x55))
 ChangeInventory_Item(2,0,0,1)
 ShowMessageFace("",0,0,2,47)
 ShowMessage("The Ant Girl gave you a \\ii[2]!")
 EndEventProcessing()
 0()
EndIf()
If(1,13,0,20,2)
 ShowMessageFace("ant_fc1",0,0,2,48)
 ShowMessage("\\n<Ant Girl>USE THIS TO CHEER UP...")
 250(bytes(0x04,0x08,0x6f,0x3a,0x0c,0x52,0x50,0x47,0x3a,0x3a,0x53,0x45,0x08,0x3a,0x0a,0x40,0x6e,0x61,0x6d,0x65,0x49,0x22,0x0a,0x49,0x74,0x65,0x6d,0x31,0x06,0x3a,0x06,0x45,0x54,0x3a,0x0b,0x40,0x70,0x69,0x74,0x63,0x68,0x69,0x69,0x3a,0x0c,0x40,0x76,0x6f,0x6c,0x75,0x6d,0x65,0x69,0x55))
 ChangeInventory_Item(7,0,0,1)
 ShowMessageFace("",0,0,2,49)
 ShowMessage("The Ant Girl gave you a \\ii[7]!")
 EndEventProcessing()
 0()
EndIf()
If(1,13,0,30,2)
 ShowMessageFace("ant_fc1",0,0,2,50)
 ShowMessage("\\n<Ant Girl>GIVE YOU MONEY...")
 250(bytes(0x04,0x08,0x6f,0x3a,0x0c,0x52,0x50,0x47,0x3a,0x3a,0x53,0x45,0x08,0x3a,0x0a,0x40,0x6e,0x61,0x6d,0x65,0x49,0x22,0x0a,0x49,0x74,0x65,0x6d,0x31,0x06,0x3a,0x06,0x45,0x54,0x3a,0x0b,0x40,0x70,0x69,0x74,0x63,0x68,0x69,0x69,0x3a,0x0c,0x40,0x76,0x6f,0x6c,0x75,0x6d,0x65,0x69,0x55))
 125(0,0,1475)
 ShowMessageFace("",0,0,2,51)
 ShowMessage("The Ant Girl gave you 1475G!")
 EndEventProcessing()
 0()
EndIf()
0()
