// EVENT 4093
Name "Rami 3"

If(0,25,1)
 221()
 PictureClear(5)
 PictureClear(6)
 ShowMessageFace("",0,0,2,0)
 ShowMessage("......")
 242(2)
 Wait(120)
 241(bytes(0x04,0x08,0x6f,0x3a,0x0d,0x52,0x50,0x47,0x3a,0x3a,0x42,0x47,0x4d,0x08,0x3a,0x0a,0x40,0x6e,0x61,0x6d,0x65,0x49,0x22,0x0c,0x63,0x61,0x73,0x74,0x6c,0x65,0x36,0x06,0x3a,0x06,0x45,0x54,0x3a,0x0c,0x40,0x76,0x6f,0x6c,0x75,0x6d,0x65,0x69,0x69,0x3a,0x0b,0x40,0x70,0x69,0x74,0x63,0x68,0x69,0x69))
 EndEventProcessing()
 0()
EndIf()
PictureDisplay(5,"80_inp_st02",0,0,0,0,100,100,255,0)
ShowMessageFace("inp_fc1",1,0,2,1)
ShowMessage("\\n<Rami>You want me to milk your semen with my breasts? Haha, you must really love them! ♪")
ShowMessageFace("",0,0,2,2)
ShowMessage("\\n<Luka>P-please...")
ShowMessageFace("",0,0,2,3)
ShowMessage("I bashfully nod my head. Rami looks at me with the smug smile of an imp who has conquered a man--")
ShowMessageFace("inp_fc1",1,0,2,4)
ShowMessage("\\n<Rami>Ahaha, what an embarrassing thing to ask for. ♪\nBut all right then, I'll squeeze it out for you... ♪")
ShowMessageFace("",0,0,2,5)
ShowMessage("Thus, Rami shows me to a room where we can have some privacy--")
221()
PictureClear(5)
PictureDisplay(1,"bg195",0,0,0,0,100,100,255,0)
PictureDisplay(5,"80_inp_st02",0,0,0,0,100,100,255,0)
222()
241(bytes(0x04,0x08,0x6f,0x3a,0x0d,0x52,0x50,0x47,0x3a,0x3a,0x42,0x47,0x4d,0x08,0x3a,0x0a,0x40,0x6e,0x61,0x6d,0x65,0x49,0x22,0x09,0x65,0x72,0x6f,0x31,0x06,0x3a,0x06,0x45,0x54,0x3a,0x0c,0x40,0x76,0x6f,0x6c,0x75,0x6d,0x65,0x69,0x69,0x3a,0x0b,0x40,0x70,0x69,0x74,0x63,0x68,0x69,0x69))
ShowMessageFace("",0,0,2,6)
ShowMessage("As soon as we enter the room, Rami gives me a gentle push. Caught completely off guard, I fall to the ground on all fours--")
245(bytes(0x04,0x08,0x6f,0x3a,0x0d,0x52,0x50,0x47,0x3a,0x3a,0x42,0x47,0x53,0x08,0x3a,0x0a,0x40,0x6e,0x61,0x6d,0x65,0x49,0x22,0x17,0x6d,0x6f,0x6e,0x5f,0x68,0x73,0x65,0x61,0x6e,0x31,0x37,0x5f,0x73,0x69,0x67,0x6f,0x6b,0x69,0x06,0x3a,0x06,0x45,0x54,0x3a,0x0c,0x40,0x76,0x6f,0x6c,0x75,0x6d,0x65,0x69,0x55,0x3a,0x0b,0x40,0x70,0x69,0x74,0x63,0x68,0x69,0x69))
PictureDisplay(5,"ev_inp_he1",0,0,0,0,100,100,255,0)
ShowMessageFace("",0,0,2,7)
ShowMessage("Before I can recover, Rami quickly slips my penis between her huge, soft breasts.")
ShowMessageFace("",0,0,2,8)
ShowMessage("\\n<Luka>Ahh...")
ShowMessageFace("",0,0,2,9)
ShowMessage("With my penis wrapped up, I feel my body weaken. She uses her small hands to push her huge breasts together, causing her soft skin to rub against my shaft.")
ShowMessageFace("",0,0,2,10)
ShowMessage("It feels so good, you would think her breasts were designed to be genitals themselves.")
ShowMessageFace("",0,0,2,11)
ShowMessage("Even in this humiliating position, I can't stop myself from letting out a moan.")
ShowMessageFace("inp_fc1",1,0,2,12)
ShowMessage("\\n<Rami>Ehehe... My breasts feel good, don't they?\nAnd look at you, moaning in this position!")
ShowMessageFace("inp_fc1",1,0,2,13)
ShowMessage("\\n<Rami>Hahaha, I can see your butt hole from here you know!\nI'm going to lick it.")
PictureDisplay(5,"ev_inp_he2",0,0,0,0,100,100,255,0)
ShowMessageFace("",0,0,2,14)
ShowMessage("\\n<Luka>Ah... Ahhh!\nNot there!")
ShowMessageFace("",0,0,2,15)
ShowMessage("Suddenly, I feel Rami's tongue against my anus! Her small, wet tongue licks and rubs around my sensitive hole.")
ShowMessageFace("",0,0,2,16)
ShowMessage("She carefully licks all around the entrance, sometimes rubbing me hard with her tongue, other times using small, quick licks.")
ShowMessageFace("inp_fc1",1,0,2,17)
ShowMessage("\\n<Rami>Ehehe... My killer move is a two part weakness assault.\nIf I keep this up, you'll go mad with pleasure in no time.")
ShowMessageFace("",0,0,2,18)
ShowMessage("\\n<Luka>S...Stop... Ah!")
ShowMessageFace("",0,0,2,19)
ShowMessage("The ticklish pleasure makes me go limp in seconds. I try to pull away, but my penis is firmly lodged between her huge breasts.")
ShowMessageFace("",0,0,2,20)
ShowMessage("Using her hands, she alternates between rubbing me with her right and left breasts. At times, she shakes her chest side to side, making my penis bounce around between the two of them.")
ShowMessageFace("",0,0,2,21)
ShowMessage("And all the while, her quick tongue keeps licking around my anus, now thoroughly soaked with her saliva.")
ShowMessageFace("",0,0,2,22)
ShowMessage("\\n<Luka>Ahh... Haa...")
ShowMessageFace("",0,0,2,23)
ShowMessage("Feeling too much pleasure, my waist starts jerking back and forth. My body is reacting too strongly, acting against my mind's wishes.")
ShowMessageFace("inp_fc1",1,0,2,24)
ShowMessage("\\n<Rami>Ahaha, your waist is shaking.\nAre you trying to have sex with my breasts?")
ShowMessageFace("inp_fc1",1,0,2,25)
ShowMessage("\\n<Rami>Then you better come inside, don't you think?\nCome on, if you're going to have sex with my breasts, you need to properly come inside them.")
ShowMessageFace("",0,0,2,26)
ShowMessage("Rami presses her face closer to my ass, moving her tongue even faster.")
ShowMessageFace("",0,0,2,27)
ShowMessage("At the same time, her small hands work her breasts, massaging my penis.")
ShowMessageFace("",0,0,2,28)
ShowMessage("With the stimulation attacking me from both ends, I feel like I'm stuck in a cloud of pleasure.")
ShowMessageFace("",0,0,2,29)
ShowMessage("\\n<Luka>Ahh... I'm going to come...")
ShowMessageFace("inp_fc1",1,0,2,30)
ShowMessage("\\n<Rami>Ahaha, hurry up and come!\nNow you're just a little imp's prey.")
ShowMessageFace("",0,0,2,31)
ShowMessage("Rami giggles as she presses her breasts together even harder and licks my anus even faster.")
ShowMessageFace("",0,0,2,32)
ShowMessage("\\n<Luka>Ahhh!!!")
RunCommonEvent(104)
PictureDisplay(5,"ev_inp_he3",0,0,0,0,100,100,255,0)
RunCommonEvent(105)
ShowMessageFace("",0,0,2,33)
ShowMessage("Wrapped up in her soft breasts, I explode.")
ShowMessage("As my penis pulses between them, I let out a sigh of pure ecstasy.")
ShowMessageFace("inp_fc1",1,0,2,34)
ShowMessage("\\n<Rami>Aha, you came, you came!\n*Lick* *Lick*")
ShowMessageFace("",0,0,2,35)
ShowMessage("Even during my ejaculation, she continues licking my anus, and uses her breasts to squeeze out all of my semen.")
ShowMessageFace("",0,0,2,37)
ShowMessage("\\n<Luka>Ahh...")
ShowMessageFace("",0,0,2,38)
ShowMessage("She forced me to come in this embarrassing position, milking me with her own breasts...")
ShowMessageFace("",0,0,2,39)
ShowMessage("But Rami still isn't even close to stopping...")
ShowMessageFace("inp_fc1",1,0,2,40)
ShowMessage("\\n<Rami>Ehehe, you leaked out between my breasts.\nBut I still need to squeeze out a lot more penis milk!")
ShowMessageFace("",0,0,2,41)
ShowMessage("\\n<Luka>No more... Haa!")
ShowMessageFace("",0,0,2,42)
ShowMessage("Already feeling humiliated at this position, I can't stop myself from crying out as she flexes her tongue and forces it into my anus.")
ShowMessageFace("",0,0,2,43)
ShowMessage("The tongue that was only licking around my anus was pushed inside...")
ShowMessageFace("",0,0,2,44)
ShowMessage("\\n<Luka>Ah... Hyaaa!")
ShowMessageFace("",0,0,2,45)
ShowMessage("My body twists and spasms in pleasure as her small tongue invades my body, sending waves of strange pleasure through me.")
ShowMessageFace("",0,0,2,46)
ShowMessage("Suddenly, a familiar numbness rises through my body...")
RunCommonEvent(104)
PictureDisplay(5,"ev_inp_he4",0,0,0,0,100,100,255,0)
RunCommonEvent(105)
ShowMessageFace("",0,0,2,47)
ShowMessage("\\n<Luka>Haaa...")
ShowMessageFace("",0,0,2,48)
ShowMessage("In only moments, I explode between her breasts again.")
ShowMessage("My semen spurts out and drips to the ground, like I accidentally came.")
ShowMessageFace("inp_fc1",1,0,2,49)
ShowMessage("\\n<Rami>Ahah, you came in no time once I played with your ass.")
ShowMessageFace("inp_fc1",1,0,2,50)
ShowMessage("\\n<Rami>Even though you're a man! How embaaaaarrassing.")
ShowMessageFace("",0,0,2,51)
ShowMessage("Rami chuckles as she continues toying with me.")
ShowMessage("This little imp is enjoying teasing me wherever she can...")
ShowMessageFace("",0,0,2,52)
ShowMessage("Her tongue, still inside me, continues licking and rubbing all over the place. At the same time, my penis is being crushed between her huge, soft breasts.")
ShowMessageFace("",0,0,2,53)
ShowMessage("I drown in the ecstasy of having my two weakest points played with at the same time. Giving myself over, I relax my body as the sensations swarm over me.")
ShowMessageFace("",0,0,2,54)
ShowMessage("\\n<Luka>I...It feels so good... Ahhh...")
RunCommonEvent(104)
PictureDisplay(5,"ev_inp_he5",0,0,0,0,100,100,255,0)
RunCommonEvent(105)
ShowMessageFace("",0,0,2,55)
ShowMessage("I'm led to another ejaculation in moments, my body shaking as I come between her seductive breasts.")
ShowMessageFace("",0,0,2,56)
ShowMessage("After coming between her breasts so many times, they're dripping with my semen. Just looking at it is humiliating...")
ShowMessageFace("",0,0,2,57)
ShowMessage("The important seed I should be using for having a child, just pointlessly dripping to the ground...")
246(1)
ShowMessageFace("inp_fc1",1,0,2,58)
ShowMessage("\\n<Rami>Awww... You're leaking all over the place. What a naughty boy. It looks like I need to teach this poor penis of yours some discipline.")
ShowMessageFace("",0,0,2,59)
ShowMessage("\\n<Luka>Ahh...")
ShowMessageFace("inp_fc1",1,0,2,60)
ShowMessage("\\n<Rami>Come back with your requests any time. I'll make sure to train your shameful little penis more...")
ShowMessageFace("",0,0,2,61)
ShowMessage("\\n<Luka>..................")
ShowMessageFace("",0,0,2,62)
ShowMessage("I don't think I can say no to her ever again. This little imp and her humiliating 'training' may have corrupted me, heart and soul.")
221()
PictureClear(5)
PictureClear(6)
ShowMessageFace("",0,0,2,63)
ShowMessage("..................")
242(2)
Wait(120)
241(bytes(0x04,0x08,0x6f,0x3a,0x0d,0x52,0x50,0x47,0x3a,0x3a,0x42,0x47,0x4d,0x08,0x3a,0x0a,0x40,0x6e,0x61,0x6d,0x65,0x49,0x22,0x0c,0x63,0x61,0x73,0x74,0x6c,0x65,0x36,0x06,0x3a,0x06,0x45,0x54,0x3a,0x0c,0x40,0x76,0x6f,0x6c,0x75,0x6d,0x65,0x69,0x69,0x3a,0x0b,0x40,0x70,0x69,0x74,0x63,0x68,0x69,0x69))
0()
