// EVENT 4212
Name "Harpy Sisters 2"

If(0,25,1)
 221()
 PictureClear(5)
 PictureClear(6)
 ShowMessageFace("",0,0,2,0)
 ShowMessage("......")
 242(2)
 Wait(120)
 241(bytes(0x04,0x08,0x6f,0x3a,0x0d,0x52,0x50,0x47,0x3a,0x3a,0x42,0x47,0x4d,0x08,0x3a,0x0a,0x40,0x6e,0x61,0x6d,0x65,0x49,0x22,0x0c,0x63,0x61,0x73,0x74,0x6c,0x65,0x36,0x06,0x3a,0x06,0x45,0x54,0x3a,0x0c,0x40,0x76,0x6f,0x6c,0x75,0x6d,0x65,0x69,0x69,0x3a,0x0b,0x40,0x70,0x69,0x74,0x63,0x68,0x69,0x69))
 EndEventProcessing()
 0()
EndIf()
PictureDisplay(5,"80_hapy_bc_st02",0,0,0,0,100,100,255,0)
ShowMessageFace("hapy_bc_fc1",1,0,2,1)
ShowMessage("\\n<Pina>You want to have sex with us?\n...It's up to you, Pii.")
ShowMessageFace("hapy_bc_fc1",1,0,2,2)
ShowMessage("\\n<Pii>...okay.")
ShowMessageFace("hapy_bc_fc1",1,0,2,3)
ShowMessage("\\n<Pina>All right then. Let's use our room.")
ShowMessageFace("",0,0,2,4)
ShowMessage("Thus, I was invited back to the sisters' room.")
221()
PictureDisplay(1,"bg195",0,0,0,0,100,100,255,0)
PictureDisplay(5,"80_hapy_bc_st02",0,0,0,0,100,100,255,0)
222()
241(bytes(0x04,0x08,0x6f,0x3a,0x0d,0x52,0x50,0x47,0x3a,0x3a,0x42,0x47,0x4d,0x08,0x3a,0x0a,0x40,0x6e,0x61,0x6d,0x65,0x49,0x22,0x09,0x65,0x72,0x6f,0x31,0x06,0x3a,0x06,0x45,0x54,0x3a,0x0c,0x40,0x76,0x6f,0x6c,0x75,0x6d,0x65,0x69,0x69,0x3a,0x0b,0x40,0x70,0x69,0x74,0x63,0x68,0x69,0x69))
ShowMessageFace("hapy_bc_fc1",1,0,2,5)
ShowMessage("\\n<Pina>Do you want to try mating with him this time, Pii?")
ShowMessageFace("hapy_bc_fc1",1,0,2,6)
ShowMessage("\\n<Pii>I'm still a little scared...")
ShowMessageFace("hapy_bc_fc1",1,0,2,7)
ShowMessage("\\n<Pina>Then let me go first.\nJust watch me and do what I do, your big sis will teach you.")
ShowMessageFace("hapy_bc_fc1",1,0,2,8)
ShowMessage("\\n<Pii>Ok!")
ShowMessageFace("hapy_bc_fc1",1,0,2,9)
ShowMessage("\\n<Pina>Then, let's put it in...")
245(bytes(0x04,0x08,0x6f,0x3a,0x0d,0x52,0x50,0x47,0x3a,0x3a,0x42,0x47,0x53,0x08,0x3a,0x0a,0x40,0x6e,0x61,0x6d,0x65,0x49,0x22,0x1e,0x6d,0x6f,0x6e,0x5f,0x68,0x73,0x65,0x61,0x6e,0x30,0x32,0x5f,0x69,0x6e,0x6e,0x65,0x72,0x77,0x6f,0x72,0x6b,0x73,0x5f,0x61,0x32,0x06,0x3a,0x06,0x45,0x54,0x3a,0x0c,0x40,0x76,0x6f,0x6c,0x75,0x6d,0x65,0x69,0x55,0x3a,0x0b,0x40,0x70,0x69,0x74,0x63,0x68,0x69,0x69))
PictureDisplay(5,"ev_hapy_bc_hc1",0,0,0,0,100,100,255,0)
PictureDisplay(6,"ev_hapy_bc_ct01",0,0,0,0,100,100,255,0)
ShowMessageFace("",0,0,2,10)
ShowMessage("Before I can protest, Pina quickly jumps on me!")
ShowMessage("She pushes down hard on me, and I get pushed all the way to her deepest spot in one move.")
ShowMessageFace("",0,0,2,11)
ShowMessage("\\n<Luka>Ahhhh...")
ShowMessageFace("",0,0,2,12)
ShowMessage("Her insides had an irregular shape, rubbing me all over in a strange way.")
ShowMessage("Her pussy was unusually warm, as well. At this rate, I won't be able to last long at all.")
ShowMessageFace("hapy_bc_fc1",1,0,2,13)
ShowMessage("\\n<Pina>After you insert it, you start to move like this...\nMove your waist slowly like this, while squeezing his penis.")
245(bytes(0x04,0x08,0x6f,0x3a,0x0d,0x52,0x50,0x47,0x3a,0x3a,0x42,0x47,0x53,0x08,0x3a,0x0a,0x40,0x6e,0x61,0x6d,0x65,0x49,0x22,0x1e,0x6d,0x6f,0x6e,0x5f,0x68,0x73,0x65,0x61,0x6e,0x30,0x35,0x5f,0x69,0x6e,0x6e,0x65,0x72,0x77,0x6f,0x72,0x6b,0x73,0x5f,0x61,0x35,0x06,0x3a,0x06,0x45,0x54,0x3a,0x0c,0x40,0x76,0x6f,0x6c,0x75,0x6d,0x65,0x69,0x55,0x3a,0x0b,0x40,0x70,0x69,0x74,0x63,0x68,0x69,0x69))
ShowMessageFace("",0,0,2,14)
ShowMessage("Pina starts to move her waist.")
ShowMessage("Just like she explained, she started to tighten her insides with every thrust.")
ShowMessageFace("",0,0,2,15)
ShowMessage("\\n<Luka>Haa.....")
ShowMessageFace("hapy_bc_fc1",1,0,2,16)
ShowMessage("\\n<Pina>See? He's feeling good now.")
ShowMessageFace("hapy_bc_fc1",1,0,2,17)
ShowMessage("\\n<Pii>Uwa! You're right...")
ShowMessageFace("",0,0,2,18)
ShowMessage("Pii moves her waist as she watches, imitating her sister.")
ShowMessageFace("",0,0,2,19)
ShowMessage("The thought of being raped by Pii after this has excitement building in my waist.")
ShowMessageFace("",0,0,2,20)
ShowMessage("\\n<Luka>Auuu...")
ShowMessageFace("hapy_bc_fc1",1,0,2,21)
ShowMessage("\\n<Pina>I'll finish him off a little faster than usual.\nI'm going to tighten around him like this...")
ShowMessageFace("hapy_bc_fc1",1,0,2,22)
ShowMessage("\\n<Pina>Just flex the muscle you use when you urinate to squeeze him...")
ShowMessageFace("",0,0,2,23)
ShowMessage("\\n<Luka>Ahiiii!")
ShowMessageFace("",0,0,2,24)
ShowMessage("Pina squeezes around me as she pushes down harder.")
ShowMessage("Her movements combined with her tightness was like being milked by some kind of machine.")
ShowMessageFace("",0,0,2,25)
ShowMessage("The intense stimulation was quickly sending me over the edge.")
ShowMessageFace("hapy_bc_fc1",1,0,2,26)
ShowMessage("\\n<Pii>That's amazing, sis!")
ShowMessageFace("hapy_bc_fc1",1,0,2,27)
ShowMessage("\\n<Pina>Fufu... And with this, I'll finish him.")
ShowMessageFace("",0,0,2,28)
ShowMessage("As she laughs, Pina quickly contracts and increases her speed.")
RunCommonEvent(104)
PictureDisplay(5,"ev_hapy_bc_hc2",0,0,0,0,100,100,255,0)
PictureDisplay(6,"ev_hapy_bc_ct02",0,0,0,0,100,100,255,0)
RunCommonEvent(105)
ShowMessageFace("",0,0,2,29)
ShowMessage("\\n<Luka>Ahhh!")
ShowMessageFace("hapy_bc_fc1",1,0,2,30)
ShowMessage("\\n<Pii>Uwa!\nIt's shooting off so much white stuff...")
ShowMessageFace("hapy_bc_fc1",1,0,2,31)
ShowMessage("\\n<Pina>Fufu... He's shooting it out in your sister's pussy.")
PictureDisplay(6,"ev_hapy_bc_ct03",0,0,0,0,100,100,255,0)
ShowMessageFace("",0,0,2,32)
ShowMessage("Twitching inside of Pina, I shoot out everything into her.")
246(1)
ShowMessageFace("hapy_bc_fc1",1,0,2,34)
ShowMessage("\\n<Pina>That's how you squeeze out a man's semen to mate.")
ShowMessageFace("hapy_bc_fc1",1,0,2,35)
ShowMessage("\\n<Pina>Now it's your turn.")
ShowMessageFace("hapy_bc_fc1",0,0,2,36)
ShowMessage("\\n<Pii>...I don't think I'm ready yet.\nMaybe next time?")
ShowMessageFace("",0,0,2,37)
ShowMessage("In the end, Pii couldn't go through with it. As the harpy sisters review the session together, I slip out of the room, disappointed.")
221()
PictureClear(5)
PictureClear(6)
ShowMessageFace("",0,0,2,38)
ShowMessage("..............")
242(2)
Wait(120)
241(bytes(0x04,0x08,0x6f,0x3a,0x0d,0x52,0x50,0x47,0x3a,0x3a,0x42,0x47,0x4d,0x08,0x3a,0x0a,0x40,0x6e,0x61,0x6d,0x65,0x49,0x22,0x0c,0x63,0x61,0x73,0x74,0x6c,0x65,0x36,0x06,0x3a,0x06,0x45,0x54,0x3a,0x0c,0x40,0x76,0x6f,0x6c,0x75,0x6d,0x65,0x69,0x69,0x3a,0x0b,0x40,0x70,0x69,0x74,0x63,0x68,0x69,0x69))
0()
