﻿// EVENT 4921
Name "Nekomata"

PictureDisplay(5,"80_nekomata_st02",0,0,0,0,100,100,0,0)
PictureMove(5,null,0,0,0,0,100,100,255,0,30,true)
ShowMessageFace("",0,0,2,1)
ShowMessage("\\n<Luka>Here, it's food...")
ShowMessageFace("nekomata_fc1",3,0,2,2)
ShowMessage("\\n<Tama>Nya! ♪")
ShowMessageFace("",0,0,2,3)
ShowMessage("\\n<Luka>Wait a minute! I am not food!")
241(bytes(0x04,0x08,0x6f,0x3a,0x0d,0x52,0x50,0x47,0x3a,0x3a,0x42,0x47,0x4d,0x08,0x3a,0x0a,0x40,0x6e,0x61,0x6d,0x65,0x49,0x22,0x09,0x65,0x72,0x6f,0x31,0x06,0x3a,0x06,0x45,0x54,0x3a,0x0c,0x40,0x76,0x6f,0x6c,0x75,0x6d,0x65,0x69,0x69,0x3a,0x0b,0x40,0x70,0x69,0x74,0x63,0x68,0x69,0x69))
PictureDisplay(5,"ev_nekomata_h1",0,0,0,0,100,100,255,0)
ShowMessageFace("",0,0,2,4)
ShowMessage("Tama leans and climbs on top of me.")
ShowMessageFace("",0,0,2,5)
ShowMessage("Her bushy hair rubs against me, slightly tickling me.\nJust the sensation of her hair against my skin feels too good to resist.")
ShowMessageFace("",0,0,2,6)
ShowMessage("\\n<Luka>W-wait, stop !")
ShowMessageFace("nekomata_fc1",3,0,2,7)
ShowMessage("\\n<Tama>Funya! ♪")
ShowMessageFace("",0,0,2,8)
ShowMessage("Tama lets out a sweet mew, her face flushed deep red.\nIt seems like she's in heat...")
ShowMessageFace("",0,0,2,9)
ShowMessage("Wait! She can't be... Trying to mate with me?!")
ShowMessageFace("",0,0,2,10)
ShowMessage("\\n<Luka>N...no! Wait!")
ShowMessageFace("",0,0,2,11)
ShowMessage("But Tama drops her hips down at once...")
245(bytes(0x04,0x08,0x6f,0x3a,0x0d,0x52,0x50,0x47,0x3a,0x3a,0x42,0x47,0x53,0x08,0x3a,0x0a,0x40,0x6e,0x61,0x6d,0x65,0x49,0x22,0x1e,0x6d,0x6f,0x6e,0x5f,0x68,0x73,0x65,0x61,0x6e,0x30,0x31,0x5f,0x69,0x6e,0x6e,0x65,0x72,0x77,0x6f,0x72,0x6b,0x73,0x5f,0x61,0x31,0x06,0x3a,0x06,0x45,0x54,0x3a,0x0c,0x40,0x76,0x6f,0x6c,0x75,0x6d,0x65,0x69,0x55,0x3a,0x0b,0x40,0x70,0x69,0x74,0x63,0x68,0x69,0x69))
PictureDisplay(5,"ev_nekomata_h2",0,0,0,0,100,100,255,0)
ShowMessageFace("",0,0,2,12)
ShowMessage("Quickly swallowing my penis into her.")
ShowMessageFace("",0,0,2,13)
ShowMessage("\\n<Luka>Ahhhh !")
ShowMessageFace("",0,0,2,14)
ShowMessage("I'm forced into her hot pussy, with the rough vagina walls filling me with a sweet friction.")
ShowMessageFace("",0,0,2,15)
ShowMessage("But more than anything, I can feel the small bumps lining her pussy. The closer I get to her womb, the more bumps there are.")
ShowMessageFace("",0,0,2,16)
ShowMessage("Surprised at the bizarre sensation, I let out a cry.")
ShowMessageFace("",0,0,2,17)
ShowMessage("\\n<Luka>Ahh... I...incredible...")
ShowMessageFace("nekomata_fc1",3,0,2,18)
ShowMessage("\\n<Tama>Unya! ♪")
ShowMessageFace("",0,0,2,19)
ShowMessage("With a happy cry, Tama starts to slowly move her hips.")
ShowMessageFace("",0,0,2,20)
ShowMessage("Left to right, she slowly moves her body, causing the bumps to rub all over my penis. Pleasure rushes through my body, bringing me to a pathetically quick orgasm.")
ShowMessageFace("",0,0,2,21)
ShowMessage("\\n<Luka>Ahh... I'm coming!")
ShowMessageFace("nekomata_fc1",3,0,2,22)
ShowMessage("\\n<Tama>Funya?!")
RunCommonEvent(104)
PictureDisplay(5,"ev_nekomata_h3",0,0,0,0,100,100,255,0)
RunCommonEvent(105)
ShowMessageFace("",0,0,2,23)
ShowMessage("\\n<Luka>Ahh... I came...")
ShowMessageFace("",0,0,2,24)
ShowMessage("After only a few moments, I was forced to come inside her... Horrified at already potentially impregnating her, my body starts to shake.")
ShowMessageFace("",0,0,2,25)
ShowMessage("But Tama looks unsatisfied, and quickly resumes her movements, desiring to continue mating.")
ShowMessageFace("nekomata_fc1",3,0,2,26)
ShowMessage("\\n<Tama>Unyaaa...")
PictureDisplay(5,"ev_nekomata_h4",0,0,0,0,100,100,255,0)
ShowMessageFace("",0,0,2,27)
ShowMessage("Tama tightens her pussy around my penis, as if locking me in place inside her.")
ShowMessageFace("",0,0,2,28)
ShowMessage("\\n<Luka>What is this...?! Ahh!")
245(bytes(0x04,0x08,0x6f,0x3a,0x0d,0x52,0x50,0x47,0x3a,0x3a,0x42,0x47,0x53,0x08,0x3a,0x0a,0x40,0x6e,0x61,0x6d,0x65,0x49,0x22,0x1e,0x6d,0x6f,0x6e,0x5f,0x68,0x73,0x65,0x61,0x6e,0x30,0x38,0x5f,0x69,0x6e,0x6e,0x65,0x72,0x77,0x6f,0x72,0x6b,0x73,0x5f,0x61,0x38,0x06,0x3a,0x06,0x45,0x54,0x3a,0x0c,0x40,0x76,0x6f,0x6c,0x75,0x6d,0x65,0x69,0x55,0x3a,0x0b,0x40,0x70,0x69,0x74,0x63,0x68,0x69,0x69))
ShowMessageFace("",0,0,2,29)
ShowMessage("Suddenly I feel something start to move inside of her.\nA rough, wet thing starts to move up and down my penis.")
ShowMessageFace("",0,0,2,30)
ShowMessage("The slippery sensation caresses my penis.\nIt's as if it was her tongue...")
ShowMessageFace("nekomata_fc1",3,0,2,31)
ShowMessage("\\n<Tama>Unya...♪")
ShowMessageFace("",0,0,2,32)
ShowMessage("\\n<Luka>Ah! Ahhh!")
ShowMessageFace("",0,0,2,33)
ShowMessage("Locked in place by the soft bumps clamping down on my penis, I wriggle underneath Tama as the rough tongue licks every inch of my penis inside her.")
ShowMessageFace("",0,0,2,34)
ShowMessage("The tongue starts to circle the tip of my penis, then starts to gently poke at the urethral opening.")
ShowMessageFace("",0,0,2,35)
ShowMessage("As she licks on my urethral opening, her rough tongue also glides all over my glans...")
ShowMessageFace("",0,0,2,36)
ShowMessage("I tremble in pleasure-filled agony as the bizarre tongue-like thing pokes at my most sensitive spot.")
ShowMessageFace("",0,0,2,37)
ShowMessage("\\n<Luka>Ahh! D...don't lick the tip...!")
ShowMessageFace("nekomata_fc1",3,0,2,38)
ShowMessage("\\n<Tama>Unya...♪")
ShowMessageFace("",0,0,2,39)
ShowMessage("Tama smiles, clearly having fun toying with me.")
ShowMessageFace("",0,0,2,40)
ShowMessage("Her rough tongue continues to lick my penis, tasting every inch of me inside her. Licking and licking my entire penis...")
ShowMessageFace("",0,0,2,41)
ShowMessage("Unable to take the torture any longer, I give in, allowing myself to be filled by the intense ecstasy from this inhuman pussy.")
ShowMessageFace("",0,0,2,42)
ShowMessage("\\n<Luka>I'm coming again! Ahh!")
RunCommonEvent(104)
PictureDisplay(5,"ev_nekomata_h5",0,0,0,0,100,100,255,0)
RunCommonEvent(105)
ShowMessageFace("",0,0,2,43)
ShowMessage("\\n<Luka>Unnngh...")
ShowMessageFace("",0,0,2,44)
ShowMessage("As I came inside of her, the relentless tongue continued to lick the tip of my penis. Each spurt of semen was followed by a lick of her rough tongue.")
ShowMessageFace("nekomata_fc1",3,0,2,45)
ShowMessage("\\n<Tama>...Unya. ♪")
ShowMessageFace("",0,0,2,46)
ShowMessage("After my orgasm finished, her rough tongue wraps itself around my penis. Her slippery and rough tongue rhythmically stimulates my penis.")
ShowMessageFace("",0,0,2,47)
ShowMessage("Wrapped around me, her tongue starts to play with my penis again, as if it was a mouse she caught.")
ShowMessageFace("",0,0,2,48)
ShowMessage("\\n<Luka>Ahh! Ahhh!")
ShowMessageFace("nekomata_fc1",3,0,2,49)
ShowMessage("\\n<Tama>Unya...♪")
ShowMessageFace("",0,0,2,50)
ShowMessage("Tama plays with my penis inside her vagina.\nWith her wild instincts running rampant, Tama shows a satisfying face.")
ShowMessageFace("",0,0,2,51)
ShowMessage("The sensation of her fleshy tongue entangled on my penis inside her vagina brings me close to another orgasm. Unable to do anything, I give in to my body's desires, and surrender to her.")
RunCommonEvent(104)
RunCommonEvent(105)
ShowMessageFace("",0,0,2,52)
ShowMessage("\\n<Luka>Hnnaaa...")
ShowMessageFace("",0,0,2,53)
ShowMessage("I sigh as I shoot more of my seed into her waiting pussy.\nJust how many more times is she going to mate with me...?")
ShowMessageFace("nekomata_fc1",3,0,2,54)
ShowMessage("\\n<Tama>Funyaa...♪")
ShowMessageFace("",0,0,2,55)
ShowMessage("\\n<Luka>Auu... Stop already...")
ShowMessageFace("",0,0,2,56)
ShowMessage("Her pussy tightens around me, squeezing out the last drops of semen. The tongue carefully licks the tip of my penis inside her, quickly lapping up each drop.")
ShowMessageFace("",0,0,2,57)
ShowMessage("Her vagina is meant to break any man, unable to endure the sensations. Powerless before her, I quickly orgasm again, giving more semen to this cat burglar.")
ShowMessageFace("",0,0,2,58)
ShowMessage("\\n<Luka>Aaaaah...!!")
RunCommonEvent(104)
RunCommonEvent(105)
ShowMessageFace("nekomata_fc1",3,0,2,59)
ShowMessage("\\n<Tama>Unya! ♪")
ShowMessageFace("",0,0,2,60)
ShowMessage("Still wanting to mate more, Tama doesn't let me go.\nShe forces me to orgasm over and over again, until I eventually faint.")
221()
PictureClear(5)
PictureClear(6)
246(2)
ShowMessageFace("",0,0,2,61)
ShowMessage("......")
RunCommonEvent(3998)
0()
