﻿// EVENT 1169
Name "Talk: Frog Girl B"

If(1,20,0,1,0)
 JumpToLabel("情報")
 0()
EndIf()
If(1,20,0,2,0)
 JumpToLabel("質問")
 0()
EndIf()
If(1,20,0,3,0)
 JumpToLabel("要求")
 0()
EndIf()
If(1,20,0,4,0)
 JumpToLabel("贈与")
 0()
EndIf()
DefineLabel("情報")
ChangeVariable(13,13,0,2,1,100)
If(1,13,0,10,2)
 ShowMessageFace("kaeru_fc2",0,0,2,1)
 ShowMessage("\\n<Frog Girl>Riiiiibbit.")
 EndEventProcessing()
 0()
EndIf()
If(1,13,0,20,2)
 ShowMessageFace("kaeru_fc2",0,0,2,2)
 ShowMessage("\\n<Frog Girl>Frogs are omnivores, we will eat anything.\nBut it's impossible for us to eat big creatures like humans.")
 EndEventProcessing()
 0()
EndIf()
If(1,13,0,30,2)
 ShowMessageFace("kaeru_fc2",0,0,2,3)
 ShowMessage("\\n<Frog Girl>Hop. Hop...")
 EndEventProcessing()
 0()
EndIf()
If(1,13,0,40,2)
 ShowMessageFace("kaeru_fc2",0,0,2,4)
 ShowMessage("\\n<Frog Girl>I'll lick you plenty with this long tongue...♪")
 EndEventProcessing()
 0()
EndIf()
If(1,13,0,50,2)
 ShowMessageFace("kaeru_fc2",0,0,2,5)
 ShowMessage("\\n<Frog Girl>We're good friends with the Slug and Earthworm Girls. They are slimy friends...♪")
 EndEventProcessing()
 0()
EndIf()
If(1,13,0,60,2)
 ShowMessageFace("kaeru_fc2",0,0,2,6)
 ShowMessage("\\n<Frog Girl>Frooog's sooong♪")
 EndEventProcessing()
 0()
EndIf()
If(1,13,0,70,2)
 ShowMessageFace("kaeru_fc2",0,0,2,7)
 ShowMessage("\\n<Frog Girl>Where has Purple gone? She is a timid and easily frightened child, but...")
 ShowMessageFace("kaeru_fc2",0,0,2,8)
 ShowMessage("\\n<Frog Girl>Well, she will probably turn up once we squeeze your semen.")
 EndEventProcessing()
 0()
EndIf()
If(1,13,0,80,2)
 ShowMessageFace("kaeru_fc2",0,0,2,9)
 ShowMessage("\\n<Frog Girl>We have many damp friends in the swamp.\nEveryone enjoys being wet.")
 EndEventProcessing()
 0()
EndIf()
If(1,13,0,90,2)
 ShowMessageFace("kaeru_fc2",0,0,2,10)
 ShowMessage("\\n<Frog Girl>By stretching our tongues, we can catch fish in the swamp.")
 EndEventProcessing()
 0()
EndIf()
If(1,13,0,100,2)
 ShowMessageFace("kaeru_fc2",0,0,2,11)
 ShowMessage("\\n<Frog Girl>Frog Girls are a species that form groups.")
 EndEventProcessing()
 0()
EndIf()
DefineLabel("質問")
ChangeVariable(13,13,0,2,1,50)
If(1,13,0,10,2)
 ShowMessageFace("kaeru_fc2",0,0,2,12)
 ShowMessage("\\n<Frog Girl>I love swamps and ponds.\nWhat kind of place do you like to live in?")
 ShowChoices(strings("An ordinary house","A luxurious apartment","Swamps and ponds"),0)
 IfPlayerPicksChoice(0,"普通の家")
  ShowMessageFace("kaeru_fc2",0,0,2,13)
  ShowMessage("\\n<Frog Girl>I like down-to-earth people.")
  355("change_friend(5)")
  0()
 IfPlayerPicksChoice(1,"高級マンション")
  ShowMessageFace("kaeru_fc2",2,0,2,14)
  ShowMessage("\\n<Frog Girl>Greed does not impress me...")
  355("change_friend(-5)")
  0()
 IfPlayerPicksChoice(2,"沼や池")
  ShowMessageFace("kaeru_fc2",0,0,2,15)
  ShowMessage("\\n<Frog Girl>Then, why don't you live with me?")
  355("change_friend(10)")
  0()
 404()
 EndEventProcessing()
 0()
EndIf()
If(1,13,0,20,2)
 ShowMessageFace("kaeru_fc2",0,0,2,16)
 ShowMessage("\\n<Frog Girl>Ribbit ribbit...♪")
 ShowChoices(strings("That's a good singing voice","Are you drinking too much alcohol?","Ribbit ribbit...♪"),0)
 IfPlayerPicksChoice(0,"いい歌声だ")
  ShowMessageFace("kaeru_fc2",0,0,2,17)
  ShowMessage("\\n<Frog Girl>You think so? Ribbit ribbit...♪")
  355("change_friend(5)")
  0()
 IfPlayerPicksChoice(1,"お酒の飲み過ぎ？")
  ShowMessageFace("kaeru_fc2",2,0,2,18)
  ShowMessage("\\n<Frog Girl>How rude...")
  355("change_friend(-5)")
  0()
 IfPlayerPicksChoice(2,"ゲロゲロゲロ……♪")
  ShowMessageFace("kaeru_fc2",1,0,2,19)
  ShowMessage("\\n<Frog Girl>Do you want to follow my lead? Then, together...♪")
  355("change_friend(10)")
  0()
 404()
 EndEventProcessing()
 0()
EndIf()
If(1,13,0,30,2)
 ShowMessageFace("kaeru_fc2",0,0,2,20)
 ShowMessage("\\n<Frog Girl>Would you like to become my slimy friend too?")
 ShowChoices(strings("I will","I won't","What's a slimy friend?"),0)
 IfPlayerPicksChoice(0,"なる")
  ShowMessageFace("kaeru_fc2",1,0,2,21)
  ShowMessage("\\n<Frog Girl>In that case, let's be slimy...♪")
  355("change_friend(10)")
  0()
 IfPlayerPicksChoice(1,"ならない")
  ShowMessageFace("kaeru_fc2",2,0,2,22)
  ShowMessage("\\n<Frog Girl>You're an unsociable person...")
  355("change_friend(-5)")
  0()
 IfPlayerPicksChoice(2,"ヌル友って何？")
  ShowMessageFace("kaeru_fc2",0,0,2,23)
  ShowMessage("\\n<Frog Girl>It is a friend who is slimy...\nIsn't that common knowledge in the swamp?")
  0()
 404()
 EndEventProcessing()
 0()
EndIf()
If(1,13,0,40,2)
 ShowMessageFace("kaeru_fc2",0,0,2,24)
 ShowMessage("\\n<Frog Girl>A frog leaps into an old pond...")
 ShowChoices(strings("The sound of water","Traces of a dream","Splash splash!"),0)
 IfPlayerPicksChoice(0,"水の音")
  ShowMessageFace("kaeru_fc2",0,0,2,25)
  ShowMessage("\\n<Frog Girl>You understand well, elegant man...")
  355("change_friend(10)")
  0()
 IfPlayerPicksChoice(1,"夢の跡")
  ShowMessageFace("kaeru_fc2",2,0,2,26)
  ShowMessage("\\n<Frog Girl>How nihilistic...")
  355("change_friend(-5)")
  0()
 IfPlayerPicksChoice(2,"ぼちゃんボチャン！")
  ShowMessageFace("kaeru_fc2",0,0,2,27)
  ShowMessage("\\n<Frog Girl>You have a very funny way of thinking.")
  355("change_friend(5)")
  0()
 404()
 EndEventProcessing()
 0()
EndIf()
If(1,13,0,50,2)
 ShowMessageFace("kaeru_fc2",0,0,2,28)
 ShowMessage("\\n<Frog Girl>Do you know what combat skills a frog specializes in?")
 ShowChoices(strings("Sword skills","Unarmed skills","Boomerang skills"),0)
 IfPlayerPicksChoice(0,"剣技")
  ShowMessageFace("kaeru_fc2",0,0,2,29)
  ShowMessage("\\n<Frog Girl>I'm not good with swords...\nI'm not suited to using weapons.")
  0()
 IfPlayerPicksChoice(1,"格闘技")
  ShowMessageFace("kaeru_fc2",0,0,2,30)
  ShowMessage("\\n<Frog Girl>Yes, I'm good at unarmed combat.\nA frog's kicking force is quite impressive.")
  355("change_friend(10)")
  0()
 IfPlayerPicksChoice(2,"ブーメラン技")
  ShowMessageFace("kaeru_fc2",0,0,2,31)
  ShowMessage("\\n<Frog Girl>I'm not good at throwing...\nI was taught by a Slime Girl, but I haven't really improved.")
  0()
 404()
 EndEventProcessing()
 0()
EndIf()
DefineLabel("要求")
ChangeVariable(13,13,0,2,1,30)
If(1,13,0,10,2)
 If(8,14)
  ShowMessageFace("kaeru_fc2",0,0,2,32)
  ShowMessage("\\n<Frog Girl>Won't you please give me some eye drops? Garbage can frequently get into my eyes when I'm in the swamp...")
  ChangeVariable(24,24,0,3,0,14,0)
  ShowMessageFace("",0,0,2,33)
  ShowMessage("Do you want to give some \\ii[14]? (Have:\\V[24])")
  ShowChoices(strings("Yes","No"),2)
  IfPlayerPicksChoice(0,"Yes")
   ShowMessageFace("kaeru_fc2",0,0,2,34)
   ShowMessage("\\n<Frog Girl>Thank you...")
   ChangeInventory_Item(14,1,0,1)
   355("change_friend(20)")
   EndEventProcessing()
   0()
  IfPlayerPicksChoice(1,"No")
   ShowMessageFace("kaeru_fc2",0,0,2,35)
   ShowMessage("\\n<Frog Girl>Was that unacceptable...?")
   EndEventProcessing()
   0()
  404()
  0()
 Else()
  ChangeVariable(13,13,0,0,20)
  0()
 EndIf()
 0()
EndIf()
If(1,13,0,20,2)
 If(8,301)
  ShowMessageFace("kaeru_fc2",0,0,2,36)
  ShowMessage("\\n<Frog Girl>I'm feeling hungry...\nWon't you please give me an apple?")
  ChangeVariable(24,24,0,3,0,301,0)
  ShowMessageFace("",0,0,2,37)
  ShowMessage("Do you want to give an \\ii[301]? (Have:\\V[24])")
  ShowChoices(strings("Yes","No"),2)
  IfPlayerPicksChoice(0,"Yes")
   ShowMessageFace("kaeru_fc2",0,0,2,38)
   ShowMessage("\\n<Frog Girl>Thank you...")
   ChangeInventory_Item(301,1,0,1)
   355("change_friend(30)")
   EndEventProcessing()
   0()
  IfPlayerPicksChoice(1,"No")
   ShowMessageFace("kaeru_fc2",0,0,2,39)
   ShowMessage("\\n<Frog Girl>Was that unacceptable...?")
   EndEventProcessing()
   0()
  404()
  0()
 Else()
  ChangeVariable(13,13,0,0,30)
  0()
 EndIf()
 0()
EndIf()
If(1,13,0,30,2)
 ShowMessageFace("kaeru_fc2",0,0,2,40)
 ShowMessage("\\n<Frog Girl>I would like a stylish accessory...\nWon't you please give me some money?")
 If(7,648,0)
  ChangeVariable(24,24,0,3,7,2,0)
  ShowMessageFace("",0,0,2,41)
  ShowMessage("Do you want to give 648G? (Have:\\V[24])")
  ShowChoices(strings("Yes","No"),2)
  IfPlayerPicksChoice(0,"Yes")
   ShowMessageFace("kaeru_fc2",0,0,2,42)
   ShowMessage("\\n<Frog Girl>Thank you...")
   125(1,0,648)
   355("change_friend(25)")
   EndEventProcessing()
   0()
  IfPlayerPicksChoice(1,"No")
   ShowMessageFace("kaeru_fc2",0,0,2,43)
   ShowMessage("\\n<Frog Girl>Was that unacceptable...?")
   EndEventProcessing()
   0()
  404()
  0()
 Else()
  ShowMessageFace("kaeru_fc2",0,0,2,44)
  ShowMessage("\\n<Frog Girl>...I'm sorry, you don't have any money?")
  EndEventProcessing()
  0()
 EndIf()
 0()
EndIf()
DefineLabel("贈与")
ChangeVariable(13,13,0,2,1,30)
If(1,25,0,1,0)
 ChangeVariable(13,13,0,0,30)
 ChangeVariable(25,25,0,0,0)
 0()
EndIf()
If(1,25,0,2,0)
 ChangeVariable(13,13,0,2,1,20)
 ChangeVariable(25,25,0,0,0)
 0()
EndIf()
If(1,13,0,10,2)
 ShowMessageFace("kaeru_fc2",0,0,2,45)
 ShowMessage("\\n<Frog Girl>Let me give you this...\nBe careful around my poisonous skin.")
 250(bytes(0x04,0x08,0x6f,0x3a,0x0c,0x52,0x50,0x47,0x3a,0x3a,0x53,0x45,0x08,0x3a,0x0a,0x40,0x6e,0x61,0x6d,0x65,0x49,0x22,0x0a,0x49,0x74,0x65,0x6d,0x31,0x06,0x3a,0x06,0x45,0x54,0x3a,0x0b,0x40,0x70,0x69,0x74,0x63,0x68,0x69,0x69,0x3a,0x0c,0x40,0x76,0x6f,0x6c,0x75,0x6d,0x65,0x69,0x55))
 ChangeInventory_Item(13,0,0,1)
 ShowMessageFace("",0,0,2,46)
 ShowMessage("The Frog Girl gave you an \\ii[13]!")
 EndEventProcessing()
 0()
EndIf()
If(1,13,0,20,2)
 ShowMessageFace("kaeru_fc2",0,0,2,47)
 ShowMessage("\\n<Frog Girl>Do you want my mucus...?")
 250(bytes(0x04,0x08,0x6f,0x3a,0x0c,0x52,0x50,0x47,0x3a,0x3a,0x53,0x45,0x08,0x3a,0x0a,0x40,0x6e,0x61,0x6d,0x65,0x49,0x22,0x0a,0x49,0x74,0x65,0x6d,0x31,0x06,0x3a,0x06,0x45,0x54,0x3a,0x0b,0x40,0x70,0x69,0x74,0x63,0x68,0x69,0x69,0x3a,0x0c,0x40,0x76,0x6f,0x6c,0x75,0x6d,0x65,0x69,0x55))
 ChangeInventory_Item(165,0,0,1)
 ShowMessageFace("",0,0,2,48)
 ShowMessage("The Frog Girl gave you some \\ii[165]!")
 EndEventProcessing()
 0()
EndIf()
If(1,13,0,30,2)
 ShowMessageFace("kaeru_fc2",0,0,2,49)
 ShowMessage("\\n<Frog Girl>Please warm your pockets with this money...")
 250(bytes(0x04,0x08,0x6f,0x3a,0x0c,0x52,0x50,0x47,0x3a,0x3a,0x53,0x45,0x08,0x3a,0x0a,0x40,0x6e,0x61,0x6d,0x65,0x49,0x22,0x0a,0x49,0x74,0x65,0x6d,0x31,0x06,0x3a,0x06,0x45,0x54,0x3a,0x0b,0x40,0x70,0x69,0x74,0x63,0x68,0x69,0x69,0x3a,0x0c,0x40,0x76,0x6f,0x6c,0x75,0x6d,0x65,0x69,0x55))
 125(0,0,1080)
 ShowMessageFace("",0,0,2,50)
 ShowMessage("The Frog Girl gave you 1080G!")
 EndEventProcessing()
 0()
EndIf()
0()
