// EVENT 4312
Name "Spider Girl 2"

If(0,25,1)
 221()
 PictureClear(5)
 PictureClear(6)
 ShowMessageFace("",0,0,2,0)
 ShowMessage("......")
 242(2)
 Wait(120)
 241(bytes(0x04,0x08,0x6f,0x3a,0x0d,0x52,0x50,0x47,0x3a,0x3a,0x42,0x47,0x4d,0x08,0x3a,0x0a,0x40,0x6e,0x61,0x6d,0x65,0x49,0x22,0x0c,0x63,0x61,0x73,0x74,0x6c,0x65,0x36,0x06,0x3a,0x06,0x45,0x54,0x3a,0x0c,0x40,0x76,0x6f,0x6c,0x75,0x6d,0x65,0x69,0x69,0x3a,0x0b,0x40,0x70,0x69,0x74,0x63,0x68,0x69,0x69))
 EndEventProcessing()
 0()
EndIf()
PictureDisplay(5,"80_kumo_st02",0,0,0,0,100,100,255,0)
ShowMessageFace("kumo_fc1",1,0,2,1)
ShowMessage("\\n<Rachnee>Do you want to be wrapped in my silk?")
ShowMessageFace("",0,0,2,2)
ShowMessage("\\n<Luka>J-Just a little...")
ShowMessageFace("kumo_fc1",1,0,2,3)
ShowMessage("\\n<Rachnee>All right, well then...")
241(bytes(0x04,0x08,0x6f,0x3a,0x0d,0x52,0x50,0x47,0x3a,0x3a,0x42,0x47,0x4d,0x08,0x3a,0x0a,0x40,0x6e,0x61,0x6d,0x65,0x49,0x22,0x09,0x65,0x72,0x6f,0x31,0x06,0x3a,0x06,0x45,0x54,0x3a,0x0c,0x40,0x76,0x6f,0x6c,0x75,0x6d,0x65,0x69,0x69,0x3a,0x0b,0x40,0x70,0x69,0x74,0x63,0x68,0x69,0x69))
245(bytes(0x04,0x08,0x6f,0x3a,0x0d,0x52,0x50,0x47,0x3a,0x3a,0x42,0x47,0x53,0x08,0x3a,0x0a,0x40,0x6e,0x61,0x6d,0x65,0x49,0x22,0x1e,0x6d,0x6f,0x6e,0x5f,0x68,0x73,0x65,0x61,0x6e,0x31,0x32,0x5f,0x69,0x6e,0x6e,0x65,0x72,0x77,0x6f,0x72,0x6b,0x73,0x5f,0x63,0x32,0x06,0x3a,0x06,0x45,0x54,0x3a,0x0c,0x40,0x76,0x6f,0x6c,0x75,0x6d,0x65,0x69,0x55,0x3a,0x0b,0x40,0x70,0x69,0x74,0x63,0x68,0x69,0x69))
PictureDisplay(5,"ev_kumo_ha1",0,0,0,0,100,100,255,0)
ShowMessageFace("",0,0,2,4)
ShowMessage("Rachnee's silk winds around my body.")
ShowMessage("At the same time, she slips my penis into the hole at the end of her abdomen!")
ShowMessageFace("",0,0,2,5)
ShowMessage("The insides of Rachnee's lower mouth suddenly start to wriggle.")
ShowMessageFace("",0,0,2,6)
ShowMessage("As if covered with bumps and mucus, every movement rubs me all over.")
ShowMessageFace("kumo_fc1",1,0,2,7)
ShowMessage("\\n<Rachnee>Feels good, doesn't it?\nLet it all out...")
ShowMessageFace("",0,0,2,8)
ShowMessage("\\n<Luka>Hau! Haaa!")
ShowMessageFace("",0,0,2,9)
ShowMessage("With her slimy walls wriggling around, the bumps inside of her lower mouth rub into me as the Spider Girl starts to move her abdomen up and down.")
ShowMessageFace("kumo_fc1",1,0,2,11)
ShowMessage("\\n<Rachnee>Haha, such pitiful prey.")
ShowMessageFace("",0,0,2,12)
ShowMessage("Watching me writhe in agony, Rachnee gives a sadistic smile.")
ShowMessage("Squeezing out the semen of her prey, she's immersed in joy watching me struggle.")
ShowMessageFace("kumo_fc1",1,0,2,13)
ShowMessage("\\n<Rachnee>Hahaha.\nI'll wrap my silk around you inside of me...")
ShowMessageFace("",0,0,2,14)
ShowMessage("Suddenly, Rachnee starts to shoot webbing inside of her hole, covering my penis in a soft, sticky silk.")
ShowMessageFace("",0,0,2,15)
ShowMessage("\\n<Luka>Auuu... The silk...\nSo soft and sticky...")
ShowMessageFace("",0,0,2,16)
ShowMessage("The sticky string wrapping around me slowly starts to tighten as she covers more of me.")
ShowMessageFace("",0,0,2,17)
ShowMessage("The bizarre stimulation quickly causes me to yield to the pleasure.")
ShowMessageFace("",0,0,2,18)
ShowMessage("\\n<Luka>Au! Aaaa!")
RunCommonEvent(104)
PictureDisplay(5,"ev_kumo_ha2",0,0,0,0,100,100,255,0)
RunCommonEvent(105)
ShowMessageFace("",0,0,2,19)
ShowMessage("Still stuck in her spinneret, the spider silk wrapped around me felt amazing.")
ShowMessageFace("kumo_fc1",1,0,2,20)
ShowMessage("\\n<Rachnee>Fufu... You seem so weak to this.\nDo you like my sticky threads that much?")
PictureDisplay(5,"ev_kumo_ha3",0,0,0,0,100,100,255,0)
ShowMessageFace("",0,0,2,21)
ShowMessage("Rachnee's silk winds up around even more of my body.")
ShowMessage("My whole body is covered in her sticky silk...")
ShowMessageFace("",0,0,2,22)
ShowMessage("\\n<Luka>Ahii... Stop...")
ShowMessageFace("",0,0,2,23)
ShowMessage("As I beg for her to stop, Rachnee starts to shoot more of her sticky silk over me.")
ShowMessageFace("",0,0,2,24)
ShowMessage("Wrapping around my dick even tighter, the pleasure felt like it was making me melt.")
ShowMessageFace("",0,0,2,25)
ShowMessage("\\n<Luka>Aah....")
ShowMessageFace("",0,0,2,26)
ShowMessage("Even though my penis is being wrapped in her silk, the feeling from her rough walls doesn't weaken at all.")
ShowMessageFace("",0,0,2,27)
ShowMessage("In fact, every bump and crease inside of her has their feelings magnified.")
ShowMessageFace("",0,0,2,28)
ShowMessage("\\n<Luka>Inside you... Amazing... Too good...")
PictureDisplay(5,"ev_kumo_ha4",0,0,0,0,100,100,255,0)
ShowMessageFace("",0,0,2,29)
ShowMessage("More of Rachnee's silk covers me.")
ShowMessage("Wound up so tightly, I'm little more than prey in her web.")
ShowMessageFace("kumo_fc1",1,0,2,30)
ShowMessage("\\n<Rachnee>Hahaha, shoot out more.\nI'll suck up all your semen, and make it my food...")
ShowMessageFace("",0,0,2,31)
ShowMessage("Inside of her spinneret, she continues to tighten her sticky silk around me, while moving her waist up and down.")
ShowMessageFace("",0,0,2,32)
ShowMessage("The overpowering stimulation from so many different methods quickly sends me over the edge again.")
ShowMessageFace("",0,0,2,33)
ShowMessage("\\n<Luka>Auuu.. Coming again!\nAhhhh!")
RunCommonEvent(104)
PictureDisplay(5,"ev_kumo_ha5",0,0,0,0,100,100,255,0)
RunCommonEvent(105)
ShowMessageFace("",0,0,2,34)
ShowMessage("I explode inside Rachnee again.")
ShowMessage("For some reason, the orgasm gave me a strange sense of calm.")
ShowMessageFace("kumo_fc1",1,0,2,35)
ShowMessage("\\n<Rachnee>Aha, you let out a lot again...\nYour semen is very delicious...")
ShowMessageFace("kumo_fc1",1,0,2,36)
ShowMessage("\\n<Rachnee>Eating you would be too wasteful...")
ShowMessageFace("kumo_fc1",1,0,2,37)
ShowMessage("\\n<Rachnee>Instead, I'll keep you here and let you produce more semen for me.")
ShowMessageFace("",0,0,2,39)
ShowMessage("\\n<Luka>Faaa!")
ShowMessageFace("",0,0,2,40)
ShowMessage("Rachnee suddenly contracts her hole, and forces my tip to rub against one of her bumps.")
ShowMessageFace("",0,0,2,41)
ShowMessage("The sudden pleasure forces me over the edge instantly.")
RunCommonEvent(104)
PictureDisplay(5,"ev_kumo_ha6",0,0,0,0,100,100,255,0)
RunCommonEvent(105)
ShowMessageFace("",0,0,2,42)
ShowMessage("Toyed with by Rachnee, I explode in her again.")
ShowMessageFace("kumo_fc1",1,0,2,43)
ShowMessage("\\n<Rachnee>Haha, let out more!\nYou're my prey, after all.")
ShowMessageFace("kumo_fc1",1,0,2,44)
ShowMessage("\\n<Rachnee>With no rest, I'll keep squeezing out your semen over and over.\nFufu... Are you excited for it?")
ShowMessageFace("",0,0,2,45)
ShowMessage("\\n<Luka>Aaaa....")
ShowMessageFace("",0,0,2,46)
ShowMessage("While feeling ecstasy, my consciousness slowly fades.")
ShowMessage("Shedding tears in endless pleasure, she forces me to come over and over...")
221()
PictureClear(5)
PictureClear(6)
246(2)
ShowMessageFace("",0,0,2,47)
ShowMessage("After she releases me, I can't even stand.")
ShowMessage("Crawling to my room, I collapse on the floor.")
ShowMessageFace("",0,0,2,48)
ShowMessage("........")
242(2)
Wait(120)
241(bytes(0x04,0x08,0x6f,0x3a,0x0d,0x52,0x50,0x47,0x3a,0x3a,0x42,0x47,0x4d,0x08,0x3a,0x0a,0x40,0x6e,0x61,0x6d,0x65,0x49,0x22,0x0c,0x63,0x61,0x73,0x74,0x6c,0x65,0x36,0x06,0x3a,0x06,0x45,0x54,0x3a,0x0c,0x40,0x76,0x6f,0x6c,0x75,0x6d,0x65,0x69,0x69,0x3a,0x0b,0x40,0x70,0x69,0x74,0x63,0x68,0x69,0x69))
0()
