// EVENT 4197
Name "Bee Girl 2"

If(0,25,1)
 221()
 PictureClear(5)
 PictureClear(6)
 ShowMessageFace("",0,0,2,0)
 ShowMessage("......")
 242(2)
 Wait(120)
 241(bytes(0x04,0x08,0x6f,0x3a,0x0d,0x52,0x50,0x47,0x3a,0x3a,0x42,0x47,0x4d,0x08,0x3a,0x0a,0x40,0x6e,0x61,0x6d,0x65,0x49,0x22,0x0c,0x63,0x61,0x73,0x74,0x6c,0x65,0x36,0x06,0x3a,0x06,0x45,0x54,0x3a,0x0c,0x40,0x76,0x6f,0x6c,0x75,0x6d,0x65,0x69,0x69,0x3a,0x0b,0x40,0x70,0x69,0x74,0x63,0x68,0x69,0x69))
 EndEventProcessing()
 0()
EndIf()
PictureDisplay(5,"80_mitubati_st02",0,0,0,0,100,100,255,0)
ShowMessageFace("mitubati_fc1",1,0,2,1)
ShowMessage("\\n<Honey>You want to mate with me?")
ShowMessageFace("",0,0,2,2)
ShowMessage("\\n<Luka>Y-yeah...")
ShowMessageFace("mitubati_fc1",1,0,2,3)
ShowMessage("\\n<Honey>Okay, I'll rape you.\nMy oviduct is throbbing already...")
241(bytes(0x04,0x08,0x6f,0x3a,0x0d,0x52,0x50,0x47,0x3a,0x3a,0x42,0x47,0x4d,0x08,0x3a,0x0a,0x40,0x6e,0x61,0x6d,0x65,0x49,0x22,0x09,0x65,0x72,0x6f,0x31,0x06,0x3a,0x06,0x45,0x54,0x3a,0x0c,0x40,0x76,0x6f,0x6c,0x75,0x6d,0x65,0x69,0x69,0x3a,0x0b,0x40,0x70,0x69,0x74,0x63,0x68,0x69,0x69))
PictureDisplay(5,"ev_mitubati_h1",0,0,0,0,100,100,255,0)
ShowMessageFace("",0,0,2,4)
ShowMessage("Honey grips both of my shoulders and pulls me towards her.")
ShowMessage("Held tightly, I can't break her grip.")
ShowMessageFace("",0,0,2,5)
ShowMessage("\\n<Luka>Aaahh...")
ShowMessageFace("mitubati_fc1",1,0,2,6)
ShowMessage("\\n<Honey>Fufu... don't you want to feel more of me?\nI'll even let you shoot it out inside of me...")
245(bytes(0x04,0x08,0x6f,0x3a,0x0d,0x52,0x50,0x47,0x3a,0x3a,0x42,0x47,0x53,0x08,0x3a,0x0a,0x40,0x6e,0x61,0x6d,0x65,0x49,0x22,0x1a,0x6d,0x6f,0x6e,0x5f,0x68,0x73,0x65,0x61,0x6e,0x32,0x30,0x5f,0x74,0x65,0x6e,0x74,0x61,0x63,0x6c,0x65,0x31,0x06,0x3a,0x06,0x45,0x54,0x3a,0x0c,0x40,0x76,0x6f,0x6c,0x75,0x6d,0x65,0x69,0x55,0x3a,0x0b,0x40,0x70,0x69,0x74,0x63,0x68,0x69,0x69))
PictureDisplay(5,"ev_mitubati_hb1",0,0,0,0,100,100,255,0)
PictureDisplay(6,"ev_mitubati_ctb01",0,0,0,0,100,100,255,0)
ShowMessageFace("",0,0,2,7)
ShowMessage("Honey moves her waist over my groin and...")
ShowMessage("Forces my dick into her!")
ShowMessageFace("",0,0,2,8)
ShowMessage("\\n<Luka>Aaauuu... Ahhhh!")
ShowMessageFace("",0,0,2,9)
ShowMessage("Her seductive insect vagina...")
ShowMessageFace("",0,0,2,10)
ShowMessage("Protected by a hard insect shell, she exposes her raw hole as she forces me into her.")
ShowMessageFace("mitubati_fc1",1,0,2,11)
ShowMessage("\\n<Honey>An insect's reproductive system is different from a human's...\nThey both accept a penis, but that's about it.")
ShowMessageFace("mitubati_fc1",1,0,2,12)
ShowMessage("\\n<Honey>It feels quite different from a bland human's, no?")
ShowMessageFace("",0,0,2,13)
ShowMessage("\\n<Luka>Aauuuu!\nInside... Amazing!")
ShowMessageFace("",0,0,2,14)
ShowMessage("Tiny pieces of hair seem to line her pussy's walls, giving a bristly feeling.")
ShowMessage("The bristly hairs feel like they're covered in honey...")
ShowMessageFace("",0,0,2,15)
ShowMessage("The peculiar bristly feeling combined with the warm honey shoots an intense pleasure through my waist with every movement.")
ShowMessageFace("",0,0,2,16)
ShowMessage("Every time the bee shakes her hips, more sticky honey gets on me.")
ShowMessageFace("",0,0,2,17)
ShowMessage("The sticky feeling brings more pleasure from the friction, making my dick feel like it's melting in her.")
ShowMessageFace("",0,0,2,18)
ShowMessage("\\n<Luka>Faaa... Too good...")
ShowMessageFace("mitubati_fc1",1,0,2,19)
ShowMessage("\\n<Honey>Arara... What a bad little boy.")
ShowMessageFace("mitubati_fc1",1,0,2,20)
ShowMessage("\\n<Honey>I thought your Goddess forbade you from doing things like this?")
ShowMessageFace("",0,0,2,21)
ShowMessage("\\n<Luka>Aaauuu...")
ShowMessageFace("",0,0,2,22)
ShowMessage("That's right... I'm mating with a monster now...")
ShowMessageFace("",0,0,2,23)
ShowMessage("I broke Her commandment... I'm committing the ultimate taboo...")
ShowMessageFace("",0,0,2,24)
ShowMessage("\\n<Luka>N... No! Get off of me!")
ShowMessageFace("mitubati_fc1",1,0,2,25)
ShowMessage("\\n<Honey>No.\nJust shoot your semen into me like this...")
ShowMessageFace("",0,0,2,26)
ShowMessage("Honey shakes her waist as she plays with me.")
ShowMessage("My penis twitches from the shaking inside her sticky hole.")
ShowMessageFace("",0,0,2,27)
ShowMessage("The intense stimulation brings me to the edge.")
ShowMessageFace("",0,0,2,28)
ShowMessage("\\n<Luka>Auuuu!")
ShowMessageFace("",0,0,2,29)
ShowMessage("I somehow managed to endure, but it doesn't seem like Honey will allow it.")
ShowMessageFace("",0,0,2,30)
ShowMessage("She increases her movements, trying to force it out of me.")
ShowMessageFace("mitubati_fc1",1,0,2,31)
ShowMessage("\\n<Honey>Explode in me...\nI know you can't resist the pleasure...")
ShowMessageFace("",0,0,2,32)
ShowMessage("Her renewed attacks breaks down my resistance as I feel the orgasm start to rise through me.")
ShowMessageFace("",0,0,2,33)
ShowMessage("\\n<Luka>Ahh... I can't...")
ShowMessageFace("",0,0,2,34)
ShowMessage("At last, I can't withstand the pleasure any longer.")
ShowMessage("I don't want to commit the taboo, but I can't hold on any longer...")
ShowMessage("My lower body relaxes.")
RunCommonEvent(104)
PictureDisplay(5,"ev_mitubati_hb2",0,0,0,0,100,100,255,0)
PictureDisplay(6,"ev_mitubati_ctb02",0,0,0,0,100,100,255,0)
RunCommonEvent(105)
ShowMessageFace("",0,0,2,35)
ShowMessage("\\n<Luka>Auuuu...")
ShowMessageFace("",0,0,2,36)
ShowMessage("I orgasm, shooting my semen into her.")
ShowMessage("Mating with a monster... the humiliation builds in me.")
ShowMessageFace("mitubati_fc1",1,0,2,37)
ShowMessage("\\n<Honey>Fufu... was it good?\nThis is what it's like to mate with a monster...")
ShowMessageFace("mitubati_fc1",1,0,2,38)
ShowMessage("\\n<Honey>The pleasure your goddess forbade to you...")
ShowMessageFace("",0,0,2,39)
ShowMessage("\\n<Luka>Faaa...")
ShowMessageFace("",0,0,2,40)
ShowMessage("Not releasing me after my orgasm, the bee holds me in her, but stops moving her waist.")
ShowMessageFace("mitubati_fc1",1,0,2,41)
ShowMessage("\\n<Honey>Next, you move.\nI'll let you use my pussy... just thrust and make yourself feel good.")
ShowMessageFace("",0,0,2,42)
ShowMessage("\\n<Luka>I don't...")
ShowMessageFace("",0,0,2,43)
ShowMessage("Though I say that, I start to slowly move my hips.")
ShowMessageFace("",0,0,2,44)
ShowMessage("I start to push deep into her honey filled hole.")
ShowMessageFace("",0,0,2,46)
ShowMessage("\\n<Luka>Aahh... Ok...")
ShowMessageFace("",0,0,2,47)
ShowMessage("I want to feel more of her warm insect vagina...")
ShowMessageFace("",0,0,2,48)
ShowMessage("Covered in her sticky honey, the pleasure starts to quickly feel unbearable.")
ShowMessageFace("",0,0,2,49)
ShowMessage("\\n<Luka>Faa... This feels good...\nMore... More...")
ShowMessageFace("mitubati_fc1",1,0,2,50)
ShowMessage("\\n<Honey>Hahaha... You're completely hooked.\nIndulging in the pleasure only a monster can bring...")
ShowMessageFace("mitubati_fc1",1,0,2,51)
ShowMessage("\\n<Honey>Committing the ultimate taboo... is it really ok with you?")
ShowMessageFace("",0,0,2,52)
ShowMessage("\\n<Luka>Faaa....")
ShowMessageFace("",0,0,2,53)
ShowMessage("Such a thing has become meaningless as I taste more of her honey.")
ShowMessageFace("",0,0,2,54)
ShowMessage("No... Even the immorality of the pleasure seems to increase the stimulation.")
ShowMessageFace("",0,0,2,55)
ShowMessage("Thrusting into her, I feel another climax coming.")
ShowMessageFace("",0,0,2,56)
ShowMessage("\\n<Luka>Ahhhh!\nI'm coming again!")
RunCommonEvent(104)
PictureDisplay(5,"ev_mitubati_hb3",0,0,0,0,100,100,255,0)
PictureDisplay(6,"ev_mitubati_ctb03",0,0,0,0,100,100,255,0)
RunCommonEvent(105)
ShowMessageFace("",0,0,2,57)
ShowMessage("I explode again inside of her.")
ShowMessage("As I come, it feels as if my dick is melting in her.")
ShowMessageFace("",0,0,2,58)
ShowMessage("\\n<Luka>Faa....")
ShowMessageFace("mitubati_fc1",1,0,2,59)
ShowMessage("\\n<Honey>Fufu... was it good?\nThen... This time, I'll move.")
245(bytes(0x04,0x08,0x6f,0x3a,0x0d,0x52,0x50,0x47,0x3a,0x3a,0x42,0x47,0x53,0x08,0x3a,0x0a,0x40,0x6e,0x61,0x6d,0x65,0x49,0x22,0x1a,0x6d,0x6f,0x6e,0x5f,0x68,0x73,0x65,0x61,0x6e,0x32,0x31,0x5f,0x74,0x65,0x6e,0x74,0x61,0x63,0x6c,0x65,0x32,0x06,0x3a,0x06,0x45,0x54,0x3a,0x0c,0x40,0x76,0x6f,0x6c,0x75,0x6d,0x65,0x69,0x55,0x3a,0x0b,0x40,0x70,0x69,0x74,0x63,0x68,0x69,0x69))
ShowMessageFace("",0,0,2,60)
ShowMessage("Honey gently pulls me out of her, then pushes her waist against me until I'm all the way in her.")
ShowMessageFace("",0,0,2,61)
ShowMessage("She pumps me with no mercy, bringing intense friction as the sticky honey rubs all over her insides.")
ShowMessageFace("",0,0,2,62)
ShowMessage("\\n<Luka>Ahiii! Ahhhhh!")
ShowMessageFace("mitubati_fc1",1,0,2,63)
ShowMessage("\\n<Honey>More... More... Soak in the pleasure of mating with a monster.")
ShowMessageFace("mitubati_fc1",1,0,2,64)
ShowMessage("\\n<Honey>I'll take all of your sperm...")
ShowMessageFace("",0,0,2,65)
ShowMessage("The stimulating becoming more intense, I start to leak out into her sticky interior.")
ShowMessageFace("",0,0,2,66)
ShowMessage("I feel the pressure from another orgasm rise through my waist.")
ShowMessageFace("",0,0,2,67)
ShowMessage("\\n<Luka>Like this... I'm going to come... again!")
ShowMessageFace("mitubati_fc1",1,0,2,68)
ShowMessage("\\n<Honey>Already? What a pathetic man...\nJust let it out, then!")
ShowMessageFace("",0,0,2,69)
ShowMessage("\\n<Luka>Faaaa!")
RunCommonEvent(104)
PictureDisplay(5,"ev_mitubati_hb4",0,0,0,0,100,100,255,0)
PictureDisplay(6,"ev_mitubati_ctb04",0,0,0,0,100,100,255,0)
RunCommonEvent(105)
246(1)
ShowMessageFace("",0,0,2,70)
ShowMessage("Coming again, I slump in exhaustion.")
ShowMessageFace("mitubati_fc1",1,0,2,72)
ShowMessage("\\n<Honey>Fufu... Giving up just with this?\nYou're weak...")
ShowMessageFace("mitubati_fc1",1,0,2,73)
ShowMessage("\\n<Honey>It can't be helped I guess... I'll just need to train you more.\nI'll take you back to my hive and mate with you even more.")
ShowMessageFace("",0,0,2,74)
ShowMessage("\\n<Luka>Auuu... No way...")
ShowMessageFace("",0,0,2,75)
ShowMessage("Even if I resist, I have no strength to do anything.")
ShowMessage("Since I lost, I have no choice in the matter...")
ShowMessageFace("mitubati_fc1",1,0,2,76)
ShowMessage("\\n<Honey>But... Before that, let me squeeze out some more.")
245(bytes(0x04,0x08,0x6f,0x3a,0x0d,0x52,0x50,0x47,0x3a,0x3a,0x42,0x47,0x53,0x08,0x3a,0x0a,0x40,0x6e,0x61,0x6d,0x65,0x49,0x22,0x1a,0x6d,0x6f,0x6e,0x5f,0x68,0x73,0x65,0x61,0x6e,0x32,0x31,0x5f,0x74,0x65,0x6e,0x74,0x61,0x63,0x6c,0x65,0x32,0x06,0x3a,0x06,0x45,0x54,0x3a,0x0c,0x40,0x76,0x6f,0x6c,0x75,0x6d,0x65,0x69,0x55,0x3a,0x0b,0x40,0x70,0x69,0x74,0x63,0x68,0x69,0x69))
ShowMessageFace("",0,0,2,77)
ShowMessage("\\n<Luka>Ahiii! Ahhhh!")
ShowMessageFace("",0,0,2,78)
ShowMessage("Honey starts to shake her waist again.")
ShowMessage("As she pumps me, her long tongue starts to lick me all over my body.")
ShowMessageFace("",0,0,2,79)
ShowMessage("Feeling pleasure all over my body, I start to go crazy.")
ShowMessageFace("mitubati_fc1",1,0,2,80)
ShowMessage("\\n<Honey>Shoot out even more!")
ShowMessageFace("",0,0,2,81)
ShowMessage("\\n<Luka>Ahhhhhh!")
RunCommonEvent(104)
RunCommonEvent(105)
ShowMessageFace("",0,0,2,82)
ShowMessage("Licking and pumping without mercy, she squeezes even more out of me. I think I'm ruined now, addicted to this forbidden pleasure--")
221()
PictureClear(5)
PictureClear(6)
246(2)
ShowMessageFace("",0,0,2,83)
ShowMessage(".............")
242(2)
Wait(120)
241(bytes(0x04,0x08,0x6f,0x3a,0x0d,0x52,0x50,0x47,0x3a,0x3a,0x42,0x47,0x4d,0x08,0x3a,0x0a,0x40,0x6e,0x61,0x6d,0x65,0x49,0x22,0x0c,0x63,0x61,0x73,0x74,0x6c,0x65,0x36,0x06,0x3a,0x06,0x45,0x54,0x3a,0x0c,0x40,0x76,0x6f,0x6c,0x75,0x6d,0x65,0x69,0x69,0x3a,0x0b,0x40,0x70,0x69,0x74,0x63,0x68,0x69,0x69))
0()
