﻿// EVENT 4687
Name "Vetala 2"

If(0,25,1)
 221()
 PictureClear(5)
 PictureClear(6)
 ShowMessageFace("",0,0,2,0)
 ShowMessage("......")
 242(2)
 Wait(120)
 241(bytes(0x04,0x08,0x6f,0x3a,0x0d,0x52,0x50,0x47,0x3a,0x3a,0x42,0x47,0x4d,0x08,0x3a,0x0a,0x40,0x6e,0x61,0x6d,0x65,0x49,0x22,0x0c,0x63,0x61,0x73,0x74,0x6c,0x65,0x36,0x06,0x3a,0x06,0x45,0x54,0x3a,0x0c,0x40,0x76,0x6f,0x6c,0x75,0x6d,0x65,0x69,0x69,0x3a,0x0b,0x40,0x70,0x69,0x74,0x63,0x68,0x69,0x69))
 EndEventProcessing()
 0()
EndIf()
PictureDisplay(5,"80_vetala_st01",0,0,0,0,100,100,255,0)
ShowMessageFace("vetala_fc1",1,0,2,1)
ShowMessage("\\n<Vetala>Heh...\nYou want to play with my boobs, boy...")
ShowMessageFace("",0,0,2,2)
ShowMessage("\\n<Luka>P-please...")
ShowMessageFace("vetala_fc1",1,0,2,3)
ShowMessage("\\n<Vetala>Well then, in response to your request...\nBig sis will pleasure you with her boobs. ♪")
ShowMessageFace("",0,0,2,4)
ShowMessage("Thus I was invited to Vetala's room.")
PictureDisplay(5,"ev_vetala_hc01",0,0,0,0,100,100,0,0)
PictureMove(5,null,0,0,0,0,100,100,255,0,30,true)
241(bytes(0x04,0x08,0x6f,0x3a,0x0d,0x52,0x50,0x47,0x3a,0x3a,0x42,0x47,0x4d,0x08,0x3a,0x0a,0x40,0x6e,0x61,0x6d,0x65,0x49,0x22,0x09,0x65,0x72,0x6f,0x31,0x06,0x3a,0x06,0x45,0x54,0x3a,0x0c,0x40,0x76,0x6f,0x6c,0x75,0x6d,0x65,0x69,0x69,0x3a,0x0b,0x40,0x70,0x69,0x74,0x63,0x68,0x69,0x69))
ShowMessageFace("",0,0,2,5)
ShowMessage("Vetala leans down, exposing her breasts at the same level as my waist. As if inviting my penis inside her valley...")
PictureDisplay(5,"ev_vetala_hc02",0,0,0,0,100,100,255,0)
ShowMessageFace("vetala_fc1",1,0,2,6)
ShowMessage("\\n<Vetala>Arara, it's already this big...\nIt got like that just from looking at big sis' breasts?")
ShowMessageFace("",0,0,2,7)
ShowMessage("Vetala rubs her breasts together, showing me what's about to happen to my penis. Just thinking about my penis between them...")
ShowMessageFace("vetala_fc1",1,0,2,8)
ShowMessage("\\n<Vetala>Hooora come between them...\nI'll squeeze you between them and knead your penis thoroughly.")
ShowMessageFace("",0,0,2,9)
ShowMessage("She shakes her breasts.\nResponding to the enticing invitation, I bring my penis closer to her valley...")
PictureDisplay(5,"ev_vetala_hc03",0,0,0,0,100,100,255,0)
ShowMessageFace("",0,0,2,10)
ShowMessage("And my penis gets caught between her breasts!")
ShowMessageFace("",0,0,2,11)
ShowMessage("\\n<Luka>Hauuu...!")
ShowMessageFace("",0,0,2,12)
ShowMessage("I tremble at the feeling of her warm, soft skin.\nFlexible enough to wrap around me but elastic enough to push back...")
ShowMessageFace("vetala_fc1",1,0,2,13)
ShowMessage("\\n<Vetala>There there... Good boy.\nYou won't be able to take this for long, boy...")
ShowMessageFace("",0,0,2,14)
ShowMessage("*slurp*... A huge tongue crawls out of her and starts teasing my scrotum. Her touch make my hips tremble.")
ShowMessageFace("vetala_fc1",1,0,2,15)
ShowMessage("\\n<Vetala>This is where a male stores his semen...\nDo you want big sis to extract it all out?")
ShowMessageFace("vetala_fc1",1,0,2,16)
ShowMessage("\\n<Vetala>Then...move your hips...\nShake them back and forth as much as you like...")
PictureDisplay(5,"ev_vetala_hc04",0,0,0,0,100,100,255,0)
245(bytes(0x04,0x08,0x6f,0x3a,0x0d,0x52,0x50,0x47,0x3a,0x3a,0x42,0x47,0x53,0x08,0x3a,0x0a,0x40,0x6e,0x61,0x6d,0x65,0x49,0x22,0x1e,0x6d,0x6f,0x6e,0x5f,0x68,0x73,0x65,0x61,0x6e,0x31,0x31,0x5f,0x69,0x6e,0x6e,0x65,0x72,0x77,0x6f,0x72,0x6b,0x73,0x5f,0x63,0x31,0x06,0x3a,0x06,0x45,0x54,0x3a,0x0c,0x40,0x76,0x6f,0x6c,0x75,0x6d,0x65,0x69,0x55,0x3a,0x0b,0x40,0x70,0x69,0x74,0x63,0x68,0x69,0x69))
ShowMessageFace("",0,0,2,17)
ShowMessage("\\n<Luka>Ah... Nnngh...")
ShowMessageFace("",0,0,2,18)
ShowMessage("Vetala invites me to move my hips.\nRubbing against her soft breasts brings about a sweet stimulation.")
ShowMessageFace("",0,0,2,19)
ShowMessage("My waist starts shaking from this overwhelming pleasure... Vetala looks up at me and grins.")
ShowMessageFace("vetala_fc1",1,0,2,20)
ShowMessage("\\n<Vetala>Teehee... You want to be rubbed up and down?")
ShowMessageFace("vetala_fc1",1,0,2,21)
ShowMessage("\\n<Vetala>What a perverted boy you are for wanting something like that... Hooora, I'll give you plenty of love with my breasts.")
ShowMessageFace("vetala_fc1",1,0,2,22)
ShowMessage("\\n<Vetala>This is what you wanted right?\nTo be caught between big sis' breasts and come like this...")
ShowMessageFace("",0,0,2,23)
ShowMessage("\\n<Luka>Th-that's not...")
ShowMessageFace("",0,0,2,24)
ShowMessage("While being inside her cleavage, I can already feel an ejaculation welling up inside me. A sweet ache rises from my waist...")
ShowMessageFace("vetala_fc1",1,0,2,25)
ShowMessage("\\n<Vetala>You hips are trembling... Does it feel that good?\nNow come between my breasts...")
ShowMessageFace("",0,0,2,26)
ShowMessage("\\n<Luka>I-it's coming out...Aaah...!")
ShowMessageFace("",0,0,2,27)
ShowMessage("Even though I try to hold on, I can't surpress my orgasm any longer...")
RunCommonEvent(104)
PictureDisplay(5,"ev_vetala_hc05",0,0,0,0,100,100,255,0)
RunCommonEvent(105)
ShowMessageFace("",0,0,2,28)
ShowMessage("Semen streams out of my pulsating penis and in between her breasts. I taste the sweet feeling of ejaculation while being wrapped in her soft breasts.")
ShowMessageFace("vetala_fc1",1,0,2,29)
ShowMessage("\\n<Vetala>Haha, didn't I say so...\nYou came so fast, boy...")
PictureDisplay(5,"ev_vetala_hc06",0,0,0,0,100,100,255,0)
ShowMessageFace("vetala_fc1",1,0,2,30)
ShowMessage("\\n<Vetala>It's such a shame that you came so fast...\nWouldn't you rather finish inside?")
ShowMessageFace("vetala_fc1",1,0,2,31)
ShowMessage("\\n<Vetala>Ahaha... You shot it out, in vain.\nThat's so sad...")
PictureDisplay(5,"ev_vetala_hc07",0,0,0,0,100,100,255,0)
ShowMessageFace("",0,0,2,32)
ShowMessage("With a grin on her face, Vetala's tongue stretches out and laps up the semen scattered between her breasts.")
ShowMessageFace("vetala_fc1",1,0,2,33)
ShowMessage("\\n<Vetala>Nnn...*slurp*\nThick semen...")
ShowMessageFace("",0,0,2,34)
ShowMessage("My semen is lapped up while my penis is still sandwiched between her breasts. She brings it to her mouth and has a good taste of it.")
ShowMessageFace("",0,0,2,35)
ShowMessage("The semen I shot out, eaten like that...\nThe sight of it make me feel miserable.")
ShowMessageFace("",0,0,2,36)
ShowMessage("\\n<Luka>Ah, aaah...")
ShowMessageFace("",0,0,2,37)
ShowMessage("Instinctively, I start moving my waist...\nMy instincts demand more stimulation...")
PictureDisplay(5,"ev_vetala_hc09",0,0,0,0,100,100,255,0)
ShowMessageFace("",0,0,2,38)
ShowMessage("I push my penis deep inside her valley.\nThe tightness increases as the sense of opression intensifies...")
ShowMessageFace("vetala_fc1",1,0,2,39)
ShowMessage("\\n<Vetala>Arara, you're greedy...♪")
ShowMessageFace("",0,0,2,40)
ShowMessage("\\n<Luka>Unnngh...Breasts... That feels good...")
ShowMessageFace("",0,0,2,41)
ShowMessage("I crave more pleasure and I move my hips desperately.\nHer soft breasts pamper me as if responding to my movement.")
ShowMessageFace("",0,0,2,42)
ShowMessage("They rub me with their warmth...\nHer sweet breasts give my penis the finest of pleasures.")
PictureDisplay(5,"ev_vetala_hc10",0,0,0,0,100,100,255,0)
ShowMessageFace("vetala_fc1",1,0,2,43)
ShowMessage("\\n<Vetala>Teehee... You'll make big sis' boobs jiggle if you move your hips like that.")
ShowMessageFace("vetala_fc1",1,0,2,44)
ShowMessage("\\n<Vetala>I'll tighten up like this...\nAlmost feels like a pussy, right?")
ShowMessageFace("",0,0,2,45)
ShowMessage("\\n<Luka>Ah, unnngh...!!")
ShowMessageFace("",0,0,2,46)
ShowMessage("From both left and right, she squeezed my penis between her breasts. It feels as if I'm being milked.")
ShowMessageFace("vetala_fc1",1,0,2,47)
ShowMessage("\\n<Vetala>Now it's my turn...\nHooora come...")
ShowMessageFace("",0,0,2,48)
ShowMessage("An overwhelming pleasure shoots through me as she's crushing my penis. All of a sudden, my hips stop moving and just buck up...")
ShowMessageFace("",0,0,2,49)
ShowMessage("\\n<Luka>Ah... Aaaah...!!")
RunCommonEvent(104)
PictureDisplay(5,"ev_vetala_hc11",0,0,0,0,100,100,255,0)
RunCommonEvent(105)
ShowMessageFace("",0,0,2,50)
ShowMessage("Once again my semen scatters over her breasts.\nA large amount of my cloudy semen covers her breasts while I'm still being rubbed...")
PictureDisplay(5,"ev_vetala_hc12",0,0,0,0,100,100,255,0)
ShowMessageFace("vetala_fc1",1,0,2,51)
ShowMessage("\\n<Vetala>Haha, you let out a lot, even though it's the second time... You're giving big sis quite a treat...")
ShowMessageFace("",0,0,2,52)
ShowMessage("She keeps rubbing my penis even after my ejaculation.\nUsing these squeezing and rubbing motions, she milks out the remaining drops of semen from my urethra.")
ShowMessageFace("",0,0,2,53)
ShowMessage("And then, she laps it all with her tongue...\nThe semen I shot is nothing more than food for Vetala.")
PictureDisplay(5,"ev_vetala_hc14",0,0,0,0,100,100,255,0)
ShowMessageFace("vetala_fc1",1,0,2,54)
ShowMessage("\\n<Vetala>Haha, you gave me quite a lot...\nBut you're not satisfied yet, are you boy?")
ShowMessageFace("",0,0,2,55)
ShowMessage("My penis is released from her breasts...\nVetala shows me her nipple.")
ShowMessageFace("vetala_fc1",1,0,2,56)
ShowMessage("\\n<Vetala>Ufufu, you want to put it in my breast-pussy?\nIt'll feel so good inside...")
ShowMessageFace("vetala_fc1",1,0,2,57)
ShowMessage("\\n<Vetala>Hooora, you want to try putting it in here?")
ShowMessageFace("",0,0,2,58)
ShowMessage("\\n<Luka>Ah, aaah...")
ShowMessageFace("",0,0,2,59)
ShowMessage("Vetala's nipple looks exactly like a female vagina.\nIt opens up and shows me her interior...")
PictureDisplay(5,"ev_vetala_hc15",0,0,0,0,100,100,255,0)
ShowMessageFace("vetala_fc1",1,0,2,60)
ShowMessage("\\n<Vetala>In here, you can shoot it all...\nIt's not a digestive organ, is it that surprising...?")
ShowMessageFace("",0,0,2,61)
ShowMessage("Her nipple, it should be the same as a human's.\nTo insert my penis there...")
ShowMessageFace("vetala_fc1",1,0,2,62)
ShowMessage("\\n<Vetala>Ufufu, you don't have to think about it...\nJust put it in and see for yourself if it feels like a human one.")
ShowMessageFace("vetala_fc1",1,0,2,63)
ShowMessage("\\n<Vetala>That's because, big sis allows you to.\nYou can shoot it all in here.")
ShowMessageFace("vetala_fc1",1,0,2,64)
ShowMessage("\\n<Vetala>Ufufu, I understand...\nYou want to try it, boy...?")
ShowMessageFace("vetala_fc1",1,0,2,65)
ShowMessage("\\n<Vetala>Hooora, put it in...")
ShowMessageFace("",0,0,2,66)
ShowMessage("\\n<Luka>......")
ShowMessageFace("",0,0,2,67)
ShowMessage("Vetala's nipple opens up as if inviting me inside.\nI fearfully push my penis inside...")
PictureDisplay(5,"ev_vetala_hc16",0,0,0,0,100,100,255,0)
ShowMessageFace("",0,0,2,68)
ShowMessage("My glans slides inside.\nA sweet undulating feeling envelops my tip...")
ShowMessageFace("",0,0,2,69)
ShowMessage("\\n<Luka>Ah... Aaah!")
ShowMessageFace("vetala_fc1",1,0,2,70)
ShowMessage("\\n<Vetala>Ara, just the tip...?\nBoy, don't be shy...")
ShowMessageFace("vetala_fc1",1,0,2,71)
ShowMessage("\\n<Vetala>Let big sis help you...\nCome all the way inside. ♪")
ShowMessageFace("",0,0,2,72)
ShowMessage("\\n<Luka>This is...Ah, aaah...")
ShowMessageFace("",0,0,2,73)
ShowMessage("Tentacles and tongues wrap around my waist...\nAnd my hips are forcefully pushed forward!")
PictureDisplay(5,"ev_vetala_hc17",0,0,0,0,100,100,255,0)
ShowMessageFace("",0,0,2,74)
ShowMessage("\\n<Luka>Hyaaa! What, this...")
ShowMessageFace("",0,0,2,75)
ShowMessage("My entire penis is trapped inside her nipple...\nA strange sensation spreads through my entire waist.")
ShowMessageFace("",0,0,2,76)
ShowMessage("The licking, the squeezing...\nThis organ is designed to give the finest pleasures to a man.")
ShowMessageFace("",0,0,2,77)
ShowMessage("\\n<Luka>A-amazing... That feels so good...")
ShowMessageFace("vetala_fc1",1,0,2,78)
ShowMessage("\\n<Vetala>Haha, shoot it out...\nShoot it inside this organ for nursing babies...")
ShowMessageFace("",0,0,2,79)
ShowMessage("\\n<Luka>Aah, d-don't... I'm coming already...!")
ShowMessageFace("",0,0,2,80)
ShowMessage("All of a sudden, the imminent feeling of ejaculation shoots through me. This unknown pleasure is unbearable...")
ShowMessageFace("vetala_fc1",1,0,2,81)
ShowMessage("\\n<Vetala>Coming already?\nWhat a quick shot you are, boy...")
ShowMessageFace("vetala_fc1",1,0,2,82)
ShowMessage("\\n<Vetala>Well then, shoot out a lot...\nGive me lots of your syrupy semen...")
ShowMessageFace("",0,0,2,83)
ShowMessage("\\n<Luka>Ah, aaaah...!!")
RunCommonEvent(104)
PictureDisplay(5,"ev_vetala_hc18",0,0,0,0,100,100,255,0)
RunCommonEvent(105)
ShowMessageFace("",0,0,2,84)
ShowMessage("Semen streams out of me and inside her breast.\nMy penis gets squeezed as I enjoy the sweet feeling of release...")
PictureDisplay(5,"ev_vetala_hc19",0,0,0,0,100,100,255,0)
ShowMessageFace("vetala_fc1",1,0,2,85)
ShowMessage("\\n<Vetala>Haha, you came so fast.\nBut it's not enough...")
ShowMessageFace("",0,0,2,86)
ShowMessage("\\n<Luka>Th-that's, aaah...")
PictureDisplay(5,"ev_vetala_hc20",0,0,0,0,100,100,255,0)
ShowMessageFace("",0,0,2,87)
ShowMessage("The inside of her nipple keeps stimulating my penis.\nAs that pleasure attacks me, I start moving my hips...")
ShowMessageFace("",0,0,2,88)
ShowMessage("\\n<Luka>Aaah... My hips are moving...")
ShowMessageFace("vetala_fc1",1,0,2,89)
ShowMessage("\\n<Vetala>Enjoy it plenty, boy...\nMy nipple, use it as much as you please...")
ShowMessageFace("",0,0,2,90)
ShowMessage("\\n<Luka>Aaah...")
PictureDisplay(5,"ev_vetala_hc21",0,0,0,0,100,100,255,0)
ShowMessageFace("",0,0,2,91)
ShowMessage("My penis moves as if it was searching inside her nipple.\nThe feeling of her inner walls gets tighter the further I go inside...")
PictureDisplay(5,"ev_vetala_hc22",0,0,0,0,100,100,255,0)
ShowMessageFace("",0,0,2,92)
ShowMessage("My entire glans is wrapped by it and squeezed...\nI let out a sweet sigh as I taste this overwhelming pleasure.")
ShowMessageFace("",0,0,2,93)
ShowMessage("\\n<Luka>Nnngh...That feels good...")
ShowMessageFace("vetala_fc1",1,0,2,94)
ShowMessage("\\n<Vetala>Ufufu, you're enjoying big sis' hole.\nWell then... I'll tighten a bit.")
ShowMessageFace("",0,0,2,95)
ShowMessage("\\n<Luka>Ah... Aaaah...!!")
ShowMessageFace("",0,0,2,96)
ShowMessage("Her soft flesh starts squeezing.\nThe pressure feels like a hand is grabbing my penis.")
ShowMessageFace("",0,0,2,97)
ShowMessage("i can't endure this stimulation...")
RunCommonEvent(104)
PictureDisplay(5,"ev_vetala_hc23",0,0,0,0,100,100,255,0)
RunCommonEvent(105)
ShowMessageFace("",0,0,2,98)
ShowMessage("I start releasing my semen inside her nipple.\nIt streams out of my penis, making me feel sweet pleasure every time my penis pulses.")
ShowMessageFace("vetala_fc1",1,0,2,99)
ShowMessage("\\n<Vetala>It's still not enough...\nYou can shoot out more...")
ShowMessageFace("",0,0,2,100)
ShowMessage("\\n<Luka>Th-that's Aaaah...!")
ShowMessageFace("",0,0,2,101)
ShowMessage("Her flesh swells up and massages my penis.\nAlong with that, she squeezes as well...")
ShowMessageFace("",0,0,2,102)
ShowMessage("\\n<Luka>I'm coming again......Aaah!")
RunCommonEvent(104)
PictureDisplay(5,"ev_vetala_hc24",0,0,0,0,100,100,255,0)
RunCommonEvent(105)
ShowMessageFace("",0,0,2,103)
ShowMessage("Just like that, I come again even before finishing my last ejaculation. I keep shooting my semen inside her nipple...")
246(2)
PictureDisplay(5,"ev_vetala_hc25",0,0,0,0,100,100,255,0)
ShowMessageFace("vetala_fc1",1,0,2,104)
ShowMessage("\\n<Vetala>Fufufu...this is great. ♪\nYou shot out a lot, boy.")
ShowMessageFace("",0,0,2,105)
ShowMessage("Vetala laughs as she takes out my penis from her nipple.\nI feel so weak that I'm barely standing...")
ShowMessageFace("vetala_fc1",1,0,2,106)
ShowMessage("\\n<Vetala>If you want to use my breasts again, I'll gladly oblige.\nI'll let you taste it as much as you want... Ufufu.")
ShowMessageFace("",0,0,2,107)
ShowMessage("\\n<Luka>......")
ShowMessageFace("",0,0,2,108)
ShowMessage("In front of the giggling Vetala, I crumble to the floor.\nLike this, she taught me the pleasures of her plump breasts...")
221()
PictureClear(5)
ShowMessageFace("",0,0,2,109)
ShowMessage("......")
242(2)
Wait(120)
241(bytes(0x04,0x08,0x6f,0x3a,0x0d,0x52,0x50,0x47,0x3a,0x3a,0x42,0x47,0x4d,0x08,0x3a,0x0a,0x40,0x6e,0x61,0x6d,0x65,0x49,0x22,0x0c,0x63,0x61,0x73,0x74,0x6c,0x65,0x36,0x06,0x3a,0x06,0x45,0x54,0x3a,0x0c,0x40,0x76,0x6f,0x6c,0x75,0x6d,0x65,0x69,0x69,0x3a,0x0b,0x40,0x70,0x69,0x74,0x63,0x68,0x69,0x69))
0()
