// EVENT 4702
Name "Shadow Girl 2"

If(0,25,1)
 221()
 PictureClear(5)
 PictureClear(6)
 ShowMessageFace("",0,0,2,0)
 ShowMessage("......")
 242(2)
 Wait(120)
 241(bytes(0x04,0x08,0x6f,0x3a,0x0d,0x52,0x50,0x47,0x3a,0x3a,0x42,0x47,0x4d,0x08,0x3a,0x0a,0x40,0x6e,0x61,0x6d,0x65,0x49,0x22,0x0c,0x63,0x61,0x73,0x74,0x6c,0x65,0x36,0x06,0x3a,0x06,0x45,0x54,0x3a,0x0c,0x40,0x76,0x6f,0x6c,0x75,0x6d,0x65,0x69,0x69,0x3a,0x0b,0x40,0x70,0x69,0x74,0x63,0x68,0x69,0x69))
 EndEventProcessing()
 0()
EndIf()
PictureDisplay(5,"80_shadow_st01",0,0,0,0,100,100,255,0)
ShowMessageFace("shadow_fc1",0,0,2,1)
ShowMessage("\\n<Shadow>You want to taste pleasure, I will give it...")
ShowMessageFace("",0,0,2,2)
ShowMessage("\\n<Luka>P-please...")
ShowMessageFace("shadow_fc1",0,0,2,3)
ShowMessage("\\n<Shadow>Let us join and become part of me...\nThat's the best pleasure...")
ShowMessageFace("",0,0,2,4)
ShowMessage("\\n<Luka>W-wait a moment...!\nDon't absorb me...")
PictureDisplay(5,"ev_shadow_h1",0,0,0,0,100,100,255,0)
241(bytes(0x04,0x08,0x6f,0x3a,0x0d,0x52,0x50,0x47,0x3a,0x3a,0x42,0x47,0x4d,0x08,0x3a,0x0a,0x40,0x6e,0x61,0x6d,0x65,0x49,0x22,0x09,0x65,0x72,0x6f,0x31,0x06,0x3a,0x06,0x45,0x54,0x3a,0x0c,0x40,0x76,0x6f,0x6c,0x75,0x6d,0x65,0x69,0x69,0x3a,0x0b,0x40,0x70,0x69,0x74,0x63,0x68,0x69,0x69))
ShowMessageFace("",0,0,2,5)
ShowMessage("Shadow clings to me from behind as I panic.\nHer body presses against me, feeling lukewarm and oddly sticky.")
ShowMessageFace("",0,0,2,6)
ShowMessage("Pressing her body against me, it feels more like I'm sinking into a swamp than being held by a solid being.")
ShowMessageFace("",0,0,2,7)
ShowMessage("Still pressing harder against me, it feels like her body is somehow taking mine into hers.")
ShowMessageFace("",0,0,2,8)
ShowMessage("\\n<Luka>S-stop...Unnngh...")
ShowMessageFace("",0,0,2,9)
ShowMessage("Shadow's arm reaches around and strokes across my chest. Then...another arm reaches from underneath me and gently grabs hold of my penis!")
ShowMessageFace("",0,0,2,10)
ShowMessage("\\n<Luka>Unnngh...")
245(bytes(0x04,0x08,0x6f,0x3a,0x0d,0x52,0x50,0x47,0x3a,0x3a,0x42,0x47,0x53,0x08,0x3a,0x0a,0x40,0x6e,0x61,0x6d,0x65,0x49,0x22,0x17,0x6d,0x6f,0x6e,0x5f,0x68,0x73,0x65,0x61,0x6e,0x31,0x38,0x5f,0x73,0x6c,0x69,0x6d,0x65,0x31,0x06,0x3a,0x06,0x45,0x54,0x3a,0x0c,0x40,0x76,0x6f,0x6c,0x75,0x6d,0x65,0x69,0x55,0x3a,0x0b,0x40,0x70,0x69,0x74,0x63,0x68,0x69,0x69))
ShowMessageFace("",0,0,2,11)
ShowMessage("The lukewarm feeling of her hand causes my body to shiver as the first response. Despite being held, it feels more like sinking into a viscous swamp.")
ShowMessageFace("",0,0,2,12)
ShowMessage("Her hand isn't even moving, either...\nDespite that, a strange pleasure comes from her palm.")
ShowMessageFace("",0,0,2,13)
ShowMessage("\\n<Luka>Ah, unnngh... Let me go...\nPlease let me go...")
ShowMessageFace("shadow_fc1",0,0,2,14)
ShowMessage("\\n<Shadow>Semen... Give me...")
ShowMessageFace("",0,0,2,15)
ShowMessage("Everywhere Shadow touches, I start to lose strength in.\nA sweet feeling of weakness spreads from my back to my whole body...")
ShowMessageFace("",0,0,2,16)
ShowMessage("It's like a strange magical power is eroding my whole body. But it doesn't feel unpleasant, it's rather relaxing...")
ShowMessageFace("",0,0,2,17)
ShowMessage("\\n<Luka>Ah, unnngh...")
ShowMessageFace("",0,0,2,18)
ShowMessage("The mysterious weakness also spreads to my penis.\nThat feeling mixes with dizziness and numbness.")
ShowMessageFace("",0,0,2,19)
ShowMessage("My body gently shakes and twitches as my weakest point is surrounded. As the gentle pleasure fills me, I let my tension go as I give in to the rising desire...")
ShowMessageFace("",0,0,2,20)
ShowMessage("\\n<Luka>What is this...Huaaa...")
ShowMessageFace("",0,0,2,21)
ShowMessage("The instant I let my tension go, the sweet melting pleasure takes over...")
RunCommonEvent(104)
PictureDisplay(5,"ev_shadow_h2",0,0,0,0,100,100,255,0)
RunCommonEvent(105)
ShowMessageFace("",0,0,2,22)
ShowMessage("With a couple twitches, my semen spills out into her black hand. I ejaculated without even being conscious of it...")
ShowMessageFace("",0,0,2,23)
ShowMessage("\\n<Luka>Unnngh...I came...")
ShowMessageFace("",0,0,2,24)
ShowMessage("The feeling of orgasm was far different from any I had felt before. With my penis paralyzed by the sweet feeling, it felt like I peed rather than ejaculated.")
ShowMessageFace("",0,0,2,25)
ShowMessage("The melting pleasure around my crotch makes me feel weak...")
ShowMessageFace("",0,0,2,26)
ShowMessage("\\n<Luka>Unnngh... What...is this...")
245(bytes(0x04,0x08,0x6f,0x3a,0x0d,0x52,0x50,0x47,0x3a,0x3a,0x42,0x47,0x53,0x08,0x3a,0x0a,0x40,0x6e,0x61,0x6d,0x65,0x49,0x22,0x17,0x6d,0x6f,0x6e,0x5f,0x68,0x73,0x65,0x61,0x6e,0x31,0x39,0x5f,0x73,0x6c,0x69,0x6d,0x65,0x32,0x06,0x3a,0x06,0x45,0x54,0x3a,0x0c,0x40,0x76,0x6f,0x6c,0x75,0x6d,0x65,0x69,0x55,0x3a,0x0b,0x40,0x70,0x69,0x74,0x63,0x68,0x69,0x69))
ShowMessageFace("",0,0,2,27)
ShowMessage("I feel like her body behind me stretched.\nThat weakness again spreads gently across my body.")
ShowMessageFace("",0,0,2,28)
ShowMessage("The sensation is accompanied by a sweet ecstasy, but I have an ominous feeling about it...")
ShowMessageFace("",0,0,2,29)
ShowMessage("\\n<Luka>No way, this is how you weaken prey...")
ShowMessageFace("shadow_fc1",0,0,2,30)
ShowMessage("\\n<Shadow>More... More... Semen... Release...")
ShowMessageFace("",0,0,2,31)
ShowMessage("There is no doubt in my mind, the more I ejaculate the more of my body she erodes. And finally, my whole body is covered by Shadow...")
ShowMessageFace("",0,0,2,32)
ShowMessage("\\n<Luka>Ugh... Let me go...!")
ShowMessageFace("",0,0,2,33)
ShowMessage("I struggle for a while but Shadow doesn't release me.")
ShowMessageFace("",0,0,2,34)
ShowMessage("No, Shadow already eroded most of my body.\nI'm not in a position where I can struggle anymore.")
ShowMessageFace("",0,0,2,35)
ShowMessage("Shadow grabs my penis and continues to stroke me with her lukewarm hand.")
ShowMessageFace("",0,0,2,36)
ShowMessage("It feels as if my penis is soaked into a melting sensation.")
ShowMessageFace("",0,0,2,37)
ShowMessage("\\n<Luka>Urhhg...")
ShowMessageFace("",0,0,2,38)
ShowMessage("I clench my teeth and try to endure the pleasure.\nIf I give in to pleasure here, she'll take my body...")
ShowMessageFace("shadow_fc1",0,0,2,39)
ShowMessage("\\n<Shadow>It's pointless to endure... Release it all...")
ShowMessageFace("",0,0,2,40)
ShowMessage("\\n<Luka>Ah, unnngh...")
ShowMessageFace("",0,0,2,41)
ShowMessage("Her hand holding my penis and just squeezing, suddenly starts moving, stimulating my penis. It feels like a gentle rub from the tip to the root.")
ShowMessageFace("",0,0,2,42)
ShowMessage("It's a gentle stimulation that makes men come.\nThis stimulation makes me moan.")
ShowMessageFace("",0,0,2,43)
ShowMessage("\\n<Luka>That feels so good...I can't take it...")
ShowMessageFace("",0,0,2,44)
ShowMessage("I soak in ecstasy as my penis feels more and more of this pleasure. Unable to resist it anymore, I entrust myself to the pleasure...")
RunCommonEvent(104)
PictureDisplay(5,"ev_shadow_h3",0,0,0,0,100,100,255,0)
RunCommonEvent(105)
ShowMessageFace("",0,0,2,45)
ShowMessage("\\n<Luka>Hnnaaa...")
ShowMessageFace("",0,0,2,46)
ShowMessage("I shoot my semen as her hand kneads my penis.\nDespite knowing that the erosion will progress, I couldn't stop myself from coming.")
ShowMessageFace("",0,0,2,47)
ShowMessage("The shadow gently spreads over my body and covers almost all of it. At the same time a strong weakness takes over my body, making me feel like I can't even lift a finger anymore.")
ShowMessageFace("",0,0,2,48)
ShowMessage("\\n<Luka>Stop... Anymore and...")
ShowMessageFace("shadow_fc1",0,0,2,49)
ShowMessage("\\n<Shadow>Come, let out everything...")
ShowMessageFace("",0,0,2,50)
ShowMessage("Without listening to my plea, she continues to mercilessly stimulate my penis with her hand.")
ShowMessageFace("",0,0,2,51)
ShowMessage("Her lukewarm hand, with my penis sinking into it, gently brings me to another unstoppable orgasm...")
RunCommonEvent(104)
PictureDisplay(5,"ev_shadow_h4",0,0,0,0,100,100,255,0)
RunCommonEvent(105)
ShowMessageFace("",0,0,2,52)
ShowMessage("\\n<Luka>Unnngh...\nNo... Help...")
ShowMessageFace("",0,0,2,53)
ShowMessage("Each time I ejaculate, the Shadow Girl erodes more of my body. But still I climax, mixing the pleasure and despair together...")
ShowMessageFace("shadow_fc1",0,0,2,54)
ShowMessage("\\n<Shadow>......")
ShowMessageFace("",0,0,2,55)
ShowMessage("\\n<Luka>Ah... Aaah...")
RunCommonEvent(104)
PictureDisplay(5,"ev_shadow_h5",0,0,0,0,100,100,255,0)
RunCommonEvent(105)
ShowMessageFace("",0,0,2,56)
ShowMessage("After that, I ejaculate over and over...\nAt the end of my repeated ejaculations, my body was totally eroded by Shadow.")
ShowMessageFace("shadow_fc1",0,0,2,57)
ShowMessage("\\n<Shadow>I will not take away your life...\nYou are this world's only hope...")
ShowMessageFace("shadow_fc1",0,0,2,58)
ShowMessage("\\n<Shadow>However, you can enjoy the pleasure for a while...\nIf you wish, I can totally absorb you...")
ShowMessageFace("",0,0,2,59)
ShowMessage("\\n<Luka>Aaah...")
ShowMessageFace("",0,0,2,60)
ShowMessage("My body and mind are soaked in a sweet weakness.\nEven my consciousness was eroded by this sweet pleasure...")
ShowMessageFace("",0,0,2,61)
ShowMessage("For a while, I was taken inside Shadow.\nI was completely one with her...")
221()
PictureClear(5)
246(2)
ShowMessageFace("",0,0,2,62)
ShowMessage("\\n<Luka>Ah...ah...")
ShowMessageFace("",0,0,2,63)
ShowMessage("But in the end she released me, alive and well.\nThus I tasted the forbidden pleasure of becoming one with Shadow...")
ShowMessageFace("",0,0,2,64)
ShowMessage("......")
242(2)
Wait(120)
241(bytes(0x04,0x08,0x6f,0x3a,0x0d,0x52,0x50,0x47,0x3a,0x3a,0x42,0x47,0x4d,0x08,0x3a,0x0a,0x40,0x6e,0x61,0x6d,0x65,0x49,0x22,0x0c,0x63,0x61,0x73,0x74,0x6c,0x65,0x36,0x06,0x3a,0x06,0x45,0x54,0x3a,0x0c,0x40,0x76,0x6f,0x6c,0x75,0x6d,0x65,0x69,0x69,0x3a,0x0b,0x40,0x70,0x69,0x74,0x63,0x68,0x69,0x69))
0()
