DisplayName "Luddite Village"



EVENT   1
 PAGE   1
  250(bytes(0x04,0x08,0x6f,0x3a,0x0c,0x52,0x50,0x47,0x3a,0x3a,0x53,0x45,0x08,0x3a,0x0a,0x40,0x6e,0x61,0x6d,0x65,0x49,0x22,0x09,0x4d,0x6f,0x76,0x65,0x06,0x3a,0x06,0x45,0x54,0x3a,0x0b,0x40,0x70,0x69,0x74,0x63,0x68,0x69,0x69,0x3a,0x0c,0x40,0x76,0x6f,0x6c,0x75,0x6d,0x65,0x69,0x55))
  TeleportPlayer(0,2,257,249,2,0)
  0()



EVENT   2
 PAGE   1
  250(bytes(0x04,0x08,0x6f,0x3a,0x0c,0x52,0x50,0x47,0x3a,0x3a,0x53,0x45,0x08,0x3a,0x0a,0x40,0x6e,0x61,0x6d,0x65,0x49,0x22,0x09,0x4d,0x6f,0x76,0x65,0x06,0x3a,0x06,0x45,0x54,0x3a,0x0b,0x40,0x70,0x69,0x74,0x63,0x68,0x69,0x69,0x3a,0x0c,0x40,0x76,0x6f,0x6c,0x75,0x6d,0x65,0x69,0x55))
  TeleportPlayer(0,2,257,249,2,0)
  0()



EVENT   3
 PAGE   1
  281(1)
  250(bytes(0x04,0x08,0x6f,0x3a,0x0c,0x52,0x50,0x47,0x3a,0x3a,0x53,0x45,0x08,0x3a,0x0a,0x40,0x6e,0x61,0x6d,0x65,0x49,0x22,0x09,0x4d,0x6f,0x76,0x65,0x06,0x3a,0x06,0x45,0x54,0x3a,0x0b,0x40,0x70,0x69,0x74,0x63,0x68,0x69,0x69,0x3a,0x0c,0x40,0x76,0x6f,0x6c,0x75,0x6d,0x65,0x69,0x55))
  TeleportPlayer(0,220,55,31,4,0)
  0()



EVENT   4
 PAGE   1
  281(1)
  250(bytes(0x04,0x08,0x6f,0x3a,0x0c,0x52,0x50,0x47,0x3a,0x3a,0x53,0x45,0x08,0x3a,0x0a,0x40,0x6e,0x61,0x6d,0x65,0x49,0x22,0x09,0x4d,0x6f,0x76,0x65,0x06,0x3a,0x06,0x45,0x54,0x3a,0x0b,0x40,0x70,0x69,0x74,0x63,0x68,0x69,0x69,0x3a,0x0c,0x40,0x76,0x6f,0x6c,0x75,0x6d,0x65,0x69,0x55))
  TeleportPlayer(0,220,55,30,4,0)
  0()



EVENT   5
 PAGE   1
  250(bytes(0x04,0x08,0x6f,0x3a,0x0c,0x52,0x50,0x47,0x3a,0x3a,0x53,0x45,0x08,0x3a,0x0a,0x40,0x6e,0x61,0x6d,0x65,0x49,0x22,0x09,0x4d,0x6f,0x76,0x65,0x06,0x3a,0x06,0x45,0x54,0x3a,0x0b,0x40,0x70,0x69,0x74,0x63,0x68,0x69,0x69,0x3a,0x0c,0x40,0x76,0x6f,0x6c,0x75,0x6d,0x65,0x69,0x55))
  TeleportPlayer(0,622,7,21,0,0)
  0()



EVENT   6
 PAGE   1
  250(bytes(0x04,0x08,0x6f,0x3a,0x0c,0x52,0x50,0x47,0x3a,0x3a,0x53,0x45,0x08,0x3a,0x0a,0x40,0x6e,0x61,0x6d,0x65,0x49,0x22,0x09,0x4d,0x6f,0x76,0x65,0x06,0x3a,0x06,0x45,0x54,0x3a,0x0b,0x40,0x70,0x69,0x74,0x63,0x68,0x69,0x69,0x3a,0x0c,0x40,0x76,0x6f,0x6c,0x75,0x6d,0x65,0x69,0x55))
  TeleportPlayer(0,622,59,17,0,0)
  0()



EVENT   7
 PAGE   1
  250(bytes(0x04,0x08,0x6f,0x3a,0x0c,0x52,0x50,0x47,0x3a,0x3a,0x53,0x45,0x08,0x3a,0x0a,0x40,0x6e,0x61,0x6d,0x65,0x49,0x22,0x09,0x4d,0x6f,0x76,0x65,0x06,0x3a,0x06,0x45,0x54,0x3a,0x0b,0x40,0x70,0x69,0x74,0x63,0x68,0x69,0x69,0x3a,0x0c,0x40,0x76,0x6f,0x6c,0x75,0x6d,0x65,0x69,0x55))
  TeleportPlayer(0,622,85,16,0,0)
  0()



EVENT   8
 PAGE   1
  250(bytes(0x04,0x08,0x6f,0x3a,0x0c,0x52,0x50,0x47,0x3a,0x3a,0x53,0x45,0x08,0x3a,0x0a,0x40,0x6e,0x61,0x6d,0x65,0x49,0x22,0x09,0x4d,0x6f,0x76,0x65,0x06,0x3a,0x06,0x45,0x54,0x3a,0x0b,0x40,0x70,0x69,0x74,0x63,0x68,0x69,0x69,0x3a,0x0c,0x40,0x76,0x6f,0x6c,0x75,0x6d,0x65,0x69,0x55))
  TeleportPlayer(0,622,41,42,0,0)
  0()



EVENT   9
 PAGE   1
  250(bytes(0x04,0x08,0x6f,0x3a,0x0c,0x52,0x50,0x47,0x3a,0x3a,0x53,0x45,0x08,0x3a,0x0a,0x40,0x6e,0x61,0x6d,0x65,0x49,0x22,0x09,0x4d,0x6f,0x76,0x65,0x06,0x3a,0x06,0x45,0x54,0x3a,0x0b,0x40,0x70,0x69,0x74,0x63,0x68,0x69,0x69,0x3a,0x0c,0x40,0x76,0x6f,0x6c,0x75,0x6d,0x65,0x69,0x55))
  TeleportPlayer(0,622,7,40,0,0)
  If(4,163,0)
   If(2,"A",1)
    ChangeSelfSwitch("A",0)
    RunCommonEvent(323)
    0()
   EndIf()
   0()
  EndIf()
  0()



EVENT   10
 PAGE   1
  250(bytes(0x04,0x08,0x6f,0x3a,0x0c,0x52,0x50,0x47,0x3a,0x3a,0x53,0x45,0x08,0x3a,0x0a,0x40,0x6e,0x61,0x6d,0x65,0x49,0x22,0x09,0x4d,0x6f,0x76,0x65,0x06,0x3a,0x06,0x45,0x54,0x3a,0x0b,0x40,0x70,0x69,0x74,0x63,0x68,0x69,0x69,0x3a,0x0c,0x40,0x76,0x6f,0x6c,0x75,0x6d,0x65,0x69,0x55))
  TeleportPlayer(0,622,27,38,0,0)
  If(4,163,0)
   If(2,"A",1)
    ChangeSelfSwitch("A",0)
    RunCommonEvent(323)
    0()
   EndIf()
   0()
  EndIf()
  0()



EVENT   11
 PAGE   1
  250(bytes(0x04,0x08,0x6f,0x3a,0x0c,0x52,0x50,0x47,0x3a,0x3a,0x53,0x45,0x08,0x3a,0x0a,0x40,0x6e,0x61,0x6d,0x65,0x49,0x22,0x09,0x4d,0x6f,0x76,0x65,0x06,0x3a,0x06,0x45,0x54,0x3a,0x0b,0x40,0x70,0x69,0x74,0x63,0x68,0x69,0x69,0x3a,0x0c,0x40,0x76,0x6f,0x6c,0x75,0x6d,0x65,0x69,0x55))
  TeleportPlayer(0,622,14,67,0,0)
  0()



EVENT   12
 PAGE   1
  250(bytes(0x04,0x08,0x6f,0x3a,0x0c,0x52,0x50,0x47,0x3a,0x3a,0x53,0x45,0x08,0x3a,0x0a,0x40,0x6e,0x61,0x6d,0x65,0x49,0x22,0x09,0x4d,0x6f,0x76,0x65,0x06,0x3a,0x06,0x45,0x54,0x3a,0x0b,0x40,0x70,0x69,0x74,0x63,0x68,0x69,0x69,0x3a,0x0c,0x40,0x76,0x6f,0x6c,0x75,0x6d,0x65,0x69,0x55))
  TeleportPlayer(0,622,41,62,0,0)
  If(4,163,0)
   If(2,"A",1)
    ChangeSelfSwitch("A",0)
    RunCommonEvent(323)
    0()
   EndIf()
   0()
  EndIf()
  0()



EVENT   13
 PAGE   1
  250(bytes(0x04,0x08,0x6f,0x3a,0x0c,0x52,0x50,0x47,0x3a,0x3a,0x53,0x45,0x08,0x3a,0x0a,0x40,0x6e,0x61,0x6d,0x65,0x49,0x22,0x09,0x4d,0x6f,0x76,0x65,0x06,0x3a,0x06,0x45,0x54,0x3a,0x0b,0x40,0x70,0x69,0x74,0x63,0x68,0x69,0x69,0x3a,0x0c,0x40,0x76,0x6f,0x6c,0x75,0x6d,0x65,0x69,0x55))
  TeleportPlayer(0,622,67,62,0,0)
  If(4,163,0)
   If(2,"A",1)
    ChangeSelfSwitch("A",0)
    RunCommonEvent(323)
    0()
   EndIf()
   0()
  EndIf()
  0()



EVENT   14
 PAGE   1
  0()
 PAGE   2
  // condition: variable 1001 >= 26
  0()



EVENT   15
 PAGE   1
  0()
 PAGE   2
  // condition: variable 1001 >= 26
  0()



EVENT   16
 PAGE   1
  0()
 PAGE   2
  // condition: variable 1001 >= 26
  0()



EVENT   17
 PAGE   1
  0()
 PAGE   2
  // condition: variable 1001 >= 26
  0()



EVENT   18
 PAGE   1
  0()
 PAGE   2
  // condition: variable 1001 >= 26
  0()



EVENT   19
 PAGE   1
  0()
 PAGE   2
  // condition: variable 1001 >= 26
  0()



EVENT   20
 PAGE   1
  0()
 PAGE   2
  // condition: variable 1001 >= 26
  0()



EVENT   21
 PAGE   1
  0()
 PAGE   2
  // condition: variable 1001 >= 26
  0()



EVENT   22
 PAGE   1
  0()
 PAGE   2
  // condition: variable 1001 >= 26
  0()



EVENT   23
 PAGE   1
  0()
 PAGE   2
  // condition: variable 1001 >= 26
  0()



EVENT   24
 PAGE   1
  0()
 PAGE   2
  // condition: variable 1001 >= 26
  0()



EVENT   25
 PAGE   1
  0()
 PAGE   2
  // condition: variable 1001 >= 26
  0()



EVENT   26
 PAGE   1
  0()
 PAGE   2
  // condition: variable 1001 >= 26
  0()



EVENT   27
 PAGE   1
  0()
 PAGE   2
  // condition: variable 1001 >= 26
  0()



EVENT   28
 PAGE   1
  0()
 PAGE   2
  // condition: variable 1001 >= 26
  0()



EVENT   29
 PAGE   1
  0()
 PAGE   2
  // condition: variable 1001 >= 26
  0()



EVENT   30
 PAGE   1
  0()
 PAGE   2
  // condition: variable 1001 >= 26
  0()



EVENT   31
 PAGE   1
  0()
 PAGE   2
  // condition: variable 1001 >= 26
  0()



EVENT   32
 PAGE   1
  0()
 PAGE   2
  // condition: variable 1001 >= 26
  0()



EVENT   33
 PAGE   1
  0()
 PAGE   2
  // condition: variable 1001 >= 26
  0()



EVENT   34
 PAGE   1
  0()
 PAGE   2
  // condition: variable 1001 >= 26
  0()



EVENT   35
 PAGE   1
  0()
 PAGE   2
  // condition: variable 1001 >= 26
  0()



EVENT   36
 PAGE   1
  0()
 PAGE   2
  // condition: variable 1001 >= 26
  0()



EVENT   37
 PAGE   1
  0()
 PAGE   2
  // condition: variable 1001 >= 26
  0()



EVENT   38
 PAGE   1
  0()
 PAGE   2
  // condition: variable 1001 >= 26
  0()



EVENT   39
 PAGE   1
  0()
 PAGE   2
  // condition: variable 1001 >= 26
  0()



EVENT   40
 PAGE   1
  0()
 PAGE   2
  // condition: variable 1001 >= 26
  0()



EVENT   41
 PAGE   1
  0()
 PAGE   2
  // condition: variable 1001 >= 26
  0()



EVENT   42
 PAGE   1
  0()
 PAGE   2
  // condition: variable 1001 >= 26
  0()



EVENT   43
 PAGE   1
  0()
 PAGE   2
  // condition: variable 1001 >= 26
  0()



EVENT   44
 PAGE   1
  0()
 PAGE   2
  // condition: variable 1001 >= 26
  0()



EVENT   45
 PAGE   1
  0()
 PAGE   2
  // condition: variable 1001 >= 26
  0()



EVENT   46
 PAGE   1
  0()
 PAGE   2
  // condition: variable 1001 >= 26
  0()



EVENT   47
 PAGE   1
  0()
 PAGE   2
  // condition: variable 1001 >= 26
  0()



EVENT   48
 PAGE   1
  0()
 PAGE   2
  // condition: variable 1001 >= 26
  0()



EVENT   49
 PAGE   1
  0()
 PAGE   2
  // condition: variable 1001 >= 26
  0()



EVENT   50
 PAGE   1
  0()
 PAGE   2
  // condition: variable 1001 >= 26
  0()



EVENT   51
 PAGE   1
  0()
 PAGE   2
  // condition: variable 1001 >= 26
  0()



EVENT   52
 PAGE   1
  0()
 PAGE   2
  // condition: variable 1001 >= 26
  0()



EVENT   53
 PAGE   1
  ShowMessageFace("",0,0,2,1)
  ShowMessage("\\n<Priest>There's too many who died here. Burials are taking too much time. At least since they were mummified, we don't have to worry about them rotting before we can give them a proper burial.")
  355("actor_label_jump")
  EndEventProcessing()
  DefineLabel("531")
  ShowMessageFace("saniria_fc2",0,0,2,2)
  ShowMessage("\\n<King of San Ilia>Thank you for your hard work. It seems more priests are required.")
  EndEventProcessing()
  0()
 PAGE   2
  // condition: variable 1001 >= 26
  ShowMessageFace("",0,0,2,1)
  ShowMessage("\\n<Youth>I came here to bury my father.\nHe abandoned his family and moved here, then...")
  ShowMessageFace("",0,0,2,2)
  ShowMessage("\\n<Youth>.........")
  355("actor_label_jump")
  EndEventProcessing()
  DefineLabel("382")
  ShowMessageFace("morrigan_fc1",2,0,2,3)
  ShowMessage("\\n<Morrigan>Everyone meets the same fate sooner or later.\nWe won't be exceptions, either...")
  EndEventProcessing()
  0()



EVENT   54
 PAGE   1
  ShowMessageFace("",0,0,2,1)
  ShowMessage("\\n<Priest>We were dispatched from San Ilia. Civilians are forbidden from entering now.")
  ShowMessageFace("",0,0,2,2)
  ShowMessage("\\n<Priest>Excluding you of course. Please, come in.")
  0()
 PAGE   2
  // condition: variable 1001 >= 26
  0()



EVENT   55
 PAGE   1
  ShowMessageFace("",0,0,2,1)
  ShowMessage("\\n<Priest>Even in death, their expressions look clearly delighted. I wonder, just how much pleasure did they taste.")
  0()
 PAGE   2
  // condition: variable 1001 >= 26
  0()



EVENT   56
 PAGE   1
  ShowMessageFace("",0,0,2,1)
  ShowMessage("\\n<Priest>Ahh... o' Goddess.")
  355("actor_label_jump")
  EndEventProcessing()
  DefineLabel("529")
  ShowMessageFace("sara_fc1",4,0,2,2)
  ShowMessage("\\n<Sara>If only we'd arrived sooner.")
  EndEventProcessing()
  0()
 PAGE   2
  // condition: variable 1001 >= 26
  0()



EVENT   57
 PAGE   1
  ShowMessageFace("",0,0,2,1)
  ShowMessage("\\n<Priest>I wonder, how long will it take before we bury all the corpses?")
  355("actor_label_jump")
  EndEventProcessing()
  DefineLabel("531")
  ShowMessageFace("saniria_fc2",0,0,2,2)
  ShowMessage("\\n<King of San Ilia>It was a sudden calamity, more priests will arrive as soon as possible.")
  EndEventProcessing()
  0()
 PAGE   2
  // condition: variable 1001 >= 26
  0()



EVENT   58
 PAGE   1
  281(1)
  250(bytes(0x04,0x08,0x6f,0x3a,0x0c,0x52,0x50,0x47,0x3a,0x3a,0x53,0x45,0x08,0x3a,0x0a,0x40,0x6e,0x61,0x6d,0x65,0x49,0x22,0x09,0x4d,0x6f,0x76,0x65,0x06,0x3a,0x06,0x45,0x54,0x3a,0x0b,0x40,0x70,0x69,0x74,0x63,0x68,0x69,0x69,0x3a,0x0c,0x40,0x76,0x6f,0x6c,0x75,0x6d,0x65,0x69,0x55))
  TeleportPlayer(0,220,55,32,4,0)
  0()