﻿
DisplayName "Grand Noah"



EVENT   1
 PAGE   1
  If(1,1052,0,0,0)
   205(-1,bytes(0x04,0x08,0x6f,0x3a,0x13,0x52,0x50,0x47,0x3a,0x3a,0x4d,0x6f,0x76,0x65,0x52,0x6f,0x75,0x74,0x65,0x09,0x3a,0x0c,0x40,0x72,0x65,0x70,0x65,0x61,0x74,0x46,0x3a,0x0f,0x40,0x73,0x6b,0x69,0x70,0x70,0x61,0x62,0x6c,0x65,0x46,0x3a,0x0a,0x40,0x77,0x61,0x69,0x74,0x54,0x3a,0x0a,0x40,0x6c,0x69,0x73,0x74,0x5b,0x07,0x6f,0x3a,0x15,0x52,0x50,0x47,0x3a,0x3a,0x4d,0x6f,0x76,0x65,0x43,0x6f,0x6d,0x6d,0x61,0x6e,0x64,0x07,0x3a,0x0a,0x40,0x63,0x6f,0x64,0x65,0x69,0x16,0x3a,0x10,0x40,0x70,0x61,0x72,0x61,0x6d,0x65,0x74,0x65,0x72,0x73,0x5b,0x00,0x6f,0x3b,0x0a,0x07,0x3b,0x0b,0x69,0x00,0x3b,0x0c,0x5b,0x00))
   ShowMessageFace("",0,0,2,1)
   ShowMessage("\\n<Guard A>Halt, travelers.")
   ShowMessageFace("",0,0,2,2)
   ShowMessage("\\n<Guard B>Entry to the royal palace is under wartime restrictions right now. Tours are forbidden, and audiences with Her Majesty are not being granted.")
   If(1,1028,0,8,1)
    ShowMessageFace("sara_fc1",4,0,2,3)
    ShowMessage("\\n<Sara>I didn't want to do this, but the situation being as it is...")
    ShowMessageFace("sara_fc1",2,0,2,4)
    ShowMessage("\\n<Sara>I am Sara, Former Queen of Sabasa. I have traveled here under complete secrecy to speak with Her Majesty, the Queen.")
    ShowMessageFace("",0,0,2,5)
    ShowMessage("\\n<Guard A>Huh? Sara, the Former Queen of Sabasa?\nPardon me, but may I see your royal emblem?")
    ShowMessageFace("",0,0,2,6)
    ShowMessage("\\n<Guard B>...this is definitely genuine!\nForgive me. Please, this way.")
    ChangeVariable(1052,1052,0,0,1)
    0()
   Else()
    205(-1,bytes(0x04,0x08,0x6f,0x3a,0x13,0x52,0x50,0x47,0x3a,0x3a,0x4d,0x6f,0x76,0x65,0x52,0x6f,0x75,0x74,0x65,0x09,0x3a,0x0c,0x40,0x72,0x65,0x70,0x65,0x61,0x74,0x46,0x3a,0x0f,0x40,0x73,0x6b,0x69,0x70,0x70,0x61,0x62,0x6c,0x65,0x46,0x3a,0x0a,0x40,0x77,0x61,0x69,0x74,0x54,0x3a,0x0a,0x40,0x6c,0x69,0x73,0x74,0x5b,0x07,0x6f,0x3a,0x15,0x52,0x50,0x47,0x3a,0x3a,0x4d,0x6f,0x76,0x65,0x43,0x6f,0x6d,0x6d,0x61,0x6e,0x64,0x07,0x3a,0x0a,0x40,0x63,0x6f,0x64,0x65,0x69,0x06,0x3a,0x10,0x40,0x70,0x61,0x72,0x61,0x6d,0x65,0x74,0x65,0x72,0x73,0x5b,0x00,0x6f,0x3b,0x0a,0x07,0x3b,0x0b,0x69,0x00,0x3b,0x0c,0x5b,0x00))
    ShowMessageFace("ruka_fc1",0,0,2,7)
    ShowMessage("\\n<Luka>It doesn't look like we'll be able to get an audience with the queen any time soon...")
    If(0,4,0)
     ShowMessageFace("alice_fc5",0,0,2,8)
     ShowMessage("\\n<Alice>We can't get an audience if he just sees us as travelers. Perhaps we can borrow the services of a noble from another country...")
     0()
    EndIf()
    If(0,5,0)
     ShowMessageFace("iriasu_fc4",2,0,2,9)
     ShowMessage("\\n<Ilias>Turning me away at the gates is the pinnacle of rudeness. Let's bring a noble from another country and make an appeal to authority.")
     0()
    EndIf()
    EndEventProcessing()
    0()
   EndIf()
   0()
  EndIf()
  281(0)
  250(bytes(0x04,0x08,0x6f,0x3a,0x0c,0x52,0x50,0x47,0x3a,0x3a,0x53,0x45,0x08,0x3a,0x0a,0x40,0x6e,0x61,0x6d,0x65,0x49,0x22,0x0a,0x4f,0x70,0x65,0x6e,0x31,0x06,0x3a,0x06,0x45,0x54,0x3a,0x0b,0x40,0x70,0x69,0x74,0x63,0x68,0x69,0x69,0x3a,0x0c,0x40,0x76,0x6f,0x6c,0x75,0x6d,0x65,0x69,0x55))
  205(0,bytes(0x04,0x08,0x6f,0x3a,0x13,0x52,0x50,0x47,0x3a,0x3a,0x4d,0x6f,0x76,0x65,0x52,0x6f,0x75,0x74,0x65,0x09,0x3a,0x0c,0x40,0x72,0x65,0x70,0x65,0x61,0x74,0x46,0x3a,0x0f,0x40,0x73,0x6b,0x69,0x70,0x70,0x61,0x62,0x6c,0x65,0x46,0x3a,0x0a,0x40,0x77,0x61,0x69,0x74,0x54,0x3a,0x0a,0x40,0x6c,0x69,0x73,0x74,0x5b,0x0c,0x6f,0x3a,0x15,0x52,0x50,0x47,0x3a,0x3a,0x4d,0x6f,0x76,0x65,0x43,0x6f,0x6d,0x6d,0x61,0x6e,0x64,0x07,0x3a,0x0a,0x40,0x63,0x6f,0x64,0x65,0x69,0x16,0x3a,0x10,0x40,0x70,0x61,0x72,0x61,0x6d,0x65,0x74,0x65,0x72,0x73,0x5b,0x00,0x6f,0x3b,0x0a,0x07,0x3b,0x0b,0x69,0x14,0x3b,0x0c,0x5b,0x06,0x69,0x08,0x6f,0x3b,0x0a,0x07,0x3b,0x0b,0x69,0x17,0x3b,0x0c,0x5b,0x00,0x6f,0x3b,0x0a,0x07,0x3b,0x0b,0x69,0x14,0x3b,0x0c,0x5b,0x06,0x69,0x08,0x6f,0x3b,0x0a,0x07,0x3b,0x0b,0x69,0x18,0x3b,0x0c,0x5b,0x00,0x6f,0x3b,0x0a,0x07,0x3b,0x0b,0x69,0x2a,0x3b,0x0c,0x5b,0x00,0x6f,0x3b,0x0a,0x07,0x3b,0x0b,0x69,0x00,0x3b,0x0c,0x5b,0x00))
  205(-1,bytes(0x04,0x08,0x6f,0x3a,0x13,0x52,0x50,0x47,0x3a,0x3a,0x4d,0x6f,0x76,0x65,0x52,0x6f,0x75,0x74,0x65,0x09,0x3a,0x0c,0x40,0x72,0x65,0x70,0x65,0x61,0x74,0x46,0x3a,0x0f,0x40,0x73,0x6b,0x69,0x70,0x70,0x61,0x62,0x6c,0x65,0x54,0x3a,0x0a,0x40,0x77,0x61,0x69,0x74,0x54,0x3a,0x0a,0x40,0x6c,0x69,0x73,0x74,0x5b,0x07,0x6f,0x3a,0x15,0x52,0x50,0x47,0x3a,0x3a,0x4d,0x6f,0x76,0x65,0x43,0x6f,0x6d,0x6d,0x61,0x6e,0x64,0x07,0x3a,0x0a,0x40,0x63,0x6f,0x64,0x65,0x69,0x11,0x3a,0x10,0x40,0x70,0x61,0x72,0x61,0x6d,0x65,0x74,0x65,0x72,0x73,0x5b,0x00,0x6f,0x3b,0x0a,0x07,0x3b,0x0b,0x69,0x00,0x3b,0x0c,0x5b,0x00))
  250(bytes(0x04,0x08,0x6f,0x3a,0x0c,0x52,0x50,0x47,0x3a,0x3a,0x53,0x45,0x08,0x3a,0x0a,0x40,0x6e,0x61,0x6d,0x65,0x49,0x22,0x09,0x4d,0x6f,0x76,0x65,0x06,0x3a,0x06,0x45,0x54,0x3a,0x0b,0x40,0x70,0x69,0x74,0x63,0x68,0x69,0x69,0x3a,0x0c,0x40,0x76,0x6f,0x6c,0x75,0x6d,0x65,0x69,0x55))
  TeleportPlayer(0,382,39,50,0,0)
  If(4,533,0)
   ShowMessageFace("grandnoa_fc1",3,0,2,10)
   ShowMessage("\\n<Medal Queen>I just remembered I have urgent business to attend to. Be back soon...")
   ChangePartyMember(533,1,0)
   ShowMessageFace("",0,0,2,11)
   ShowMessage("The Queen of Grand Noah temporarily left the party!")
   0()
  EndIf()
  0()



EVENT   2
 PAGE   1
  0()



EVENT   3
 PAGE   1
  0()



EVENT   4
 PAGE   1
  0()



EVENT   5
 PAGE   1
  0()



EVENT   6
 PAGE   1
  0()



EVENT   7
 PAGE   1
  0()



EVENT   8
 PAGE   1
  0()



EVENT   9
 PAGE   1
  0()



EVENT   10
 PAGE   1
  0()



EVENT   11
 PAGE   1
  0()



EVENT   12
 PAGE   1
  0()



EVENT   13
 PAGE   1
  0()



EVENT   14
 PAGE   1
  0()



EVENT   15
 PAGE   1
  0()



EVENT   16
 PAGE   1
  0()



EVENT   17
 PAGE   1
  0()



EVENT   18
 PAGE   1
  ShowMessageFace("",0,0,2,1)
  ShowMessage("The door is firmly shut.")
  0()



EVENT   19
 PAGE   1
  ShowMessageFace("mino_fc1",0,0,2,1)
  ShowMessage("\\n<Minotauros>Minotauros Strike, oraaa!")
  ShowMessageFace("amazoneself_fc1",0,0,2,2)
  ShowMessage("\\n<Elf Amazoness>There's no shortage of opponents!")
  0()



EVENT   20
 PAGE   1
  ShowMessageFace("",0,0,2,1)
  ShowMessage("The door is firmly shut.")
  0()



EVENT   21
 PAGE   1
  ShowMessageFace("",0,0,2,1)
  ShowMessage("The door is firmly shut.")
  0()



EVENT   22
 PAGE   1
  ShowMessageFace("",0,0,2,1)
  ShowMessage("The door is firmly shut.")
  0()



EVENT   23
 PAGE   1
  ShowMessageFace("",0,0,2,1)
  ShowMessage("The door is firmly shut.")
  0()



EVENT   24
 PAGE   1
  ShowMessageFace("",0,0,2,1)
  ShowMessage("The door is firmly shut.")
  0()



EVENT   25
 PAGE   1
  ShowMessageFace("",0,0,2,1)
  ShowMessage("The door is firmly shut.")
  0()



EVENT   26
 PAGE   1
  ShowMessageFace("",0,0,2,1)
  ShowMessage("The door is firmly shut.")
  0()



EVENT   27
 PAGE   1
  ShowMessageFace("",0,0,2,1)
  ShowMessage("The door is firmly shut.")
  0()



EVENT   28
 PAGE   1
  ShowMessageFace("",0,0,2,1)
  ShowMessage("\\n<Soldier>Will this city fall into the hands of the Monster Lord...?")
  355("actor_label_jump")
  EndEventProcessing()
  DefineLabel("45")
  ShowMessageFace("alicetromeria_fc1",4,0,2,2)
  ShowMessage("\\n<Alicetroemeria>It's all right, we'll help you...")
  EndEventProcessing()
  0()



EVENT   29
 PAGE   1
  250(bytes(0x04,0x08,0x6f,0x3a,0x0c,0x52,0x50,0x47,0x3a,0x3a,0x53,0x45,0x08,0x3a,0x0a,0x40,0x6e,0x61,0x6d,0x65,0x49,0x22,0x09,0x4d,0x6f,0x76,0x65,0x06,0x3a,0x06,0x45,0x54,0x3a,0x0b,0x40,0x70,0x69,0x74,0x63,0x68,0x69,0x69,0x3a,0x0c,0x40,0x76,0x6f,0x6c,0x75,0x6d,0x65,0x69,0x55))
  TeleportPlayer(0,2,329,186,2,0)
  0()



EVENT   30
 PAGE   1
  250(bytes(0x04,0x08,0x6f,0x3a,0x0c,0x52,0x50,0x47,0x3a,0x3a,0x53,0x45,0x08,0x3a,0x0a,0x40,0x6e,0x61,0x6d,0x65,0x49,0x22,0x09,0x4d,0x6f,0x76,0x65,0x06,0x3a,0x06,0x45,0x54,0x3a,0x0b,0x40,0x70,0x69,0x74,0x63,0x68,0x69,0x69,0x3a,0x0c,0x40,0x76,0x6f,0x6c,0x75,0x6d,0x65,0x69,0x55))
  TeleportPlayer(0,2,329,186,2,0)
  0()



EVENT   31
 PAGE   1
  0()



EVENT   32
 PAGE   1
  ShowMessageFace("",0,0,2,1)
  ShowMessage("\\n<Soldier>We won't let you step into the Colosseum!")
  ShowMessageFace("",0,0,2,2)
  ShowMessage("\\n<Colosseum Fighter>We must protect our beloved Colosseum!")
  ShowMessageFace("",0,0,2,3)
  ShowMessage("There is a great melee in front of the Colosseum!\nIt doesn't look like we can get through...")
  0()



EVENT   33
 PAGE   1
  0()



EVENT   34
 PAGE   1
  0()



EVENT   35
 PAGE   1
  0()



EVENT   36
 PAGE   1
  ShowMessageFace("tatunoko_k_fc1",1,0,2,1)
  ShowMessage("\\n<Seahorse Marine>We marines are well-versed in the thirty-six strategies of war... This is our deadly arrowhead formation!")
  ShowMessageFace("elf_fc1",2,0,2,2)
  ShowMessage("\\n<Elf>Kyaaaah!!")
  If(4,203,0)
   ShowMessageFace("tatunoko_k_fc1",1,0,2,3)
   ShowMessage("\\n<Tatsuko>Do your best, everyone!")
   0()
  EndIf()
  If(4,204,0)
   ShowMessageFace("umiusi_k_fc1",0,0,2,4)
   ShowMessage("\\n<Stacy>Keep up the fight!")
   0()
  EndIf()
  0()



EVENT   37
 PAGE   1
  0()



EVENT   38
 PAGE   1
  0()



EVENT   39
 PAGE   1
  0()



EVENT   40
 PAGE   1
  ShowMessageFace("tatunoko_k_fc1",1,0,2,1)
  ShowMessage("\\n<Seahorse Marine>We marines are well-versed in the thirty-six strategies of war... This is our deadly arrowhead formation!")
  ShowMessageFace("elf_fc1",2,0,2,2)
  ShowMessage("\\n<Elf>Kyaaaah!!")
  If(4,203,0)
   ShowMessageFace("tatunoko_k_fc1",1,0,2,3)
   ShowMessage("\\n<Tatsuko>Do your best, everyone!")
   0()
  EndIf()
  If(4,204,0)
   ShowMessageFace("umiusi_k_fc1",0,0,2,4)
   ShowMessage("\\n<Stacy>Keep up the fight!")
   0()
  EndIf()
  0()



EVENT   41
 PAGE   1
  0()



EVENT   42
 PAGE   1
  0()



EVENT   43
 PAGE   1
  PictureDisplay(5,"80_gigantic_st01",0,0,0,0,100,100,255,0)
  ShowMessageFace("gigantic_fc1",0,0,2,1)
  ShowMessage("\\n<Gigantic Girl>Ugaaah! Rampaaage!")
  ShowMessageFace("",0,0,2,2)
  ShowMessage("\\n<Soldier A>Uwaaaa...!!")
  ShowMessageFace("",0,0,2,3)
  ShowMessage("\\n<Soldier B>How can we stop someone like that...?!")
  ShowMessageFace("ruka_fc1",0,0,2,4)
  ShowMessage("\\n<Luka>Get back! I'll fight her!")
  If(4,218,0)
   ShowMessageFace("nyumaou_fc1",0,0,2,5)
   ShowMessage("\\n<Cow Demon Queen>Hmph, she's not as great as she appears!\nForm and softness are what's essential!")
   0()
  EndIf()
  PictureClear(5)
  Battle(0,783,false,false)
  ChangeSwitch(2217,2217,0)
  ShowMessageFace("",0,0,2,6)
  ShowMessage("\\n<Soldier A>In-incredible... You beat that giant...")
  ShowMessageFace("",0,0,2,7)
  ShowMessage("\\n<Soldier B>I know you, you're the boy hero Luka!\nThe hero who led us to victory in the war against Grangold!")
  ShowMessageFace("",0,0,2,8)
  ShowMessage("\\n<Soldier C>Thank you so much!\nPlease accept this!")
  205(-1,bytes(0x04,0x08,0x6f,0x3a,0x13,0x52,0x50,0x47,0x3a,0x3a,0x4d,0x6f,0x76,0x65,0x52,0x6f,0x75,0x74,0x65,0x09,0x3a,0x0c,0x40,0x72,0x65,0x70,0x65,0x61,0x74,0x46,0x3a,0x0f,0x40,0x73,0x6b,0x69,0x70,0x70,0x61,0x62,0x6c,0x65,0x46,0x3a,0x0a,0x40,0x77,0x61,0x69,0x74,0x54,0x3a,0x0a,0x40,0x6c,0x69,0x73,0x74,0x5b,0x07,0x6f,0x3a,0x15,0x52,0x50,0x47,0x3a,0x3a,0x4d,0x6f,0x76,0x65,0x43,0x6f,0x6d,0x6d,0x61,0x6e,0x64,0x07,0x3a,0x0a,0x40,0x63,0x6f,0x64,0x65,0x69,0x15,0x3a,0x10,0x40,0x70,0x61,0x72,0x61,0x6d,0x65,0x74,0x65,0x72,0x73,0x5b,0x00,0x6f,0x3b,0x0a,0x07,0x3b,0x0b,0x69,0x00,0x3b,0x0c,0x5b,0x00))
  250(bytes(0x04,0x08,0x6f,0x3a,0x0c,0x52,0x50,0x47,0x3a,0x3a,0x53,0x45,0x08,0x3a,0x0a,0x40,0x6e,0x61,0x6d,0x65,0x49,0x22,0x0a,0x49,0x74,0x65,0x6d,0x31,0x06,0x3a,0x06,0x45,0x54,0x3a,0x0b,0x40,0x70,0x69,0x74,0x63,0x68,0x69,0x69,0x3a,0x0c,0x40,0x76,0x6f,0x6c,0x75,0x6d,0x65,0x69,0x55))
  ChangeInventory_Item(26,0,0,1)
  ShowMessageFace("",0,0,2,9)
  ShowMessage("\\n<Soldier A>Now then, let's go defend the front!")
  205(48,bytes(0x04,0x08,0x6f,0x3a,0x13,0x52,0x50,0x47,0x3a,0x3a,0x4d,0x6f,0x76,0x65,0x52,0x6f,0x75,0x74,0x65,0x09,0x3a,0x0c,0x40,0x72,0x65,0x70,0x65,0x61,0x74,0x46,0x3a,0x0f,0x40,0x73,0x6b,0x69,0x70,0x70,0x61,0x62,0x6c,0x65,0x46,0x3a,0x0a,0x40,0x77,0x61,0x69,0x74,0x46,0x3a,0x0a,0x40,0x6c,0x69,0x73,0x74,0x5b,0x15,0x6f,0x3a,0x15,0x52,0x50,0x47,0x3a,0x3a,0x4d,0x6f,0x76,0x65,0x43,0x6f,0x6d,0x6d,0x61,0x6e,0x64,0x07,0x3a,0x0a,0x40,0x63,0x6f,0x64,0x65,0x69,0x22,0x3a,0x10,0x40,0x70,0x61,0x72,0x61,0x6d,0x65,0x74,0x65,0x72,0x73,0x5b,0x06,0x69,0x0a,0x6f,0x3b,0x0a,0x07,0x3b,0x0b,0x69,0x23,0x3b,0x0c,0x5b,0x06,0x69,0x09,0x6f,0x3b,0x0a,0x07,0x3b,0x0b,0x69,0x2a,0x3b,0x0c,0x5b,0x00,0x6f,0x3b,0x0a,0x07,0x3b,0x0b,0x69,0x29,0x3b,0x0c,0x5b,0x00,0x6f,0x3b,0x0a,0x07,0x3b,0x0b,0x69,0x06,0x3b,0x0c,0x5b,0x00,0x6f,0x3b,0x0a,0x07,0x3b,0x0b,0x69,0x06,0x3b,0x0c,0x5b,0x00,0x6f,0x3b,0x0a,0x07,0x3b,0x0b,0x69,0x06,0x3b,0x0c,0x5b,0x00,0x6f,0x3b,0x0a,0x07,0x3b,0x0b,0x69,0x06,0x3b,0x0c,0x5b,0x00,0x6f,0x3b,0x0a,0x07,0x3b,0x0b,0x69,0x06,0x3b,0x0c,0x5b,0x00,0x6f,0x3b,0x0a,0x07,0x3b,0x0b,0x69,0x06,0x3b,0x0c,0x5b,0x00,0x6f,0x3b,0x0a,0x07,0x3b,0x0b,0x69,0x06,0x3b,0x0c,0x5b,0x00,0x6f,0x3b,0x0a,0x07,0x3b,0x0b,0x69,0x06,0x3b,0x0c,0x5b,0x00,0x6f,0x3b,0x0a,0x07,0x3b,0x0b,0x69,0x06,0x3b,0x0c,0x5b,0x00,0x6f,0x3b,0x0a,0x07,0x3b,0x0b,0x69,0x06,0x3b,0x0c,0x5b,0x00,0x6f,0x3b,0x0a,0x07,0x3b,0x0b,0x69,0x06,0x3b,0x0c,0x5b,0x00,0x6f,0x3b,0x0a,0x07,0x3b,0x0b,0x69,0x00,0x3b,0x0c,0x5b,0x00))
  205(54,bytes(0x04,0x08,0x6f,0x3a,0x13,0x52,0x50,0x47,0x3a,0x3a,0x4d,0x6f,0x76,0x65,0x52,0x6f,0x75,0x74,0x65,0x09,0x3a,0x0c,0x40,0x72,0x65,0x70,0x65,0x61,0x74,0x46,0x3a,0x0f,0x40,0x73,0x6b,0x69,0x70,0x70,0x61,0x62,0x6c,0x65,0x46,0x3a,0x0a,0x40,0x77,0x61,0x69,0x74,0x46,0x3a,0x0a,0x40,0x6c,0x69,0x73,0x74,0x5b,0x15,0x6f,0x3a,0x15,0x52,0x50,0x47,0x3a,0x3a,0x4d,0x6f,0x76,0x65,0x43,0x6f,0x6d,0x6d,0x61,0x6e,0x64,0x07,0x3a,0x0a,0x40,0x63,0x6f,0x64,0x65,0x69,0x22,0x3a,0x10,0x40,0x70,0x61,0x72,0x61,0x6d,0x65,0x74,0x65,0x72,0x73,0x5b,0x06,0x69,0x0a,0x6f,0x3b,0x0a,0x07,0x3b,0x0b,0x69,0x23,0x3b,0x0c,0x5b,0x06,0x69,0x09,0x6f,0x3b,0x0a,0x07,0x3b,0x0b,0x69,0x2a,0x3b,0x0c,0x5b,0x00,0x6f,0x3b,0x0a,0x07,0x3b,0x0b,0x69,0x29,0x3b,0x0c,0x5b,0x00,0x6f,0x3b,0x0a,0x07,0x3b,0x0b,0x69,0x06,0x3b,0x0c,0x5b,0x00,0x6f,0x3b,0x0a,0x07,0x3b,0x0b,0x69,0x06,0x3b,0x0c,0x5b,0x00,0x6f,0x3b,0x0a,0x07,0x3b,0x0b,0x69,0x06,0x3b,0x0c,0x5b,0x00,0x6f,0x3b,0x0a,0x07,0x3b,0x0b,0x69,0x06,0x3b,0x0c,0x5b,0x00,0x6f,0x3b,0x0a,0x07,0x3b,0x0b,0x69,0x06,0x3b,0x0c,0x5b,0x00,0x6f,0x3b,0x0a,0x07,0x3b,0x0b,0x69,0x06,0x3b,0x0c,0x5b,0x00,0x6f,0x3b,0x0a,0x07,0x3b,0x0b,0x69,0x06,0x3b,0x0c,0x5b,0x00,0x6f,0x3b,0x0a,0x07,0x3b,0x0b,0x69,0x06,0x3b,0x0c,0x5b,0x00,0x6f,0x3b,0x0a,0x07,0x3b,0x0b,0x69,0x06,0x3b,0x0c,0x5b,0x00,0x6f,0x3b,0x0a,0x07,0x3b,0x0b,0x69,0x06,0x3b,0x0c,0x5b,0x00,0x6f,0x3b,0x0a,0x07,0x3b,0x0b,0x69,0x06,0x3b,0x0c,0x5b,0x00,0x6f,0x3b,0x0a,0x07,0x3b,0x0b,0x69,0x00,0x3b,0x0c,0x5b,0x00))
  205(65,bytes(0x04,0x08,0x6f,0x3a,0x13,0x52,0x50,0x47,0x3a,0x3a,0x4d,0x6f,0x76,0x65,0x52,0x6f,0x75,0x74,0x65,0x09,0x3a,0x0c,0x40,0x72,0x65,0x70,0x65,0x61,0x74,0x46,0x3a,0x0f,0x40,0x73,0x6b,0x69,0x70,0x70,0x61,0x62,0x6c,0x65,0x46,0x3a,0x0a,0x40,0x77,0x61,0x69,0x74,0x54,0x3a,0x0a,0x40,0x6c,0x69,0x73,0x74,0x5b,0x15,0x6f,0x3a,0x15,0x52,0x50,0x47,0x3a,0x3a,0x4d,0x6f,0x76,0x65,0x43,0x6f,0x6d,0x6d,0x61,0x6e,0x64,0x07,0x3a,0x0a,0x40,0x63,0x6f,0x64,0x65,0x69,0x22,0x3a,0x10,0x40,0x70,0x61,0x72,0x61,0x6d,0x65,0x74,0x65,0x72,0x73,0x5b,0x06,0x69,0x0a,0x6f,0x3b,0x0a,0x07,0x3b,0x0b,0x69,0x23,0x3b,0x0c,0x5b,0x06,0x69,0x09,0x6f,0x3b,0x0a,0x07,0x3b,0x0b,0x69,0x2a,0x3b,0x0c,0x5b,0x00,0x6f,0x3b,0x0a,0x07,0x3b,0x0b,0x69,0x29,0x3b,0x0c,0x5b,0x00,0x6f,0x3b,0x0a,0x07,0x3b,0x0b,0x69,0x06,0x3b,0x0c,0x5b,0x00,0x6f,0x3b,0x0a,0x07,0x3b,0x0b,0x69,0x06,0x3b,0x0c,0x5b,0x00,0x6f,0x3b,0x0a,0x07,0x3b,0x0b,0x69,0x06,0x3b,0x0c,0x5b,0x00,0x6f,0x3b,0x0a,0x07,0x3b,0x0b,0x69,0x06,0x3b,0x0c,0x5b,0x00,0x6f,0x3b,0x0a,0x07,0x3b,0x0b,0x69,0x06,0x3b,0x0c,0x5b,0x00,0x6f,0x3b,0x0a,0x07,0x3b,0x0b,0x69,0x06,0x3b,0x0c,0x5b,0x00,0x6f,0x3b,0x0a,0x07,0x3b,0x0b,0x69,0x06,0x3b,0x0c,0x5b,0x00,0x6f,0x3b,0x0a,0x07,0x3b,0x0b,0x69,0x06,0x3b,0x0c,0x5b,0x00,0x6f,0x3b,0x0a,0x07,0x3b,0x0b,0x69,0x06,0x3b,0x0c,0x5b,0x00,0x6f,0x3b,0x0a,0x07,0x3b,0x0b,0x69,0x06,0x3b,0x0c,0x5b,0x00,0x6f,0x3b,0x0a,0x07,0x3b,0x0b,0x69,0x06,0x3b,0x0c,0x5b,0x00,0x6f,0x3b,0x0a,0x07,0x3b,0x0b,0x69,0x00,0x3b,0x0c,0x5b,0x00))
  ChangeSwitch(2218,2218,0)
  0()
 PAGE   2
  // condition: switch 2217 is ON
  0()



EVENT   44
 PAGE   1
  250(bytes(0x04,0x08,0x6f,0x3a,0x0c,0x52,0x50,0x47,0x3a,0x3a,0x53,0x45,0x08,0x3a,0x0a,0x40,0x6e,0x61,0x6d,0x65,0x49,0x22,0x09,0x4d,0x6f,0x76,0x65,0x06,0x3a,0x06,0x45,0x54,0x3a,0x0b,0x40,0x70,0x69,0x74,0x63,0x68,0x69,0x69,0x3a,0x0c,0x40,0x76,0x6f,0x6c,0x75,0x6d,0x65,0x69,0x55))
  TeleportPlayer(0,2,329,186,2,0)
  0()



EVENT   45
 PAGE   1
  ShowMessageFace("elf_fc1",0,0,2,1)
  ShowMessage("\\n<Elf>We shall remake this town into a new elven capital!")
  ShowMessageFace("",0,0,2,2)
  ShowMessage("\\n<Soldier>I'm okay here! Please gives the others some relief!")
  0()



EVENT   47
 PAGE   1
  ShowMessageFace("",0,0,2,1)
  ShowMessage("\\n<Soldier>Elves and fairies... attacking...\nA ridiculous number of them... heading to the palace...")
  355("actor_label_jump")
  EndEventProcessing()
  DefineLabel("45")
  ShowMessageFace("alicetromeria_fc1",4,0,2,2)
  ShowMessage("\\n<Alicetroemeria>Oh dear, an elf and fairy tea-party?")
  EndEventProcessing()
  0()



EVENT   48
 PAGE   1
  ShowMessageFace("",0,0,2,1)
  ShowMessage("\\n<Soldier>Hey, there's no way we can do this...!")
  0()
 PAGE   2
  // condition: switch 2218 is ON
  0()



EVENT   49
 PAGE   1
  ShowMessageFace("amazoneself_fc1",1,0,2,1)
  ShowMessage("\\n<Elf Amazoness>Are you the rumored hero?\nI'll rape you plenty and get pregnant with your seed!")
  If(4,275,0)
   ShowMessageFace("beelzebub_fc1",0,0,2,2)
   ShowMessage("\\n<Barbarella>I can't let you do that, that's my job...")
   0()
  EndIf()
  Battle(0,779,false,false)
  TemporaryRemoveEvent()
  0()



EVENT   50
 PAGE   1
  ShowMessageFace("alraune_fc1",0,0,2,1)
  ShowMessage("\\n<Alraune>I'll protect these flowers!")
  ShowMessageFace("elf_fc1",0,0,2,2)
  ShowMessage("\\n<Elf>Why are monsters siding with these people?!")
  0()



EVENT   51
 PAGE   1
  ShowMessageFace("",0,0,2,1)
  ShowMessage("\\n<Soldier>.........")
  0()



EVENT   52
 PAGE   1
  ShowMessageFace("",0,0,2,1)
  ShowMessage("\\n<Bread-selling Older Sister>Delicious...bread...")
  355("actor_label_jump")
  EndEventProcessing()
  DefineLabel("72")
  ShowMessageFace("phoenix_fc1",5,0,2,2)
  ShowMessage("\\n<Mini>Bread lady!!")
  EndEventProcessing()
  0()



EVENT   53
 PAGE   1
  241(bytes(0x04,0x08,0x6f,0x3a,0x0d,0x52,0x50,0x47,0x3a,0x3a,0x42,0x47,0x4d,0x08,0x3a,0x0a,0x40,0x6e,0x61,0x6d,0x65,0x49,0x22,0x0a,0x62,0x6f,0x73,0x73,0x30,0x06,0x3a,0x06,0x45,0x54,0x3a,0x0c,0x40,0x76,0x6f,0x6c,0x75,0x6d,0x65,0x69,0x69,0x3a,0x0b,0x40,0x70,0x69,0x74,0x63,0x68,0x69,0x69))
  PictureDisplay(5,"80_queenfairy_st01",0,0,0,0,100,100,0,0)
  PictureMove(5,null,0,0,0,0,100,100,255,0,60,true)
  ShowMessageFace("queenfairy_fc1",0,0,2,1)
  ShowMessage("\\n<Queen Fairy>This is the dawn of our conquest, where we make this land our new domain! Forward!")
  If(0,4,0)
   ShowMessageFace("alice_fc6",1,0,2,2)
   ShowMessage("\\n<Alice>Queen Fairy, what are you doing?!\nWhy are you and the elves attacking a human country?")
   0()
  EndIf()
  If(0,5,0)
   ShowMessageFace("iriasu_fc4",7,0,2,3)
   ShowMessage("\\n<Ilias>What's the meaning of this, Queen Fairy?\nFairies and elves belong in the forests, living peacefully...")
   0()
  EndIf()
  205(0,bytes(0x04,0x08,0x6f,0x3a,0x13,0x52,0x50,0x47,0x3a,0x3a,0x4d,0x6f,0x76,0x65,0x52,0x6f,0x75,0x74,0x65,0x09,0x3a,0x0c,0x40,0x72,0x65,0x70,0x65,0x61,0x74,0x46,0x3a,0x0f,0x40,0x73,0x6b,0x69,0x70,0x70,0x61,0x62,0x6c,0x65,0x46,0x3a,0x0a,0x40,0x77,0x61,0x69,0x74,0x54,0x3a,0x0a,0x40,0x6c,0x69,0x73,0x74,0x5b,0x08,0x6f,0x3a,0x15,0x52,0x50,0x47,0x3a,0x3a,0x4d,0x6f,0x76,0x65,0x43,0x6f,0x6d,0x6d,0x61,0x6e,0x64,0x07,0x3a,0x0a,0x40,0x63,0x6f,0x64,0x65,0x69,0x29,0x3a,0x10,0x40,0x70,0x61,0x72,0x61,0x6d,0x65,0x74,0x65,0x72,0x73,0x5b,0x00,0x6f,0x3b,0x0a,0x07,0x3b,0x0b,0x69,0x1e,0x3b,0x0c,0x5b,0x00,0x6f,0x3b,0x0a,0x07,0x3b,0x0b,0x69,0x00,0x3b,0x0c,0x5b,0x00))
  ShowMessageFace("queenfairy_fc1",0,0,2,4)
  ShowMessage("\\n<Queen Fairy>And who might you all be?\nI'm carrying out the Monster Lord's orders. Do you intend to interfere?")
  If(0,4,0)
   ShowMessageFace("alice_fc6",0,0,2,5)
   ShowMessage("\\n<Alice>So you've lowered yourself to being the Monster Lord's tool? Is it true that you're being given control over these lands in exchange?")
   0()
  EndIf()
  If(0,5,0)
   ShowMessageFace("iriasu_fc4",7,0,2,6)
   ShowMessage("\\n<Ilias>So it's true that you're attacking at the Monster Lord's behest. You're receiving these lands as a reward, then?")
   0()
  EndIf()
  ShowMessageFace("queenfairy_fc1",0,0,2,7)
  ShowMessage("\\n<Queen Fairy>Humans have chopped down the forests and destroyed our natural habitats for too long! Fairy Island is the only safe place we have left!")
  ShowMessageFace("queenfairy_fc1",0,0,2,8)
  ShowMessage("\\n<Queen Fairy>It was our fault for avoiding conflict all these years, but no longer. The atrocities humans are responsible for must be answered with force!")
  If(0,4,0)
   ShowMessageFace("alice_fc5",2,0,2,9)
   ShowMessage("\\n<Alice>You may have a legitimate grievance, but this invasion is going too far.")
   0()
  EndIf()
  If(0,5,0)
   ShowMessageFace("iriasu_fc4",7,0,2,10)
   ShowMessage("\\n<Ilias>No matter your reasons, you lost the moral high ground once you resorted to violence.\nViolence only begets more violence!")
   0()
  EndIf()
  ShowMessageFace("ruka_fc1",0,0,2,11)
  ShowMessage("\\n<Luka>We'll gladly listen to anything you have to say, but please call off your army first.")
  ShowMessageFace("queenfairy_fc1",0,0,2,12)
  ShowMessage("\\n<Queen Fairy>Talking is futile. Anyone who persists in standing in our way will face the wrath of Mother Nature, including you!")
  If(4,315,0)
   ShowMessageFace("queenfairy_fc1",0,0,2,13)
   ShowMessage("\\n<Airy>Hard to believe I was so manipulated by magic...\nNo, it only amplified the hatred I already held in my heart.")
   ShowMessageFace("queenfairy_fc1",2,0,2,14)
   ShowMessage("\\n<Queen Fairy>What trickery is this?\nHow dare you copy my appearance!")
   ShowMessageFace("queenfairy_fc1",0,0,2,15)
   ShowMessage("\\n<Airy>Your heart is being seduced by evil magic...\nThough I suppose you won't listen, anyway.")
   ShowMessageFace("queenfairy_fc1",2,0,2,16)
   ShowMessage("\\n<Queen Fairy>I have no idea what's going on, but you'll die with the rest of them, you fake!")
   0()
  EndIf()
  If(4,45,0)
   ShowMessageFace("alicetromeria_fc1",4,0,2,17)
   ShowMessage("\\n<Alicetroemeria>Well, shall we get this party started?\nI shall delight in entertaining the Queen of Fairies.")
   0()
  EndIf()
  If(4,79,0)
   ShowMessageFace("nuruko_fc1",0,0,2,18)
   ShowMessage("\\n<Nuruko>Kyu kyu kyu!")
   0()
  EndIf()
  PictureClear(5)
  SetBattleBGM(bytes(0x04,0x08,0x6f,0x3a,0x0d,0x52,0x50,0x47,0x3a,0x3a,0x42,0x47,0x4d,0x08,0x3a,0x0a,0x40,0x6e,0x61,0x6d,0x65,0x49,0x22,0x0a,0x62,0x6f,0x73,0x73,0x32,0x06,0x3a,0x06,0x45,0x54,0x3a,0x0c,0x40,0x76,0x6f,0x6c,0x75,0x6d,0x65,0x69,0x69,0x3a,0x0b,0x40,0x70,0x69,0x74,0x63,0x68,0x69,0x69))
  ChangeSwitch(22,22,0)
  Battle(0,784,false,false)
  ChangeSwitch(22,22,1)
  SetBattleBGM(bytes(0x04,0x08,0x6f,0x3a,0x0d,0x52,0x50,0x47,0x3a,0x3a,0x42,0x47,0x4d,0x08,0x3a,0x0a,0x40,0x6e,0x61,0x6d,0x65,0x49,0x22,0x0b,0x62,0x61,0x74,0x74,0x6c,0x65,0x06,0x3a,0x06,0x45,0x54,0x3a,0x0c,0x40,0x76,0x6f,0x6c,0x75,0x6d,0x65,0x69,0x69,0x3a,0x0b,0x40,0x70,0x69,0x74,0x63,0x68,0x69,0x69))
  241(bytes(0x04,0x08,0x6f,0x3a,0x0d,0x52,0x50,0x47,0x3a,0x3a,0x42,0x47,0x4d,0x08,0x3a,0x0a,0x40,0x6e,0x61,0x6d,0x65,0x49,0x22,0x0a,0x6b,0x69,0x6b,0x69,0x32,0x06,0x3a,0x06,0x45,0x54,0x3a,0x0c,0x40,0x76,0x6f,0x6c,0x75,0x6d,0x65,0x69,0x69,0x3a,0x0b,0x40,0x70,0x69,0x74,0x63,0x68,0x69,0x69))
  PictureDisplay(5,"80_queenfairy_st03",0,0,0,0,100,100,0,0)
  PictureMove(5,null,0,0,0,0,100,100,255,0,30,true)
  If(4,12,0)
   ShowMessageFace("sylph_fc1",4,0,2,19)
   ShowMessage("\\n<Sylph>Stop fighting! This isn't right!")
   0()
  EndIf()
  If(4,13,0)
   ShowMessageFace("gnome_fc1",0,0,2,20)
   ShowMessage("\\n<Gnome>.........")
   0()
  EndIf()
  ShowMessageFace("queenfairy_fc1",2,0,2,21)
  ShowMessage("\\n<Queen Fairy>I can't believe I have suffered defeat...\nI shall reluctantly withdraw my forces for now.")
  ShowMessageFace("queenfairy_fc1",2,0,2,22)
  ShowMessage("\\n<Queen Fairy>However, we are only the vanguard.\nThere's still an army of angry elves and fairies in waiting...")
  PictureClear(5)
  Wait(60)
  250(bytes(0x04,0x08,0x6f,0x3a,0x0c,0x52,0x50,0x47,0x3a,0x3a,0x53,0x45,0x08,0x3a,0x0a,0x40,0x6e,0x61,0x6d,0x65,0x49,0x22,0x0d,0x6d,0x6f,0x6e,0x5f,0x77,0x61,0x72,0x70,0x06,0x3a,0x06,0x45,0x54,0x3a,0x0b,0x40,0x70,0x69,0x74,0x63,0x68,0x69,0x69,0x3a,0x0c,0x40,0x76,0x6f,0x6c,0x75,0x6d,0x65,0x69,0x55))
  205(0,bytes(0x04,0x08,0x6f,0x3a,0x13,0x52,0x50,0x47,0x3a,0x3a,0x4d,0x6f,0x76,0x65,0x52,0x6f,0x75,0x74,0x65,0x09,0x3a,0x0c,0x40,0x72,0x65,0x70,0x65,0x61,0x74,0x46,0x3a,0x0f,0x40,0x73,0x6b,0x69,0x70,0x70,0x61,0x62,0x6c,0x65,0x46,0x3a,0x0a,0x40,0x77,0x61,0x69,0x74,0x54,0x3a,0x0a,0x40,0x6c,0x69,0x73,0x74,0x5b,0x07,0x6f,0x3a,0x15,0x52,0x50,0x47,0x3a,0x3a,0x4d,0x6f,0x76,0x65,0x43,0x6f,0x6d,0x6d,0x61,0x6e,0x64,0x07,0x3a,0x0a,0x40,0x63,0x6f,0x64,0x65,0x69,0x2c,0x3a,0x10,0x40,0x70,0x61,0x72,0x61,0x6d,0x65,0x74,0x65,0x72,0x73,0x5b,0x00,0x6f,0x3b,0x0a,0x07,0x3b,0x0b,0x69,0x00,0x3b,0x0c,0x5b,0x00))
  241(bytes(0x04,0x08,0x6f,0x3a,0x0d,0x52,0x50,0x47,0x3a,0x3a,0x42,0x47,0x4d,0x08,0x3a,0x0a,0x40,0x6e,0x61,0x6d,0x65,0x49,0x22,0x14,0x73,0x63,0x65,0x6e,0x65,0x5f,0x65,0x70,0x69,0x6c,0x6f,0x67,0x75,0x65,0x32,0x06,0x3a,0x06,0x45,0x54,0x3a,0x0c,0x40,0x76,0x6f,0x6c,0x75,0x6d,0x65,0x69,0x69,0x3a,0x0b,0x40,0x70,0x69,0x74,0x63,0x68,0x69,0x69))
  If(0,4,0)
   ShowMessageFace("alice_fc5",2,0,2,23)
   ShowMessage("\\n<Alice>All right, that takes care of the elves and fairies... for now.")
   0()
  EndIf()
  If(0,5,0)
   ShowMessageFace("iriasu_fc4",0,0,2,24)
   ShowMessage("\\n<Ilias>All right, that takes care of the elves and fairies... for now.")
   0()
  EndIf()
  If(12,"exist_party_persona_id?(241)")
   ShowMessageFace("a_emp_fc1",0,0,2,25)
   ShowMessage("\\n<Priestess>This war was never going to solve anything.\nWhy would someone as wise as the Fairy Queen do something so rash?")
   0()
  EndIf()
  If(12,"exist_party_persona_id?(242)")
   ShowMessageFace("a_emp_fc1",4,0,2,26)
   ShowMessage("\\n<Priestess>Fufu.")
   0()
  EndIf()
  If(4,139,0)
   ShowMessageFace("fairys_fc1",3,0,2,27)
   ShowMessage("\\n<Fairies>It's not like the queen at all...")
   0()
  EndIf()
  ChangeSwitch(2161,2161,0)
  314(0,0)
  RunCommonEvent(328)
  If(0,2273,0)
   EndEventProcessing()
   0()
  EndIf()
  ShowMessageFace("ruka_fc1",0,0,2,28)
  ShowMessage("\\n<Luka>We aren't done yet! We need to hurry to the other countries still under attack!")
  221()
  ShowMessageFace("",0,0,2,29)
  ShowMessage("Thus, we repelled the forces of elves and fairies.\nHowever, there's no time to celebrate as we leave Grand Noah behind.")
  ShowMessageFace("",0,0,2,30)
  ShowMessage("The Monster Lord's grand offensive is against all four major powers. It will take everything we've got to defend them all.")
  Wait(60)
  TeleportPlayer(0,2,328,187,2,2)
  222()
  EndEventProcessing()
  0()



EVENT   54
 PAGE   1
  ShowMessageFace("",0,0,2,1)
  ShowMessage("\\n<Soldier>A g-giant?!")
  0()
 PAGE   2
  // condition: switch 2218 is ON
  0()



EVENT   55
 PAGE   1
  0()



EVENT   56
 PAGE   1
  0()



EVENT   57
 PAGE   1
  0()



EVENT   59
 PAGE   1
  ShowMessageFace("",0,0,2,1)
  ShowMessage("\\n<Young Man>Ughhh...")
  355("actor_label_jump")
  EndEventProcessing()
  DefineLabel("88")
  ShowMessageFace("jack_fc1",2,0,2,2)
  ShowMessage("\\n<Pumpkin>Are you all right...?")
  EndEventProcessing()
  0()



EVENT   60
 PAGE   1
  If(0,2216,1)
   ShowMessageFace("",0,0,2,1)
   ShowMessage("\\n<Elf>Humans who defile nature... Know our fury!")
   ShowMessageFace("",0,0,2,2)
   ShowMessage("\\n<Thug>H-help meeee!!")
   0()
  EndIf()
  If(0,2216,0)
   ShowMessageFace("",0,0,2,3)
   ShowMessage("\\n<Thug>No way, I'm not going to attack a horde that big...")
   0()
  EndIf()
  0()



EVENT   61
 PAGE   1
  ShowMessageFace("trickfairy_fc1",0,0,2,1)
  ShowMessage("\\n<Trick Fairy>I'll make your thing feel gooood. ♪")
  If(4,294,0)
   ShowMessageFace("emily_fc1",1,0,2,2)
   ShowMessage("\\n<Emily>This naughty fairy needs to be punished...!")
   0()
  EndIf()
  Battle(0,777,false,false)
  TemporaryRemoveEvent()
  0()



EVENT   62
 PAGE   1
  ShowMessageFace("",0,0,2,1)
  ShowMessage("\\n<Guard>Guh, get out of Grand Noah...!")
  ShowMessageFace("",0,0,2,2)
  ShowMessage("\\n<Elf>Come on, resign yourselves!")
  0()



EVENT   63
 PAGE   1
  ShowMessageFace("",0,0,2,1)
  ShowMessage("←:Colosseum, beyond this point")
  0()



EVENT   64
 PAGE   1
  ShowMessageFace("tatunoko_k_fc1",1,0,2,1)
  ShowMessage("\\n<Seahorse Marine>We marines are well-versed in the thirty-six strategies of war... This is our deadly arrowhead formation!")
  ShowMessageFace("elf_fc1",2,0,2,2)
  ShowMessage("\\n<Elf>Kyaaaah!!")
  If(4,203,0)
   ShowMessageFace("tatunoko_k_fc1",1,0,2,3)
   ShowMessage("\\n<Tatsuko>Do your best, everyone!")
   0()
  EndIf()
  If(4,204,0)
   ShowMessageFace("umiusi_k_fc1",0,0,2,4)
   ShowMessage("\\n<Stacy>Keep up the fight!")
   0()
  EndIf()
  0()



EVENT   65
 PAGE   1
  ShowMessageFace("",0,0,2,1)
  ShowMessage("\\n<Soldier>This is impossible, I'm absolutely going to die...!")
  0()
 PAGE   2
  // condition: switch 2218 is ON
  0()



EVENT   66
 PAGE   1
  ShowMessageFace("elf_fc1",0,0,2,1)
  ShowMessage("\\n<Elf>We shall remake this town into a new elven capital!")
  ShowMessageFace("",0,0,2,2)
  ShowMessage("\\n<Soldier>I'm okay here! Please gives the others some relief!")
  0()



EVENT   67
 PAGE   1
  ShowMessageFace("",0,0,2,1)
  ShowMessage("\\n<Harpy>Friendship Attaaaack!!")
  ShowMessageFace("",0,0,2,2)
  ShowMessage("\\n<Mermaid>Leave our home!")
  ShowMessageFace("",2,0,2,3)
  ShowMessage("\\n<Elf>Guh, this...isn't fair...!")
  0()



EVENT   68
 PAGE   1
  ShowMessageFace("",0,0,2,1)
  ShowMessage("\\n<Man>I've been...toyed with...")
  0()



EVENT   69
 PAGE   1
  ShowMessageFace("fairys_fc1",0,0,2,1)
  ShowMessage("\\n<Fairy A>Ahaha, we're causing mischief. ♪")
  ShowMessageFace("fairys_fc3",1,0,2,2)
  ShowMessage("\\n<Fairy B>Let out more white pee! ♪")
  ShowMessageFace("",0,0,2,3)
  ShowMessage("\\n<Man>Stop, stop...Aaaaahhh!!")
  ShowMessageFace("ruka_fc1",0,0,2,4)
  ShowMessage("\\n<Luka>Knock it off!")
  205(69,bytes(0x04,0x08,0x6f,0x3a,0x13,0x52,0x50,0x47,0x3a,0x3a,0x4d,0x6f,0x76,0x65,0x52,0x6f,0x75,0x74,0x65,0x09,0x3a,0x0c,0x40,0x72,0x65,0x70,0x65,0x61,0x74,0x46,0x3a,0x0f,0x40,0x73,0x6b,0x69,0x70,0x70,0x61,0x62,0x6c,0x65,0x46,0x3a,0x0a,0x40,0x77,0x61,0x69,0x74,0x46,0x3a,0x0a,0x40,0x6c,0x69,0x73,0x74,0x5b,0x08,0x6f,0x3a,0x15,0x52,0x50,0x47,0x3a,0x3a,0x4d,0x6f,0x76,0x65,0x43,0x6f,0x6d,0x6d,0x61,0x6e,0x64,0x07,0x3a,0x0a,0x40,0x63,0x6f,0x64,0x65,0x69,0x29,0x3a,0x10,0x40,0x70,0x61,0x72,0x61,0x6d,0x65,0x74,0x65,0x72,0x73,0x5b,0x00,0x6f,0x3b,0x0a,0x07,0x3b,0x0b,0x69,0x1e,0x3b,0x0c,0x5b,0x00,0x6f,0x3b,0x0a,0x07,0x3b,0x0b,0x69,0x00,0x3b,0x0c,0x5b,0x00))
  205(84,bytes(0x04,0x08,0x6f,0x3a,0x13,0x52,0x50,0x47,0x3a,0x3a,0x4d,0x6f,0x76,0x65,0x52,0x6f,0x75,0x74,0x65,0x09,0x3a,0x0c,0x40,0x72,0x65,0x70,0x65,0x61,0x74,0x46,0x3a,0x0f,0x40,0x73,0x6b,0x69,0x70,0x70,0x61,0x62,0x6c,0x65,0x46,0x3a,0x0a,0x40,0x77,0x61,0x69,0x74,0x46,0x3a,0x0a,0x40,0x6c,0x69,0x73,0x74,0x5b,0x08,0x6f,0x3a,0x15,0x52,0x50,0x47,0x3a,0x3a,0x4d,0x6f,0x76,0x65,0x43,0x6f,0x6d,0x6d,0x61,0x6e,0x64,0x07,0x3a,0x0a,0x40,0x63,0x6f,0x64,0x65,0x69,0x29,0x3a,0x10,0x40,0x70,0x61,0x72,0x61,0x6d,0x65,0x74,0x65,0x72,0x73,0x5b,0x00,0x6f,0x3b,0x0a,0x07,0x3b,0x0b,0x69,0x1e,0x3b,0x0c,0x5b,0x00,0x6f,0x3b,0x0a,0x07,0x3b,0x0b,0x69,0x00,0x3b,0x0c,0x5b,0x00))
  205(156,bytes(0x04,0x08,0x6f,0x3a,0x13,0x52,0x50,0x47,0x3a,0x3a,0x4d,0x6f,0x76,0x65,0x52,0x6f,0x75,0x74,0x65,0x09,0x3a,0x0c,0x40,0x72,0x65,0x70,0x65,0x61,0x74,0x46,0x3a,0x0f,0x40,0x73,0x6b,0x69,0x70,0x70,0x61,0x62,0x6c,0x65,0x46,0x3a,0x0a,0x40,0x77,0x61,0x69,0x74,0x46,0x3a,0x0a,0x40,0x6c,0x69,0x73,0x74,0x5b,0x08,0x6f,0x3a,0x15,0x52,0x50,0x47,0x3a,0x3a,0x4d,0x6f,0x76,0x65,0x43,0x6f,0x6d,0x6d,0x61,0x6e,0x64,0x07,0x3a,0x0a,0x40,0x63,0x6f,0x64,0x65,0x69,0x29,0x3a,0x10,0x40,0x70,0x61,0x72,0x61,0x6d,0x65,0x74,0x65,0x72,0x73,0x5b,0x00,0x6f,0x3b,0x0a,0x07,0x3b,0x0b,0x69,0x1e,0x3b,0x0c,0x5b,0x00,0x6f,0x3b,0x0a,0x07,0x3b,0x0b,0x69,0x00,0x3b,0x0c,0x5b,0x00))
  ShowMessageFace("fairys_fc1",0,0,2,5)
  ShowMessage("\\n<Fairy A>Another fresh human showed up...♪")
  ShowMessageFace("fairys_fc2",1,0,2,6)
  ShowMessage("\\n<Fairy C>Let's show him some mischief. ♪")
  If(4,139,0)
   ShowMessageFace("fairys_fc1",3,0,2,7)
   ShowMessage("\\n<Fairies>Secret Technique! Mischief reversal! ♪")
   0()
  EndIf()
  Battle(0,207,false,false)
  ChangeSwitch(2220,2220,0)
  0()
 PAGE   2
  // condition: switch 2220 is ON
  0()



EVENT   70
 PAGE   1
  ShowMessageFace("",0,0,2,1)
  ShowMessage("\\n<Man>Hauuuu...")
  0()



EVENT   71
 PAGE   1
  ShowMessageFace("tatunoko_k_fc1",1,0,2,1)
  ShowMessage("\\n<Seahorse Marine>We marines are well-versed in the thirty-six strategies of war... This is our deadly arrowhead formation!")
  ShowMessageFace("elf_fc1",2,0,2,2)
  ShowMessage("\\n<Elf>Kyaaaah!!")
  If(4,203,0)
   ShowMessageFace("tatunoko_k_fc1",1,0,2,3)
   ShowMessage("\\n<Tatsuko>Do your best, everyone!")
   0()
  EndIf()
  If(4,204,0)
   ShowMessageFace("umiusi_k_fc1",0,0,2,4)
   ShowMessage("\\n<Stacy>Keep up the fight!")
   0()
  EndIf()
  0()



EVENT   72
 PAGE   1
  ShowMessageFace("tatunoko_k_fc1",1,0,2,1)
  ShowMessage("\\n<Seahorse Marine>We marines are well-versed in the thirty-six strategies of war... This is our deadly arrowhead formation!")
  ShowMessageFace("elf_fc1",2,0,2,2)
  ShowMessage("\\n<Elf>Kyaaaah!!")
  If(4,203,0)
   ShowMessageFace("tatunoko_k_fc1",1,0,2,3)
   ShowMessage("\\n<Tatsuko>Do your best, everyone!")
   0()
  EndIf()
  If(4,204,0)
   ShowMessageFace("umiusi_k_fc1",0,0,2,4)
   ShowMessage("\\n<Stacy>Keep up the fight!")
   0()
  EndIf()
  0()



EVENT   73
 PAGE   1
  ShowMessageFace("amazoneself_fc1",1,0,2,1)
  ShowMessage("\\n<Elf Amazoness>You appear to be tough...\nAll right, you'll be my prey!")
  If(4,171,0)
   ShowMessageFace("lizardboss_fc1",0,0,2,2)
   ShowMessage("\\n<Miranda>It's you who's going to be the prey!")
   0()
  EndIf()
  Battle(0,778,false,false)
  TemporaryRemoveEvent()
  0()



EVENT   74
 PAGE   1
  0()



EVENT   75
 PAGE   1
  0()



EVENT   76
 PAGE   1
  0()



EVENT   77
 PAGE   1
  ShowMessageFace("tatunoko_k_fc1",1,0,2,1)
  ShowMessage("\\n<Seahorse Marine>We marines are well-versed in the thirty-six strategies of war... This is our deadly arrowhead formation!")
  ShowMessageFace("elf_fc1",2,0,2,2)
  ShowMessage("\\n<Elf>Kyaaaah!!")
  If(4,203,0)
   ShowMessageFace("tatunoko_k_fc1",1,0,2,3)
   ShowMessage("\\n<Tatsuko>Do your best, everyone!")
   0()
  EndIf()
  If(4,204,0)
   ShowMessageFace("umiusi_k_fc1",0,0,2,4)
   ShowMessage("\\n<Stacy>Keep up the fight!")
   0()
  EndIf()
  0()



EVENT   78
 PAGE   1
  ShowMessageFace("",0,0,2,1)
  ShowMessage("\\n<Soldier>We won't let you step into the Colosseum!")
  ShowMessageFace("",0,0,2,2)
  ShowMessage("\\n<Colosseum Fighter>We must protect our beloved Colosseum!")
  ShowMessageFace("",0,0,2,3)
  ShowMessage("There is a great melee in front of the Colosseum!\nIt doesn't look like we can get through...")
  0()



EVENT   79
 PAGE   1
  ShowMessageFace("tatunoko_k_fc1",1,0,2,1)
  ShowMessage("\\n<Seahorse Marine>We marines are well-versed in the thirty-six strategies of war... This is our deadly arrowhead formation!")
  ShowMessageFace("elf_fc1",2,0,2,2)
  ShowMessage("\\n<Elf>Kyaaaah!!")
  If(4,203,0)
   ShowMessageFace("tatunoko_k_fc1",1,0,2,3)
   ShowMessage("\\n<Tatsuko>Do your best, everyone!")
   0()
  EndIf()
  If(4,204,0)
   ShowMessageFace("umiusi_k_fc1",0,0,2,4)
   ShowMessage("\\n<Stacy>Keep up the fight!")
   0()
  EndIf()
  0()



EVENT   80
 PAGE   1
  ShowMessageFace("",0,0,2,1)
  ShowMessage("\\n<Harpy>Friendship Attaaaack!!")
  ShowMessageFace("",0,0,2,2)
  ShowMessage("\\n<Mermaid>Leave our home!")
  ShowMessageFace("",2,0,2,3)
  ShowMessage("\\n<Elf>Guh, this...isn't fair...!")
  0()



EVENT   81
 PAGE   1
  ShowMessageFace("",0,0,2,1)
  ShowMessage("\\n<Harpy>Friendship Attaaaack!!")
  ShowMessageFace("",0,0,2,2)
  ShowMessage("\\n<Mermaid>Leave our home!")
  ShowMessageFace("",2,0,2,3)
  ShowMessage("\\n<Elf>Guh, this...isn't fair...!")
  0()



EVENT   82
 PAGE   1
  ShowMessageFace("",0,0,2,1)
  ShowMessage("\\n<Soldier>We won't let you step into the Colosseum!")
  ShowMessageFace("",0,0,2,2)
  ShowMessage("\\n<Colosseum Fighter>We must protect our beloved Colosseum!")
  ShowMessageFace("",0,0,2,3)
  ShowMessage("There is a great melee in front of the Colosseum!\nIt doesn't look like we can get through...")
  0()



EVENT   83
 PAGE   1
  0()



EVENT   84
 PAGE   1
  ShowMessageFace("fairys_fc1",0,0,2,1)
  ShowMessage("\\n<Fairy A>Ahaha, we're causing mischief. ♪")
  ShowMessageFace("fairys_fc3",1,0,2,2)
  ShowMessage("\\n<Fairy B>Let out more white pee! ♪")
  ShowMessageFace("",0,0,2,3)
  ShowMessage("\\n<Man>Stop, stop...Aaaaahhh!!")
  ShowMessageFace("ruka_fc1",0,0,2,4)
  ShowMessage("\\n<Luka>Knock it off!")
  205(69,bytes(0x04,0x08,0x6f,0x3a,0x13,0x52,0x50,0x47,0x3a,0x3a,0x4d,0x6f,0x76,0x65,0x52,0x6f,0x75,0x74,0x65,0x09,0x3a,0x0c,0x40,0x72,0x65,0x70,0x65,0x61,0x74,0x46,0x3a,0x0f,0x40,0x73,0x6b,0x69,0x70,0x70,0x61,0x62,0x6c,0x65,0x46,0x3a,0x0a,0x40,0x77,0x61,0x69,0x74,0x46,0x3a,0x0a,0x40,0x6c,0x69,0x73,0x74,0x5b,0x08,0x6f,0x3a,0x15,0x52,0x50,0x47,0x3a,0x3a,0x4d,0x6f,0x76,0x65,0x43,0x6f,0x6d,0x6d,0x61,0x6e,0x64,0x07,0x3a,0x0a,0x40,0x63,0x6f,0x64,0x65,0x69,0x29,0x3a,0x10,0x40,0x70,0x61,0x72,0x61,0x6d,0x65,0x74,0x65,0x72,0x73,0x5b,0x00,0x6f,0x3b,0x0a,0x07,0x3b,0x0b,0x69,0x1e,0x3b,0x0c,0x5b,0x00,0x6f,0x3b,0x0a,0x07,0x3b,0x0b,0x69,0x00,0x3b,0x0c,0x5b,0x00))
  205(84,bytes(0x04,0x08,0x6f,0x3a,0x13,0x52,0x50,0x47,0x3a,0x3a,0x4d,0x6f,0x76,0x65,0x52,0x6f,0x75,0x74,0x65,0x09,0x3a,0x0c,0x40,0x72,0x65,0x70,0x65,0x61,0x74,0x46,0x3a,0x0f,0x40,0x73,0x6b,0x69,0x70,0x70,0x61,0x62,0x6c,0x65,0x46,0x3a,0x0a,0x40,0x77,0x61,0x69,0x74,0x46,0x3a,0x0a,0x40,0x6c,0x69,0x73,0x74,0x5b,0x08,0x6f,0x3a,0x15,0x52,0x50,0x47,0x3a,0x3a,0x4d,0x6f,0x76,0x65,0x43,0x6f,0x6d,0x6d,0x61,0x6e,0x64,0x07,0x3a,0x0a,0x40,0x63,0x6f,0x64,0x65,0x69,0x29,0x3a,0x10,0x40,0x70,0x61,0x72,0x61,0x6d,0x65,0x74,0x65,0x72,0x73,0x5b,0x00,0x6f,0x3b,0x0a,0x07,0x3b,0x0b,0x69,0x1e,0x3b,0x0c,0x5b,0x00,0x6f,0x3b,0x0a,0x07,0x3b,0x0b,0x69,0x00,0x3b,0x0c,0x5b,0x00))
  205(156,bytes(0x04,0x08,0x6f,0x3a,0x13,0x52,0x50,0x47,0x3a,0x3a,0x4d,0x6f,0x76,0x65,0x52,0x6f,0x75,0x74,0x65,0x09,0x3a,0x0c,0x40,0x72,0x65,0x70,0x65,0x61,0x74,0x46,0x3a,0x0f,0x40,0x73,0x6b,0x69,0x70,0x70,0x61,0x62,0x6c,0x65,0x46,0x3a,0x0a,0x40,0x77,0x61,0x69,0x74,0x46,0x3a,0x0a,0x40,0x6c,0x69,0x73,0x74,0x5b,0x08,0x6f,0x3a,0x15,0x52,0x50,0x47,0x3a,0x3a,0x4d,0x6f,0x76,0x65,0x43,0x6f,0x6d,0x6d,0x61,0x6e,0x64,0x07,0x3a,0x0a,0x40,0x63,0x6f,0x64,0x65,0x69,0x29,0x3a,0x10,0x40,0x70,0x61,0x72,0x61,0x6d,0x65,0x74,0x65,0x72,0x73,0x5b,0x00,0x6f,0x3b,0x0a,0x07,0x3b,0x0b,0x69,0x1e,0x3b,0x0c,0x5b,0x00,0x6f,0x3b,0x0a,0x07,0x3b,0x0b,0x69,0x00,0x3b,0x0c,0x5b,0x00))
  ShowMessageFace("fairys_fc1",0,0,2,5)
  ShowMessage("\\n<Fairy A>Another fresh human showed up...♪")
  ShowMessageFace("fairys_fc2",1,0,2,6)
  ShowMessage("\\n<Fairy C>Let's show him some mischief. ♪")
  If(4,139,0)
   ShowMessageFace("fairys_fc1",3,0,2,7)
   ShowMessage("\\n<Fairies>Secret Technique! Mischief reversal! ♪")
   0()
  EndIf()
  Battle(0,207,false,false)
  ChangeSwitch(2220,2220,0)
  0()
 PAGE   2
  // condition: switch 2220 is ON
  0()



EVENT   85
 PAGE   1
  0()



EVENT   86
 PAGE   1
  0()



EVENT   87
 PAGE   1
  0()



EVENT   88
 PAGE   1
  ShowMessageFace("elf_fc1",0,0,2,1)
  ShowMessage("\\n<Elf>We shall remake this town into a new elven capital!")
  ShowMessageFace("",0,0,2,2)
  ShowMessage("\\n<Soldier>I'm okay here! Please gives the others some relief!")
  0()



EVENT   89
 PAGE   1
  ShowMessageFace("elf_fc1",0,0,2,1)
  ShowMessage("\\n<Elf>We shall remake this town into a new elven capital!")
  ShowMessageFace("",0,0,2,2)
  ShowMessage("\\n<Soldier>I'm okay here! Please gives the others some relief!")
  0()



EVENT   90
 PAGE   1
  ShowMessageFace("",0,0,2,1)
  ShowMessage("\\n<Soldier>We won't let you step into the Colosseum!")
  ShowMessageFace("",0,0,2,2)
  ShowMessage("\\n<Colosseum Fighter>We must protect our beloved Colosseum!")
  ShowMessageFace("",0,0,2,3)
  ShowMessage("There is a great melee in front of the Colosseum!\nIt doesn't look like we can get through...")
  0()



EVENT   91
 PAGE   1
  ShowMessageFace("alraune_fc1",0,0,2,1)
  ShowMessage("\\n<Alraune>I'll protect these flowers!")
  ShowMessageFace("elf_fc1",0,0,2,2)
  ShowMessage("\\n<Elf>Why are monsters siding with these people?!")
  0()



EVENT   92
 PAGE   1
  0()



EVENT   93
 PAGE   1
  0()



EVENT   94
 PAGE   1
  0()



EVENT   95
 PAGE   1
  0()



EVENT   96
 PAGE   1
  ShowMessageFace("",0,0,2,1)
  ShowMessage("\\n<Youth>Actually, that's just a human wave tactic...")
  0()



EVENT   97
 PAGE   1
  0()



EVENT   98
 PAGE   1
  // condition: variable 1052 >= 7
  If(1,1053,0,1,0)
   ShowMessageFace("tatunoko_k_fc1",2,0,2,1)
   ShowMessage("\\n<Tatsuko>*mumble* *mumble*")
   ShowMessageFace("tatunoko_k_fc1",1,0,2,2)
   ShowMessage("\\n<Tatsuko>I sense that the storeroom at the Navy Headquarters has new provisions available! My sailor's intuition is never wrong!")
   ChangeSelfSwitch("A",0)
   0()
  Else()
   TemporaryRemoveEvent()
   0()
  EndIf()
  0()
 PAGE   2
  // condition: self-switch A is ON
  0()



EVENT   99
 PAGE   1
  // condition: variable 1052 >= 8
  If(1,1053,0,2,0)
   ShowMessageFace("tatunoko_k_fc1",2,0,2,1)
   ShowMessage("\\n<Tatsuko>*mumble* *mumble*")
   ShowMessageFace("tatunoko_k_fc1",1,0,2,2)
   ShowMessage("\\n<Tatsuko>I sense that the storeroom at the Navy Headquarters has new provisions available! My sailor's intuition is never wrong!")
   ChangeSelfSwitch("A",0)
   0()
  Else()
   TemporaryRemoveEvent()
   0()
  EndIf()
  0()
 PAGE   2
  // condition: self-switch A is ON
  0()



EVENT   100
 PAGE   1
  0()



EVENT   101
 PAGE   1
  ShowMessageFace("taran_fc1",2,0,2,1)
  ShowMessage("\\n<Spider Girl's Sewing Shop>I'll sew your mouth shut!")
  ShowMessageFace("elf_fc1",0,0,2,2)
  ShowMessage("\\n<Elf>You side with the humans, even though you're a monster...?!")
  0()



EVENT   102
 PAGE   1
  // condition: variable 1001 >= 25
  If(1,1053,0,3,0)
   ShowMessageFace("tatunoko_k_fc1",2,0,2,1)
   ShowMessage("\\n<Tatsuko>*mumble* *mumble*")
   ShowMessageFace("tatunoko_k_fc1",1,0,2,2)
   ShowMessage("\\n<Tatsuko>I sense that the storeroom at the Navy Headquarters has new provisions available! My sailor's intuition is never wrong!")
   ChangeSelfSwitch("A",0)
   0()
  Else()
   TemporaryRemoveEvent()
   0()
  EndIf()
  0()
 PAGE   2
  // condition: self-switch A is ON
  0()



EVENT   103
 PAGE   1
  // condition: variable 1052 >= 30
  If(1,1053,0,6,0)
   ShowMessageFace("tatunoko_k_fc1",2,0,2,1)
   ShowMessage("\\n<Tatsuko>*mumble* *mumble*")
   ShowMessageFace("tatunoko_k_fc1",1,0,2,2)
   ShowMessage("\\n<Tatsuko>I sense that the storeroom at the Navy Headquarters has new provisions available! My sailor's intuition is never wrong!")
   ChangeSelfSwitch("A",0)
   0()
  Else()
   TemporaryRemoveEvent()
   0()
  EndIf()
  0()
 PAGE   2
  // condition: self-switch A is ON
  0()



EVENT   104
 PAGE   1
  0()



EVENT   105
 PAGE   1
  250(bytes(0x04,0x08,0x6f,0x3a,0x0c,0x52,0x50,0x47,0x3a,0x3a,0x53,0x45,0x08,0x3a,0x0a,0x40,0x6e,0x61,0x6d,0x65,0x49,0x22,0x09,0x4d,0x6f,0x76,0x65,0x06,0x3a,0x06,0x45,0x54,0x3a,0x0b,0x40,0x70,0x69,0x74,0x63,0x68,0x69,0x69,0x3a,0x0c,0x40,0x76,0x6f,0x6c,0x75,0x6d,0x65,0x69,0x55))
  TeleportPlayer(0,2,329,186,2,0)
  0()



EVENT   106
 PAGE   1
  250(bytes(0x04,0x08,0x6f,0x3a,0x0c,0x52,0x50,0x47,0x3a,0x3a,0x53,0x45,0x08,0x3a,0x0a,0x40,0x6e,0x61,0x6d,0x65,0x49,0x22,0x09,0x4d,0x6f,0x76,0x65,0x06,0x3a,0x06,0x45,0x54,0x3a,0x0b,0x40,0x70,0x69,0x74,0x63,0x68,0x69,0x69,0x3a,0x0c,0x40,0x76,0x6f,0x6c,0x75,0x6d,0x65,0x69,0x55))
  TeleportPlayer(0,2,329,186,2,0)
  0()

EVENT   112
 PAGE   1
  ShowMessageFace("",0,0,2,1)
  ShowMessage("\\n<Guard>Guh, get out of Grand Noah...!")
  ShowMessageFace("",0,0,2,2)
  ShowMessage("\\n<Elf>Come on, resign yourselves!")
  0()



EVENT   113
 PAGE   1
  ShowMessageFace("elf_fc1",0,0,2,1)
  ShowMessage("\\n<Elf>Humans who defile nature... Know our fury!")
  ShowMessageFace("",0,0,2,2)
  ShowMessage("\\n<Thug>H-help meeee!!")
  ShowMessageFace("ruka_fc1",0,0,2,3)
  ShowMessage("\\n<Luka>That's enough!")
  Battle(0,198,false,false)
  ChangeSwitch(2216,2216,0)
  ShowMessageFace("",0,0,2,4)
  ShowMessage("\\n<Thug>Y-you saved me... Here, use this!")
  250(bytes(0x04,0x08,0x6f,0x3a,0x0c,0x52,0x50,0x47,0x3a,0x3a,0x53,0x45,0x08,0x3a,0x0a,0x40,0x6e,0x61,0x6d,0x65,0x49,0x22,0x0a,0x49,0x74,0x65,0x6d,0x31,0x06,0x3a,0x06,0x45,0x54,0x3a,0x0b,0x40,0x70,0x69,0x74,0x63,0x68,0x69,0x69,0x3a,0x0c,0x40,0x76,0x6f,0x6c,0x75,0x6d,0x65,0x69,0x55))
  ChangeInventory_Item(4,0,0,1)
  EndEventProcessing()
  0()
 PAGE   2
  // condition: switch 2216 is ON
  0()



EVENT   114
 PAGE   1
  ShowMessageFace("mino_fc1",0,0,2,1)
  ShowMessage("\\n<Minotauros>Minotauros Strike, oraaa!")
  ShowMessageFace("amazoneself_fc1",0,0,2,2)
  ShowMessage("\\n<Elf Amazoness>There's no shortage of opponents!")
  0()



EVENT   115
 PAGE   1
  0()



EVENT   116
 PAGE   1
  ShowMessageFace("",0,0,2,1)
  ShowMessage("\\n<Youth>Is this the end of the world already...?")
  0()



EVENT   117
 PAGE   1
  ShowMessageFace("",0,0,2,1)
  ShowMessage("\\n<Woman>Ah, this is...unbelievable...")
  355("actor_label_jump")
  EndEventProcessing()
  DefineLabel("216")
  ShowMessageFace("m_mino_fc1",2,0,2,2)
  ShowMessage("\\n<Odette>Are you okay?\nPlease take a rest...")
  EndEventProcessing()
  0()



EVENT   118
 PAGE   1
  0()



EVENT   119
 PAGE   1
  0()



EVENT   120
 PAGE   1
  0()



EVENT   121
 PAGE   1
  0()



EVENT   122
 PAGE   1
  0()



EVENT   123
 PAGE   1
  0()



EVENT   124
 PAGE   1
  0()



EVENT   125
 PAGE   1
  0()



EVENT   126
 PAGE   1
  0()



EVENT   127
 PAGE   1
  0()



EVENT   128
 PAGE   1
  0()



EVENT   129
 PAGE   1
  0()



EVENT   130
 PAGE   1
  0()



EVENT   131
 PAGE   1
  0()



EVENT   132
 PAGE   1
  0()



EVENT   133
 PAGE   1
  0()



EVENT   134
 PAGE   1
  0()



EVENT   135
 PAGE   1
  0()



EVENT   136
 PAGE   1
  0()



EVENT   137
 PAGE   1
  0()



EVENT   138
 PAGE   1
  0()



EVENT   139
 PAGE   1
  ScrollMap(8,6,5)
  Wait(60)
  ShowMessageFace("",0,0,2,1)
  ShowMessage("A fierce battle is being waged in front of the palace gates!")
  ScrollMap(2,6,5)
  Wait(60)
  0()



EVENT   140
 PAGE   1
  0()



EVENT   141
 PAGE   1
  0()



EVENT   142
 PAGE   1
  ScrollMap(8,6,5)
  Wait(60)
  ShowMessageFace("",0,0,2,1)
  ShowMessage("A fierce battle is being waged in front of the palace gates!")
  ScrollMap(2,6,5)
  Wait(60)
  0()



EVENT   143
 PAGE   1
  ScrollMap(8,6,5)
  Wait(60)
  ShowMessageFace("",0,0,2,1)
  ShowMessage("A fierce battle is being waged in front of the palace gates!")
  ScrollMap(2,6,5)
  Wait(60)
  0()



EVENT   144
 PAGE   1
  ScrollMap(8,6,5)
  Wait(60)
  ShowMessageFace("",0,0,2,1)
  ShowMessage("A fierce battle is being waged in front of the palace gates!")
  ScrollMap(2,6,5)
  Wait(60)
  0()



EVENT   145
 PAGE   1
  ShowMessageFace("",0,0,2,1)
  ShowMessage("\\n<Soldier>R-regretable...")
  0()



EVENT   146
 PAGE   1
  0()



EVENT   147
 PAGE   1
  ShowMessageFace("",0,0,2,1)
  ShowMessage("\\n<Soldier>R-regretable...")
  0()



EVENT   148
 PAGE   1
  ShowMessageFace("",0,0,2,1)
  ShowMessage("\\n<Soldier>R-regretable...")
  0()



EVENT   149
 PAGE   1
  0()



EVENT   150
 PAGE   1
  0()



EVENT   151
 PAGE   1
  0()



EVENT   152
 PAGE   1
  ScrollMap(8,6,5)
  Wait(60)
  ShowMessageFace("",0,0,2,1)
  ShowMessage("A fierce battle is being waged in front of the palace gates!")
  ScrollMap(2,6,5)
  Wait(60)
  0()



EVENT   153
 PAGE   1
  ShowMessageFace("",0,0,2,1)
  ShowMessage("\\n<Soldier>I can't get erect anymore...")
  0()



EVENT   154
 PAGE   1
  ShowMessageFace("amazoneself_fc1",1,0,2,1)
  ShowMessage("\\n<Elf Amazoness A>Hora hora... Shoot out more!")
  ShowMessageFace("amazoneself_fc1",1,0,2,2)
  ShowMessage("\\n<Elf Amazoness B>Not only are his skills weak, he's not even good down there... He only came five times and he's already useless?")
  ShowMessageFace("",0,0,2,3)
  ShowMessage("\\n<Soldier>Auuu... I can't come anymore...")
  ShowMessageFace("ruka_fc1",0,0,2,4)
  ShowMessage("\\n<Luka>That's enough!")
  205(154,bytes(0x04,0x08,0x6f,0x3a,0x13,0x52,0x50,0x47,0x3a,0x3a,0x4d,0x6f,0x76,0x65,0x52,0x6f,0x75,0x74,0x65,0x09,0x3a,0x0c,0x40,0x72,0x65,0x70,0x65,0x61,0x74,0x46,0x3a,0x0f,0x40,0x73,0x6b,0x69,0x70,0x70,0x61,0x62,0x6c,0x65,0x46,0x3a,0x0a,0x40,0x77,0x61,0x69,0x74,0x46,0x3a,0x0a,0x40,0x6c,0x69,0x73,0x74,0x5b,0x08,0x6f,0x3a,0x15,0x52,0x50,0x47,0x3a,0x3a,0x4d,0x6f,0x76,0x65,0x43,0x6f,0x6d,0x6d,0x61,0x6e,0x64,0x07,0x3a,0x0a,0x40,0x63,0x6f,0x64,0x65,0x69,0x29,0x3a,0x10,0x40,0x70,0x61,0x72,0x61,0x6d,0x65,0x74,0x65,0x72,0x73,0x5b,0x00,0x6f,0x3b,0x0a,0x07,0x3b,0x0b,0x69,0x1e,0x3b,0x0c,0x5b,0x00,0x6f,0x3b,0x0a,0x07,0x3b,0x0b,0x69,0x00,0x3b,0x0c,0x5b,0x00))
  205(155,bytes(0x04,0x08,0x6f,0x3a,0x13,0x52,0x50,0x47,0x3a,0x3a,0x4d,0x6f,0x76,0x65,0x52,0x6f,0x75,0x74,0x65,0x09,0x3a,0x0c,0x40,0x72,0x65,0x70,0x65,0x61,0x74,0x46,0x3a,0x0f,0x40,0x73,0x6b,0x69,0x70,0x70,0x61,0x62,0x6c,0x65,0x46,0x3a,0x0a,0x40,0x77,0x61,0x69,0x74,0x54,0x3a,0x0a,0x40,0x6c,0x69,0x73,0x74,0x5b,0x08,0x6f,0x3a,0x15,0x52,0x50,0x47,0x3a,0x3a,0x4d,0x6f,0x76,0x65,0x43,0x6f,0x6d,0x6d,0x61,0x6e,0x64,0x07,0x3a,0x0a,0x40,0x63,0x6f,0x64,0x65,0x69,0x29,0x3a,0x10,0x40,0x70,0x61,0x72,0x61,0x6d,0x65,0x74,0x65,0x72,0x73,0x5b,0x00,0x6f,0x3b,0x0a,0x07,0x3b,0x0b,0x69,0x1e,0x3b,0x0c,0x5b,0x00,0x6f,0x3b,0x0a,0x07,0x3b,0x0b,0x69,0x00,0x3b,0x0c,0x5b,0x00))
  ShowMessageFace("amazoneself_fc1",1,0,2,5)
  ShowMessage("\\n<Elf Amazoness A>Oh? Are you willing to be my next opponent?")
  ShowMessageFace("amazoneself_fc1",1,0,2,6)
  ShowMessage("\\n<Elf Amazoness B>Come on, I'll rape you plenty!")
  If(4,238,0)
   ShowMessageFace("dorothy_fc1",1,0,2,7)
   ShowMessage("\\n<Dorothy>I'll melt you girls...")
   0()
  EndIf()
  Battle(0,778,false,false)
  ChangeSwitch(2219,2219,0)
  0()
 PAGE   2
  // condition: switch 2219 is ON
  0()



EVENT   155
 PAGE   1
  ShowMessageFace("amazoneself_fc1",1,0,2,1)
  ShowMessage("\\n<Elf Amazoness A>Hora hora... Shoot out more!")
  ShowMessageFace("amazoneself_fc1",1,0,2,2)
  ShowMessage("\\n<Elf Amazoness B>Not only are his skills weak, he's not even good down there... He only came five times and he's already useless?")
  ShowMessageFace("",0,0,2,3)
  ShowMessage("\\n<Soldier>Auuu... I can't come anymore...")
  ShowMessageFace("ruka_fc1",0,0,2,4)
  ShowMessage("\\n<Luka>That's enough!")
  205(154,bytes(0x04,0x08,0x6f,0x3a,0x13,0x52,0x50,0x47,0x3a,0x3a,0x4d,0x6f,0x76,0x65,0x52,0x6f,0x75,0x74,0x65,0x09,0x3a,0x0c,0x40,0x72,0x65,0x70,0x65,0x61,0x74,0x46,0x3a,0x0f,0x40,0x73,0x6b,0x69,0x70,0x70,0x61,0x62,0x6c,0x65,0x46,0x3a,0x0a,0x40,0x77,0x61,0x69,0x74,0x46,0x3a,0x0a,0x40,0x6c,0x69,0x73,0x74,0x5b,0x08,0x6f,0x3a,0x15,0x52,0x50,0x47,0x3a,0x3a,0x4d,0x6f,0x76,0x65,0x43,0x6f,0x6d,0x6d,0x61,0x6e,0x64,0x07,0x3a,0x0a,0x40,0x63,0x6f,0x64,0x65,0x69,0x29,0x3a,0x10,0x40,0x70,0x61,0x72,0x61,0x6d,0x65,0x74,0x65,0x72,0x73,0x5b,0x00,0x6f,0x3b,0x0a,0x07,0x3b,0x0b,0x69,0x1e,0x3b,0x0c,0x5b,0x00,0x6f,0x3b,0x0a,0x07,0x3b,0x0b,0x69,0x00,0x3b,0x0c,0x5b,0x00))
  205(155,bytes(0x04,0x08,0x6f,0x3a,0x13,0x52,0x50,0x47,0x3a,0x3a,0x4d,0x6f,0x76,0x65,0x52,0x6f,0x75,0x74,0x65,0x09,0x3a,0x0c,0x40,0x72,0x65,0x70,0x65,0x61,0x74,0x46,0x3a,0x0f,0x40,0x73,0x6b,0x69,0x70,0x70,0x61,0x62,0x6c,0x65,0x46,0x3a,0x0a,0x40,0x77,0x61,0x69,0x74,0x54,0x3a,0x0a,0x40,0x6c,0x69,0x73,0x74,0x5b,0x08,0x6f,0x3a,0x15,0x52,0x50,0x47,0x3a,0x3a,0x4d,0x6f,0x76,0x65,0x43,0x6f,0x6d,0x6d,0x61,0x6e,0x64,0x07,0x3a,0x0a,0x40,0x63,0x6f,0x64,0x65,0x69,0x29,0x3a,0x10,0x40,0x70,0x61,0x72,0x61,0x6d,0x65,0x74,0x65,0x72,0x73,0x5b,0x00,0x6f,0x3b,0x0a,0x07,0x3b,0x0b,0x69,0x1e,0x3b,0x0c,0x5b,0x00,0x6f,0x3b,0x0a,0x07,0x3b,0x0b,0x69,0x00,0x3b,0x0c,0x5b,0x00))
  ShowMessageFace("amazoneself_fc1",1,0,2,5)
  ShowMessage("\\n<Elf Amazoness A>Oh? Are you willing to be my next opponent?")
  ShowMessageFace("amazoneself_fc1",1,0,2,6)
  ShowMessage("\\n<Elf Amazoness B>Come on, I'll rape you plenty!")
  If(4,238,0)
   ShowMessageFace("dorothy_fc1",1,0,2,7)
   ShowMessage("\\n<Dorothy>I'll melt you girls...")
   0()
  EndIf()
  Battle(0,778,false,false)
  ChangeSwitch(2219,2219,0)
  0()
 PAGE   2
  // condition: switch 2219 is ON
  0()



EVENT   156
 PAGE   1
  ShowMessageFace("fairys_fc1",0,0,2,1)
  ShowMessage("\\n<Fairy A>Ahaha, we're causing mischief. ♪")
  ShowMessageFace("fairys_fc3",1,0,2,2)
  ShowMessage("\\n<Fairy B>Let out more white pee! ♪")
  ShowMessageFace("",0,0,2,3)
  ShowMessage("\\n<Man>Stop, stop...Aaaaahhh!!")
  ShowMessageFace("ruka_fc1",0,0,2,4)
  ShowMessage("\\n<Luka>Knock it off!")
  205(69,bytes(0x04,0x08,0x6f,0x3a,0x13,0x52,0x50,0x47,0x3a,0x3a,0x4d,0x6f,0x76,0x65,0x52,0x6f,0x75,0x74,0x65,0x09,0x3a,0x0c,0x40,0x72,0x65,0x70,0x65,0x61,0x74,0x46,0x3a,0x0f,0x40,0x73,0x6b,0x69,0x70,0x70,0x61,0x62,0x6c,0x65,0x46,0x3a,0x0a,0x40,0x77,0x61,0x69,0x74,0x46,0x3a,0x0a,0x40,0x6c,0x69,0x73,0x74,0x5b,0x08,0x6f,0x3a,0x15,0x52,0x50,0x47,0x3a,0x3a,0x4d,0x6f,0x76,0x65,0x43,0x6f,0x6d,0x6d,0x61,0x6e,0x64,0x07,0x3a,0x0a,0x40,0x63,0x6f,0x64,0x65,0x69,0x29,0x3a,0x10,0x40,0x70,0x61,0x72,0x61,0x6d,0x65,0x74,0x65,0x72,0x73,0x5b,0x00,0x6f,0x3b,0x0a,0x07,0x3b,0x0b,0x69,0x1e,0x3b,0x0c,0x5b,0x00,0x6f,0x3b,0x0a,0x07,0x3b,0x0b,0x69,0x00,0x3b,0x0c,0x5b,0x00))
  205(84,bytes(0x04,0x08,0x6f,0x3a,0x13,0x52,0x50,0x47,0x3a,0x3a,0x4d,0x6f,0x76,0x65,0x52,0x6f,0x75,0x74,0x65,0x09,0x3a,0x0c,0x40,0x72,0x65,0x70,0x65,0x61,0x74,0x46,0x3a,0x0f,0x40,0x73,0x6b,0x69,0x70,0x70,0x61,0x62,0x6c,0x65,0x46,0x3a,0x0a,0x40,0x77,0x61,0x69,0x74,0x46,0x3a,0x0a,0x40,0x6c,0x69,0x73,0x74,0x5b,0x08,0x6f,0x3a,0x15,0x52,0x50,0x47,0x3a,0x3a,0x4d,0x6f,0x76,0x65,0x43,0x6f,0x6d,0x6d,0x61,0x6e,0x64,0x07,0x3a,0x0a,0x40,0x63,0x6f,0x64,0x65,0x69,0x29,0x3a,0x10,0x40,0x70,0x61,0x72,0x61,0x6d,0x65,0x74,0x65,0x72,0x73,0x5b,0x00,0x6f,0x3b,0x0a,0x07,0x3b,0x0b,0x69,0x1e,0x3b,0x0c,0x5b,0x00,0x6f,0x3b,0x0a,0x07,0x3b,0x0b,0x69,0x00,0x3b,0x0c,0x5b,0x00))
  205(156,bytes(0x04,0x08,0x6f,0x3a,0x13,0x52,0x50,0x47,0x3a,0x3a,0x4d,0x6f,0x76,0x65,0x52,0x6f,0x75,0x74,0x65,0x09,0x3a,0x0c,0x40,0x72,0x65,0x70,0x65,0x61,0x74,0x46,0x3a,0x0f,0x40,0x73,0x6b,0x69,0x70,0x70,0x61,0x62,0x6c,0x65,0x46,0x3a,0x0a,0x40,0x77,0x61,0x69,0x74,0x46,0x3a,0x0a,0x40,0x6c,0x69,0x73,0x74,0x5b,0x08,0x6f,0x3a,0x15,0x52,0x50,0x47,0x3a,0x3a,0x4d,0x6f,0x76,0x65,0x43,0x6f,0x6d,0x6d,0x61,0x6e,0x64,0x07,0x3a,0x0a,0x40,0x63,0x6f,0x64,0x65,0x69,0x29,0x3a,0x10,0x40,0x70,0x61,0x72,0x61,0x6d,0x65,0x74,0x65,0x72,0x73,0x5b,0x00,0x6f,0x3b,0x0a,0x07,0x3b,0x0b,0x69,0x1e,0x3b,0x0c,0x5b,0x00,0x6f,0x3b,0x0a,0x07,0x3b,0x0b,0x69,0x00,0x3b,0x0c,0x5b,0x00))
  ShowMessageFace("fairys_fc1",0,0,2,5)
  ShowMessage("\\n<Fairy A>Another fresh human showed up...♪")
  ShowMessageFace("fairys_fc2",1,0,2,6)
  ShowMessage("\\n<Fairy C>Let's show him some mischief. ♪")
  If(4,139,0)
   ShowMessageFace("fairys_fc1",3,0,2,7)
   ShowMessage("\\n<Fairies>Secret Technique! Mischief reversal! ♪")
   0()
  EndIf()
  Battle(0,207,false,false)
  ChangeSwitch(2220,2220,0)
  0()
 PAGE   2
  // condition: switch 2220 is ON
  0()



EVENT   157
 PAGE   1
  ShowMessageFace("",0,0,2,1)
  ShowMessage("\\n<Soldier>Everyone was brought into the alley...by force...")
  0()



EVENT   158
 PAGE   1
  ShowMessageFace("",0,0,2,1)
  ShowMessage("\\n<Middle-aged Man>Hauuuuu...")
  0()



EVENT   159
 PAGE   1
  0()



EVENT   160
 PAGE   1
  0()



EVENT   161
 PAGE   1
  ShowMessageFace("",0,0,2,1)
  ShowMessage("\\n<Soldier>We won't let you step into the Colosseum!")
  ShowMessageFace("",0,0,2,2)
  ShowMessage("\\n<Colosseum Fighter>We must protect our beloved Colosseum!")
  ShowMessageFace("",0,0,2,3)
  ShowMessage("There is a great melee in front of the Colosseum!\nIt doesn't look like we can get through...")
  0()



EVENT   162
 PAGE   1
  0()



EVENT   163
 PAGE   1
  0()



EVENT   164
 PAGE   1
  0()



EVENT   165
 PAGE   1
  0()



EVENT   166
 PAGE   1
  0()



EVENT   167
 PAGE   1
  0()



EVENT   168
 PAGE   1
  0()



EVENT   169
 PAGE   1
  0()



EVENT   170
 PAGE   1
  0()



EVENT   171
 PAGE   1
  0()



EVENT   172
 PAGE   1
  0()



EVENT   173
 PAGE   1
  0()



EVENT   174
 PAGE   1
  0()



EVENT   175
 PAGE   1
  0()



EVENT   176
 PAGE   1
  0()



EVENT   177
 PAGE   1
  0()



EVENT   178
 PAGE   1
  0()



EVENT   179
 PAGE   1
  0()



EVENT   180
 PAGE   1
  0()



EVENT   181
 PAGE   1
  0()



EVENT   182
 PAGE   1
  0()



EVENT   183
 PAGE   1
  0()



EVENT   184
 PAGE   1
  0()



EVENT   185
 PAGE   1
  0()



EVENT   186
 PAGE   1
  ShowMessageFace("",0,0,2,1)
  ShowMessage("\\n<Soldier>Queen Fairy is leading the enemies...\nI'm certain she was called the queen...")
  If(0,4,0)
   ShowMessageFace("alice_fc5",2,0,2,2)
   ShowMessage("\\n<Alice>Queen Fairy is undoubtedly the enemy commander... Come on, we have to find and defeat her!")
   0()
  EndIf()
  If(0,5,0)
   ShowMessageFace("iriasu_fc4",7,0,2,3)
   ShowMessage("\\n<Ilias>The enemy commander is Queen Fairy...\nWe must locate her and send her to hell!")
   0()
  EndIf()
  If(4,97,0)
   ShowMessageFace("fairy_fc1",2,0,2,4)
   ShowMessage("\\n<Fell>I wonder if I'll have to fight the queen...")
   0()
  EndIf()
  0()



EVENT   187
 PAGE   1
  ShowMessageFace("taran_fc1",2,0,2,1)
  ShowMessage("\\n<Spider Girl's Sewing Shop>I'll sew your mouth shut!")
  ShowMessageFace("elf_fc1",0,0,2,2)
  ShowMessage("\\n<Elf>You side with the humans, even though you're a monster...?!")
  0()



EVENT   188
 PAGE   1
  ShowMessageFace("",0,0,2,1)
  ShowMessage("\\n<Soldier>.........")
  0()



EVENT   189
 PAGE   1
  ShowMessageFace("",0,0,2,1)
  ShowMessage("\\n<Soldier>.........")
  0()



EVENT   190
 PAGE   1
  ShowMessageFace("trickfairy_fc1",0,0,2,1)
  ShowMessage("\\n<Trick Fairy>Ahaha, play with meee! ♪")
  If(4,295,0)
   ShowMessageFace("cassandra_fc1",5,0,2,2)
   ShowMessage("\\n<Cassandra>Fufu, shall I play with you...?")
   0()
  EndIf()
  Battle(0,779,false,false)
  TemporaryRemoveEvent()
  0()



EVENT   191
 PAGE   1
  ShowMessageFace("carbuncle_fc1",0,0,2,1)
  ShowMessage("\\n<Carbuncle Girl>The semen of a clergyman...\nI've heard it's unpleasant, but I'd really like to give it a taste.")
  ShowMessageFace("",0,0,2,2)
  ShowMessage("\\n<Priest>I-Ilias...! Save me...!")
  ShowMessageFace("ruka_fc1",0,0,2,3)
  ShowMessage("\\n<Luka>Knock it off!")
  If(4,288,0)
   ShowMessageFace("d_succubus_fc1",0,0,2,4)
   ShowMessage("\\n<Natasha>We'll play with you...")
   0()
  EndIf()
  Battle(0,780,false,false)
  ChangeSwitch(2221,2221,0)
  ShowMessageFace("",0,0,2,5)
  ShowMessage("\\n<Priest>You've saved me, I'll give you this...")
  250(bytes(0x04,0x08,0x6f,0x3a,0x0c,0x52,0x50,0x47,0x3a,0x3a,0x53,0x45,0x08,0x3a,0x0a,0x40,0x6e,0x61,0x6d,0x65,0x49,0x22,0x0a,0x49,0x74,0x65,0x6d,0x31,0x06,0x3a,0x06,0x45,0x54,0x3a,0x0b,0x40,0x70,0x69,0x74,0x63,0x68,0x69,0x69,0x3a,0x0c,0x40,0x76,0x6f,0x6c,0x75,0x6d,0x65,0x69,0x55))
  ChangeInventory_Item(25,0,0,1)
  EndEventProcessing()
  0()
 PAGE   2
  // condition: switch 2221 is ON
  0()



EVENT   192
 PAGE   1
  If(0,2221,1)
   ShowMessageFace("carbuncle_fc1",0,0,2,1)
   ShowMessageFace("carbuncle_fc1",0,0,2,1)
   ShowMessage("\\n<Carbuncle Girl>The semen of a clergyman...\nI've heard it's unpleasant, but I'd really like to give it a taste.")
   ShowMessageFace("",0,0,2,2)
   ShowMessage("\\n<Priest>I-Ilias...! Save me...!")
   0()
  EndIf()
  If(0,2221,0)
   ShowMessageFace("",0,0,2,3)
   ShowMessage("\\n<Priest>Oh, Ilias...\nPlease save this city...")
   0()
  EndIf()
  0()



EVENT   193
 PAGE   1
  ShowMessageFace("",0,0,2,1)
  ShowMessage("\\n<Innkeeper>Anyone who's wounded, please come in quickly!")
  221()
  250(bytes(0x04,0x08,0x6f,0x3a,0x0c,0x52,0x50,0x47,0x3a,0x3a,0x53,0x45,0x08,0x3a,0x0a,0x40,0x6e,0x61,0x6d,0x65,0x49,0x22,0x0a,0x48,0x65,0x61,0x6c,0x37,0x06,0x3a,0x06,0x45,0x54,0x3a,0x0b,0x40,0x70,0x69,0x74,0x63,0x68,0x69,0x69,0x3a,0x0c,0x40,0x76,0x6f,0x6c,0x75,0x6d,0x65,0x69,0x55))
  314(0,0)
  ShowMessageFace("",0,0,2,2)
  ShowMessage("Luka's party received emergency treatment!")
  Wait(60)
  222()
  0()



EVENT   194
 PAGE   1
  ShowMessageFace("",0,0,2,1)
  ShowMessage("\\n<Old Man>To see the state of our country being overrun...")
  0()



EVENT   195
 PAGE   1
  ShowMessageFace("",0,0,2,1)
  ShowMessage("\\n<Guard>You damned invaders...!")
  ShowMessageFace("",0,0,2,2)
  ShowMessage("\\n<Elf>You're the ones laying waste to nature...!")
  0()



EVENT   196
 PAGE   1
  ShowMessageFace("",0,0,2,1)
  ShowMessage("\\n<Guard>You damned invaders...!")
  ShowMessageFace("",0,0,2,2)
  ShowMessage("\\n<Elf>You're the ones laying waste to nature...!")
  0()



EVENT   197
 PAGE   1
  ShowMessageFace("",0,0,2,1)
  ShowMessage("\\n<Youth>Ah... Uuu...")
  0()


