﻿
DisplayName "ゴルド火山洞窟"



EVENT   1
 PAGE   1
  0()



EVENT   2
 PAGE   1
  0()



EVENT   3
 PAGE   1
  0()



EVENT   4
 PAGE   1
  0()



EVENT   5
 PAGE   1
  0()



EVENT   6
 PAGE   1
  0()



EVENT   7
 PAGE   1
  0()



EVENT   8
 PAGE   1
  0()



EVENT   9
 PAGE   1
  0()



EVENT   10
 PAGE   1
  0()



EVENT   11
 PAGE   1
  0()



EVENT   12
 PAGE   1
  250(bytes(0x04,0x08,0x6f,0x3a,0x0c,0x52,0x50,0x47,0x3a,0x3a,0x53,0x45,0x08,0x3a,0x0a,0x40,0x6e,0x61,0x6d,0x65,0x49,0x22,0x09,0x4d,0x6f,0x76,0x65,0x06,0x3a,0x06,0x45,0x54,0x3a,0x0b,0x40,0x70,0x69,0x74,0x63,0x68,0x69,0x69,0x3a,0x0c,0x40,0x76,0x6f,0x6c,0x75,0x6d,0x65,0x69,0x55))
  TeleportPlayer(0,920,63,53,6,0)
  0()



EVENT   13
 PAGE   1
  250(bytes(0x04,0x08,0x6f,0x3a,0x0c,0x52,0x50,0x47,0x3a,0x3a,0x53,0x45,0x08,0x3a,0x0a,0x40,0x6e,0x61,0x6d,0x65,0x49,0x22,0x0a,0x43,0x68,0x65,0x73,0x74,0x06,0x3a,0x06,0x45,0x54,0x3a,0x0b,0x40,0x70,0x69,0x74,0x63,0x68,0x69,0x69,0x3a,0x0c,0x40,0x76,0x6f,0x6c,0x75,0x6d,0x65,0x69,0x55))
  205(0,bytes(0x04,0x08,0x6f,0x3a,0x13,0x52,0x50,0x47,0x3a,0x3a,0x4d,0x6f,0x76,0x65,0x52,0x6f,0x75,0x74,0x65,0x09,0x3a,0x0c,0x40,0x72,0x65,0x70,0x65,0x61,0x74,0x46,0x3a,0x0f,0x40,0x73,0x6b,0x69,0x70,0x70,0x61,0x62,0x6c,0x65,0x46,0x3a,0x0a,0x40,0x77,0x61,0x69,0x74,0x54,0x3a,0x0a,0x40,0x6c,0x69,0x73,0x74,0x5b,0x0b,0x6f,0x3a,0x15,0x52,0x50,0x47,0x3a,0x3a,0x4d,0x6f,0x76,0x65,0x43,0x6f,0x6d,0x6d,0x61,0x6e,0x64,0x07,0x3a,0x0a,0x40,0x63,0x6f,0x64,0x65,0x69,0x29,0x3a,0x10,0x40,0x70,0x61,0x72,0x61,0x6d,0x65,0x74,0x65,0x72,0x73,0x5b,0x00,0x6f,0x3b,0x0a,0x07,0x3b,0x0b,0x69,0x16,0x3b,0x0c,0x5b,0x00,0x6f,0x3b,0x0a,0x07,0x3b,0x0b,0x69,0x14,0x3b,0x0c,0x5b,0x06,0x69,0x08,0x6f,0x3b,0x0a,0x07,0x3b,0x0b,0x69,0x17,0x3b,0x0c,0x5b,0x00,0x6f,0x3b,0x0a,0x07,0x3b,0x0b,0x69,0x14,0x3b,0x0c,0x5b,0x06,0x69,0x08,0x6f,0x3b,0x0a,0x07,0x3b,0x0b,0x69,0x00,0x3b,0x0c,0x5b,0x00))
  ChangeSelfSwitch("A",0)
  ChangeInventoryArmor(311,0,0,1,false)
  0()
 PAGE   2
  // condition: self-switch A is ON
  0()



EVENT   14
 PAGE   1
  250(bytes(0x04,0x08,0x6f,0x3a,0x0c,0x52,0x50,0x47,0x3a,0x3a,0x53,0x45,0x08,0x3a,0x0a,0x40,0x6e,0x61,0x6d,0x65,0x49,0x22,0x0a,0x43,0x68,0x65,0x73,0x74,0x06,0x3a,0x06,0x45,0x54,0x3a,0x0b,0x40,0x70,0x69,0x74,0x63,0x68,0x69,0x69,0x3a,0x0c,0x40,0x76,0x6f,0x6c,0x75,0x6d,0x65,0x69,0x55))
  205(0,bytes(0x04,0x08,0x6f,0x3a,0x13,0x52,0x50,0x47,0x3a,0x3a,0x4d,0x6f,0x76,0x65,0x52,0x6f,0x75,0x74,0x65,0x09,0x3a,0x0c,0x40,0x72,0x65,0x70,0x65,0x61,0x74,0x46,0x3a,0x0f,0x40,0x73,0x6b,0x69,0x70,0x70,0x61,0x62,0x6c,0x65,0x46,0x3a,0x0a,0x40,0x77,0x61,0x69,0x74,0x54,0x3a,0x0a,0x40,0x6c,0x69,0x73,0x74,0x5b,0x0b,0x6f,0x3a,0x15,0x52,0x50,0x47,0x3a,0x3a,0x4d,0x6f,0x76,0x65,0x43,0x6f,0x6d,0x6d,0x61,0x6e,0x64,0x07,0x3a,0x0a,0x40,0x63,0x6f,0x64,0x65,0x69,0x29,0x3a,0x10,0x40,0x70,0x61,0x72,0x61,0x6d,0x65,0x74,0x65,0x72,0x73,0x5b,0x00,0x6f,0x3b,0x0a,0x07,0x3b,0x0b,0x69,0x16,0x3b,0x0c,0x5b,0x00,0x6f,0x3b,0x0a,0x07,0x3b,0x0b,0x69,0x14,0x3b,0x0c,0x5b,0x06,0x69,0x08,0x6f,0x3b,0x0a,0x07,0x3b,0x0b,0x69,0x17,0x3b,0x0c,0x5b,0x00,0x6f,0x3b,0x0a,0x07,0x3b,0x0b,0x69,0x14,0x3b,0x0c,0x5b,0x06,0x69,0x08,0x6f,0x3b,0x0a,0x07,0x3b,0x0b,0x69,0x00,0x3b,0x0c,0x5b,0x00))
  ChangeSelfSwitch("A",0)
  ChangeInventoryWeapon(926,0,0,1,false)
  0()
 PAGE   2
  // condition: self-switch A is ON
  0()



EVENT   15
 PAGE   1
  250(bytes(0x04,0x08,0x6f,0x3a,0x0c,0x52,0x50,0x47,0x3a,0x3a,0x53,0x45,0x08,0x3a,0x0a,0x40,0x6e,0x61,0x6d,0x65,0x49,0x22,0x0a,0x43,0x68,0x65,0x73,0x74,0x06,0x3a,0x06,0x45,0x54,0x3a,0x0b,0x40,0x70,0x69,0x74,0x63,0x68,0x69,0x69,0x3a,0x0c,0x40,0x76,0x6f,0x6c,0x75,0x6d,0x65,0x69,0x55))
  205(0,bytes(0x04,0x08,0x6f,0x3a,0x13,0x52,0x50,0x47,0x3a,0x3a,0x4d,0x6f,0x76,0x65,0x52,0x6f,0x75,0x74,0x65,0x09,0x3a,0x0c,0x40,0x72,0x65,0x70,0x65,0x61,0x74,0x46,0x3a,0x0f,0x40,0x73,0x6b,0x69,0x70,0x70,0x61,0x62,0x6c,0x65,0x46,0x3a,0x0a,0x40,0x77,0x61,0x69,0x74,0x54,0x3a,0x0a,0x40,0x6c,0x69,0x73,0x74,0x5b,0x0b,0x6f,0x3a,0x15,0x52,0x50,0x47,0x3a,0x3a,0x4d,0x6f,0x76,0x65,0x43,0x6f,0x6d,0x6d,0x61,0x6e,0x64,0x07,0x3a,0x0a,0x40,0x63,0x6f,0x64,0x65,0x69,0x29,0x3a,0x10,0x40,0x70,0x61,0x72,0x61,0x6d,0x65,0x74,0x65,0x72,0x73,0x5b,0x00,0x6f,0x3b,0x0a,0x07,0x3b,0x0b,0x69,0x16,0x3b,0x0c,0x5b,0x00,0x6f,0x3b,0x0a,0x07,0x3b,0x0b,0x69,0x14,0x3b,0x0c,0x5b,0x06,0x69,0x08,0x6f,0x3b,0x0a,0x07,0x3b,0x0b,0x69,0x17,0x3b,0x0c,0x5b,0x00,0x6f,0x3b,0x0a,0x07,0x3b,0x0b,0x69,0x14,0x3b,0x0c,0x5b,0x06,0x69,0x08,0x6f,0x3b,0x0a,0x07,0x3b,0x0b,0x69,0x00,0x3b,0x0c,0x5b,0x00))
  ChangeSelfSwitch("A",0)
  ChangeInventoryArmor(138,0,0,1,false)
  0()
 PAGE   2
  // condition: self-switch A is ON
  0()



EVENT   16
 PAGE   1
  250(bytes(0x04,0x08,0x6f,0x3a,0x0c,0x52,0x50,0x47,0x3a,0x3a,0x53,0x45,0x08,0x3a,0x0a,0x40,0x6e,0x61,0x6d,0x65,0x49,0x22,0x0a,0x43,0x68,0x65,0x73,0x74,0x06,0x3a,0x06,0x45,0x54,0x3a,0x0b,0x40,0x70,0x69,0x74,0x63,0x68,0x69,0x69,0x3a,0x0c,0x40,0x76,0x6f,0x6c,0x75,0x6d,0x65,0x69,0x55))
  205(0,bytes(0x04,0x08,0x6f,0x3a,0x13,0x52,0x50,0x47,0x3a,0x3a,0x4d,0x6f,0x76,0x65,0x52,0x6f,0x75,0x74,0x65,0x09,0x3a,0x0c,0x40,0x72,0x65,0x70,0x65,0x61,0x74,0x46,0x3a,0x0f,0x40,0x73,0x6b,0x69,0x70,0x70,0x61,0x62,0x6c,0x65,0x46,0x3a,0x0a,0x40,0x77,0x61,0x69,0x74,0x54,0x3a,0x0a,0x40,0x6c,0x69,0x73,0x74,0x5b,0x0b,0x6f,0x3a,0x15,0x52,0x50,0x47,0x3a,0x3a,0x4d,0x6f,0x76,0x65,0x43,0x6f,0x6d,0x6d,0x61,0x6e,0x64,0x07,0x3a,0x0a,0x40,0x63,0x6f,0x64,0x65,0x69,0x29,0x3a,0x10,0x40,0x70,0x61,0x72,0x61,0x6d,0x65,0x74,0x65,0x72,0x73,0x5b,0x00,0x6f,0x3b,0x0a,0x07,0x3b,0x0b,0x69,0x16,0x3b,0x0c,0x5b,0x00,0x6f,0x3b,0x0a,0x07,0x3b,0x0b,0x69,0x14,0x3b,0x0c,0x5b,0x06,0x69,0x08,0x6f,0x3b,0x0a,0x07,0x3b,0x0b,0x69,0x17,0x3b,0x0c,0x5b,0x00,0x6f,0x3b,0x0a,0x07,0x3b,0x0b,0x69,0x14,0x3b,0x0c,0x5b,0x06,0x69,0x08,0x6f,0x3b,0x0a,0x07,0x3b,0x0b,0x69,0x00,0x3b,0x0c,0x5b,0x00))
  ChangeSelfSwitch("A",0)
  ChangeInventoryArmor(1494,0,0,1,false)
  0()
 PAGE   2
  // condition: self-switch A is ON
  0()



EVENT   19
 PAGE   1
  250(bytes(0x04,0x08,0x6f,0x3a,0x0c,0x52,0x50,0x47,0x3a,0x3a,0x53,0x45,0x08,0x3a,0x0a,0x40,0x6e,0x61,0x6d,0x65,0x49,0x22,0x0a,0x43,0x68,0x65,0x73,0x74,0x06,0x3a,0x06,0x45,0x54,0x3a,0x0b,0x40,0x70,0x69,0x74,0x63,0x68,0x69,0x69,0x3a,0x0c,0x40,0x76,0x6f,0x6c,0x75,0x6d,0x65,0x69,0x55))
  205(0,bytes(0x04,0x08,0x6f,0x3a,0x13,0x52,0x50,0x47,0x3a,0x3a,0x4d,0x6f,0x76,0x65,0x52,0x6f,0x75,0x74,0x65,0x09,0x3a,0x0c,0x40,0x72,0x65,0x70,0x65,0x61,0x74,0x46,0x3a,0x0f,0x40,0x73,0x6b,0x69,0x70,0x70,0x61,0x62,0x6c,0x65,0x46,0x3a,0x0a,0x40,0x77,0x61,0x69,0x74,0x54,0x3a,0x0a,0x40,0x6c,0x69,0x73,0x74,0x5b,0x0b,0x6f,0x3a,0x15,0x52,0x50,0x47,0x3a,0x3a,0x4d,0x6f,0x76,0x65,0x43,0x6f,0x6d,0x6d,0x61,0x6e,0x64,0x07,0x3a,0x0a,0x40,0x63,0x6f,0x64,0x65,0x69,0x29,0x3a,0x10,0x40,0x70,0x61,0x72,0x61,0x6d,0x65,0x74,0x65,0x72,0x73,0x5b,0x00,0x6f,0x3b,0x0a,0x07,0x3b,0x0b,0x69,0x16,0x3b,0x0c,0x5b,0x00,0x6f,0x3b,0x0a,0x07,0x3b,0x0b,0x69,0x14,0x3b,0x0c,0x5b,0x06,0x69,0x08,0x6f,0x3b,0x0a,0x07,0x3b,0x0b,0x69,0x17,0x3b,0x0c,0x5b,0x00,0x6f,0x3b,0x0a,0x07,0x3b,0x0b,0x69,0x14,0x3b,0x0c,0x5b,0x06,0x69,0x08,0x6f,0x3b,0x0a,0x07,0x3b,0x0b,0x69,0x00,0x3b,0x0c,0x5b,0x00))
  ChangeSelfSwitch("A",0)
  ChangeInventoryWeapon(531,0,0,1,false)
  0()
 PAGE   2
  // condition: self-switch A is ON
  0()



EVENT   21
 PAGE   1
  PictureDisplay(5,"80_salamander_st01",0,0,0,0,100,100,0,0)
  PictureMove(5,null,0,0,0,0,100,100,255,0,60,true)
  217()
  ShowMessageFace("salamander_fc1",0,0,2,1)
  ShowMessage("\\n<サラマンダー>")
  ShowMessage("現在、肉体は別のところにいるゆえ……")
  ShowMessage("精神体で相手をする無礼を許せ。")
  ShowMessageFace("salamander_fc1",0,0,2,2)
  ShowMessage("\\n<サラマンダー>")
  ShowMessage("私はサラマンダー、炎を統べる精霊だ。")
  ShowMessage("旅人よ、私に何の用だ……？")
  ShowMessageFace("lawrat_fc1",0,0,2,3)
  ShowMessage("\\n<Lauratt>")
  ShowMessage("……………………")
  ShowMessageFace("",0,0,2,4)
  ShowMessage("ロウラットは、事情を説明した……")
  PictureDisplay(5,"80_salamander_st03",0,0,0,0,100,100,255,0)
  ShowMessageFace("salamander_fc1",2,0,2,5)
  ShowMessage("\\n<サラマンダー>")
  ShowMessage("なんと、ルーンだと！？")
  ShowMessage("これは驚いた、ずいぶん懐かしいな……")
  ShowMessageFace("salamander_fc1",2,0,2,6)
  ShowMessage("\\n<サラマンダー>")
  ShowMessage("最後にルーンの使い手を見たのは……")
  ShowMessage("確か、聖魔大戦より少し後だったか。")
  ShowMessageFace("salamander_fc1",2,0,2,7)
  ShowMessage("\\n<サラマンダー>")
  ShowMessage("聖魔大戦以後、ルーンは禁術とされてな。")
  ShowMessage("まさか、その術を継承していた者がいたとは……")
  ShowMessageFace("lawrat_fc1",0,0,2,8)
  ShowMessage("\\n<Lauratt>")
  ShowMessage("……………………")
  ShowMessageFace("",0,0,2,9)
  ShowMessage("この世界では、千年以上前にルーンは廃れたらしい。")
  ShowMessage("精霊信仰に繋がるとして禁止されたという話だったか。")
  PictureDisplay(5,"80_salamander_st02",0,0,0,0,100,100,255,0)
  ShowMessageFace("salamander_fc1",1,0,2,10)
  ShowMessage("\\n<サラマンダー>")
  ShowMessage("なるほど、それでルーンに我が力をな……")
  ShowMessage("いいだろう、欲するならば力を見せよ！")
  ShowMessageFace("salamander_fc1",1,0,2,11)
  ShowMessage("\\n<サラマンダー>")
  ShowMessage("さあ、全力で掛かってこい！")
  ShowMessage("私に倒されるようなら、力など貸せんぞ！")
  ShowMessageFace("magatu_fc1",2,0,2,12)
  ShowMessage("\\n<Magatsu>")
  ShowMessage("この手の試練は、どの世界でも似たようなものじゃな。")
  ShowMessage("我等が力、存分に見せてやろうぞ！")
  ShowMessageFace("rejeo_fc1",1,0,2,13)
  ShowMessage("\\n<Rigeo>")
  ShowMessage("乱暴ね……暑苦しいし……")
  ShowMessageFace("lawrat_fc1",0,0,2,14)
  ShowMessage("\\n<Lauratt>")
  ShowMessage("……………………")
  ShowMessageFace("",0,0,2,15)
  ShowMessage("今の自分には、もっと強い力が必要だ。")
  ShowMessage("そのためにも、信念を示さなければ――")
  SetBattleBGM(bytes(0x04,0x08,0x6f,0x3a,0x0d,0x52,0x50,0x47,0x3a,0x3a,0x42,0x47,0x4d,0x08,0x3a,0x0a,0x40,0x6e,0x61,0x6d,0x65,0x49,0x22,0x13,0x62,0x6f,0x73,0x73,0x5f,0x79,0x6f,0x6e,0x73,0x65,0x69,0x72,0x65,0x69,0x06,0x3a,0x06,0x45,0x54,0x3a,0x0c,0x40,0x76,0x6f,0x6c,0x75,0x6d,0x65,0x69,0x69,0x3a,0x0b,0x40,0x70,0x69,0x74,0x63,0x68,0x69,0x69))
  Battle(0,1349,false,false)
  281(1)
  TeleportPlayer(0,854,27,41,8,2)
  205(0,bytes(0x04,0x08,0x6f,0x3a,0x13,0x52,0x50,0x47,0x3a,0x3a,0x4d,0x6f,0x76,0x65,0x52,0x6f,0x75,0x74,0x65,0x09,0x3a,0x0c,0x40,0x72,0x65,0x70,0x65,0x61,0x74,0x46,0x3a,0x0f,0x40,0x73,0x6b,0x69,0x70,0x70,0x61,0x62,0x6c,0x65,0x46,0x3a,0x0a,0x40,0x77,0x61,0x69,0x74,0x54,0x3a,0x0a,0x40,0x6c,0x69,0x73,0x74,0x5b,0x07,0x6f,0x3a,0x15,0x52,0x50,0x47,0x3a,0x3a,0x4d,0x6f,0x76,0x65,0x43,0x6f,0x6d,0x6d,0x61,0x6e,0x64,0x07,0x3a,0x0a,0x40,0x63,0x6f,0x64,0x65,0x69,0x15,0x3a,0x10,0x40,0x70,0x61,0x72,0x61,0x6d,0x65,0x74,0x65,0x72,0x73,0x5b,0x00,0x6f,0x3b,0x0a,0x07,0x3b,0x0b,0x69,0x00,0x3b,0x0c,0x5b,0x00))
  SetBattleBGM(bytes(0x04,0x08,0x6f,0x3a,0x0d,0x52,0x50,0x47,0x3a,0x3a,0x42,0x47,0x4d,0x08,0x3a,0x0a,0x40,0x6e,0x61,0x6d,0x65,0x49,0x22,0x0b,0x62,0x61,0x74,0x74,0x6c,0x65,0x06,0x3a,0x06,0x45,0x54,0x3a,0x0c,0x40,0x76,0x6f,0x6c,0x75,0x6d,0x65,0x69,0x69,0x3a,0x0b,0x40,0x70,0x69,0x74,0x63,0x68,0x69,0x69))
  241(bytes(0x04,0x08,0x6f,0x3a,0x0d,0x52,0x50,0x47,0x3a,0x3a,0x42,0x47,0x4d,0x08,0x3a,0x0a,0x40,0x6e,0x61,0x6d,0x65,0x49,0x22,0x14,0x73,0x63,0x65,0x6e,0x65,0x5f,0x65,0x70,0x69,0x6c,0x6f,0x67,0x75,0x65,0x32,0x06,0x3a,0x06,0x45,0x54,0x3a,0x0c,0x40,0x76,0x6f,0x6c,0x75,0x6d,0x65,0x69,0x69,0x3a,0x0b,0x40,0x70,0x69,0x74,0x63,0x68,0x69,0x69))
  ShowMessageFace("salamander_fc1",1,0,2,16)
  ShowMessage("\\n<サラマンダー>")
  ShowMessage("なるほど……もう十分だ。")
  ShowMessage("お前達の力、しかと受け止めたぞ。")
  ShowMessageFace("rejeo_fc1",1,0,2,17)
  ShowMessage("\\n<Rigeo>")
  ShowMessage("ふぅ……や、やっと終わり……？")
  ShowMessage("私疲れた……ちょっと休ませて……")
  ShowMessageFace("magatu_fc1",0,0,2,18)
  ShowMessage("\\n<Magatsu>")
  ShowMessage("流石は炎を統べる者……")
  ShowMessage("まさに炎の如き闘争心じゃな。")
  PictureDisplay(5,"80_salamander_st01",0,0,0,0,100,100,255,0)
  ShowMessageFace("salamander_fc1",0,0,2,19)
  ShowMessage("\\n<サラマンダー>")
  ShowMessage("それでは、そのルーンに我が力を刻み込んでやろう。")
  ShowMessage("千数百年振りだ、上手くいくかどうか……")
  ShowMessageFace("rejeo_fc1",0,0,2,20)
  ShowMessage("\\n<Rigeo>")
  ShowMessage("ここまで来て、失敗なんて勘弁してよ……？")
  ShowMessageFace("",0,0,2,21)
  ShowMessage("サラマンダーは、ロウラットの手に掌を重ねた！")
  PictureDisplay(5,"80_salamander_st02",0,0,0,0,100,100,255,0)
  ShowMessageFace("salamander_fc1",1,0,2,22)
  ShowMessage("\\n<サラマンダー>")
  ShowMessage("この感じ、懐かしいな……")
  ShowMessage("ルーンよ、我が炎を刻め！")
  250(bytes(0x04,0x08,0x6f,0x3a,0x0c,0x52,0x50,0x47,0x3a,0x3a,0x53,0x45,0x08,0x3a,0x0a,0x40,0x6e,0x61,0x6d,0x65,0x49,0x22,0x0d,0x6d,0x6f,0x6e,0x5f,0x77,0x61,0x72,0x6d,0x06,0x3a,0x06,0x45,0x54,0x3a,0x0b,0x40,0x70,0x69,0x74,0x63,0x68,0x69,0x69,0x3a,0x0c,0x40,0x76,0x6f,0x6c,0x75,0x6d,0x65,0x69,0x69))
  PictureDisplay(6,"sys_white",0,0,0,0,100,100,0,0)
  PictureMove(6,null,0,0,0,0,100,100,255,0,30,true)
  PictureMove(6,null,0,0,0,0,100,100,0,0,30,true)
  PictureClear(6)
  ShowMessageFace("salamander_fc1",1,0,2,23)
  ShowMessage("\\n<サラマンダー>")
  ShowMessage("……よし、うまく行ったな。")
  ShowMessage("これで、精霊の力がルーンに宿ったぞ。")
  ShowMessageFace("rejeo_fc1",0,0,2,24)
  ShowMessage("\\n<Rigeo>")
  ShowMessage("どう、ロウラット？")
  ShowMessage("強くなった感じ、する……？")
  ShowMessageFace("lawrat_fc1",0,0,2,25)
  ShowMessage("\\n<Lauratt>")
  ShowMessage("……………………")
  If(0,1927,1)
   355("set_class_level(807, 34, 10, false, false)")
   655("set_class_level(807, 35, 3, false, false)")
   655("set_class_level(807, 36, 3, false, false)")
   655("set_class_level(807, 37, 3, false, false)")
   655("set_class_level(807, 40, 10, false, false)")
   655("set_class_level(807, 41, 4, false, true)")
   655("set_class_level(807, 45, 10, false, false)")
   655("set_class_level(807, 47, 10, false, false)")
   655("set_class_level(807, 101, 10, false, false)")
   0()
  Else()
   355("set_class_level(807, 34, 10, false, false)")
   655("set_class_level(807, 35, 3, false, false)")
   655("set_class_level(807, 36, 3, false, false)")
   655("set_class_level(807, 37, 3, false, false)")
   655("set_class_level(807, 40, 10, false, false)")
   655("set_class_level(807, 41, 4, false, false)")
   655("set_class_level(807, 45, 10, false, false)")
   655("set_class_level(807, 47, 10, false, false)")
   655("set_class_level(807, 101, 10, false, false)")
   0()
  EndIf()
  318(0,807,0,279)
  ShowMessageFace("",0,0,2,26)
  ShowMessage("ルーンに、燃えたぎるような力が宿ったのを感じる。")
  ShowMessage("これで、さらに強力な魔法が使用できるはずだ――")
  PictureDisplay(5,"80_salamander_st01",0,0,0,0,100,100,255,0)
  ShowMessageFace("salamander_fc1",0,0,2,27)
  ShowMessage("\\n<サラマンダー>")
  ShowMessage("それでは、私は失礼する。")
  ShowMessage("肉体の方が、色々と立て込んでいてな……")
  ShowMessageFace("magatu_fc1",2,0,2,28)
  ShowMessage("\\n<Magatsu>")
  ShowMessage("そう言えば、それは精神体と言っていたな。")
  ShowMessage("器用な術を使いおる……")
  ShowMessageFace("rejeo_fc1",0,0,2,29)
  ShowMessage("\\n<Rigeo>")
  ShowMessage("立て込んでるって……何かあったの？")
  ShowMessageFace("salamander_fc1",0,0,2,30)
  ShowMessage("\\n<サラマンダー>")
  ShowMessage("フィノアで異変があったゆえ、同行を――")
  ShowMessage("いや、こっちの事情だ。")
  ShowMessageFace("salamander_fc1",0,0,2,31)
  ShowMessage("\\n<サラマンダー>")
  ShowMessage("そういうわけで、急ぐ身だ！")
  ShowMessage("お前達の先行きにも、勝利あらんことを！")
  PictureClear(5)
  Wait(30)
  250(bytes(0x04,0x08,0x6f,0x3a,0x0c,0x52,0x50,0x47,0x3a,0x3a,0x53,0x45,0x08,0x3a,0x0a,0x40,0x6e,0x61,0x6d,0x65,0x49,0x22,0x0d,0x6d,0x6f,0x6e,0x5f,0x77,0x61,0x72,0x70,0x06,0x3a,0x06,0x45,0x54,0x3a,0x0b,0x40,0x70,0x69,0x74,0x63,0x68,0x69,0x69,0x3a,0x0c,0x40,0x76,0x6f,0x6c,0x75,0x6d,0x65,0x69,0x69))
  205(0,bytes(0x04,0x08,0x6f,0x3a,0x13,0x52,0x50,0x47,0x3a,0x3a,0x4d,0x6f,0x76,0x65,0x52,0x6f,0x75,0x74,0x65,0x09,0x3a,0x0c,0x40,0x72,0x65,0x70,0x65,0x61,0x74,0x46,0x3a,0x0f,0x40,0x73,0x6b,0x69,0x70,0x70,0x61,0x62,0x6c,0x65,0x46,0x3a,0x0a,0x40,0x77,0x61,0x69,0x74,0x54,0x3a,0x0a,0x40,0x6c,0x69,0x73,0x74,0x5b,0x07,0x6f,0x3a,0x15,0x52,0x50,0x47,0x3a,0x3a,0x4d,0x6f,0x76,0x65,0x43,0x6f,0x6d,0x6d,0x61,0x6e,0x64,0x07,0x3a,0x0a,0x40,0x63,0x6f,0x64,0x65,0x69,0x2c,0x3a,0x10,0x40,0x70,0x61,0x72,0x61,0x6d,0x65,0x74,0x65,0x72,0x73,0x5b,0x00,0x6f,0x3b,0x0a,0x07,0x3b,0x0b,0x69,0x00,0x3b,0x0c,0x5b,0x00))
  Wait(30)
  ShowMessageFace("rejeo_fc1",0,0,2,32)
  ShowMessage("\\n<Rigeo>")
  ShowMessage("……まぁ、これで用事は済んだ。")
  ShowMessage("こんな暑苦しい場所、さっさと出ましょう。")
  242(1)
  ShowMessageFace("",0,0,2,33)
  ShowMessage("\\n<？？？>")
  ShowMessage("あら、もう行ってしまうの？")
  ShowMessage("この私が、直々に会いに来てあげたというのに――")
  205(-1,bytes(0x04,0x08,0x6f,0x3a,0x13,0x52,0x50,0x47,0x3a,0x3a,0x4d,0x6f,0x76,0x65,0x52,0x6f,0x75,0x74,0x65,0x09,0x3a,0x0c,0x40,0x72,0x65,0x70,0x65,0x61,0x74,0x46,0x3a,0x0f,0x40,0x73,0x6b,0x69,0x70,0x70,0x61,0x62,0x6c,0x65,0x46,0x3a,0x0a,0x40,0x77,0x61,0x69,0x74,0x54,0x3a,0x0a,0x40,0x6c,0x69,0x73,0x74,0x5b,0x07,0x6f,0x3a,0x15,0x52,0x50,0x47,0x3a,0x3a,0x4d,0x6f,0x76,0x65,0x43,0x6f,0x6d,0x6d,0x61,0x6e,0x64,0x07,0x3a,0x0a,0x40,0x63,0x6f,0x64,0x65,0x69,0x15,0x3a,0x10,0x40,0x70,0x61,0x72,0x61,0x6d,0x65,0x74,0x65,0x72,0x73,0x5b,0x00,0x6f,0x3b,0x0a,0x07,0x3b,0x0b,0x69,0x00,0x3b,0x0c,0x5b,0x00))
  Wait(30)
  212(22,542,false)
  Wait(60)
  ChangeSwitch(31,31,0)
  Wait(60)
  241(bytes(0x04,0x08,0x6f,0x3a,0x0d,0x52,0x50,0x47,0x3a,0x3a,0x42,0x47,0x4d,0x08,0x3a,0x0a,0x40,0x6e,0x61,0x6d,0x65,0x49,0x22,0x0c,0x62,0x6f,0x73,0x73,0x30,0x2d,0x32,0x06,0x3a,0x06,0x45,0x54,0x3a,0x0c,0x40,0x76,0x6f,0x6c,0x75,0x6d,0x65,0x69,0x69,0x3a,0x0b,0x40,0x70,0x69,0x74,0x63,0x68,0x69,0x69))
  ShowMessageFace("",0,0,2,34)
  ShowMessage("その場に、悠々と現れた女性。")
  ShowMessage("それは自分たちの知る「夢魔」――")
  PictureDisplay(5,"80_fulbeua_st01",0,0,0,0,100,100,0,0)
  PictureMove(5,null,0,0,0,0,100,100,255,0,30,true)
  ShowMessageFace("fulbeua_fc1",0,0,2,35)
  ShowMessage("\\n<Fullviewer>")
  ShowMessage("フルビュア・シーナ・レスターニ……")
  ShowMessage("この麗しき名、貴方の脳に焼き付いているはずよ。")
  ShowMessageFace("rejeo_fc1",1,0,2,36)
  ShowMessage("\\n<Rigeo>")
  ShowMessage("アンタは……まさか、フルビュア！？")
  ShowMessage("どうしてこの世界にいるの……！？")
  ShowMessageFace("",0,0,2,37)
  ShowMessage("まさか、同盟者――")
  ShowMessage("フルビュアも、夢の主に呼ばれたというのか？")
  ShowMessageFace("fulbeua_fc1",0,0,2,38)
  ShowMessage("\\n<Fullviewer>")
  ShowMessage("ロウラット、密教会では貴方から私に会いに来たわね。")
  ShowMessage("だから今回、貴方の求めに応じて来てあげたわ。")
  ShowMessageFace("fulbeua_fc1",0,0,2,39)
  ShowMessage("\\n<Fullviewer>")
  ShowMessage("栄誉に預かったこと、光栄に思いなさい……♡")
  ShowMessageFace("rejeo_fc1",0,0,2,40)
  ShowMessage("\\n<Rigeo>")
  ShowMessage("……ロウラット、自分からフルビュアに会いに行ったの？")
  ShowMessageFace("lawrat_fc1",0,0,2,41)
  ShowMessage("\\n<Lauratt>")
  ShowMessage("……………………")
  ShowMessageFace("",0,0,2,42)
  ShowMessage("いや、そんな記憶はない。")
  ShowMessageFace("magatu_fc1",3,0,2,43)
  ShowMessage("\\n<Magatsu>")
  ShowMessage("この夢魔も、お前達と同じ世界から来たのか。")
  ShowMessage("しかも、相当に強く――")
  ShowMessageFace("fulbeua_fc1",0,0,2,44)
  ShowMessage("\\n<Fullviewer>")
  ShowMessage("――そして、美しい。")
  ShowMessageFace("magatu_fc1",2,0,2,45)
  ShowMessage("\\n<Magatsu>")
  ShowMessage("（自意識過剰だ、と言おうとしたのじゃが……）")
  ShowMessageFace("rejeo_fc1",0,0,2,46)
  ShowMessage("\\n<Rigeo>")
  ShowMessage("でも、意外ね……アンタのことは聞きかじりだけど、")
  ShowMessage("高慢そうなアンタが、「夢の主」の下につくだなんて。")
  ShowMessageFace("fulbeua_fc1",0,0,2,47)
  ShowMessage("\\n<Fullviewer>")
  ShowMessage("「同盟者」の意味、御存知ないようね。")
  ShowMessage("夢の主と同盟者達の間に、上下関係などないの。")
  ShowMessageFace("fulbeua_fc1",0,0,2,48)
  ShowMessage("\\n<Fullviewer>")
  ShowMessage("そもそも、「夜の国」にも大した興味はないわ。")
  ShowMessage("人の意志が失われれば、美を崇める心も消え果てる……")
  ShowMessageFace("fulbeua_fc1",0,0,2,49)
  ShowMessage("\\n<Fullviewer>")
  ShowMessage("そのような世界、私は望んでなどいないの。")
  ShowMessage("美しさが、美しさの意味を失う世界など――")
  ShowMessageFace("lawrat_fc1",0,0,2,50)
  ShowMessage("\\n<Lauratt>")
  ShowMessage("……………………")
  ShowMessageFace("fulbeua_fc1",0,0,2,51)
  ShowMessage("\\n<Fullviewer>")
  ShowMessage("もっとも、エスト・モルンとて――")
  ShowMessage("そのような世界、真に望んでいるか知れたものではないけど。")
  ShowMessageFace("rejeo_fc1",0,0,2,52)
  ShowMessage("\\n<Rigeo>")
  ShowMessage("それは、どういうこと……？")
  ShowMessage("エストってのが、「夢の主」の名前……？")
  ShowMessageFace("magatu_fc1",2,0,2,53)
  ShowMessage("\\n<Magatsu>")
  ShowMessage("エストとやらの走狗でないならば――")
  ShowMessage("結局、お主は何がしたいというのだ？")
  ShowMessageFace("fulbeua_fc1",0,0,2,54)
  ShowMessage("\\n<Fullviewer>")
  ShowMessage("私は、この世界に真の美をもたらしたいだけ。")
  ShowMessage("誰かの下で働くなど、私の美意識に反するわ。")
  ShowMessageFace("lawrat_fc1",0,0,2,55)
  ShowMessage("\\n<Lauratt>")
  ShowMessage("……………………")
  ShowMessageFace("fulbeua_fc1",0,0,2,56)
  ShowMessage("\\n<Fullviewer>")
  ShowMessage("さて……もうすぐ、東の地に魔城が現れるの。")
  ShowMessage("この私の居城、魔城トゥーロマンサが――")
  ShowMessageFace("rejeo_fc1",1,0,2,57)
  ShowMessage("\\n<Rigeo>")
  ShowMessage("魔城トゥーロマンサ……！？")
  ShowMessage("東の地って……どういうこと！？")
  ShowMessageFace("fulbeua_fc1",0,0,2,58)
  ShowMessage("\\n<Fullviewer>")
  ShowMessage("確か、グランドノア城といったかしら……")
  ShowMessage("その城こそが、召喚の依代。")
  ShowMessageFace("fulbeua_fc1",0,0,2,59)
  ShowMessage("\\n<Fullviewer>")
  ShowMessage("すでに巫女は、こちらの手にあるわ。")
  ShowMessage("ゲートを広げる力を持つ、異世界の巫女がね。")
  ShowMessageFace("magatu_fc1",3,0,2,60)
  ShowMessage("\\n<Magatsu>")
  ShowMessage("異世界の巫女……？")
  ShowMessage("その者の力で、さらなる混乱をもたらそうというのか！？")
  ShowMessageFace("fulbeua_fc1",0,0,2,61)
  ShowMessage("\\n<Fullviewer>")
  ShowMessage("ええ……そのつもりらしいわ。")
  ShowMessage("巫女の力をもって、異界のゲートを広げ――")
  ShowMessageFace("fulbeua_fc1",0,0,2,62)
  ShowMessage("\\n<Fullviewer>")
  ShowMessage("そして、魔城そのものをこの世界に召喚するのよ。")
  ShowMessage("中の夢魔達も含め、全てをね……")
  ShowMessageFace("lawrat_fc1",0,0,2,63)
  ShowMessage("\\n<Lauratt>")
  ShowMessage("…………！？")
  ShowMessageFace("rejeo_fc1",0,0,2,64)
  ShowMessage("\\n<Rigeo>")
  ShowMessage("まさか、そんな事をしたら――")
  ShowMessageFace("",0,0,2,65)
  ShowMessage("魔城トゥーロマンサは夢世界、つまり夢の領域に属するもの。")
  ShowMessage("そんな城が、この世界に丸ごと召喚されてしまえば――")
  ShowMessageFace("fulbeua_fc1",0,0,2,66)
  ShowMessage("\\n<Fullviewer>")
  ShowMessage("そう……この世界に、「夜の国」は一気に広がるわ。")
  ShowMessage("快楽の夢が大地を満たし、人々は永遠の悦びに心を委ねるの。")
  ShowMessageFace("fulbeua_fc1",0,0,2,67)
  ShowMessage("\\n<Fullviewer>")
  ShowMessage("まあ、「夜の国」にさして興味は持てないけれど――")
  ShowMessage("この私に相応しい居城は、当然必要よね。")
  ShowMessageFace("rejeo_fc1",1,0,2,68)
  ShowMessage("\\n<Rigeo>")
  ShowMessage("そんな事、させはしない……！")
  ShowMessageFace("fulbeua_fc1",0,0,2,69)
  ShowMessage("\\n<Fullviewer>")
  ShowMessage("……ならば、グランドノアに急ぎなさい。")
  ShowMessageFace("fulbeua_fc1",0,0,2,70)
  ShowMessage("\\n<Fullviewer>")
  ShowMessage("巫女はすでに、ミュゼットとやらの手に堕ち……")
  ShowMessage("今にも、魔城召喚の儀が行われようとしているわ。")
  ShowMessageFace("",0,0,2,71)
  ShowMessage("ミュゼット――それも、同盟者の一人だろう。")
  ShowMessage("すでに事態は、相当に逼迫しているようだ。")
  ShowMessageFace("fulbeua_fc1",0,0,2,72)
  ShowMessage("\\n<Fullviewer>")
  ShowMessage("ロウラット……")
  ShowMessage("貴方達がどう動くか、愉しみにしているわ。")
  ShowMessageFace("fulbeua_fc1",0,0,2,73)
  ShowMessage("\\n<Fullviewer>")
  ShowMessage("少なくとも、あなたは美というものを知っている。")
  ShowMessage("だから、求めるはずよ――")
  ShowMessageFace("fulbeua_fc1",0,0,2,74)
  ShowMessage("\\n<Fullviewer>")
  ShowMessage("――美貌の体現者たるこの私、")
  ShowMessage("フルビュア・シーナ・レスターニを。")
  ShowMessageFace("fulbeua_fc1",0,0,2,75)
  ShowMessage("\\n<Fullviewer>")
  ShowMessage("待っているわよ、うふふふっ……")
  PictureClear(5)
  Wait(30)
  212(22,542,false)
  Wait(60)
  ChangeVariable(1205,1205,0,0,6)
  ChangeSwitch(31,31,1)
  Wait(60)
  241(bytes(0x04,0x08,0x6f,0x3a,0x0d,0x52,0x50,0x47,0x3a,0x3a,0x42,0x47,0x4d,0x08,0x3a,0x0a,0x40,0x6e,0x61,0x6d,0x65,0x49,0x22,0x0a,0x6b,0x69,0x6b,0x69,0x32,0x06,0x3a,0x06,0x45,0x54,0x3a,0x0c,0x40,0x76,0x6f,0x6c,0x75,0x6d,0x65,0x69,0x69,0x3a,0x0b,0x40,0x70,0x69,0x74,0x63,0x68,0x69,0x69))
  ShowMessageFace("rejeo_fc1",0,0,2,76)
  ShowMessage("\\n<Rigeo>")
  ShowMessage("言うだけ言って、行っちゃった……")
  ShowMessageFace("magatu_fc2",2,0,2,77)
  ShowMessage("\\n<Magatsu>")
  ShowMessage("あいつ……何しに来たのだ？")
  ShowMessage("お前達の世界の者は、皆あんな感じなのか……？")
  ShowMessageFace("rejeo_fc1",1,0,2,78)
  ShowMessage("\\n<Rigeo>")
  ShowMessage("変な奴は多いとは思うけど……")
  ShowMessage("……流石にあれは特殊な方だと思う……")
  ShowMessageFace("lawrat_fc1",0,0,2,79)
  ShowMessage("\\n<Lauratt>")
  ShowMessage("……………………")
  ShowMessageFace("",0,0,2,80)
  ShowMessage("その振る舞いはさておき――")
  ShowMessage("フルビュアから語られた事実は、衝撃的だった。")
  ShowMessageFace("",0,0,2,81)
  ShowMessage("あの魔城トゥーロマンサが、召喚されようとしている。")
  ShowMessage("フルビュアの言う通りなら、一気に破滅へと近付くだろう――")
  ShowMessageFace("magatu_fc1",2,0,2,82)
  ShowMessage("\\n<Magatsu>")
  ShowMessage("しかし、思った以上に事態は逼迫しているな。")
  ShowMessage("もはや、悠長に他の勇者を集める余裕はないぞ。")
  ShowMessageFace("rejeo_fc1",1,0,2,83)
  ShowMessage("\\n<Rigeo>")
  ShowMessage("グランドノアとやらに、急いで乗り込むしかないわね。")
  ShowMessage("トゥーロマンサの召喚、なんとしても阻止しないと！")
  ShowMessageFace("lawrat_fc1",0,0,2,84)
  ShowMessage("\\n<Lauratt>")
  ShowMessage("……………………")
  ShowMessageFace("",0,0,2,85)
  ShowMessage("今にも、魔城召喚の儀が行われようとしている――")
  ShowMessage("フルビュアは、そう言っていた。")
  ShowMessageFace("",0,0,2,86)
  ShowMessage("この世界の危機、見過ごすわけにはいかない。")
  ShowMessage("一刻も早く、グランドノアに急がなければ――")
  Wait(60)
  242(2)
  221()
  Wait(120)
  PictureDisplay(5,"iv_chapter06",0,0,0,0,100,100,255,0)
  222()
  Wait(180)
  221()
  PictureClear(5)
  Wait(120)
  TeleportPlayer(0,936,21,5,2,2)
  0()



EVENT   23
 PAGE   1
  250(bytes(0x04,0x08,0x6f,0x3a,0x0c,0x52,0x50,0x47,0x3a,0x3a,0x53,0x45,0x08,0x3a,0x0a,0x40,0x6e,0x61,0x6d,0x65,0x49,0x22,0x0a,0x48,0x65,0x61,0x6c,0x37,0x06,0x3a,0x06,0x45,0x54,0x3a,0x0b,0x40,0x70,0x69,0x74,0x63,0x68,0x69,0x69,0x3a,0x0c,0x40,0x76,0x6f,0x6c,0x75,0x6d,0x65,0x69,0x55))
  224(bytes(0x04,0x08,0x75,0x3a,0x0a,0x43,0x6f,0x6c,0x6f,0x72,0x25,0x00,0x00,0x00,0x00,0x00,0xe0,0x6f,0x40,0x00,0x00,0x00,0x00,0x00,0xe0,0x6f,0x40,0x00,0x00,0x00,0x00,0x00,0xe0,0x6f,0x40,0x00,0x00,0x00,0x00,0x00,0xe0,0x6f,0x40),30,true)
  314(0,0)
  ShowMessageFace("",0,0,2,1)
  ShowMessage("パーティ全員のHPとMPが全快した！")
  0()



EVENT   20
 PAGE   1
  ChangeVariable(1205,1205,0,0,5)
  ShowMessageFace("magatu_fc1",3,0,2,1)
  ShowMessage("\\n<Magatsu>")
  ShowMessage("これは、予想以上に熱いのう……")
  ShowMessage("薄着で良かったわい。")
  ShowMessageFace("rejeo_fc1",1,0,2,2)
  ShowMessage("\\n<Rigeo>")
  ShowMessage("私は夢魔だから、高熱の影響を受けないけど……")
  ShowMessage("暑苦しさは十分に伝わってくるわ。")
  ShowMessageFace("rejeo_fc1",1,0,2,3)
  ShowMessage("\\n<Rigeo>")
  ShowMessage("ロウラット……そんな厚着で大丈夫なの？")
  ShowMessage("夢世界じゃこういう所来たけど、現実世界じゃ……")
  ShowMessageFace("lawrat_fc1",0,0,2,4)
  ShowMessage("\\n<Lauratt>")
  ShowMessage("……………………")
  ShowMessageFace("",0,0,2,5)
  ShowMessage("苦しいが、弱音を吐いてはいられない。")
  ShowMessage("この最奥にいるサラマンダーに会い、力を得るのだ――")
  0()
 PAGE   2
  // condition: variable 1205 >= 5
  0()



EVENT   22
 PAGE   1
  // condition: switch 31 is ON
  0()



EVENT   17
 PAGE   1
  250(bytes(0x04,0x08,0x6f,0x3a,0x0c,0x52,0x50,0x47,0x3a,0x3a,0x53,0x45,0x08,0x3a,0x0a,0x40,0x6e,0x61,0x6d,0x65,0x49,0x22,0x0a,0x43,0x68,0x65,0x73,0x74,0x06,0x3a,0x06,0x45,0x54,0x3a,0x0b,0x40,0x70,0x69,0x74,0x63,0x68,0x69,0x69,0x3a,0x0c,0x40,0x76,0x6f,0x6c,0x75,0x6d,0x65,0x69,0x55))
  205(0,bytes(0x04,0x08,0x6f,0x3a,0x13,0x52,0x50,0x47,0x3a,0x3a,0x4d,0x6f,0x76,0x65,0x52,0x6f,0x75,0x74,0x65,0x09,0x3a,0x0c,0x40,0x72,0x65,0x70,0x65,0x61,0x74,0x46,0x3a,0x0f,0x40,0x73,0x6b,0x69,0x70,0x70,0x61,0x62,0x6c,0x65,0x46,0x3a,0x0a,0x40,0x77,0x61,0x69,0x74,0x54,0x3a,0x0a,0x40,0x6c,0x69,0x73,0x74,0x5b,0x0b,0x6f,0x3a,0x15,0x52,0x50,0x47,0x3a,0x3a,0x4d,0x6f,0x76,0x65,0x43,0x6f,0x6d,0x6d,0x61,0x6e,0x64,0x07,0x3a,0x0a,0x40,0x63,0x6f,0x64,0x65,0x69,0x29,0x3a,0x10,0x40,0x70,0x61,0x72,0x61,0x6d,0x65,0x74,0x65,0x72,0x73,0x5b,0x00,0x6f,0x3b,0x0a,0x07,0x3b,0x0b,0x69,0x16,0x3b,0x0c,0x5b,0x00,0x6f,0x3b,0x0a,0x07,0x3b,0x0b,0x69,0x14,0x3b,0x0c,0x5b,0x06,0x69,0x08,0x6f,0x3b,0x0a,0x07,0x3b,0x0b,0x69,0x17,0x3b,0x0c,0x5b,0x00,0x6f,0x3b,0x0a,0x07,0x3b,0x0b,0x69,0x14,0x3b,0x0c,0x5b,0x06,0x69,0x08,0x6f,0x3b,0x0a,0x07,0x3b,0x0b,0x69,0x00,0x3b,0x0c,0x5b,0x00))
  ChangeSelfSwitch("A",0)
  ChangeInventoryArmor(169,0,0,1,false)
  0()
 PAGE   2
  // condition: self-switch A is ON
  0()



EVENT   18
 PAGE   1
  250(bytes(0x04,0x08,0x6f,0x3a,0x0c,0x52,0x50,0x47,0x3a,0x3a,0x53,0x45,0x08,0x3a,0x0a,0x40,0x6e,0x61,0x6d,0x65,0x49,0x22,0x0a,0x43,0x68,0x65,0x73,0x74,0x06,0x3a,0x06,0x45,0x54,0x3a,0x0b,0x40,0x70,0x69,0x74,0x63,0x68,0x69,0x69,0x3a,0x0c,0x40,0x76,0x6f,0x6c,0x75,0x6d,0x65,0x69,0x55))
  205(0,bytes(0x04,0x08,0x6f,0x3a,0x13,0x52,0x50,0x47,0x3a,0x3a,0x4d,0x6f,0x76,0x65,0x52,0x6f,0x75,0x74,0x65,0x09,0x3a,0x0c,0x40,0x72,0x65,0x70,0x65,0x61,0x74,0x46,0x3a,0x0f,0x40,0x73,0x6b,0x69,0x70,0x70,0x61,0x62,0x6c,0x65,0x46,0x3a,0x0a,0x40,0x77,0x61,0x69,0x74,0x54,0x3a,0x0a,0x40,0x6c,0x69,0x73,0x74,0x5b,0x0b,0x6f,0x3a,0x15,0x52,0x50,0x47,0x3a,0x3a,0x4d,0x6f,0x76,0x65,0x43,0x6f,0x6d,0x6d,0x61,0x6e,0x64,0x07,0x3a,0x0a,0x40,0x63,0x6f,0x64,0x65,0x69,0x29,0x3a,0x10,0x40,0x70,0x61,0x72,0x61,0x6d,0x65,0x74,0x65,0x72,0x73,0x5b,0x00,0x6f,0x3b,0x0a,0x07,0x3b,0x0b,0x69,0x16,0x3b,0x0c,0x5b,0x00,0x6f,0x3b,0x0a,0x07,0x3b,0x0b,0x69,0x14,0x3b,0x0c,0x5b,0x06,0x69,0x08,0x6f,0x3b,0x0a,0x07,0x3b,0x0b,0x69,0x17,0x3b,0x0c,0x5b,0x00,0x6f,0x3b,0x0a,0x07,0x3b,0x0b,0x69,0x14,0x3b,0x0c,0x5b,0x06,0x69,0x08,0x6f,0x3b,0x0a,0x07,0x3b,0x0b,0x69,0x00,0x3b,0x0c,0x5b,0x00))
  ChangeSelfSwitch("A",0)
  ChangeInventoryWeapon(424,0,0,1,false)
  0()
 PAGE   2
  // condition: self-switch A is ON
  0()



EVENT   24
 PAGE   1
  250(bytes(0x04,0x08,0x6f,0x3a,0x0c,0x52,0x50,0x47,0x3a,0x3a,0x53,0x45,0x08,0x3a,0x0a,0x40,0x6e,0x61,0x6d,0x65,0x49,0x22,0x0a,0x43,0x68,0x65,0x73,0x74,0x06,0x3a,0x06,0x45,0x54,0x3a,0x0b,0x40,0x70,0x69,0x74,0x63,0x68,0x69,0x69,0x3a,0x0c,0x40,0x76,0x6f,0x6c,0x75,0x6d,0x65,0x69,0x55))
  205(0,bytes(0x04,0x08,0x6f,0x3a,0x13,0x52,0x50,0x47,0x3a,0x3a,0x4d,0x6f,0x76,0x65,0x52,0x6f,0x75,0x74,0x65,0x09,0x3a,0x0c,0x40,0x72,0x65,0x70,0x65,0x61,0x74,0x46,0x3a,0x0f,0x40,0x73,0x6b,0x69,0x70,0x70,0x61,0x62,0x6c,0x65,0x46,0x3a,0x0a,0x40,0x77,0x61,0x69,0x74,0x54,0x3a,0x0a,0x40,0x6c,0x69,0x73,0x74,0x5b,0x0b,0x6f,0x3a,0x15,0x52,0x50,0x47,0x3a,0x3a,0x4d,0x6f,0x76,0x65,0x43,0x6f,0x6d,0x6d,0x61,0x6e,0x64,0x07,0x3a,0x0a,0x40,0x63,0x6f,0x64,0x65,0x69,0x29,0x3a,0x10,0x40,0x70,0x61,0x72,0x61,0x6d,0x65,0x74,0x65,0x72,0x73,0x5b,0x00,0x6f,0x3b,0x0a,0x07,0x3b,0x0b,0x69,0x16,0x3b,0x0c,0x5b,0x00,0x6f,0x3b,0x0a,0x07,0x3b,0x0b,0x69,0x14,0x3b,0x0c,0x5b,0x06,0x69,0x08,0x6f,0x3b,0x0a,0x07,0x3b,0x0b,0x69,0x17,0x3b,0x0c,0x5b,0x00,0x6f,0x3b,0x0a,0x07,0x3b,0x0b,0x69,0x14,0x3b,0x0c,0x5b,0x06,0x69,0x08,0x6f,0x3b,0x0a,0x07,0x3b,0x0b,0x69,0x00,0x3b,0x0c,0x5b,0x00))
  ChangeSelfSwitch("A",0)
  If(0,2909,0)
   ChangeInventoryWeapon(740,0,0,1,false)
   EndEventProcessing()
   0()
  EndIf()
  If(0,2910,0)
   ChangeInventoryWeapon(272,0,0,1,false)
   EndEventProcessing()
   0()
  EndIf()
  If(0,2911,0)
   ChangeInventoryWeapon(529,0,0,1,false)
   EndEventProcessing()
   0()
  EndIf()
  0()
 PAGE   2
  // condition: self-switch A is ON
  0()



EVENT   25
 PAGE   1
  250(bytes(0x04,0x08,0x6f,0x3a,0x0c,0x52,0x50,0x47,0x3a,0x3a,0x53,0x45,0x08,0x3a,0x0a,0x40,0x6e,0x61,0x6d,0x65,0x49,0x22,0x0a,0x48,0x65,0x61,0x6c,0x37,0x06,0x3a,0x06,0x45,0x54,0x3a,0x0b,0x40,0x70,0x69,0x74,0x63,0x68,0x69,0x69,0x3a,0x0c,0x40,0x76,0x6f,0x6c,0x75,0x6d,0x65,0x69,0x55))
  224(bytes(0x04,0x08,0x75,0x3a,0x0a,0x43,0x6f,0x6c,0x6f,0x72,0x25,0x00,0x00,0x00,0x00,0x00,0xe0,0x6f,0x40,0x00,0x00,0x00,0x00,0x00,0xe0,0x6f,0x40,0x00,0x00,0x00,0x00,0x00,0xe0,0x6f,0x40,0x00,0x00,0x00,0x00,0x00,0xe0,0x6f,0x40),30,true)
  314(0,0)
  ShowMessageFace("",0,0,2,1)
  ShowMessage("パーティ全員のHPとMPが全快した！")
  0()
