﻿


EVENT   6
 PAGE   1
  If(1,1208,0,9,0)
   ShowMessageFace("kazuya_fc2",3,0,2,1)
   ShowMessage("\\n<Kazuya>")
   ShowMessage("そっちだと遠回りだ！")
   ShowMessage("回り込まれて危険だぞ！")
   205(-1,bytes(0x04,0x08,0x6f,0x3a,0x13,0x52,0x50,0x47,0x3a,0x3a,0x4d,0x6f,0x76,0x65,0x52,0x6f,0x75,0x74,0x65,0x09,0x3a,0x0c,0x40,0x72,0x65,0x70,0x65,0x61,0x74,0x46,0x3a,0x0f,0x40,0x73,0x6b,0x69,0x70,0x70,0x61,0x62,0x6c,0x65,0x46,0x3a,0x0a,0x40,0x77,0x61,0x69,0x74,0x54,0x3a,0x0a,0x40,0x6c,0x69,0x73,0x74,0x5b,0x07,0x6f,0x3a,0x15,0x52,0x50,0x47,0x3a,0x3a,0x4d,0x6f,0x76,0x65,0x43,0x6f,0x6d,0x6d,0x61,0x6e,0x64,0x07,0x3a,0x0a,0x40,0x63,0x6f,0x64,0x65,0x69,0x08,0x3a,0x10,0x40,0x70,0x61,0x72,0x61,0x6d,0x65,0x74,0x65,0x72,0x73,0x5b,0x00,0x6f,0x3b,0x0a,0x07,0x3b,0x0b,0x69,0x00,0x3b,0x0c,0x5b,0x00))
   EndEventProcessing()
   0()
  EndIf()
  250(bytes(0x04,0x08,0x6f,0x3a,0x0c,0x52,0x50,0x47,0x3a,0x3a,0x53,0x45,0x08,0x3a,0x0a,0x40,0x6e,0x61,0x6d,0x65,0x49,0x22,0x09,0x4d,0x6f,0x76,0x65,0x06,0x3a,0x06,0x45,0x54,0x3a,0x0b,0x40,0x70,0x69,0x74,0x63,0x68,0x69,0x69,0x3a,0x0c,0x40,0x76,0x6f,0x6c,0x75,0x6d,0x65,0x69,0x55))
  TeleportPlayer(0,888,21,14,0,0)
  0()



EVENT   12
 PAGE   1
  RunCommonEvent(515)
  0()



EVENT   1
 PAGE   1
  ChangeSwitch(31,31,1)
  ChangeSwitch(32,32,1)
  ChangeSwitch(33,33,1)
  ChangeSwitch(34,34,1)
  ChangeSwitch(35,35,1)
  250(bytes(0x04,0x08,0x6f,0x3a,0x0c,0x52,0x50,0x47,0x3a,0x3a,0x53,0x45,0x08,0x3a,0x0a,0x40,0x6e,0x61,0x6d,0x65,0x49,0x22,0x09,0x4d,0x6f,0x76,0x65,0x06,0x3a,0x06,0x45,0x54,0x3a,0x0b,0x40,0x70,0x69,0x74,0x63,0x68,0x69,0x69,0x3a,0x0c,0x40,0x76,0x6f,0x6c,0x75,0x6d,0x65,0x69,0x55))
  TeleportPlayer(0,880,22,5,0,0)
  0()



EVENT   2
 PAGE   1
  ChangeSwitch(31,31,1)
  ChangeSwitch(32,32,1)
  ChangeSwitch(33,33,1)
  ChangeSwitch(34,34,1)
  ChangeSwitch(35,35,1)
  250(bytes(0x04,0x08,0x6f,0x3a,0x0c,0x52,0x50,0x47,0x3a,0x3a,0x53,0x45,0x08,0x3a,0x0a,0x40,0x6e,0x61,0x6d,0x65,0x49,0x22,0x09,0x4d,0x6f,0x76,0x65,0x06,0x3a,0x06,0x45,0x54,0x3a,0x0b,0x40,0x70,0x69,0x74,0x63,0x68,0x69,0x69,0x3a,0x0c,0x40,0x76,0x6f,0x6c,0x75,0x6d,0x65,0x69,0x55))
  TeleportPlayer(0,880,22,5,0,0)
  0()



EVENT   3
 PAGE   1
  ChangeSwitch(31,31,1)
  ChangeSwitch(32,32,1)
  ChangeSwitch(33,33,1)
  ChangeSwitch(34,34,1)
  ChangeSwitch(35,35,1)
  250(bytes(0x04,0x08,0x6f,0x3a,0x0c,0x52,0x50,0x47,0x3a,0x3a,0x53,0x45,0x08,0x3a,0x0a,0x40,0x6e,0x61,0x6d,0x65,0x49,0x22,0x09,0x4d,0x6f,0x76,0x65,0x06,0x3a,0x06,0x45,0x54,0x3a,0x0b,0x40,0x70,0x69,0x74,0x63,0x68,0x69,0x69,0x3a,0x0c,0x40,0x76,0x6f,0x6c,0x75,0x6d,0x65,0x69,0x55))
  TeleportPlayer(0,880,22,5,0,0)
  0()



EVENT   4
 PAGE   1
  ChangeSwitch(31,31,1)
  ChangeSwitch(32,32,1)
  ChangeSwitch(33,33,1)
  ChangeSwitch(34,34,1)
  ChangeSwitch(35,35,1)
  250(bytes(0x04,0x08,0x6f,0x3a,0x0c,0x52,0x50,0x47,0x3a,0x3a,0x53,0x45,0x08,0x3a,0x0a,0x40,0x6e,0x61,0x6d,0x65,0x49,0x22,0x09,0x4d,0x6f,0x76,0x65,0x06,0x3a,0x06,0x45,0x54,0x3a,0x0b,0x40,0x70,0x69,0x74,0x63,0x68,0x69,0x69,0x3a,0x0c,0x40,0x76,0x6f,0x6c,0x75,0x6d,0x65,0x69,0x55))
  TeleportPlayer(0,880,22,5,0,0)
  0()



EVENT   5
 PAGE   1
  ChangeSwitch(31,31,1)
  ChangeSwitch(32,32,1)
  ChangeSwitch(33,33,1)
  ChangeSwitch(34,34,1)
  ChangeSwitch(35,35,1)
  250(bytes(0x04,0x08,0x6f,0x3a,0x0c,0x52,0x50,0x47,0x3a,0x3a,0x53,0x45,0x08,0x3a,0x0a,0x40,0x6e,0x61,0x6d,0x65,0x49,0x22,0x09,0x4d,0x6f,0x76,0x65,0x06,0x3a,0x06,0x45,0x54,0x3a,0x0b,0x40,0x70,0x69,0x74,0x63,0x68,0x69,0x69,0x3a,0x0c,0x40,0x76,0x6f,0x6c,0x75,0x6d,0x65,0x69,0x55))
  TeleportPlayer(0,880,22,5,0,0)
  0()



EVENT   7
 PAGE   1
  If(1,1208,0,9,0)
   ShowMessageFace("kazuya_fc2",3,0,2,1)
   ShowMessage("\\n<Kazuya>")
   ShowMessage("そっちだと遠回りだ！")
   ShowMessage("回り込まれて危険だぞ！")
   205(-1,bytes(0x04,0x08,0x6f,0x3a,0x13,0x52,0x50,0x47,0x3a,0x3a,0x4d,0x6f,0x76,0x65,0x52,0x6f,0x75,0x74,0x65,0x09,0x3a,0x0c,0x40,0x72,0x65,0x70,0x65,0x61,0x74,0x46,0x3a,0x0f,0x40,0x73,0x6b,0x69,0x70,0x70,0x61,0x62,0x6c,0x65,0x46,0x3a,0x0a,0x40,0x77,0x61,0x69,0x74,0x54,0x3a,0x0a,0x40,0x6c,0x69,0x73,0x74,0x5b,0x07,0x6f,0x3a,0x15,0x52,0x50,0x47,0x3a,0x3a,0x4d,0x6f,0x76,0x65,0x43,0x6f,0x6d,0x6d,0x61,0x6e,0x64,0x07,0x3a,0x0a,0x40,0x63,0x6f,0x64,0x65,0x69,0x08,0x3a,0x10,0x40,0x70,0x61,0x72,0x61,0x6d,0x65,0x74,0x65,0x72,0x73,0x5b,0x00,0x6f,0x3b,0x0a,0x07,0x3b,0x0b,0x69,0x00,0x3b,0x0c,0x5b,0x00))
   EndEventProcessing()
   0()
  EndIf()
  250(bytes(0x04,0x08,0x6f,0x3a,0x0c,0x52,0x50,0x47,0x3a,0x3a,0x53,0x45,0x08,0x3a,0x0a,0x40,0x6e,0x61,0x6d,0x65,0x49,0x22,0x09,0x4d,0x6f,0x76,0x65,0x06,0x3a,0x06,0x45,0x54,0x3a,0x0b,0x40,0x70,0x69,0x74,0x63,0x68,0x69,0x69,0x3a,0x0c,0x40,0x76,0x6f,0x6c,0x75,0x6d,0x65,0x69,0x55))
  TeleportPlayer(0,888,21,14,0,0)
  0()



EVENT   8
 PAGE   1
  If(1,1208,0,9,0)
   ShowMessageFace("kazuya_fc2",3,0,2,1)
   ShowMessage("\\n<Kazuya>")
   ShowMessage("そっちだと遠回りだ！")
   ShowMessage("回り込まれて危険だぞ！")
   205(-1,bytes(0x04,0x08,0x6f,0x3a,0x13,0x52,0x50,0x47,0x3a,0x3a,0x4d,0x6f,0x76,0x65,0x52,0x6f,0x75,0x74,0x65,0x09,0x3a,0x0c,0x40,0x72,0x65,0x70,0x65,0x61,0x74,0x46,0x3a,0x0f,0x40,0x73,0x6b,0x69,0x70,0x70,0x61,0x62,0x6c,0x65,0x46,0x3a,0x0a,0x40,0x77,0x61,0x69,0x74,0x54,0x3a,0x0a,0x40,0x6c,0x69,0x73,0x74,0x5b,0x07,0x6f,0x3a,0x15,0x52,0x50,0x47,0x3a,0x3a,0x4d,0x6f,0x76,0x65,0x43,0x6f,0x6d,0x6d,0x61,0x6e,0x64,0x07,0x3a,0x0a,0x40,0x63,0x6f,0x64,0x65,0x69,0x08,0x3a,0x10,0x40,0x70,0x61,0x72,0x61,0x6d,0x65,0x74,0x65,0x72,0x73,0x5b,0x00,0x6f,0x3b,0x0a,0x07,0x3b,0x0b,0x69,0x00,0x3b,0x0c,0x5b,0x00))
   EndEventProcessing()
   0()
  EndIf()
  250(bytes(0x04,0x08,0x6f,0x3a,0x0c,0x52,0x50,0x47,0x3a,0x3a,0x53,0x45,0x08,0x3a,0x0a,0x40,0x6e,0x61,0x6d,0x65,0x49,0x22,0x09,0x4d,0x6f,0x76,0x65,0x06,0x3a,0x06,0x45,0x54,0x3a,0x0b,0x40,0x70,0x69,0x74,0x63,0x68,0x69,0x69,0x3a,0x0c,0x40,0x76,0x6f,0x6c,0x75,0x6d,0x65,0x69,0x55))
  TeleportPlayer(0,888,21,14,0,0)
  0()



EVENT   9
 PAGE   1
  If(1,1208,0,9,0)
   ShowMessageFace("kazuya_fc2",3,0,2,1)
   ShowMessage("\\n<Kazuya>")
   ShowMessage("そっちだと遠回りだ！")
   ShowMessage("回り込まれて危険だぞ！")
   205(-1,bytes(0x04,0x08,0x6f,0x3a,0x13,0x52,0x50,0x47,0x3a,0x3a,0x4d,0x6f,0x76,0x65,0x52,0x6f,0x75,0x74,0x65,0x09,0x3a,0x0c,0x40,0x72,0x65,0x70,0x65,0x61,0x74,0x46,0x3a,0x0f,0x40,0x73,0x6b,0x69,0x70,0x70,0x61,0x62,0x6c,0x65,0x46,0x3a,0x0a,0x40,0x77,0x61,0x69,0x74,0x54,0x3a,0x0a,0x40,0x6c,0x69,0x73,0x74,0x5b,0x07,0x6f,0x3a,0x15,0x52,0x50,0x47,0x3a,0x3a,0x4d,0x6f,0x76,0x65,0x43,0x6f,0x6d,0x6d,0x61,0x6e,0x64,0x07,0x3a,0x0a,0x40,0x63,0x6f,0x64,0x65,0x69,0x07,0x3a,0x10,0x40,0x70,0x61,0x72,0x61,0x6d,0x65,0x74,0x65,0x72,0x73,0x5b,0x00,0x6f,0x3b,0x0a,0x07,0x3b,0x0b,0x69,0x00,0x3b,0x0c,0x5b,0x00))
   EndEventProcessing()
   0()
  EndIf()
  250(bytes(0x04,0x08,0x6f,0x3a,0x0c,0x52,0x50,0x47,0x3a,0x3a,0x53,0x45,0x08,0x3a,0x0a,0x40,0x6e,0x61,0x6d,0x65,0x49,0x22,0x09,0x4d,0x6f,0x76,0x65,0x06,0x3a,0x06,0x45,0x54,0x3a,0x0b,0x40,0x70,0x69,0x74,0x63,0x68,0x69,0x69,0x3a,0x0c,0x40,0x76,0x6f,0x6c,0x75,0x6d,0x65,0x69,0x55))
  TeleportPlayer(0,888,32,14,0,0)
  0()



EVENT   10
 PAGE   1
  If(1,1208,0,9,0)
   ShowMessageFace("kazuya_fc2",3,0,2,1)
   ShowMessage("\\n<Kazuya>")
   ShowMessage("そっちだと遠回りだ！")
   ShowMessage("回り込まれて危険だぞ！")
   205(-1,bytes(0x04,0x08,0x6f,0x3a,0x13,0x52,0x50,0x47,0x3a,0x3a,0x4d,0x6f,0x76,0x65,0x52,0x6f,0x75,0x74,0x65,0x09,0x3a,0x0c,0x40,0x72,0x65,0x70,0x65,0x61,0x74,0x46,0x3a,0x0f,0x40,0x73,0x6b,0x69,0x70,0x70,0x61,0x62,0x6c,0x65,0x46,0x3a,0x0a,0x40,0x77,0x61,0x69,0x74,0x54,0x3a,0x0a,0x40,0x6c,0x69,0x73,0x74,0x5b,0x07,0x6f,0x3a,0x15,0x52,0x50,0x47,0x3a,0x3a,0x4d,0x6f,0x76,0x65,0x43,0x6f,0x6d,0x6d,0x61,0x6e,0x64,0x07,0x3a,0x0a,0x40,0x63,0x6f,0x64,0x65,0x69,0x07,0x3a,0x10,0x40,0x70,0x61,0x72,0x61,0x6d,0x65,0x74,0x65,0x72,0x73,0x5b,0x00,0x6f,0x3b,0x0a,0x07,0x3b,0x0b,0x69,0x00,0x3b,0x0c,0x5b,0x00))
   EndEventProcessing()
   0()
  EndIf()
  250(bytes(0x04,0x08,0x6f,0x3a,0x0c,0x52,0x50,0x47,0x3a,0x3a,0x53,0x45,0x08,0x3a,0x0a,0x40,0x6e,0x61,0x6d,0x65,0x49,0x22,0x09,0x4d,0x6f,0x76,0x65,0x06,0x3a,0x06,0x45,0x54,0x3a,0x0b,0x40,0x70,0x69,0x74,0x63,0x68,0x69,0x69,0x3a,0x0c,0x40,0x76,0x6f,0x6c,0x75,0x6d,0x65,0x69,0x55))
  TeleportPlayer(0,888,32,14,0,0)
  0()



EVENT   11
 PAGE   1
  If(1,1208,0,9,0)
   ShowMessageFace("kazuya_fc2",3,0,2,1)
   ShowMessage("\\n<Kazuya>")
   ShowMessage("そっちだと遠回りだ！")
   ShowMessage("回り込まれて危険だぞ！")
   205(-1,bytes(0x04,0x08,0x6f,0x3a,0x13,0x52,0x50,0x47,0x3a,0x3a,0x4d,0x6f,0x76,0x65,0x52,0x6f,0x75,0x74,0x65,0x09,0x3a,0x0c,0x40,0x72,0x65,0x70,0x65,0x61,0x74,0x46,0x3a,0x0f,0x40,0x73,0x6b,0x69,0x70,0x70,0x61,0x62,0x6c,0x65,0x46,0x3a,0x0a,0x40,0x77,0x61,0x69,0x74,0x54,0x3a,0x0a,0x40,0x6c,0x69,0x73,0x74,0x5b,0x07,0x6f,0x3a,0x15,0x52,0x50,0x47,0x3a,0x3a,0x4d,0x6f,0x76,0x65,0x43,0x6f,0x6d,0x6d,0x61,0x6e,0x64,0x07,0x3a,0x0a,0x40,0x63,0x6f,0x64,0x65,0x69,0x07,0x3a,0x10,0x40,0x70,0x61,0x72,0x61,0x6d,0x65,0x74,0x65,0x72,0x73,0x5b,0x00,0x6f,0x3b,0x0a,0x07,0x3b,0x0b,0x69,0x00,0x3b,0x0c,0x5b,0x00))
   EndEventProcessing()
   0()
  EndIf()
  250(bytes(0x04,0x08,0x6f,0x3a,0x0c,0x52,0x50,0x47,0x3a,0x3a,0x53,0x45,0x08,0x3a,0x0a,0x40,0x6e,0x61,0x6d,0x65,0x49,0x22,0x09,0x4d,0x6f,0x76,0x65,0x06,0x3a,0x06,0x45,0x54,0x3a,0x0b,0x40,0x70,0x69,0x74,0x63,0x68,0x69,0x69,0x3a,0x0c,0x40,0x76,0x6f,0x6c,0x75,0x6d,0x65,0x69,0x55))
  TeleportPlayer(0,888,32,14,0,0)
  0()



EVENT   17
 PAGE   1
  // condition: switch 31 is ON
  0()
 PAGE   2
  // condition: variable 1208 >= 9
  PictureDisplay(5,"80_myuska_st11",0,0,0,0,100,100,0,0)
  PictureMove(5,null,0,0,0,0,100,100,255,0,30,true)
  ShowMessageFace("myuska_fc1",5,0,2,1)
  ShowMessage("\\n<Myusca>")
  ShowMessage("はい、つっかまえた～♡")
  250(bytes(0x04,0x08,0x6f,0x3a,0x0c,0x52,0x50,0x47,0x3a,0x3a,0x53,0x45,0x08,0x3a,0x0a,0x40,0x6e,0x61,0x6d,0x65,0x49,0x22,0x0a,0x44,0x6f,0x77,0x6e,0x31,0x06,0x3a,0x06,0x45,0x54,0x3a,0x0b,0x40,0x70,0x69,0x74,0x63,0x68,0x69,0x69,0x3a,0x0c,0x40,0x76,0x6f,0x6c,0x75,0x6d,0x65,0x69,0x55))
  ShowMessageFace("",0,0,2,2)
  ShowMessage("ミュスカに捕まってしまった……")
  241(bytes(0x04,0x08,0x6f,0x3a,0x0d,0x52,0x50,0x47,0x3a,0x3a,0x42,0x47,0x4d,0x08,0x3a,0x0a,0x40,0x6e,0x61,0x6d,0x65,0x49,0x22,0x09,0x65,0x72,0x6f,0x31,0x06,0x3a,0x06,0x45,0x54,0x3a,0x0c,0x40,0x76,0x6f,0x6c,0x75,0x6d,0x65,0x69,0x69,0x3a,0x0b,0x40,0x70,0x69,0x74,0x63,0x68,0x69,0x69))
  ShowMessageFace("myuska_fc1",5,0,2,3)
  ShowMessage("\\n<Myusca>")
  ShowMessage("それじゃあ……いただきまぁす♡")
  ShowMessageFace("kazuya_fc2",3,0,2,4)
  ShowMessage("\\n<Kazuya>")
  ShowMessage("や、やめろ――うわぁぁぁ！！")
  221()
  PictureClear(5)
  RunCommonEvent(104)
  RunCommonEvent(105)
  ShowMessageFace("kazuya_fc2",3,0,2,5)
  ShowMessage("\\n<Kazuya>")
  ShowMessage("ぁ……ぁぁ……")
  ShowMessageFace("myuska_fc1",5,0,2,6)
  ShowMessage("\\n<Myusca>")
  ShowMessage("あはっ……ごちそうさま♡")
  242(1)
  Wait(120)
  ShowMessageFace("",0,0,2,7)
  ShowMessage("・・・・・・・・")
  RunCommonEvent(2999)
  0()
 PAGE   3
  // condition: variable 1208 >= 10
  0()



EVENT   18
 PAGE   1
  // condition: variable 1208 >= 8
  ShowMessageFace("kazuya_fc2",2,0,2,1)
  ShowMessage("\\n<Kazuya>")
  ShowMessage("はぁ、はぁ……")
  ShowMessage("ここまで来れば、大丈夫だな。")
  ShowMessageFace("byakunen_fc1",1,0,2,2)
  ShowMessage("\\n<Hakunen>")
  ShowMessage("カズヤさんも、かなり逃げ足に磨きが掛かりましたね。")
  ShowMessage("それに、ロウラットさんも驚くほどの俊足です……")
  ShowMessageFace("lawrat_fc1",0,0,2,3)
  ShowMessage("\\n<Lauratt>")
  ShowMessage("……………………")
  ShowMessageFace("",0,0,2,4)
  ShowMessage("あれだけ走って、息が乱れていない。")
  ShowMessage("もしかして、ロウラットが一番速いのか……？")
  ShowMessageFace("rejeo_fc1",0,0,2,5)
  ShowMessage("\\n<Rigeo>")
  ShowMessage("……実は私も、逃げ足には自信があるのよね。")
  ShowMessageFace("magatu_fc1",3,0,2,6)
  ShowMessage("\\n<Magatsu>")
  ShowMessage("まったく、若人達は元気よのう。")
  ShowMessage("年寄りにはしんどいぞ……")
  ShowMessageFace("",0,0,2,7)
  ShowMessage("フルビュア達に、追いかけてくる気配はない。")
  ShowMessage("ミュゼットと牽制し合い、僕達は眼中にないのだろう。")
  ShowMessageFace("rejeo_fc1",0,0,2,8)
  ShowMessage("\\n<Rigeo>")
  ShowMessage("これから、どうするの……？")
  ShowMessage("同盟者、思った以上に多いみたいだけど。")
  ShowMessageFace("magatu_fc1",2,0,2,9)
  ShowMessage("\\n<Magatsu>")
  ShowMessage("正直、甘く見ていたのう……")
  ShowMessage("敵側の布陣、尋常ではないぞ。")
  ShowMessageFace("magatu_fc1",2,0,2,10)
  ShowMessage("\\n<Magatsu>")
  ShowMessage("結局、ゲートの位置も聞きそびれたしな。")
  ShowMessage("あてもなく探す余裕など、もはやあるまい。")
  ShowMessageFace("kazuya_fc2",2,0,2,11)
  ShowMessage("\\n<Kazuya>")
  ShowMessage("いったん、退いた方がいい……ってことか？")
  ShowMessageFace("magatu_fc1",2,0,2,12)
  ShowMessage("\\n<Magatsu>")
  ShowMessage("うむ、明らかに敵側を過小評価しておった。")
  ShowMessage("これ以上、城内をうろつくのは危険すぎる。")
  ShowMessageFace("lawrat_fc1",0,0,2,13)
  ShowMessage("\\n<Lauratt>")
  ShowMessage("……………………")
  ShowMessageFace("",0,0,2,14)
  ShowMessage("ロウラットは、マガツに賛同しているようだ。")
  ShowMessage("他の者も、反対の様子は見られない。")
  ShowMessageFace("rejeo_fc1",0,0,2,15)
  ShowMessage("\\n<Rigeo>")
  ShowMessage("仲間を揃えて、作戦も立てて……")
  ShowMessage("準備してから、また来よう。")
  ShowMessageFace("kazuya_fc2",0,0,2,16)
  ShowMessage("\\n<Kazuya>")
  ShowMessage("……そうだな、いったん魔城から撤退しよう。")
  ShowMessage("このままじゃ、間違いなく全滅――")
  Wait(30)
  242(1)
  205(-1,bytes(0x04,0x08,0x6f,0x3a,0x13,0x52,0x50,0x47,0x3a,0x3a,0x4d,0x6f,0x76,0x65,0x52,0x6f,0x75,0x74,0x65,0x09,0x3a,0x0c,0x40,0x72,0x65,0x70,0x65,0x61,0x74,0x46,0x3a,0x0f,0x40,0x73,0x6b,0x69,0x70,0x70,0x61,0x62,0x6c,0x65,0x46,0x3a,0x0a,0x40,0x77,0x61,0x69,0x74,0x54,0x3a,0x0a,0x40,0x6c,0x69,0x73,0x74,0x5b,0x07,0x6f,0x3a,0x15,0x52,0x50,0x47,0x3a,0x3a,0x4d,0x6f,0x76,0x65,0x43,0x6f,0x6d,0x6d,0x61,0x6e,0x64,0x07,0x3a,0x0a,0x40,0x63,0x6f,0x64,0x65,0x69,0x18,0x3a,0x10,0x40,0x70,0x61,0x72,0x61,0x6d,0x65,0x74,0x65,0x72,0x73,0x5b,0x00,0x6f,0x3b,0x0a,0x07,0x3b,0x0b,0x69,0x00,0x3b,0x0c,0x5b,0x00))
  212(17,542,false)
  Wait(60)
  ChangeSwitch(31,31,0)
  Wait(60)
  241(bytes(0x04,0x08,0x6f,0x3a,0x0d,0x52,0x50,0x47,0x3a,0x3a,0x42,0x47,0x4d,0x08,0x3a,0x0a,0x40,0x6e,0x61,0x6d,0x65,0x49,0x22,0x0c,0x62,0x6f,0x73,0x73,0x30,0x2d,0x34,0x06,0x3a,0x06,0x45,0x54,0x3a,0x0c,0x40,0x76,0x6f,0x6c,0x75,0x6d,0x65,0x69,0x69,0x3a,0x0b,0x40,0x70,0x69,0x74,0x63,0x68,0x69,0x69))
  PictureDisplay(5,"80_myuska_st11",0,0,0,0,100,100,0,0)
  PictureMove(5,null,0,0,0,0,100,100,255,0,30,true)
  ShowMessageFace("myuska_fc1",5,0,2,17)
  ShowMessage("\\n<Myusca>")
  ShowMessage("あはっ、キミ達、こんなとこにいたんだ……")
  ShowMessage("ねぇ、あたしと遊んでよぉ……♪")
  ShowMessageFace("kazuya_fc2",3,0,2,18)
  ShowMessage("\\n<Kazuya>")
  ShowMessage("まさか……ミュスカ！？")
  PictureClear(5)
  Wait(30)
  212(19,542,false)
  Wait(60)
  ChangeSwitch(32,32,0)
  Wait(45)
  PictureDisplay(5,"80_myuska_st11",0,0,-150,0,100,100,0,0)
  PictureDisplay(6,"80_nemea_st01",0,0,150,0,100,100,0,0)
  PictureMove(5,null,0,0,-150,0,100,100,255,0,30,false)
  PictureMove(6,null,0,0,150,0,100,100,255,0,30,true)
  ShowMessageFace("nemea_fc1",0,0,2,19)
  ShowMessage("\\n<Nemea>")
  ShowMessage("あらあら、魔城に侵入していたの？")
  ShowMessage("やっぱり、あなた達は侮れないわねぇ……♡")
  ShowMessageFace("rejeo_fc1",1,0,2,20)
  ShowMessage("\\n<Rigeo>")
  ShowMessage("ネメアまで……！")
  PictureClear(5)
  PictureClear(6)
  Wait(30)
  212(20,542,false)
  Wait(60)
  ChangeSwitch(33,33,0)
  Wait(45)
  PictureDisplay(5,"80_myuska_st11",0,0,-200,0,100,100,0,0)
  PictureDisplay(6,"80_nemea_st01",0,0,15,0,100,100,0,0)
  PictureDisplay(7,"80_vinum_st01",0,0,250,0,100,100,0,0)
  PictureMove(5,null,0,0,-200,0,100,100,255,0,30,false)
  PictureMove(6,null,0,0,15,0,100,100,255,0,30,false)
  PictureMove(7,null,0,0,250,0,100,100,255,0,30,true)
  ShowMessageFace("vinum_fc1",0,0,2,21)
  ShowMessage("\\n<Vinum>")
  ShowMessage("逃げる算段をしておるようじゃが……")
  ShowMessage("さて、この状況、どうやって逃げるつもりかや？")
  ShowMessageFace("",0,0,2,22)
  ShowMessage("正直、最も会いたくなかった三人。")
  ShowMessage("正面からは、とても戦えそうにない――")
  ShowMessageFace("kazuya_fc2",3,0,2,23)
  ShowMessage("\\n<Kazuya>")
  ShowMessage("……みんな、逃げるぞ！")
  ShowMessageFace("rejeo_fc1",0,0,2,24)
  ShowMessage("\\n<Rigeo>")
  ShowMessage("戦うよりは、そっちの方が得意！")
  ShowMessageFace("byakunen_fc1",0,0,2,25)
  ShowMessage("\\n<Hakunen>")
  ShowMessage("はい、私もです！")
  ShowMessageFace("myuska_fc1",6,0,2,26)
  ShowMessage("\\n<Myusca>")
  ShowMessage("あははっ、鬼ごっこかなぁ？")
  ShowMessage("ほぉら……捕まえて食べちゃうよぉ♪")
  ShowMessageFace("",0,0,2,27)
  ShowMessage("ここで捕まったら終わりだ。")
  ShowMessage("なんとしても、逃げ延びなければ――")
  PictureClear(5)
  PictureClear(6)
  PictureClear(7)
  Wait(30)
  250(bytes(0x04,0x08,0x6f,0x3a,0x0c,0x52,0x50,0x47,0x3a,0x3a,0x53,0x45,0x08,0x3a,0x0a,0x40,0x6e,0x61,0x6d,0x65,0x49,0x22,0x0c,0x50,0x6f,0x77,0x65,0x72,0x75,0x70,0x06,0x3a,0x06,0x45,0x54,0x3a,0x0b,0x40,0x70,0x69,0x74,0x63,0x68,0x69,0x69,0x3a,0x0c,0x40,0x76,0x6f,0x6c,0x75,0x6d,0x65,0x69,0x55))
  241(bytes(0x04,0x08,0x6f,0x3a,0x0d,0x52,0x50,0x47,0x3a,0x3a,0x42,0x47,0x4d,0x08,0x3a,0x0a,0x40,0x6e,0x61,0x6d,0x65,0x49,0x22,0x0a,0x6b,0x69,0x6b,0x69,0x31,0x06,0x3a,0x06,0x45,0x54,0x3a,0x0c,0x40,0x76,0x6f,0x6c,0x75,0x6d,0x65,0x69,0x69,0x3a,0x0b,0x40,0x70,0x69,0x74,0x63,0x68,0x69,0x69))
  216(1)
  ShowMessageFace("",0,1,1,28)
  ShowMessage("追いかけてくるミュスカ達から逃げ切れ！")
  ShowMessage("捕まってしまうとゲームオーバーだ！")
  Wait(30)
  ChangeVariable(1208,1208,0,0,9)
  ChangeSwitch(89,89,0)
  ChangeSaveEnabled(0)
  EndEventProcessing()
  0()
 PAGE   2
  // condition: variable 1208 >= 9
  0()



EVENT   19
 PAGE   1
  // condition: switch 32 is ON
  0()
 PAGE   2
  // condition: variable 1208 >= 9
  PictureDisplay(5,"80_nemea_st02",0,0,0,0,100,100,0,0)
  PictureMove(5,null,0,0,0,0,100,100,255,0,30,true)
  ShowMessageFace("nemea_fc1",1,0,2,1)
  ShowMessage("\\n<Nemea>")
  ShowMessage("うふふっ……捕まえたわよ♡")
  250(bytes(0x04,0x08,0x6f,0x3a,0x0c,0x52,0x50,0x47,0x3a,0x3a,0x53,0x45,0x08,0x3a,0x0a,0x40,0x6e,0x61,0x6d,0x65,0x49,0x22,0x0a,0x44,0x6f,0x77,0x6e,0x31,0x06,0x3a,0x06,0x45,0x54,0x3a,0x0b,0x40,0x70,0x69,0x74,0x63,0x68,0x69,0x69,0x3a,0x0c,0x40,0x76,0x6f,0x6c,0x75,0x6d,0x65,0x69,0x55))
  ShowMessageFace("",0,0,2,2)
  ShowMessage("ネメアに捕まってしまった……")
  241(bytes(0x04,0x08,0x6f,0x3a,0x0d,0x52,0x50,0x47,0x3a,0x3a,0x42,0x47,0x4d,0x08,0x3a,0x0a,0x40,0x6e,0x61,0x6d,0x65,0x49,0x22,0x09,0x65,0x72,0x6f,0x31,0x06,0x3a,0x06,0x45,0x54,0x3a,0x0c,0x40,0x76,0x6f,0x6c,0x75,0x6d,0x65,0x69,0x69,0x3a,0x0b,0x40,0x70,0x69,0x74,0x63,0x68,0x69,0x69))
  PictureDisplay(5,"80_nemea_st06",0,0,0,0,100,100,255,0)
  ShowMessageFace("nemea_fc1",5,0,2,3)
  ShowMessage("\\n<Nemea>")
  ShowMessage("怖くないわよ、白念君……")
  ShowMessage("お姉さんが、優しく逝かせてあげるから……♡")
  ShowMessageFace("byakunen_fc2",7,0,2,4)
  ShowMessage("\\n<Hakunen>")
  ShowMessage("や、やめ――わぁぁっ！！")
  221()
  PictureClear(5)
  RunCommonEvent(104)
  RunCommonEvent(105)
  ShowMessageFace("byakunen_fc2",6,0,2,5)
  ShowMessage("\\n<Hakunen>")
  ShowMessage("……………………")
  ShowMessageFace("kazuya_fc2",3,0,2,6)
  ShowMessage("\\n<Kazuya>")
  ShowMessage("ぁ……ぁぁ……")
  ShowMessageFace("nemea_fc1",5,0,2,7)
  ShowMessage("\\n<Nemea>")
  ShowMessage("うふふっ、美味しかったわ……♡")
  242(1)
  Wait(120)
  ShowMessageFace("",0,0,2,8)
  ShowMessage("・・・・・・・・")
  RunCommonEvent(2999)
  0()
 PAGE   3
  // condition: variable 1208 >= 10
  0()



EVENT   20
 PAGE   1
  // condition: switch 33 is ON
  0()
 PAGE   2
  // condition: variable 1208 >= 9
  PictureDisplay(5,"80_vinum_st01",0,0,0,0,100,100,0,0)
  PictureMove(5,null,0,0,0,0,100,100,255,0,30,true)
  ShowMessageFace("vinum_fc1",0,0,2,1)
  ShowMessage("\\n<Vinum>")
  ShowMessage("くふふっ……もう逃げられんのう。")
  250(bytes(0x04,0x08,0x6f,0x3a,0x0c,0x52,0x50,0x47,0x3a,0x3a,0x53,0x45,0x08,0x3a,0x0a,0x40,0x6e,0x61,0x6d,0x65,0x49,0x22,0x0a,0x44,0x6f,0x77,0x6e,0x31,0x06,0x3a,0x06,0x45,0x54,0x3a,0x0b,0x40,0x70,0x69,0x74,0x63,0x68,0x69,0x69,0x3a,0x0c,0x40,0x76,0x6f,0x6c,0x75,0x6d,0x65,0x69,0x55))
  ShowMessageFace("",0,0,2,2)
  ShowMessage("ヴィヌムに捕まってしまった……")
  241(bytes(0x04,0x08,0x6f,0x3a,0x0d,0x52,0x50,0x47,0x3a,0x3a,0x42,0x47,0x4d,0x08,0x3a,0x0a,0x40,0x6e,0x61,0x6d,0x65,0x49,0x22,0x09,0x65,0x72,0x6f,0x31,0x06,0x3a,0x06,0x45,0x54,0x3a,0x0c,0x40,0x76,0x6f,0x6c,0x75,0x6d,0x65,0x69,0x69,0x3a,0x0b,0x40,0x70,0x69,0x74,0x63,0x68,0x69,0x69))
  PictureDisplay(5,"80_vinum_st05",0,0,0,0,100,100,255,0)
  ShowMessageFace("vinum_fc1",4,0,2,3)
  ShowMessage("\\n<Vinum>")
  ShowMessage("知っておるか？")
  ShowMessage("魔導師の精は、実に美味くてのう……")
  ShowMessageFace("lawrat_fc1",1,0,2,4)
  ShowMessage("\\n<Lauratt>")
  ShowMessage("…………！！")
  221()
  PictureClear(5)
  RunCommonEvent(104)
  RunCommonEvent(105)
  ShowMessageFace("lawrat_fc1",1,0,2,5)
  ShowMessage("\\n<Lauratt>")
  ShowMessage("……………………")
  ShowMessageFace("vinum_fc1",4,0,2,6)
  ShowMessage("\\n<Vinum>")
  ShowMessage("くふふっ……魔導師食らいはやめられん。")
  ShowMessage("儂の世界では、すっかり見かけなくなったからのう。")
  242(1)
  Wait(120)
  ShowMessageFace("",0,0,2,7)
  ShowMessage("・・・・・・・・")
  RunCommonEvent(2999)
  0()
 PAGE   3
  // condition: variable 1208 >= 10
  0()



EVENT   13
 PAGE   1
  RunCommonEvent(515)
  0()



EVENT   14
 PAGE   1
  RunCommonEvent(515)
  0()



EVENT   15
 PAGE   1
  RunCommonEvent(515)
  0()



EVENT   16
 PAGE   1
  RunCommonEvent(515)
  0()



EVENT   21
 PAGE   1
  0()



EVENT   22
 PAGE   1
  0()
