﻿


EVENT   1
 PAGE   1
  ShowMessageFace("",0,0,2,1)
  ShowMessage("Would you like to go to the next floor?")
  ShowChoices(strings("Not yet","Proceed to next floor"),1)
  IfPlayerPicksChoice(0,null)
   205(-1,bytes(0x04,0x08,0x6f,0x3a,0x13,0x52,0x50,0x47,0x3a,0x3a,0x4d,0x6f,0x76,0x65,0x52,0x6f,0x75,0x74,0x65,0x09,0x3a,0x0c,0x40,0x72,0x65,0x70,0x65,0x61,0x74,0x46,0x3a,0x0f,0x40,0x73,0x6b,0x69,0x70,0x70,0x61,0x62,0x6c,0x65,0x46,0x3a,0x0a,0x40,0x77,0x61,0x69,0x74,0x54,0x3a,0x0a,0x40,0x6c,0x69,0x73,0x74,0x5b,0x07,0x6f,0x3a,0x15,0x52,0x50,0x47,0x3a,0x3a,0x4d,0x6f,0x76,0x65,0x43,0x6f,0x6d,0x6d,0x61,0x6e,0x64,0x07,0x3a,0x0a,0x40,0x63,0x6f,0x64,0x65,0x69,0x08,0x3a,0x10,0x40,0x70,0x61,0x72,0x61,0x6d,0x65,0x74,0x65,0x72,0x73,0x5b,0x00,0x6f,0x3b,0x0a,0x07,0x3b,0x0b,0x69,0x00,0x3b,0x0c,0x5b,0x00))
   EndEventProcessing()
   0()
  IfPlayerPicksChoice(1,null)
   ChangeVariable(121,121,2,0,1)
   RunCommonEvent(901)
   EndEventProcessing()
   0()
  404()
  0()



EVENT   2
 PAGE   1
  // condition: variable 126 >= 0
  ShowMessageFace("ruka_fc1",0,0,2,1)
  ShowMessage("\\n<Luka>Is this a pudding lid...?")
  ShowMessage("The name is written in magic...")
  ShowMessageFace("ruka_fc1",0,0,2,2)
  ShowMessage("\\n<Luka>...'Alice'?")
  ShowMessage("Hmm, you can read it...")
  0()
 PAGE   2
  // condition: variable 126 >= 1
  ShowMessageFace("ruka_fc1",0,0,2,1)
  ShowMessage("\\n<Luka>There's blood on the desk...") 
  ShowMessage("...Wait, is that 'Earth's Power'!?") 
  ShowMessageFace("ruka_fc1",0,0,2,2)
  ShowMessage("\\n<Luka>I see now!")
  ShowMessage("The killer got on the desk, and used the power of the earth!")
  ShowMessageFace("sonia_fc2",2,0,2,3)
  ShowMessage("\\n<Sonya>Luka, what are you talking about...?")
  0()
 PAGE   3
  // condition: variable 126 >= 2
  ShowMessageFace("ruka_fc1",0,0,2,1)
  ShowMessage("\\n<Luka>There's a little blood here...")
  ShowMessage("If you look closely the desk is a bit cracked.") 
  ShowMessageFace("ruka_fc1",0,0,2,2)
  ShowMessage("\\n<Luka>Did Ilias hit you here?") 
  ShowMessage("Did you call for help, while you were assaulted...?")
  0()
 PAGE   4
  // condition: variable 126 >= 3
  ShowMessageFace("ruka_fc1",0,0,2,1)
  ShowMessage("\\n<Luka>Is this a whoopie cushion?")
  ShowMessage("It a toy for pulling pranks, but why is it here...?")
  0()
 PAGE   5
  // condition: variable 126 >= 4
  ShowMessageFace("ruka_fc1",0,0,2,1)
  ShowMessage("\\n<Luka>There is a document on the desk...")
  ShowMessage("It's a plan to carry the luggage to Teeny's Inn.")
  ShowMessageFace("ruka_fc1",0,0,2,2)
  ShowMessage("\\n<Luka>Gob will carry the items that were prepared by Vanilla to the room of the inn...")
  ShowMessage("Was that how it was supposed to happen?") 
  0()



EVENT   3
 PAGE   1
  // condition: variable 126 >= 0
  ShowMessageFace("eva_fc1",2,0,2,1)
  ShowMessage("\\n<Eva>Why, I'm not guilty...")
  ShowMessageFace("ruka_fc1",0,0,2,2)
  ShowMessage("\\n<Luka>The head was beaten with a blunt object...") 
  ShowMessage("and there's a bloody club over there.")
  ShowMessageFace("ruka_fc1",0,0,2,3)
  ShowMessage("\\n<Luka>Speaking of clubs, Sonya comes to mind...")
  ShowMessage("but, would she really want to reveal a weapon that points to her?")
  0()
 PAGE   2
  // condition: variable 126 >= 1
  ShowMessageFace("alice_fc5",3,0,2,1)
  ShowMessage("\\n<Alice>Muuu...Sorry...")
  ShowMessageFace("ruka_fc1",0,0,2,2)
  ShowMessage("\\n<Luka>She died under a chandelier...")
  ShowMessage("Did your head get bruised by the chandelier?") 
  ShowMessageFace("ruka_fc1",0,0,2,3)
  ShowMessage("\\n<Luka>Here's a message that seems to have been written before she died...")
  ShowMessage("Who the heck would want to depend on 'ma ma'?")
  0()
 PAGE   3
  // condition: variable 126 >= 2
  ShowMessageFace("iriasu_fc4",4,0,2,1)
  ShowMessage("\\n<Ilias>Even though I am a goddess, such treatment is...")
  ShowMessageFace("ruka_fc1",0,0,2,2)
  ShowMessage("\\n<Luka>Her body is full of bruises...")
  ShowMessage("Were you struck multiple times?")
  ShowMessageFace("ruka_fc1",0,0,2,3)
  ShowMessage("\\n<Luka>Although there's a bloody book lying around...")
  ShowMessage("The title is 'Quantum Mechanics and Wave Motion'?")
  ShowMessageFace("ruka_fc1",0,0,2,4)
  ShowMessage("\\n<Luka>Micaela only reads books about humanities.")
  ShowMessage("Lucifina reads only picture books and Eden is out of the question.")
  0()
 PAGE   4
  // condition: variable 126 >= 3
  ShowMessageFace("sylph_fc2",4,0,2,1)
  ShowMessage("\\n<Slyph>Muyu...")
  ShowMessageFace("ruka_fc1",0,0,2,2)
  ShowMessage("\\n<Luka>Sylph got burned in fire, and drowned in water...")
  ShowMessage("And was found buried in the ground.")
  ShowMessageFace("ruka_fc1",0,0,2,3)
  ShowMessage("\\n<Luka>Fire, water, earth...") 
  ShowMessage("Excluding wind, was she killed by the power of the four spirits?") 
  0()
 PAGE   5
  // condition: variable 126 >= 4
  ShowMessageFace("phoenix_fc1",5,0,2,1)
  ShowMessage("\\n<Mini>Muuyu...")
  ShowMessage("Although I'm a phoenix, I died...") 
  ShowMessageFace("ruka_fc1",0,0,2,2)
  ShowMessage("\\n<Luka>Her whole body is bruised... It's as if she was hit by a car.")
  ShowMessage("I wonder what happened.") 
  ShowMessageFace("ruka_fc1",0,0,2,3)
  ShowMessage("\\n<Luka>Next to the corpse are some peanuts.")
  ShowMessage("Is this an item dropped by the criminal, or...")
  0()



EVENT   4
 PAGE   1
  // condition: variable 126 >= 0
  ShowMessageFace("alice_fc5",0,0,2,1)
  ShowMessage("\\n<Alice>I have nothing to do with this...")
  ShowMessage("Anyway, didn't I earn a grudge somewhere?")
  0()
 PAGE   2
  // condition: variable 126 >= 1
  ShowMessageFace("arumaeruma_fc2",2,0,2,1)
  ShowMessage("\\n<Alma Elma>I wouldn't do such a thing...") 
  ShowMessage("So don't look too close at the body.")
  0()
 PAGE   3
  // condition: variable 126 >= 2
  ShowMessageFace("micaelac_fc1",0,0,2,1)
  ShowMessage("\\n<Micaela>My sister and I don't have anything to do with it...")
  ShowMessage("Doubting us would be a waste of time...")
  0()
 PAGE   4
  // condition: variable 126 >= 3
  ShowMessageFace("gnome_fc1",0,0,2,1)
  ShowMessage("\\n<Gnome>.......")
  0()
 PAGE   5
  // condition: variable 126 >= 4
  ShowMessageFace("gob_fc1",3,0,2,1)
  ShowMessage("\\n<Gob>I've been working for a long time!") 
  ShowMessage("At the time I was carrying my luggage to Teeny's Inn!") 
  0()



EVENT   5
 PAGE   1
  // condition: variable 126 >= 0
  ShowMessageFace("sonia_fc2",3,0,2,1)
  ShowMessage("\\n<Sonya>Well, I don't know...")
  ShowMessage("Club? I don't know anything about that!") 
  0()
 PAGE   2
  // condition: variable 126 >= 1
  ShowMessageFace("granberia_fc4",2,0,2,1)
  ShowMessage("\\n<Granberia>I, I'm not...!")
  ShowMessage("I wonder if this sword could be used to avenge the Monster Lord...!") 
  ShowMessageFace("granberia_fc4",2,0,2,2)
  ShowMessage("I, I'm innocent! I've done nothing...!")
  0()
 PAGE   3
  // condition: variable 126 >= 2
  ShowMessageFace("rucyfinac_fc1",4,0,2,1)
  ShowMessage("\\n<Lucifina>Aah, it's not me!") 
  ShowMessage("It's someone else!")
  0()
 PAGE   4
  // condition: variable 126 >= 3
  ShowMessageFace("undine_fc1",0,0,2,1)
  ShowMessage("\\n<Undine>Sylph was burned, wasn't she?") 
  ShowMessage("Well, that was definitely Salamander's handiwork...")
  0()
 PAGE   5
  // condition: variable 126 >= 4
  ShowMessageFace("pramia_fc1",2,0,2,1)
  ShowMessage("\\n<Teeny>It's not me!～!")
  ShowMessage("At that time, I was busy carrying luggage to the inn!")
  0()



EVENT   6
 PAGE   1
  // condition: variable 126 >= 0
  ShowMessageFace("saki_fc1",2,0,2,1)
  ShowMessage("\\n<Saki>Saki doesn't know anything~!") 
  ShowMessage("A scandal like this sounds like alot of work.") 
  0()
 PAGE   2
  // condition: variable 126 >= 1
  ShowMessageFace("tamamo_fc1",3,0,2,1)
  ShowMessage("\\n<Tamamo>The Monster Lord, how pathetic...") 
  ShowMessage("By the way, I have not entered the room before this moment.") 
  0()
 PAGE   3
  // condition: variable 126 >= 2
  ShowMessageFace("stein_fc2",0,0,2,1)
  ShowMessage("\\n<Promestein>I wouldn't do such sloppy work.") 
  ShowMessage("If I was the culprit, the body would not have been found.") 
  0()
 PAGE   4
  // condition: variable 126 >= 3
  ShowMessageFace("salamander_fc1",2,0,2,1)
  ShowMessage("\\n<Salamander>Do you have evidence of her drowning?")
  ShowMessage("If so, then it's Undine!")
  0()
 PAGE   5
  // condition: variable 126 >= 4
  ShowMessageFace("vgirl_fc1",2,0,2,1)
  ShowMessage("\\n<Vanilla>It's not me!")
  ShowMessage("At the time, I was preparing some goods to be sent to Teeny's Inn.")
  0()



EVENT   7
 PAGE   1
  // condition: variable 126 >= 0
  ShowMessageFace("succubus_fc1",1,0,2,1)
  ShowMessage("\\n<Succubus>I always thought this would happen someday...") 
  ShowMessage("I don't have a hand in this.") 
  0()
 PAGE   2
  // condition: variable 126 >= 1
  ShowMessageFace("erbetie_fc1",0,0,2,1)
  ShowMessage("\\n<Erubetie>I'm irrelevant...") 
  ShowMessage("From now on, it looks like you'll be busy.") 
  0()
 PAGE   3
  // condition: variable 126 >= 2
  ShowMessageFace("eden_fc1",2,0,2,1)
  ShowMessage("\\n<Eden>Oooh, Ilias~!!")
  ShowMessage("Aaah... aaaaaah~~!!")
  0()
 PAGE   4
  // condition: variable 126 >= 3
  ShowMessageFace("nuruko_fc1",0,0,2,1)
  ShowMessage("\\n<Nuruko>Kyuu! Kyukyukyukyuu!") 
  0()
 PAGE   5
  // condition: variable 126 >= 4
  ShowMessageFace("dragonp_fc1",2,0,2,1)
  ShowMessage("\\n<Papi>Uga! I didn't do it!")
  ShowMessage("At the time, I was watching the luggage get carried to Teeny's Inn!") 
  0()



EVENT   8
 PAGE   1
  // condition: variable 126 >= 0
  ShowMessageFace("ruka_fc1",0,0,2,1)
  ShowMessage("\\n<Luka>A music score fell in a strange place...")
  ShowMessage("This is one of Saki's songs!")
  0()
 PAGE   2
  // condition: variable 126 >= 1
  ShowMessageFace("ruka_fc1",0,0,2,1)
  ShowMessage("\\n<Luka>Here is where the pill fell...")
  ShowMessageFace("ruka_fc1",0,0,2,2)
  ShowMessage("\\n<Luka>Then... there's this hair of a fox.")
  0()
 PAGE   3
  // condition: variable 126 >= 2
  ShowMessageFace("ruka_fc1",0,0,2,1)
  ShowMessage("\\n<Luka>Marbles and bamboo dragonflies are rolling around...") 
  ShowMessage("Are these Lucifina's toys?")
  0()
 PAGE   4
  // condition: variable 126 >= 3
  0()
 PAGE   5
  // condition: variable 126 >= 4
  ShowMessageFace("ruka_fc1",0,0,2,1)
  ShowMessage("\\n<Luka>Looks like some peanuts fell here...")
  ShowMessage("They're lined up as if they they were used to lure prey.")
  ShowMessageFace("ruka_fc1",0,0,2,2)
  ShowMessage("\\n<Luka>No way, did they get them by using lined up bait...?")
  0()



EVENT   9
 PAGE   1
  // condition: variable 126 >= 0
  ShowMessageFace("ruka_fc1",0,0,2,1)
  ShowMessage("\\n<Luka>A potato is rolling around here...")
  ShowMessage("Did someone throw it away around here?")
  0()
 PAGE   2
  // condition: variable 126 >= 1
  ShowMessageFace("ruka_fc1",0,0,2,1)
  ShowMessage("\\n<Luka>There's blood stains here...")
  ShowMessage("If you look closely, there are a lot more stains in the room.") 
  ShowMessageFace("ruka_fc1",0,0,2,2)
  ShowMessage("\\n<Luka>Was Alice fighting someone?") 
  ShowMessage("If it's not an intruder, then it was a fake fight or...")
  0()
 PAGE   3
  // condition: variable 126 >= 2
  ShowMessageFace("ruka_fc1",0,0,2,1)
  ShowMessage("\\n<Luka>Some of Ilias' feathers fell here...")
  ShowMessage("There are some traces of blood left on the wall.") 
  ShowMessageFace("ruka_fc1",0,0,2,2)
  ShowMessage("\\n<Luka>Did you hit the wall and floor multiple times?") 
  ShowMessage("But why didn't she resist...?")
  0()
 PAGE   4
  // condition: variable 126 >= 3
  ShowMessageFace("ruka_fc1",0,0,2,1)
  ShowMessage("\\n<Luka>Somehow, it is not burned around here?") 
  ShowMessage("Besides, there is a stain on the carpet and a strange liquid...")
  ShowMessageFace("ruka_fc1",0,0,2,2)
  ShowMessage("\\n<Luka>Huh, this is kerosene!") 
  ShowMessage("Why is it in such a strange place...?")
  0()
 PAGE   5
  // condition: variable 126 >= 4
  ShowMessageFace("ruka_fc1",0,0,2,1)
  ShowMessage("\\n<Luka>There's a lot of food packages here...")
  ShowMessage("From here she was transporting goods to Teeny's Inn.")
  0()



EVENT   10
 PAGE   1
  // condition: variable 126 >= 0
  ShowMessageFace("ruka_fc1",0,0,2,1)
  ShowMessage("\\n<Luka>Well, I should guess soon...?")
  ShowChoices(strings("Reveal the culprit","There is still more to find out"),2)
  IfPlayerPicksChoice(0,null)
   217()
   205(-1,bytes(0x04,0x08,0x6f,0x3a,0x13,0x52,0x50,0x47,0x3a,0x3a,0x4d,0x6f,0x76,0x65,0x52,0x6f,0x75,0x74,0x65,0x09,0x3a,0x0c,0x40,0x72,0x65,0x70,0x65,0x61,0x74,0x46,0x3a,0x0f,0x40,0x73,0x6b,0x69,0x70,0x70,0x61,0x62,0x6c,0x65,0x46,0x3a,0x0a,0x40,0x77,0x61,0x69,0x74,0x54,0x3a,0x0a,0x40,0x6c,0x69,0x73,0x74,0x5b,0x07,0x6f,0x3a,0x15,0x52,0x50,0x47,0x3a,0x3a,0x4d,0x6f,0x76,0x65,0x43,0x6f,0x6d,0x6d,0x61,0x6e,0x64,0x07,0x3a,0x0a,0x40,0x63,0x6f,0x64,0x65,0x69,0x17,0x3a,0x10,0x40,0x70,0x61,0x72,0x61,0x6d,0x65,0x74,0x65,0x72,0x73,0x5b,0x00,0x6f,0x3b,0x0a,0x07,0x3b,0x0b,0x69,0x00,0x3b,0x0c,0x5b,0x00))
   ShowMessageFace("ruka_fc1",0,0,2,2)
   ShowMessage("\\n<Luka>Let's expose the culprit.")
   ShowMessage("The culprit in this case is...")
   ShowChoices(strings("Alice","Sonya","Saki","Succubus"),0)
   IfPlayerPicksChoice(0,null)
    ShowMessageFace("ruka_fc1",0,0,2,3)
    ShowMessage("\\n<Luka>The culprit of this case is... Alice!")
    ShowMessageFace("alice_fc5",6,0,2,4)
    ShowMessage("\\n<Alice>What?! Do you have proof?!") 
    ShowMessageFace("ruka_fc1",0,0,2,5)
    ShowMessage("\\n<Luka>Of course I have proof.")
    ShowMessage("For that, lets look at the events before and after Eva's case.") 
    ShowMessageFace("ruka_fc1",0,0,2,6)
    ShowMessage("\\n<Luka>Firstly, Eva came into this room...") 
    ShowMessage("She tried to play music with Saki-chan's score, but threw it out in the middle of it.") 
    ShowMessageFace("ruka_fc1",0,0,2,7)
    ShowMessage("\\n<Luka>And then, she tried to do something with a potato...") 
    ShowMessage("She soon got bored, and threw it out.")
    ShowMessageFace("ruka_fc1",0,0,2,8)
    ShowMessage("\\n<Luka>Eva always seems like...") 
    ShowMessage("She's thrown away everything in her life!") 
    ShowMessageFace("ruka_fc1",0,0,2,9)
    ShowMessage("\\n<Luka>Then Eva found some pudding that was on the desk.")
    ShowMessage("'Alice' was written on the lid.") 
    ShowMessageFace("ruka_fc1",0,0,2,10)
    ShowMessage("\\n<Luka>Of course, Eva ate the pudding without hesitation.") 
    ShowMessage("It was probably very sweet...delicious even...") 
    ShowMessageFace("ruka_fc1",0,0,2,11)
    ShowMessage("\\n<Luka>Then, Alice, the owner of the pudding, walked in.")
    ShowMessage("Naturally, they fought, and Alice smashed Eva's head in with a club.") 
    ShowMessageFace("alice_fc6",0,0,2,12)
    ShowMessage("\\n<Alice>Guh...!")
    ShowMessageFace("ruka_fc1",0,0,2,13)
    ShowMessage("\\n<Luka>After the crime, Alice left the murder weapon on the spot.") 
    ShowMessage("To pretend that it was the work of Sonya...") 
    ShowMessageFace("sonia_fc2",3,0,2,14)
    ShowMessage("\\n<Sonya>Terrible...")
    ShowMessageFace("ruka_fc1",0,0,2,15)
    ShowMessage("\\n<Luka>...However, such tricks did not succeed.") 
    ShowMessage("Now Alice, it's time to pay the price!!") 
    ShowMessageFace("alice_fc6",1,0,2,16)
    ShowMessage("\\n<Alice>It's not my fault!") 
    ShowMessage("Eva ate my special pudding!!")
    ShowMessageFace("ruka_fc1",0,0,2,17)
    ShowMessage("\\n<Luka>I thought it was a sad case.") 
    ShowMessage("If Eva had a little self-control, this tragedy could've been prevented...")
    ShowMessageFace("eva_fc1",0,0,2,18)
    ShowMessage("\\n<Eva>Self-control? Is that delicious?") 
    249(bytes(0x04,0x08,0x6f,0x3a,0x0c,0x52,0x50,0x47,0x3a,0x3a,0x4d,0x45,0x08,0x3a,0x0a,0x40,0x6e,0x61,0x6d,0x65,0x49,0x22,0x09,0x6c,0x76,0x75,0x70,0x06,0x3a,0x06,0x45,0x54,0x3a,0x0b,0x40,0x70,0x69,0x74,0x63,0x68,0x69,0x69,0x3a,0x0c,0x40,0x76,0x6f,0x6c,0x75,0x6d,0x65,0x69,0x69))
    ShowMessageFace("",0,0,2,19)
    ShowMessage("You pointed out the real culprit and solved the case!")
    ShowMessage("Some equipment is given as a reward!") 
    RunCommonEvent(834)
    Wait(60)
    ChangeVariable(121,121,2,0,1)
    RunCommonEvent(901)
    EndEventProcessing()
    0()
   IfPlayerPicksChoice(1,null)
    ShowMessageFace("ruka_fc1",0,0,2,20)
    ShowMessage("\\n<Luka>The culprit of this case... is you, Sonya!") 
    ShowMessageFace("sonia_fc3",2,0,2,21)
    ShowMessage("\\n<Sonya>Hey, why is it me?!")
    ShowMessageFace("ruka_fc1",0,0,2,22)
    ShowMessage("\\n<Luka>Because the murder weapon is a club.") 
    ShowMessage("As such, the culprit is you!")
    ShowMessageFace("sonia_fc2",2,0,2,23)
    ShowMessage("\\n<Sonya>But at the time, I was feeding Nuruko...") 
    ShowMessageFace("ruka_fc1",0,0,2,24)
    ShowMessage("\\n<Luka>What?! Was I wrong...?") 
    ShowMessageFace("",0,0,2,25)
    ShowMessage("You failed to find the culprit, and the case was left unsolved...") 
    ShowMessage("As a consolation prize, you receive an accessory!") 
    RunCommonEvent(837)
    Wait(60)
    ChangeVariable(121,121,2,0,1)
    RunCommonEvent(901)
    EndEventProcessing()
    0()
   IfPlayerPicksChoice(2,null)
    ShowMessageFace("ruka_fc1",0,0,2,26)
    ShowMessage("\\n<Luka>The culprit of this case... must be Saki!") 
    ShowMessageFace("saki_fc1",2,0,2,27)
    ShowMessage("\\n<Saki>Eh~? Why is it me...?")
    ShowMessageFace("ruka_fc1",0,0,2,28)
    ShowMessage("\\n<Luka>Because, your score fell on the ground...") 
    ShowMessageFace("saki_fc1",2,0,2,29)
    ShowMessage("\\n<Saki>Why would I become a criminal after my score fell?") 
    ShowMessage("That's not evidence...")
    ShowMessageFace("ruka_fc1",0,0,2,30)
    ShowMessage("\\n<Luka>What?! Was I wrong....?")
    ShowMessageFace("",0,0,2,31)
    ShowMessage("You failed to find the culprit, and the case was left unsolved...")
    ShowMessage("As a consolation prize, you receive an accessory!")
    RunCommonEvent(837)
    Wait(60)
    ChangeVariable(121,121,2,0,1)
    RunCommonEvent(901)
    EndEventProcessing()
    0()
   IfPlayerPicksChoice(3,null)
    ShowMessageFace("ruka_fc1",0,0,2,32)
    ShowMessage("\\n<Luka>The culpirt of the case... must be the Mayor!")
    ShowMessageFace("succubus_fc1",0,0,2,33)
    ShowMessage("\\n<Succubus>Well... Why do you think it was me?")
    ShowMessageFace("ruka_fc1",0,0,2,34)
    ShowMessage("\\n<Luka>Because the potatoes that fell...")
    ShowMessage("You were furious with Eva who threw away a potato, and killed her.") 
    ShowMessageFace("succubus_fc1",1,0,2,35)
    ShowMessage("\\n<Succubus>That's a very nice idea but...")
    ShowMessage("At the time, I was cooking potato dishes with the maid.")
    ShowMessageFace("ruka_fc1",0,0,2,36)
    ShowMessage("\\n<Luka>What!? Was I wrong...?") 
    ShowMessageFace("",0,0,2,37)
    ShowMessage("You failed to find the culprit, and the case was left unsolved...")
    ShowMessage("As a consolation prize, you receive an accessory!")
    RunCommonEvent(837)
    Wait(60)
    ChangeVariable(121,121,2,0,1)
    RunCommonEvent(901)
    EndEventProcessing()
    0()
   404()
   0()
  IfPlayerPicksChoice(1,null)
   EndEventProcessing()
   0()
  404()
  0()
 PAGE   2
  // condition: variable 126 >= 1
  ShowMessageFace("ruka_fc1",0,0,2,1)
  ShowMessage("\\n<Luka>Well, I should guess soon...?")
  ShowChoices(strings("Reveal the culprit","There's still more to find out"),2)
  IfPlayerPicksChoice(0,null)
   217()
   205(-1,bytes(0x04,0x08,0x6f,0x3a,0x13,0x52,0x50,0x47,0x3a,0x3a,0x4d,0x6f,0x76,0x65,0x52,0x6f,0x75,0x74,0x65,0x09,0x3a,0x0c,0x40,0x72,0x65,0x70,0x65,0x61,0x74,0x46,0x3a,0x0f,0x40,0x73,0x6b,0x69,0x70,0x70,0x61,0x62,0x6c,0x65,0x46,0x3a,0x0a,0x40,0x77,0x61,0x69,0x74,0x54,0x3a,0x0a,0x40,0x6c,0x69,0x73,0x74,0x5b,0x07,0x6f,0x3a,0x15,0x52,0x50,0x47,0x3a,0x3a,0x4d,0x6f,0x76,0x65,0x43,0x6f,0x6d,0x6d,0x61,0x6e,0x64,0x07,0x3a,0x0a,0x40,0x63,0x6f,0x64,0x65,0x69,0x17,0x3a,0x10,0x40,0x70,0x61,0x72,0x61,0x6d,0x65,0x74,0x65,0x72,0x73,0x5b,0x00,0x6f,0x3b,0x0a,0x07,0x3b,0x0b,0x69,0x00,0x3b,0x0c,0x5b,0x00))
   ShowMessageFace("ruka_fc1",0,0,2,2)
   ShowMessage("\\n<Luka>So let's guess who's the culprit.")
   ShowMessage("The culprit in this case is...")  
   ShowChoices(strings("Granberia","Alma Elma","Tamamo","Erubetie"),0)
   IfPlayerPicksChoice(0,null)
    ShowMessageFace("ruka_fc1",0,0,2,3)
    ShowMessage("\\n<Luka>The culprit of the case is... Granberia!")
    ShowMessageFace("granberia_fc4",2,0,2,4)
    ShowMessage("\\n<Granberia>No, I'm not! Why am I the culprit!?") 
    ShowMessageFace("ruka_fc1",0,0,2,5)
    ShowMessage("\\n<Luka>It's fishy how you were having a sparring match...")
    ShowMessage("I guess the battle got too intense and you killed her?")
    ShowMessageFace("granberia_fc4",2,0,2,6)
    ShowMessage("\\n<Granberia>There is no evidence! Give me proof!")
    ShowMessage("Unless there is, I won't admit it!")
    ShowMessageFace("ruka_fc1",0,0,2,7)
    ShowMessage("\\n<Luka>What!? Was I wrong...?")
    ShowMessageFace("",0,0,2,8)
    ShowMessage("You failed to find the culprit, and the case was left unsolved...") 
    ShowMessage("As a consolation prize, you receive an accessory!")
    RunCommonEvent(837)
    Wait(60)
    ChangeVariable(121,121,2,0,1)
    RunCommonEvent(901)
    EndEventProcessing()
    0()
   IfPlayerPicksChoice(1,null)
    ShowMessageFace("ruka_fc1",0,0,2,9)
    ShowMessage("\\n<Luka>The culprit of this case is... Alma Elma!")
    ShowMessageFace("arumaeruma_fc2",2,0,2,10)
    ShowMessage("\\n<Alma Elma>Hey, why is it me...?")
    ShowMessageFace("ruka_fc1",0,0,2,11)
    ShowMessage("\\n<Luka>The dying message of 'ma ma'...")
    ShowMessage("What was erased was the 'Al' and 'El' of 'Alma Elma'!")
    ShowMessageFace("ruka_fc1",0,0,2,12)
    ShowMessage("\\n<Luka>That's because Alice wrote the name of the culprit at the time of death!")
    ShowMessage("But Alma Elma was written into the dying message!")
    ShowMessageFace("arumaeruma_fc2",0,0,2,13)
    ShowMessage("\\n<Alma Elma>Ufufu, you thought it out carefully.")
    ShowMessage("But at the time, I was fighting a sheep girl at the Coliseum.") 
    ShowMessageFace("ruka_fc1",0,0,2,14)
    ShowMessage("\\n<Luka>What!? Was I wrong...?") 
    ShowMessageFace("",0,0,2,15)
    ShowMessage("You failed to find the culprit, and the case was left unsolved...")
    ShowMessage("As a consolation prize, you receive an accessory!")
    RunCommonEvent(837)
    Wait(60)
    ChangeVariable(121,121,2,0,1)
    RunCommonEvent(901)
    EndEventProcessing()
    0()
   IfPlayerPicksChoice(2,null)
    ShowMessageFace("ruka_fc1",0,0,2,16)
    ShowMessage("\\n<Luka>The culprit of this case...") 
    ShowMessage("...before pointing that out, let's go over what happened.")
    ShowMessageFace("ruka_fc1",0,0,2,17)
    ShowMessage("\\n<Luka>At the time, it is clear what was going on in this room.")
    ShowMessage("Alice and Granberia were sparring...") 
    ShowMessageFace("granberia_fc4",2,0,2,18)
    ShowMessage("\\n<Granberia>Yea, that's right.")
    ShowMessage("I'm not trying to hide that.")
    ShowMessageFace("ruka_fc1",0,0,2,19)
    ShowMessage("\\n<Luka>It was quite intense given the blood in the room.") 
    ShowMessage("In the meantime, an accident occurred...")
    ShowMessageFace("ruka_fc1",0,0,2,20)
    ShowMessage("\\n<Luka>A chandelier fell during the sparring match.")
    ShowMessage("Alice was right underneath it and was crushed by it.") 
    ShowMessageFace("granberia_fc4",2,0,2,21)
    ShowMessage("\\n<Granberia>...!!")
    ShowMessageFace("sonia_fc2",2,0,2,22)
    ShowMessage("\\n<Sonya>Well then... Is the killer Granberia?")
    ShowMessageFace("ruka_fc1",0,0,2,23)
    ShowMessage("\\n<Luka>No... It's not that simple of a story.")
    ShowMessage("Granberia proably left the room to call for help.")
    ShowMessageFace("granberia_fc4",2,0,2,24)
    ShowMessage("\\n<Granberia>That's right!")
    ShowMessage("When I left the room to call for help, the Monster Lord was certainly still alive!")
    ShowMessageFace("ruka_fc1",0,0,2,25)
    ShowMessage("\\n<Luka>However... In the time where Granberia left the room,") 
    ShowMessage("There was someone who killed Alice.")
    ShowMessageFace("ruka_fc1",0,0,2,26)
    ShowMessage("\\n<Luka>The culprit... Tamamo!")
    ShowMessageFace("tamamo_fc1",3,0,2,27)
    ShowMessage("\\n<Tamamo>How... why on Earth am I the culprit?")
    ShowMessageFace("ruka_fc1",0,0,2,28)
    ShowMessage("\\n<Luka>A fox's hair fell on the ground in the room.") 
    ShowMessage("You said, you hadn't been in this room at all...?")
    ShowMessageFace("tamamo_fc1",3,0,2,29)
    ShowMessage("\\n<Tamamo>Hmm...")
    ShowMessageFace("ruka_fc1",0,0,2,30)
    ShowMessage("\\n<Luka>Furthermore, after killing Alice...")
    ShowMessage("You created the fake 'Alma Elma' dying message.")
    ShowMessageFace("sonia_fc2",2,0,2,31)
    ShowMessage("\\n<Sonya>So, the 'Alma Elma' message is...")
    ShowMessageFace("ruka_fc1",0,0,2,32)
    ShowMessage("\\n<Luka>Surely, she was aiming to throw off the investigation...") 
    ShowMessage("Alma Elma herself saw what happened.") 
    ShowMessageFace("ruka_fc1",0,0,2,33)
    ShowMessage("\\n<Luka>Alma Elma, afraid of being suspected herself,")
    ShowMessage("Erased the 'Al' and 'El' of the message to make it 'ma ma'")
    ShowMessageFace("arumaeruma_fc2",7,0,2,34)
    ShowMessage("\\n<Alma Elma>That's right...")
    ShowMessage("You were innocent, you just didn't want to be suspected")
    ShowMessageFace("ruka_fc1",0,0,2,35)
    ShowMessage("\\n<Luka>You didn't want to be suspected when you were innocent, just like Granberia.") 
    ShowMessage("Therefore, that's why she kept quiet about the sparring match as well.")
    ShowMessageFace("granberia_fc4",0,0,2,36)
    ShowMessage("\\n<Granberia>You're right...") 
    ShowMessage("In that situation, I'd be suspected no matter what.") 
    ShowMessageFace("ruka_fc1",0,0,2,37)
    ShowMessage("\\n<Luka>The events of the case end here.") 
    ShowMessage("Tamamo, do you have anything to say..?")
    ShowMessageFace("tamamo_fc1",3,0,2,38)
    ShowMessage("\\n<Tamamo>I wanted to build a kitsune kingdom!")
    ShowMessage("The Monster Lord was in the way of that!")
    ShowMessageFace("ruka_fc1",0,0,2,39)
    ShowMessage("\\n<Luka>The disputes between races gave way to this tragedy...")
    ShowMessage("This is a very sad incident.")
    ShowMessageFace("alice_fc5",3,0,2,40)
    ShowMessage("\\n<Alice>That damned kitsune...")
    249(bytes(0x04,0x08,0x6f,0x3a,0x0c,0x52,0x50,0x47,0x3a,0x3a,0x4d,0x45,0x08,0x3a,0x0a,0x40,0x6e,0x61,0x6d,0x65,0x49,0x22,0x09,0x6c,0x76,0x75,0x70,0x06,0x3a,0x06,0x45,0x54,0x3a,0x0b,0x40,0x70,0x69,0x74,0x63,0x68,0x69,0x69,0x3a,0x0c,0x40,0x76,0x6f,0x6c,0x75,0x6d,0x65,0x69,0x69))
    ShowMessageFace("",0,0,2,41)
    ShowMessage("You pointed out the real culprit and solved the case!")
    ShowMessage("Some equipment is given as a reward!")
    RunCommonEvent(833)
    Wait(60)
    ChangeVariable(121,121,2,0,1)
    RunCommonEvent(901)
    EndEventProcessing()
    0()
   IfPlayerPicksChoice(3,null)
    ShowMessageFace("ruka_fc1",0,0,2,42)
    ShowMessage("\\n<Luka>The culprit of the incident is... Erubetie!")
    ShowMessageFace("erbetie_fc1",0,0,2,43)
    ShowMessage("\\n<Erubetie>Why would I...?")
    ShowMessageFace("ruka_fc1",0,0,2,44)
    ShowMessage("\\n<Luka>I wonder why... there's no particular reason.")
    ShowMessageFace("erbetie_fc1",0,0,2,45)
    ShowMessage("\\n<Erubetie>At the time, I was playing with some slime girls...")
    ShowMessage("Those girls could confirm that.") 
    ShowMessageFace("ruka_fc1",0,0,2,46)
    ShowMessage("\\n<Luka>What!? Was I wrong...?")
    ShowMessageFace("",0,0,2,47)
    ShowMessage("You failed to find the culprit, and the case was left unsolved...")
    ShowMessage("As a consolation prize, you receive an accessory!")
    RunCommonEvent(837)
    Wait(60)
    ChangeVariable(121,121,2,0,1)
    RunCommonEvent(901)
    EndEventProcessing()
    0()
   404()
   0()
  IfPlayerPicksChoice(1,null)
   EndEventProcessing()
   0()
  404()
  0()
 PAGE   3
  // condition: variable 126 >= 2
  ShowMessageFace("ruka_fc1",0,0,2,1)
  ShowMessage("\\n<Luka>Well, I should guess soon...?")
  ShowChoices(strings("Reveal the culprit","There's still more to find out"),2)
  IfPlayerPicksChoice(0,null)
   217()
   205(-1,bytes(0x04,0x08,0x6f,0x3a,0x13,0x52,0x50,0x47,0x3a,0x3a,0x4d,0x6f,0x76,0x65,0x52,0x6f,0x75,0x74,0x65,0x09,0x3a,0x0c,0x40,0x72,0x65,0x70,0x65,0x61,0x74,0x46,0x3a,0x0f,0x40,0x73,0x6b,0x69,0x70,0x70,0x61,0x62,0x6c,0x65,0x46,0x3a,0x0a,0x40,0x77,0x61,0x69,0x74,0x54,0x3a,0x0a,0x40,0x6c,0x69,0x73,0x74,0x5b,0x07,0x6f,0x3a,0x15,0x52,0x50,0x47,0x3a,0x3a,0x4d,0x6f,0x76,0x65,0x43,0x6f,0x6d,0x6d,0x61,0x6e,0x64,0x07,0x3a,0x0a,0x40,0x63,0x6f,0x64,0x65,0x69,0x17,0x3a,0x10,0x40,0x70,0x61,0x72,0x61,0x6d,0x65,0x74,0x65,0x72,0x73,0x5b,0x00,0x6f,0x3b,0x0a,0x07,0x3b,0x0b,0x69,0x00,0x3b,0x0c,0x5b,0x00))
   ShowMessageFace("ruka_fc1",0,0,2,2)
   ShowMessage("\\n<Luka>Let's guess the culprit.")
   ShowMessage("The culprit of this case...")
   ShowChoices(strings("Micaela-chan","Lucifina-chan","Promestein","Eden"),0)
   IfPlayerPicksChoice(0,null)
    ShowMessageFace("ruka_fc1",0,0,2,3)
    ShowMessage("\\n<Luka>The culprit of this case...is Micaela!")
    ShowMessageFace("micaelac_fc1",0,0,2,4)
    ShowMessage("\\n<Micaela-chan>Me? Where's the proof...?")
    ShowMessageFace("ruka_fc1",0,0,2,5)
    ShowMessage("\\n<Luka>Something...If there was an opportunity to do it, you would.")
    ShowMessageFace("micaelac_fc1",0,0,2,6)
    ShowMessage("\\n<Micaela-chan>At that time, I was eating rice with my sister, Eden.")
    ShowMessage("So, I'm not the culprit...")
    ShowMessageFace("ruka_fc1",0,0,2,7)
    ShowMessage("\\n<Luka>What!? Was I wrong...?")
    ShowMessageFace("",0,0,2,8)
    ShowMessage("You failed to find the culprit, and the case was left unsolved...")
    ShowMessage("As a consolation prize, you receive an accessory!")
    RunCommonEvent(837)
    Wait(60)
    ChangeVariable(121,121,2,0,1)
    RunCommonEvent(901)
    EndEventProcessing()
    0()
   IfPlayerPicksChoice(1,null)
    ShowMessageFace("ruka_fc1",0,0,2,9)
    ShowMessage("\\n<Luka>The culprit of this case is...Lucifina!")
    ShowMessageFace("rucyfinac_fc1",4,0,2,10)
    ShowMessage("\\n<Lucifina-chan>Sorry, I'm sorry!") 
    ShowMessageFace("eden_fc1",2,0,2,11)
    ShowMessage("\\n<Eden>Ooo, Goddess Ilias~! Ayah~!!")
    ShowMessageFace("stein_fc2",1,0,2,12)
    ShowMessage("\\n<Promestein>So, it was the work of Lucifina-chan...")
    ShowMessage("To kill Ilias is very devious.")
    ShowMessageFace("ruka_fc1",0,0,2,13)
    ShowMessage("\\n<Luka>...No, this was an unfortunate accident.") 
    ShowMessage("Ilias and Lucifina were playing in this room.")
    ShowMessageFace("ruka_fc1",0,0,2,14)
    ShowMessage("\\n<Luka>At first, they were playing with marbles and bamboo dragonflies...")
    ShowMessage("After that, roughhousing began.")
    ShowMessageFace("ruka_fc1",0,0,2,15)
    ShowMessage("\\n<Luka>It was a round and round game...") 
    ShowMessage("Lucifina swung Ilias around in circles.")
    ShowMessageFace("ruka_fc1",0,0,2,16)
    ShowMessage("\\n<Luka>In this way, Ilias hit the wall and floor hard...")
    ShowMessage("And she died.")
    ShowMessageFace("rucyfinac_fc1",4,0,2,17)
    ShowMessage("\\n<Lucifina-chan>It wasn't on purpose~!!")
    ShowMessageFace("eden_fc1",2,0,2,18)
    ShowMessage("\\n<Eden>Ooh... ahh... Goddess Ilias~!")
    ShowMessageFace("sonia_fc2",2,0,2,19)
    ShowMessage("\\n<Sonya>But the advanced book that was underneath the body?")
    ShowMessage("Isn't that Promestein's book...?")
    ShowMessageFace("micaelac_fc1",0,0,2,20)
    ShowMessage("\\n<Micaela-chan>I put that book there...")
    ShowMessage("To protect my sister...")
    ShowMessageFace("ruka_fc1",0,0,2,21)
    ShowMessage("\\n<Luka>That's it... it was a sad accident.")
    ShowMessage("To think that innocent play could lead to such a tragedy...")
    ShowMessageFace("eden_fc1",2,0,2,22)
    ShowMessage("\\n<Eden>Aaah... Goddess Ilias~!")
    249(bytes(0x04,0x08,0x6f,0x3a,0x0c,0x52,0x50,0x47,0x3a,0x3a,0x4d,0x45,0x08,0x3a,0x0a,0x40,0x6e,0x61,0x6d,0x65,0x49,0x22,0x09,0x6c,0x76,0x75,0x70,0x06,0x3a,0x06,0x45,0x54,0x3a,0x0b,0x40,0x70,0x69,0x74,0x63,0x68,0x69,0x69,0x3a,0x0c,0x40,0x76,0x6f,0x6c,0x75,0x6d,0x65,0x69,0x69))
    ShowMessageFace("",0,0,2,23)
    ShowMessage("You pointed out the real culprit and solved the case!")
    ShowMessage("Some equipment is given as a reward!")
    RunCommonEvent(832)
    Wait(120)
    ShowMessageFace("micaelac_fc1",2,0,2,24)
    ShowMessage("\\n<Micaela-chan>...Looks like it worked.")
    ShowMessageFace("rucyfinac_fc1",1,0,2,25)
    ShowMessage("\\n<Lucifina-chan>...Yes♪")
    Wait(60)
    ChangeVariable(121,121,2,0,1)
    RunCommonEvent(901)
    EndEventProcessing()
    0()
   IfPlayerPicksChoice(2,null)
    ShowMessageFace("ruka_fc1",0,0,2,26)
    ShowMessage("\\n<Luka>The culprit of this case... is surely Promestein!")
    ShowMessageFace("stein_fc2",0,0,2,27)
    ShowMessage("\\n<Promestein>Why do you think I did it...?")
    ShowMessageFace("ruka_fc1",0,0,2,28)
    ShowMessage("\\n<Luka>A book only you would read,")
    ShowMessage("was left on the crime scene.")
    ShowMessageFace("stein_fc2",0,0,2,29)
    ShowMessage("\\n<Promestein>Why would I leave a book that links me to the crime scene...?")
    ShowMessage("I'm not Eden, I wouldn't make such a mistake.")
    ShowMessageFace("ruka_fc1",0,0,2,30)
    ShowMessage("\\n<Luka>What!? Was I wrong...?")
    ShowMessageFace("",0,0,2,31)
    ShowMessage("You failed to find the culprit, and the case was left unsolved...")
    ShowMessage("As a consolation prize, you receive an accessory!")
    RunCommonEvent(837)
    Wait(60)
    ChangeVariable(121,121,2,0,1)
    RunCommonEvent(901)
    EndEventProcessing()
    0()
   IfPlayerPicksChoice(3,null)
    ShowMessageFace("ruka_fc1",0,0,2,32)
    ShowMessage("\\n<Luka>The culprit of this case... is Eden.") 
    ShowMessageFace("eden_fc1",2,0,2,33)
    ShowMessage("\\n<Eden>Oh, Ilias... Ilias~~!!") 
    ShowMessageFace("ruka_fc1",0,0,2,34)
    ShowMessage("\\n<Luka>Hey, You're the killer... You hear me?") 
    ShowMessageFace("eden_fc1",2,0,2,35)
    ShowMessage("\\n<Eden>Ilias....Aaah...")
    ShowMessage("I-Ilias~~!!")
    ShowMessageFace("ruka_fc1",0,0,2,36)
    ShowMessage("\\n<Luka>What!? Was I wrong...?")
    ShowMessageFace("",0,0,2,37)
    ShowMessage("You failed to find the culprit, and the case was left unsolved...")
    ShowMessage("As a consolation prize, you receive an accessory!")
    RunCommonEvent(837)
    Wait(60)
    ChangeVariable(121,121,2,0,1)
    RunCommonEvent(901)
    EndEventProcessing()
    0()
   404()
   0()
  IfPlayerPicksChoice(1,null)
   EndEventProcessing()
   0()
  404()
  0()
 PAGE   4
  // condition: variable 126 >= 3
  ShowMessageFace("ruka_fc1",0,0,2,1)
  ShowMessage("\\n<Luka>Well, I should guess soon...?")
  ShowChoices(strings("Reveal the culprit","There's still more to find out"),2)
  IfPlayerPicksChoice(0,null)
   217()
   205(-1,bytes(0x04,0x08,0x6f,0x3a,0x13,0x52,0x50,0x47,0x3a,0x3a,0x4d,0x6f,0x76,0x65,0x52,0x6f,0x75,0x74,0x65,0x09,0x3a,0x0c,0x40,0x72,0x65,0x70,0x65,0x61,0x74,0x46,0x3a,0x0f,0x40,0x73,0x6b,0x69,0x70,0x70,0x61,0x62,0x6c,0x65,0x46,0x3a,0x0a,0x40,0x77,0x61,0x69,0x74,0x54,0x3a,0x0a,0x40,0x6c,0x69,0x73,0x74,0x5b,0x07,0x6f,0x3a,0x15,0x52,0x50,0x47,0x3a,0x3a,0x4d,0x6f,0x76,0x65,0x43,0x6f,0x6d,0x6d,0x61,0x6e,0x64,0x07,0x3a,0x0a,0x40,0x63,0x6f,0x64,0x65,0x69,0x17,0x3a,0x10,0x40,0x70,0x61,0x72,0x61,0x6d,0x65,0x74,0x65,0x72,0x73,0x5b,0x00,0x6f,0x3b,0x0a,0x07,0x3b,0x0b,0x69,0x00,0x3b,0x0c,0x5b,0x00))
   ShowMessageFace("ruka_fc1",0,0,2,2)
   ShowMessage("\\n<Luka>Let's guess the culprit") 
   ShowMessage("The culprit of this case is...")
   ShowChoices(strings("Gnome","Undine","Salamander","Nuruko"),0)
   IfPlayerPicksChoice(0,null)
    ShowMessageFace("ruka_fc1",0,0,2,3)
    ShowMessage("\\n<Luka>The culprit of this case... is Gnome!")
    ShowMessageFace("gnome_fc1",0,0,2,4)
    ShowMessage("\\n<Gnome>............")
    ShowMessageFace("ruka_fc1",0,0,2,5)
    ShowMessage("\\n<Luka>Hey, are you listening?")
    ShowMessage("I'm telling you that you're the culprit...")
    ShowMessageFace("gnome_fc1",0,0,2,6)
    ShowMessage("\\n<Gnome>............")
    ShowMessageFace("ruka_fc1",0,0,2,7)
    ShowMessage("\\n<Luka>Hey, please say something...")
    ShowMessageFace("",0,0,2,8)
    ShowMessage("You failed to find the culprit, and the case was left unsolved...")
    ShowMessage("As a consolation prize, you receive an accessory!")
    RunCommonEvent(837)
    Wait(60)
    ChangeVariable(121,121,2,0,1)
    RunCommonEvent(901)
    EndEventProcessing()
    0()
   IfPlayerPicksChoice(1,null)
    ShowMessageFace("ruka_fc1",0,0,2,9)
    ShowMessage("\\n<Luka>The culprit of this case... Without a doubt, it's Undine!")
    ShowMessageFace("undine_fc1",0,0,2,10)
    ShowMessage("\\n<Undine>Why am I the culprit...?") 
    ShowMessageFace("ruka_fc1",0,0,2,11)
    ShowMessage("\\n<Luka>Because Sylph drowned.")
    ShowMessage("You're the culprit because she was killed with the power of water.") 
    ShowMessageFace("undine_fc1",1,0,2,12)
    ShowMessage("\\n<Undine>At the time, I was fighting with Salamander.")
    ShowMessage("Therefore, I can't be the culprit...") 
    ShowMessageFace("ruka_fc1",0,0,2,13)
    ShowMessage("\\n<Luka>So in addition, Salamander also can't be the culprit!") 
    ShowMessage("Let's try that again from the beginning!")
    ShowMessageFace("",0,0,2,14)
    ShowMessage("You failed to find the culprit, and the case was left unsolved...")
    ShowMessage("As a consolation prize, you receive an accessory!")
    RunCommonEvent(837)
    Wait(60)
    ChangeVariable(121,121,2,0,1)
    RunCommonEvent(901)
    EndEventProcessing()
    0()
   IfPlayerPicksChoice(2,null)
    ShowMessageFace("ruka_fc1",0,0,2,15)
    ShowMessage("\\n<Luka>The culprit of this case... it's Salamander, yes!")
    ShowMessageFace("salamander_fc1",2,0,2,16)
    ShowMessage("\\n<Salamander>This is inexcusable... show me the proof!")
    ShowMessageFace("ruka_fc1",0,0,2,17)
    ShowMessage("\\n<Luka>It's because Sylph was burnt.")
    ShowMessage("You're the culprit because she was killed with the power of fire.") 
    ShowMessageFace("salamander_fc1",1,0,2,18)
    ShowMessage("\\n<Salamander>I'm sorry, but I have an alibi for that time.")
    ShowMessage("Because I was fighting Undine, I couldn't have been here to kill Sylph.") 
    ShowMessageFace("ruka_fc1",0,0,2,19)
    ShowMessage("\\n<Luka>So in addition, Undine also can't be the culprit!")
    ShowMessage("Let's try again from the beginning!")
    ShowMessageFace("",0,0,2,20)
    ShowMessage("You failed to find the culprit, and the case was left unsolved...")
    ShowMessage("As a consolation prize, you receive an accessory!")
    RunCommonEvent(837)
    Wait(60)
    ChangeVariable(121,121,2,0,1)
    RunCommonEvent(901)
    EndEventProcessing()
    0()
   IfPlayerPicksChoice(3,null)
    ShowMessageFace("ruka_fc1",0,0,2,21)
    ShowMessage("\\n<Luka>...This is the work of Nuruko!")
    ShowMessageFace("nuruko_fc1",2,0,2,22)
    ShowMessage("\\n<Nuruko>............")
    ShowMessageFace("salamander_fc1",2,0,2,23)
    ShowMessage("\\n<Salamander>How awful, Nuruko!?")
    ShowMessage("She wasn't just a mysterious being, she's also dangerous...")
    ShowMessageFace("ruka_fc1",0,0,2,24)
    ShowMessage("\\n<Luka>No, that isn't the case.") 
    ShowMessage("Rather, Nuruko did it out of kindness...")
    ShowMessageFace("undine_fc1",0,0,2,25)
    ShowMessage("\\n<Undine>You mean she killed Sylph out of kindness..?")
    ShowMessageFace("ruka_fc1",0,0,2,26)
    ShowMessage("\\n<Luka>No, Nuruko didn't kill her...") 
    ShowMessage("The majority of this case was in fact Sylph's self-destructiveness.")
    ShowMessageFace("sonia_fc3",2,0,2,27)
    ShowMessage("\\n<Sonya>Self-destructiveness?!")
    ShowMessageFace("ruka_fc1",0,0,2,28)
    ShowMessage("\\n<Luka>Let's go through the case.")
    ShowMessage("It looks like Sylph was plotting various pranks in this room...")
    ShowMessageFace("ruka_fc1",0,0,2,29)
    ShowMessage("\\n<Luka>And it seems she settled on a malicious one involving fire.")
    ShowMessage("Grinning and laughing, she scattered kerosene...")
    250(bytes(0x04,0x08,0x6f,0x3a,0x0c,0x52,0x50,0x47,0x3a,0x3a,0x53,0x45,0x08,0x3a,0x0a,0x40,0x6e,0x61,0x6d,0x65,0x49,0x22,0x0a,0x46,0x69,0x72,0x65,0x32,0x06,0x3a,0x06,0x45,0x54,0x3a,0x0b,0x40,0x70,0x69,0x74,0x63,0x68,0x69,0x69,0x3a,0x0c,0x40,0x76,0x6f,0x6c,0x75,0x6d,0x65,0x69,0x55))
    ShowMessageFace("sylph_fc2",3,0,2,30)
    ShowMessage("\\n<Sylph>Hiyah!!") 
    ShowMessageFace("ruka_fc1",0,0,2,31)
    ShowMessage("\\n<Luka>She ignited herself by mistake.")
    ShowMessage("In a hurry, she jumped into a pot of water...")
    250(bytes(0x04,0x08,0x6f,0x3a,0x0c,0x52,0x50,0x47,0x3a,0x3a,0x53,0x45,0x08,0x3a,0x0a,0x40,0x6e,0x61,0x6d,0x65,0x49,0x22,0x0b,0x57,0x61,0x74,0x65,0x72,0x31,0x06,0x3a,0x06,0x45,0x54,0x3a,0x0b,0x40,0x70,0x69,0x74,0x63,0x68,0x69,0x69,0x3a,0x0c,0x40,0x76,0x6f,0x6c,0x75,0x6d,0x65,0x69,0x55))
    ShowMessageFace("sylph_fc2",2,0,2,32)
    ShowMessage("\\n<Sylph>*gurgle*... *gurgle*...")
    ShowMessageFace("ruka_fc1",0,0,2,33)
    ShowMessage("\\n<Luka>...And she drowned.")
    ShowMessageFace("salamander_fc1",2,0,2,34)
    ShowMessage("\\n<Salamander>That idiot...")
    ShowMessageFace("undine_fc1",0,0,2,35)
    ShowMessage("\\n<Undine>That fool...")
    ShowMessageFace("ruka_fc1",0,0,2,36)
    ShowMessage("\\n<Luka>And...")
    ShowMessage("It was Nuruko that found Sylph floating in the pot.")
    ShowMessageFace("nuruko_fc1",2,0,2,37)
    ShowMessage("\\n<Nuruko>Kyu...")
    ShowMessageFace("ruka_fc1",0,0,2,38)
    ShowMessage("\\n<Luka>Nuruko, out of pity, buried Sylph.")
    ShowMessage("That's how her body ended up buried in soil.")
    ShowMessageFace("ruka_fc1",0,0,2,39)
    ShowMessage("\\n<Luka>In other words, Nuruko only buried the corpse...")
    ShowMessage("She didn't kill Slyph.")
    ShowMessageFace("salamander_fc1",2,0,2,40)
    ShowMessage("\\n<Salamander>...So after all, it was an accidental death.")
    ShowMessage("What an extremely stupid reason...")
    ShowMessageFace("undine_fc1",0,0,2,41)
    ShowMessage("\\n<Undine>This was all a waste of time.")
    ShowMessage("I hope the next Sylph is smarter...")
    ShowMessageFace("sylph_fc2",5,0,2,42)
    ShowMessage("\\n<Sylph>You guys are terrible...")
    ShowMessageFace("gnome_fc1",0,0,2,43)
    ShowMessage("\\n<Gnome>............")
    ShowMessageFace("ruka_fc1",0,0,2,44)
    ShowMessage("\\n<Luka>Well that's the end of that.")
    ShowMessage("It was a sad accident brought on by a mischievous mind...")
    249(bytes(0x04,0x08,0x6f,0x3a,0x0c,0x52,0x50,0x47,0x3a,0x3a,0x4d,0x45,0x08,0x3a,0x0a,0x40,0x6e,0x61,0x6d,0x65,0x49,0x22,0x09,0x6c,0x76,0x75,0x70,0x06,0x3a,0x06,0x45,0x54,0x3a,0x0b,0x40,0x70,0x69,0x74,0x63,0x68,0x69,0x69,0x3a,0x0c,0x40,0x76,0x6f,0x6c,0x75,0x6d,0x65,0x69,0x69))
    ShowMessageFace("",0,0,2,45)
    ShowMessage("You pointed out the real culprit and solved the case!")
    ShowMessage("Some equipment is given as a reward!")
    RunCommonEvent(833)
    Wait(60)
    ChangeVariable(121,121,2,0,1)
    RunCommonEvent(901)
    EndEventProcessing()
    0()
   404()
   0()
  IfPlayerPicksChoice(1,null)
   EndEventProcessing()
   0()
  404()
  0()
 PAGE   5
  // condition: variable 126 >= 4
  ShowMessageFace("ruka_fc1",0,0,2,1)
  ShowMessage("\\n<Luka>Well, I should guess soon...?")
  ShowChoices(strings("Reveal the culprit","There's still more to find out"),2)
  IfPlayerPicksChoice(0,null)
   217()
   205(-1,bytes(0x04,0x08,0x6f,0x3a,0x13,0x52,0x50,0x47,0x3a,0x3a,0x4d,0x6f,0x76,0x65,0x52,0x6f,0x75,0x74,0x65,0x09,0x3a,0x0c,0x40,0x72,0x65,0x70,0x65,0x61,0x74,0x46,0x3a,0x0f,0x40,0x73,0x6b,0x69,0x70,0x70,0x61,0x62,0x6c,0x65,0x46,0x3a,0x0a,0x40,0x77,0x61,0x69,0x74,0x54,0x3a,0x0a,0x40,0x6c,0x69,0x73,0x74,0x5b,0x07,0x6f,0x3a,0x15,0x52,0x50,0x47,0x3a,0x3a,0x4d,0x6f,0x76,0x65,0x43,0x6f,0x6d,0x6d,0x61,0x6e,0x64,0x07,0x3a,0x0a,0x40,0x63,0x6f,0x64,0x65,0x69,0x17,0x3a,0x10,0x40,0x70,0x61,0x72,0x61,0x6d,0x65,0x74,0x65,0x72,0x73,0x5b,0x00,0x6f,0x3b,0x0a,0x07,0x3b,0x0b,0x69,0x00,0x3b,0x0c,0x5b,0x00))
   ShowMessageFace("ruka_fc1",0,0,2,2)
   ShowMessage("\\n<Luka>Let's guess the culprit.")
   ShowMessage("The culprit of this case is...")
   ShowChoices(strings("Gob","Teeny","Vanilla","Papi"),0)
   IfPlayerPicksChoice(0,null)
    ShowMessageFace("ruka_fc1",0,0,2,3)
    ShowMessage("\\n<Luka>The culprit of this case... Maybe it's Gob!")
    ShowMessageFace("gob_fc1",3,0,2,4)
    ShowMessage("\\n<Gob>I was carrying luggage at the time...")
    ShowMessage("Teeny and Papi can prove my innocence.")
    ShowMessageFace("ruka_fc1",0,0,2,5)
    ShowMessage("\\n<Luka>What!? Was I wrong...?")
    ShowMessageFace("",0,0,2,6)
    ShowMessage("You failed to find the culprit, and the case was left unsolved...")
    ShowMessage("As a consolation prize, you receive an accessory!")
    RunCommonEvent(837)
    Wait(60)
    ChangeVariable(121,121,2,0,1)
    RunCommonEvent(901)
    EndEventProcessing()
    0()
   IfPlayerPicksChoice(1,null)
    ShowMessageFace("ruka_fc1",0,0,2,7)
    ShowMessage("\\n<Luka>The culprit of this case... it's Teeny, no?")
    ShowMessageFace("pramia_fc1",0,0,2,8)
    ShowMessage("\\n<Teeny>I've been busy carrying groceries and stuff.")
    ShowMessage("Gob and Papi could prove my alibi.")
    ShowMessageFace("ruka_fc1",0,0,2,9)
    ShowMessage("\\n<Luka>What!? Was I wrong...?")
    ShowMessageFace("",0,0,2,10)
    ShowMessage("You failed to find the culprit, and the case was left unsolved...")
    ShowMessage("As a consolation prize, you receive an accessory!")
    RunCommonEvent(837)
    Wait(60)
    ChangeVariable(121,121,2,0,1)
    RunCommonEvent(901)
    EndEventProcessing()
    0()
   IfPlayerPicksChoice(2,null)
    ShowMessageFace("ruka_fc1",0,0,2,11)
    ShowMessage("\\n<Luka>The culprit of this case is... Vanilla!")
    ShowMessageFace("vgirl_fc1",2,0,2,12)
    ShowMessage("\\n<Vanilla>What...?")
    ShowMessage("I was preparing the luggage to be carried up at the time.")
    ShowMessageFace("ruka_fc1",0,0,2,13)
    ShowMessage("\\n<Luka>Yes, but it's not like you did it directly.")
    ShowMessage("This was a carefully planned murder.")
    212(3,46,false)
    205(3,bytes(0x04,0x08,0x6f,0x3a,0x13,0x52,0x50,0x47,0x3a,0x3a,0x4d,0x6f,0x76,0x65,0x52,0x6f,0x75,0x74,0x65,0x09,0x3a,0x0c,0x40,0x72,0x65,0x70,0x65,0x61,0x74,0x46,0x3a,0x0f,0x40,0x73,0x6b,0x69,0x70,0x70,0x61,0x62,0x6c,0x65,0x46,0x3a,0x0a,0x40,0x77,0x61,0x69,0x74,0x54,0x3a,0x0a,0x40,0x6c,0x69,0x73,0x74,0x5b,0x09,0x6f,0x3a,0x15,0x52,0x50,0x47,0x3a,0x3a,0x4d,0x6f,0x76,0x65,0x43,0x6f,0x6d,0x6d,0x61,0x6e,0x64,0x07,0x3a,0x0a,0x40,0x63,0x6f,0x64,0x65,0x69,0x29,0x3a,0x10,0x40,0x70,0x61,0x72,0x61,0x6d,0x65,0x74,0x65,0x72,0x73,0x5b,0x00,0x6f,0x3b,0x0a,0x07,0x3b,0x0b,0x69,0x26,0x3b,0x0c,0x5b,0x00,0x6f,0x3b,0x0a,0x07,0x3b,0x0b,0x69,0x16,0x3b,0x0c,0x5b,0x00,0x6f,0x3b,0x0a,0x07,0x3b,0x0b,0x69,0x00,0x3b,0x0c,0x5b,0x00))
    250(bytes(0x04,0x08,0x6f,0x3a,0x0c,0x52,0x50,0x47,0x3a,0x3a,0x53,0x45,0x08,0x3a,0x0a,0x40,0x6e,0x61,0x6d,0x65,0x49,0x22,0x0a,0x48,0x65,0x61,0x6c,0x37,0x06,0x3a,0x06,0x45,0x54,0x3a,0x0b,0x40,0x70,0x69,0x74,0x63,0x68,0x69,0x69,0x3a,0x0c,0x40,0x76,0x6f,0x6c,0x75,0x6d,0x65,0x69,0x55))
    ShowMessageFace("phoenix_fc1",1,0,2,14)
    ShowMessage("\\n<Mini>All of a sudden... I was reborn!") 
    ShowMessageFace("sonia_fc3",2,0,2,15)
    ShowMessage("\\n<Sonya>The victim was reborn!")
    ShowMessageFace("ruka_fc1",0,0,2,16)
    ShowMessage("\\n<Luka>...Well, let's procceed without worrying about that.")
    ShowMessage("At the time, they were all working on loading Teeny's Inn.")
    ShowMessageFace("ruka_fc1",0,0,2,17)
    ShowMessage("\\n<Luka>Gob's job was to carry a large amount of luggage to the Inn") 
    ShowMessage("She probably made round trips back and forth between this room and the inn")
    ShowMessageFace("ruka_fc1",0,0,2,18)
    ShowMessage("\\n<Luka>A trap lead Mini on a dangerous course...")
    ShowMessage("There was a peanut on the floor.")
    ShowMessageFace("phoenix_fc1",2,0,2,19)
    ShowMessage("\\n<Mini>Was that peanut a trap～!?")
    ShowMessage("I picked it up and ate it without noticing!") 
    ShowMessageFace("ruka_fc1",0,0,2,20)
    ShowMessage("\\n<Luka>It was in this way that Mini was lead to this dangerous path...") 
    ShowMessage("Gob who was moving at high speeds crashed into her!")
    ShowMessageFace("gob_fc1",3,0,2,21)
    ShowMessage("\\n<Gob>Wow, I hit Mini...")
    ShowMessage("Sorry, I didn't notice at all.")
    ShowMessageFace("phoenix_fc1",2,0,2,22)
    ShowMessage("\\n<Mini>You didn't notice the impact?!")
    ShowMessage("I was dead!")
    ShowMessageFace("gob_fc1",0,0,2,23)
    ShowMessage("\\n<Gob>Well, it's a good thing you were reborn!")
    ShowMessageFace("sonia_fc4",0,0,2,24)
    ShowMessage("\\n<Sonya>What is this case...") 
    ShowMessageFace("ruka_fc1",0,0,2,25)
    ShowMessage("\\n<Luka>Well, that's what happend at the time.")
    ShowMessage("Vanilla, do you have anything to say for yourself?") 
    ShowMessageFace("vgirl_fc1",2,0,2,26)
    ShowMessage("\\n<Vanilla>I was trying to collect some phoenix tails...")
    ShowMessage("Guh...")
    ShowMessageFace("phoenix_fc1",4,0,2,27)
    ShowMessage("\\n<Mini>If you just give me some peanuts, then it's okay!")
    ShowMessageFace("vgirl_fc1",2,0,2,28)
    ShowMessage("\\n<Vanilla>So it's good~?")
    ShowMessageFace("ruka_fc1",0,0,2,29)
    ShowMessage("\\n<Luka>This was a dissapointing case...")
    249(bytes(0x04,0x08,0x6f,0x3a,0x0c,0x52,0x50,0x47,0x3a,0x3a,0x4d,0x45,0x08,0x3a,0x0a,0x40,0x6e,0x61,0x6d,0x65,0x49,0x22,0x09,0x6c,0x76,0x75,0x70,0x06,0x3a,0x06,0x45,0x54,0x3a,0x0b,0x40,0x70,0x69,0x74,0x63,0x68,0x69,0x69,0x3a,0x0c,0x40,0x76,0x6f,0x6c,0x75,0x6d,0x65,0x69,0x69))
    ShowMessageFace("",0,0,2,30)
    ShowMessage("You pointed out the real culprit and solved the case!")
    ShowMessage("Some equipment is given as a reward!")
    RunCommonEvent(834)
    Wait(60)
    ChangeVariable(121,121,2,0,1)
    RunCommonEvent(901)
    EndEventProcessing()
    0()
   IfPlayerPicksChoice(3,null)
    ShowMessageFace("ruka_fc1",0,0,2,31)
    ShowMessage("\\n<Luka>The culprit of this case... is Papi!")
    ShowMessageFace("dragonp_fc1",0,0,2,32)
    ShowMessage("\\n<Papi>I've been supervising everybody who has been working.")
    ShowMessage("Teeny can prove I wasn't in this room.")
    ShowMessageFace("ruka_fc1",0,0,2,33)
    ShowMessage("\\n<Luka>What!? Was I wrong...?")
    ShowMessageFace("",0,0,2,34)
    ShowMessage("You failed to find the culprit, and the case was left unsolved...")
    ShowMessage("As a consolation prize, you receive an accessory!")
    RunCommonEvent(837)
    Wait(60)
    ChangeVariable(121,121,2,0,1)
    RunCommonEvent(901)
    EndEventProcessing()
    0()
   404()
   0()
  IfPlayerPicksChoice(1,null)
   EndEventProcessing()
   0()
  404()
  0()



EVENT   11
 PAGE   1
  // condition: variable 126 >= 0
  ShowMessageFace("ruka_fc1",0,0,2,1)
  ShowMessage("\\n<Luka>Now, all the suspects are gathered here.") 
  ShowMessage("Let's start solving the mystery of the Eva murder case...")
  ShowMessageFace("alice_fc5",0,0,2,2)
  ShowMessage("\\n<Alice>Hmm, I'm innocent.")
  ShowMessageFace("sonia_fc2",3,0,2,3)
  ShowMessage("\\n<Sonya>Hey...")
  ShowMessage("You don't doubt me, do you?")
  ShowMessageFace("saki_fc1",2,0,2,4)
  ShowMessage("\\n<Saki>I don't commit murder~!")
  ShowMessage("Saki is everyone's idol.")
  ShowMessageFace("succubus_fc1",1,0,2,5)
  ShowMessage("\\n<Succubus>I'm sure that Eva was being punished.")
  ShowMessageFace("ruka_fc1",0,0,2,6)
  ShowMessage("\\n<Luka>Oops, before that...")
  ShowMessage("I'll check the situation and evidence again.") 
  TemporaryRemoveEvent()
  0()
 PAGE   2
  // condition: variable 126 >= 1
  ShowMessageFace("ruka_fc1",0,0,2,1)
  ShowMessage("\\n<Luka>Now, all the suspects are gathered here.")
  ShowMessage("Let's start solving the mystery of this Alice murder case...") 
  ShowMessageFace("granberia_fc4",0,0,2,2)
  ShowMessage("\\n<Granberia>I didn't kill the Monster Lord... that's the truth.") 
  ShowMessageFace("arumaeruma_fc2",7,0,2,3)
  ShowMessage("\\n<Alma ElmaI don't know anything...")
  ShowMessageFace("tamamo_fc1",3,0,2,4)
  ShowMessage("\\n<Tamamo>The Monster Lord... what a shame.") 
  ShowMessageFace("erbetie_fc1",0,0,2,5)
  ShowMessage("\\n<Erubetie>I wonder who'll become the next Monster Lord...?")
  ShowMessageFace("ruka_fc1",0,0,2,6)
  ShowMessage("\\n<Luka>Oops, before that...")
  ShowMessage("I'll check the situation and evidence again.")
  TemporaryRemoveEvent()
  0()
 PAGE   3
  // condition: variable 126 >= 2
  ShowMessageFace("ruka_fc1",0,0,2,1)
  ShowMessage("\\n<Luka>Now, all the suspects are gathered here.")
  ShowMessage("Let's start solving the mystery of the Ilias murder case...")
  ShowMessageFace("rucyfinac_fc1",4,0,2,2)
  ShowMessage("\\n<Lucifina-chan>Oh, it wasn't me...!?")
  ShowMessage("I don't know anything...!?")
  ShowMessageFace("micaelac_fc1",0,0,2,3)
  ShowMessage("\\n<Micaela-chan>I have nothing to do with this...") 
  ShowMessageFace("stein_fc2",1,0,2,4)
  ShowMessage("\\n<Promestein>I don't know who did this, but they did a good job.")
  ShowMessageFace("eden_fc1",2,0,2,5)
  ShowMessage("\\n<Eden>Goddess Ilias! Ooooh, Ilias!")
  ShowMessageFace("ruka_fc1",0,0,2,6)
  ShowMessage("\\n<Luka>Oops, before that...")
  ShowMessage("I'll check the situation and evidence again.")
  TemporaryRemoveEvent()
  0()
 PAGE   4
  // condition: variable 126 >= 3
  ShowMessageFace("ruka_fc1",0,0,2,1)
  ShowMessage("\\n<Luka>Now, all the suspects are gathered here.")
  ShowMessage("Let's start solving the case of the Sylph murder case...")
  ShowMessageFace("gnome_fc1",1,0,2,2)
  ShowMessage("\\n<Gnome>............")
  ShowMessageFace("undine_fc1",0,0,2,3)
  ShowMessage("\\n<Undine>I'm suspicious of the burning lizard...")
  ShowMessageFace("salamander_fc1",2,0,2,4)
  ShowMessage("\\n<Salamander>You really think I killed Sylph?")
  ShowMessage("If someone got killed, it would certainly be Undine's handiwork.")
  ShowMessageFace("nuruko_fc1",0,0,2,5)
  ShowMessage("\\n<Nuruko>Kyuu! Kyukyuu!")
  ShowMessageFace("ruka_fc1",0,0,2,6)
  ShowMessage("\\n<Luka>Oops, before that...")
  ShowMessage("I'll check the situation and evidence again.")
  TemporaryRemoveEvent()
  0()
 PAGE   5
  // condition: variable 126 >= 4
  ShowMessageFace("ruka_fc1",0,0,2,1)
  ShowMessage("\\n<Luka>Now, all the suspects are gathered here.")
  ShowMessage("Let's start solving the mystery of the Mini murder case...")
  ShowMessageFace("pramia_fc1",2,0,2,2)
  ShowMessage("\\n<Teeny>I was busy carrying in supplies for the inn today!")
  ShowMessage("I'm not the culprit!")
  ShowMessageFace("gob_fc1",3,0,2,3)
  ShowMessage("\\n<Gob>I was also busy carrying luggage!")
  ShowMessage("It's not me!")
  ShowMessageFace("vgirl_fc1",2,0,2,4)
  ShowMessage("\\n<Vanilla>I was very busy preparing the goods!") 
  ShowMessage("It wasn't me!")
  ShowMessageFace("dragonp_fc1",2,0,2,5)
  ShowMessage("\\n<Papi>I was busying supervising the work!")
  ShowMessage("I didn't do it!")
  ShowMessageFace("ruka_fc1",0,0,2,6)
  ShowMessage("\\n<Luka>Oops, before that...")
  ShowMessage("I'll check the situation and evidence again.")
  TemporaryRemoveEvent()
  0()



EVENT   12
 PAGE   1
  // condition: variable 126 >= 3
  ShowMessageFace("ruka_fc1",0,0,2,1)
  ShowMessage("\\n<Luka>There is water in the pot.")
  ShowMessage("...What? And soot on the inside...")
  0()
 PAGE   2
  // condition: variable 126 >= 4
  0()



EVENT   13
 PAGE   1
  ChangeSwitch(49,49,0)
  250(bytes(0x04,0x08,0x6f,0x3a,0x0c,0x52,0x50,0x47,0x3a,0x3a,0x53,0x45,0x08,0x3a,0x0a,0x40,0x6e,0x61,0x6d,0x65,0x49,0x22,0x0a,0x43,0x68,0x65,0x73,0x74,0x06,0x3a,0x06,0x45,0x54,0x3a,0x0b,0x40,0x70,0x69,0x74,0x63,0x68,0x69,0x69,0x3a,0x0c,0x40,0x76,0x6f,0x6c,0x75,0x6d,0x65,0x69,0x55))
  205(0,bytes(0x04,0x08,0x6f,0x3a,0x13,0x52,0x50,0x47,0x3a,0x3a,0x4d,0x6f,0x76,0x65,0x52,0x6f,0x75,0x74,0x65,0x09,0x3a,0x0c,0x40,0x72,0x65,0x70,0x65,0x61,0x74,0x46,0x3a,0x0f,0x40,0x73,0x6b,0x69,0x70,0x70,0x61,0x62,0x6c,0x65,0x46,0x3a,0x0a,0x40,0x77,0x61,0x69,0x74,0x54,0x3a,0x0a,0x40,0x6c,0x69,0x73,0x74,0x5b,0x0b,0x6f,0x3a,0x15,0x52,0x50,0x47,0x3a,0x3a,0x4d,0x6f,0x76,0x65,0x43,0x6f,0x6d,0x6d,0x61,0x6e,0x64,0x07,0x3a,0x0a,0x40,0x63,0x6f,0x64,0x65,0x69,0x29,0x3a,0x10,0x40,0x70,0x61,0x72,0x61,0x6d,0x65,0x74,0x65,0x72,0x73,0x5b,0x00,0x6f,0x3b,0x0a,0x07,0x3b,0x0b,0x69,0x16,0x3b,0x0c,0x5b,0x00,0x6f,0x3b,0x0a,0x07,0x3b,0x0b,0x69,0x14,0x3b,0x0c,0x5b,0x06,0x69,0x08,0x6f,0x3b,0x0a,0x07,0x3b,0x0b,0x69,0x17,0x3b,0x0c,0x5b,0x00,0x6f,0x3b,0x0a,0x07,0x3b,0x0b,0x69,0x14,0x3b,0x0c,0x5b,0x06,0x69,0x08,0x6f,0x3b,0x0a,0x07,0x3b,0x0b,0x69,0x00,0x3b,0x0c,0x5b,0x00))
  ChangeSwitch(45,45,0)
  RunCommonEvent(903)
  ChangeSwitch(49,49,1)
  0()
 PAGE   2
  // condition: switch 45 is ON
  0()



EVENT   14
 PAGE   1
  ChangeSwitch(49,49,0)
  250(bytes(0x04,0x08,0x6f,0x3a,0x0c,0x52,0x50,0x47,0x3a,0x3a,0x53,0x45,0x08,0x3a,0x0a,0x40,0x6e,0x61,0x6d,0x65,0x49,0x22,0x0a,0x43,0x68,0x65,0x73,0x74,0x06,0x3a,0x06,0x45,0x54,0x3a,0x0b,0x40,0x70,0x69,0x74,0x63,0x68,0x69,0x69,0x3a,0x0c,0x40,0x76,0x6f,0x6c,0x75,0x6d,0x65,0x69,0x55))
  205(0,bytes(0x04,0x08,0x6f,0x3a,0x13,0x52,0x50,0x47,0x3a,0x3a,0x4d,0x6f,0x76,0x65,0x52,0x6f,0x75,0x74,0x65,0x09,0x3a,0x0c,0x40,0x72,0x65,0x70,0x65,0x61,0x74,0x46,0x3a,0x0f,0x40,0x73,0x6b,0x69,0x70,0x70,0x61,0x62,0x6c,0x65,0x46,0x3a,0x0a,0x40,0x77,0x61,0x69,0x74,0x54,0x3a,0x0a,0x40,0x6c,0x69,0x73,0x74,0x5b,0x0b,0x6f,0x3a,0x15,0x52,0x50,0x47,0x3a,0x3a,0x4d,0x6f,0x76,0x65,0x43,0x6f,0x6d,0x6d,0x61,0x6e,0x64,0x07,0x3a,0x0a,0x40,0x63,0x6f,0x64,0x65,0x69,0x29,0x3a,0x10,0x40,0x70,0x61,0x72,0x61,0x6d,0x65,0x74,0x65,0x72,0x73,0x5b,0x00,0x6f,0x3b,0x0a,0x07,0x3b,0x0b,0x69,0x16,0x3b,0x0c,0x5b,0x00,0x6f,0x3b,0x0a,0x07,0x3b,0x0b,0x69,0x14,0x3b,0x0c,0x5b,0x06,0x69,0x08,0x6f,0x3b,0x0a,0x07,0x3b,0x0b,0x69,0x17,0x3b,0x0c,0x5b,0x00,0x6f,0x3b,0x0a,0x07,0x3b,0x0b,0x69,0x14,0x3b,0x0c,0x5b,0x06,0x69,0x08,0x6f,0x3b,0x0a,0x07,0x3b,0x0b,0x69,0x00,0x3b,0x0c,0x5b,0x00))
  ChangeSwitch(46,46,0)
  RunCommonEvent(903)
  ChangeSwitch(49,49,1)
  0()
 PAGE   2
  // condition: switch 46 is ON
  0()



EVENT   15
 PAGE   1
  221()
  ChangeSwitch(41,41,1)
  ChangeSwitch(52,52,1)
  ChangeSaveEnabled(1)
  ChangeSwitch(61,61,1)
  ChangeSwitch(62,62,1)
  ChangeSwitch(63,63,1)
  ChangeSwitch(64,64,1)
  ChangeSwitch(65,65,1)
  ChangeSwitch(69,69,1)
  ChangeSwitch(70,70,1)
  ChangeSwitch(71,71,1)
  ChangeSwitch(72,72,1)
  ChangeSwitch(54,54,1)
  ChangeSwitch(66,66,1)
  ChangeSwitch(67,67,1)
  ChangeSwitch(68,68,1)
  ChangeVariable(131,131,0,0,0)
  ChangeVariable(121,121,0,0,0)
  RunCommonEvent(112)
  If(1,121,1,122,1)
   ChangeVariable(122,122,0,1,121)
   0()
  EndIf()
  TeleportPlayer(0,576,14,50,2,2)
  ShowMessageFace("",0,0,2,1)
  ShowMessage("With the renewal of the Labyrinth of Chaos, the past labyrinth got erased!")
  Wait(60)
  222()
  TemporaryRemoveEvent()
  0()
 PAGE   2
  // condition: switch 1926 is ON
  0()
