﻿
DisplayName "グランドノア城 B3F"



EVENT   1
 PAGE   1
  250(bytes(0x04,0x08,0x6f,0x3a,0x0c,0x52,0x50,0x47,0x3a,0x3a,0x53,0x45,0x08,0x3a,0x0a,0x40,0x6e,0x61,0x6d,0x65,0x49,0x22,0x09,0x4d,0x6f,0x76,0x65,0x06,0x3a,0x06,0x45,0x54,0x3a,0x0b,0x40,0x70,0x69,0x74,0x63,0x68,0x69,0x69,0x3a,0x0c,0x40,0x76,0x6f,0x6c,0x75,0x6d,0x65,0x69,0x55))
  TeleportPlayer(0,871,3,41,8,0)
  0()



EVENT   2
 PAGE   1
  250(bytes(0x04,0x08,0x6f,0x3a,0x0c,0x52,0x50,0x47,0x3a,0x3a,0x53,0x45,0x08,0x3a,0x0a,0x40,0x6e,0x61,0x6d,0x65,0x49,0x22,0x09,0x4d,0x6f,0x76,0x65,0x06,0x3a,0x06,0x45,0x54,0x3a,0x0b,0x40,0x70,0x69,0x74,0x63,0x68,0x69,0x69,0x3a,0x0c,0x40,0x76,0x6f,0x6c,0x75,0x6d,0x65,0x69,0x55))
  TeleportPlayer(0,871,3,41,8,0)
  0()



EVENT   3
 PAGE   1
  250(bytes(0x04,0x08,0x6f,0x3a,0x0c,0x52,0x50,0x47,0x3a,0x3a,0x53,0x45,0x08,0x3a,0x0a,0x40,0x6e,0x61,0x6d,0x65,0x49,0x22,0x09,0x4d,0x6f,0x76,0x65,0x06,0x3a,0x06,0x45,0x54,0x3a,0x0b,0x40,0x70,0x69,0x74,0x63,0x68,0x69,0x69,0x3a,0x0c,0x40,0x76,0x6f,0x6c,0x75,0x6d,0x65,0x69,0x55))
  TeleportPlayer(0,871,3,41,8,0)
  0()



EVENT   4
 PAGE   1
  217()
  216(1)
  241(bytes(0x04,0x08,0x6f,0x3a,0x0d,0x52,0x50,0x47,0x3a,0x3a,0x42,0x47,0x4d,0x08,0x3a,0x0a,0x40,0x6e,0x61,0x6d,0x65,0x49,0x22,0x0a,0x6b,0x69,0x6b,0x69,0x32,0x06,0x3a,0x06,0x45,0x54,0x3a,0x0c,0x40,0x76,0x6f,0x6c,0x75,0x6d,0x65,0x69,0x69,0x3a,0x0b,0x40,0x70,0x69,0x74,0x63,0x68,0x69,0x69))
  ShowMessageFace("tarsa_fc2",0,0,2,1)
  ShowMessage("\\n<Tarsa>")
  ShowMessage("ほら、ほぉら……♡")
  ShowMessage("お腹が減ったの、もっと出してよ……♪")
  ShowMessageFace("",0,0,2,2)
  ShowMessage("\\n<囚人>")
  ShowMessage("あぁぁ……もう、やめてくれぇ……")
  RunCommonEvent(104)
  RunCommonEvent(105)
  ShowMessageFace("nobissa_fc1",0,0,2,3)
  ShowMessage("\\n<Novissa>")
  ShowMessage("…………！！")
  ShowMessageFace("rest_fc1",0,0,2,4)
  ShowMessage("\\n<Lest>")
  ShowMessage("ターサ……！？　これは、いったい――")
  ShowMessageFace("",0,0,2,5)
  ShowMessage("周囲に転がっている囚人達は、いずれも衰弱しきっている。")
  ShowMessage("まだみんな、息はあるようだが――")
  205(0,bytes(0x04,0x08,0x6f,0x3a,0x13,0x52,0x50,0x47,0x3a,0x3a,0x4d,0x6f,0x76,0x65,0x52,0x6f,0x75,0x74,0x65,0x09,0x3a,0x0c,0x40,0x72,0x65,0x70,0x65,0x61,0x74,0x46,0x3a,0x0f,0x40,0x73,0x6b,0x69,0x70,0x70,0x61,0x62,0x6c,0x65,0x46,0x3a,0x0a,0x40,0x77,0x61,0x69,0x74,0x54,0x3a,0x0a,0x40,0x6c,0x69,0x73,0x74,0x5b,0x08,0x6f,0x3a,0x15,0x52,0x50,0x47,0x3a,0x3a,0x4d,0x6f,0x76,0x65,0x43,0x6f,0x6d,0x6d,0x61,0x6e,0x64,0x07,0x3a,0x0a,0x40,0x63,0x6f,0x64,0x65,0x69,0x29,0x3a,0x10,0x40,0x70,0x61,0x72,0x61,0x6d,0x65,0x74,0x65,0x72,0x73,0x5b,0x00,0x6f,0x3b,0x0a,0x07,0x3b,0x0b,0x69,0x1e,0x3b,0x0c,0x5b,0x00,0x6f,0x3b,0x0a,0x07,0x3b,0x0b,0x69,0x00,0x3b,0x0c,0x5b,0x00))
  PictureDisplay(5,"80_tarsa_st12",0,0,0,0,100,100,0,0)
  PictureMove(5,null,0,0,0,0,100,100,255,0,30,true)
  ShowMessageFace("tarsa_fc2",1,0,2,6)
  ShowMessage("\\n<Tarsa>")
  ShowMessage("あっ……ノビッサにレスト……")
  ShowMessage("来てくれたんだ……♡")
  ShowMessageFace("rest_fc1",0,0,2,7)
  ShowMessage("\\n<Lest>")
  ShowMessage("ターサ……何をしてるんだ！？")
  ShowMessageFace("tarsa_fc2",1,0,2,8)
  ShowMessage("\\n<Tarsa>")
  ShowMessage("この四魔柱に力を注いで、ゲートを大きくするんだけど……")
  ShowMessage("それって、すっごくお腹が空くのよ。")
  ShowMessageFace("tarsa_fc2",1,0,2,9)
  ShowMessage("\\n<Tarsa>")
  ShowMessage("でも、お腹が減ったら囚人達から吸ってもいいって……")
  ShowMessage("うふふっ、悪くない報酬よね♪")
  ShowMessageFace("rest_fc1",0,0,2,10)
  ShowMessage("\\n<Lest>")
  ShowMessage("ゲートを大きくする……？")
  ShowMessage("それは、まさか――")
  ShowMessageFace("",0,0,2,11)
  ShowMessage("ミュゼットは、魔城の召喚を目論んでいるという。")
  ShowMessage("そのために、よりゲートを大きく開くつもりなのだ。")
  ShowMessageFace("rest_fc1",0,0,2,12)
  ShowMessage("\\n<Lest>")
  ShowMessage("やめるんだ、ターサ！")
  ShowMessage("そんな事をしたら、この世界が――")
  ShowMessageFace("nobissa_fc1",0,0,2,13)
  ShowMessage("\\n<Novissa>")
  ShowMessage("…………！！")
  ShowMessageFace("tarsa_fc2",1,0,2,14)
  ShowMessage("\\n<Tarsa>")
  ShowMessage("ねぇ、二人も一緒にヤろうよ……♪")
  ShowMessage("みんなで、気持ちよくなろ……？")
  ShowMessageFace("rest_fc1",0,0,2,15)
  ShowMessage("\\n<Lest>")
  ShowMessage("ターサ……！！")
  ShowMessageFace("",0,0,2,16)
  ShowMessage("ダメだ、全く聞き入れてくれない。")
  ShowMessage("ミュゼットのせいで、正気を失っているようだ。")
  ShowMessageFace("nobissa_fc1",0,0,2,17)
  ShowMessage("\\n<Novissa>")
  ShowMessage("……………………")
  ShowMessageFace("",0,0,2,18)
  ShowMessage("ノビッサはおもむろに、巨剣を取り出した！")
  ShowMessageFace("rest_fc1",0,0,2,19)
  ShowMessage("\\n<Lest>")
  ShowMessage("ショックを与えて、正気に戻すって……")
  ShowMessage("ノビッサ、ちょっと乱暴すぎないか……？")
  ShowMessageFace("",0,0,2,20)
  ShowMessage("そうは言いつつも、他に有効な手立てはない。")
  ShowMessage("多少乱暴でも、やるしかないか――")
  ShowMessageFace("tarsa_fc2",1,0,2,21)
  ShowMessage("\\n<Tarsa>")
  ShowMessage("あははっ、激しくイくのぉ……？")
  ShowMessage("いいわよ、いっぱい愉しみましょ♪")
  ShowMessageFace("rest_fc1",0,0,2,22)
  ShowMessage("\\n<Lest>")
  ShowMessage("怪我はさせないように……")
  ShowMessage("仕方ない、行くぞっ！")
  SetBattleBGM(bytes(0x04,0x08,0x6f,0x3a,0x0d,0x52,0x50,0x47,0x3a,0x3a,0x42,0x47,0x4d,0x08,0x3a,0x0a,0x40,0x6e,0x61,0x6d,0x65,0x49,0x22,0x0a,0x62,0x6f,0x73,0x73,0x31,0x06,0x3a,0x06,0x45,0x54,0x3a,0x0c,0x40,0x76,0x6f,0x6c,0x75,0x6d,0x65,0x69,0x69,0x3a,0x0b,0x40,0x70,0x69,0x74,0x63,0x68,0x69,0x69))
  Battle(0,1366,false,false)
  SetBattleBGM(bytes(0x04,0x08,0x6f,0x3a,0x0d,0x52,0x50,0x47,0x3a,0x3a,0x42,0x47,0x4d,0x08,0x3a,0x0a,0x40,0x6e,0x61,0x6d,0x65,0x49,0x22,0x0b,0x62,0x61,0x74,0x74,0x6c,0x65,0x06,0x3a,0x06,0x45,0x54,0x3a,0x0c,0x40,0x76,0x6f,0x6c,0x75,0x6d,0x65,0x69,0x69,0x3a,0x0b,0x40,0x70,0x69,0x74,0x63,0x68,0x69,0x69))
  241(bytes(0x04,0x08,0x6f,0x3a,0x0d,0x52,0x50,0x47,0x3a,0x3a,0x42,0x47,0x4d,0x08,0x3a,0x0a,0x40,0x6e,0x61,0x6d,0x65,0x49,0x22,0x14,0x73,0x63,0x65,0x6e,0x65,0x5f,0x65,0x70,0x69,0x6c,0x6f,0x67,0x75,0x65,0x32,0x06,0x3a,0x06,0x45,0x54,0x3a,0x0c,0x40,0x76,0x6f,0x6c,0x75,0x6d,0x65,0x69,0x69,0x3a,0x0b,0x40,0x70,0x69,0x74,0x63,0x68,0x69,0x69))
  PictureDisplay(5,"80_tarsa_st13",0,0,0,0,100,100,255,0)
  ShowMessageFace("tarsa_fc2",2,0,2,23)
  ShowMessage("\\n<Tarsa>")
  ShowMessage("あいたたた……")
  ShowMessage("頭が、ガンガン響いて……")
  ShowMessageFace("tarsa_fc2",2,0,2,24)
  ShowMessage("\\n<Tarsa>")
  ShowMessage("あれ、ノビッサにレスト……！？")
  ShowMessage("それに、ここは――")
  ShowMessageFace("rest_fc1",0,0,2,25)
  ShowMessage("\\n<Lest>")
  ShowMessage("ようやく、元に戻ったのか……")
  ShowMessageFace("nobissa_fc1",0,0,2,26)
  ShowMessage("\\n<Novissa>")
  ShowMessage("……………………")
  ShowMessageFace("",0,0,2,27)
  ShowMessage("ノビッサは、簡単に事情を説明した――")
  ShowMessageFace("tarsa_fc2",2,0,2,28)
  ShowMessage("\\n<Tarsa>")
  ShowMessage("あっ、またやっちゃったんだ……")
  ShowMessage("でも最近は、理性まで失う事はなかったのに。")
  ShowMessageFace("rest_fc1",0,0,2,29)
  ShowMessage("\\n<Lest>")
  ShowMessage("たぶん、ミュゼットの仕業だろう……")
  ShowMessage("あいつは、洗脳や誘惑はお手のものなんだ。")
  ShowMessageFace("",0,0,2,30)
  ShowMessage("ともかく、これでターサは正気に戻った。")
  ShowMessage("魔城の召喚を、なんとか未然に防いだのだ――")
  PictureClear(5)
  Wait(30)
  ShowMessageFace("rest_fc1",0,0,2,31)
  ShowMessage("\\n<Lest>")
  ShowMessage("ターサも助けたし、ここにもう用はない！")
  ShowMessage("さあ、早く脱出しよう――")
  If(6,-1,8)
   ChangeVariable(11,11,0,0,1)
   0()
  EndIf()
  If(6,-1,4)
   ChangeVariable(11,11,0,0,2)
   0()
  EndIf()
  If(6,-1,6)
   ChangeVariable(11,11,0,0,3)
   0()
  EndIf()
  241(bytes(0x04,0x08,0x6f,0x3a,0x0d,0x52,0x50,0x47,0x3a,0x3a,0x42,0x47,0x4d,0x08,0x3a,0x0a,0x40,0x6e,0x61,0x6d,0x65,0x49,0x22,0x00,0x06,0x3a,0x06,0x45,0x54,0x3a,0x0c,0x40,0x76,0x6f,0x6c,0x75,0x6d,0x65,0x69,0x69,0x3a,0x0b,0x40,0x70,0x69,0x74,0x63,0x68,0x69,0x69))
  ShowMessageFace("muzet_fc1",0,0,2,32)
  ShowMessage("\\n<Musette>")
  ShowMessage("ふふ……そうはいかないわ。")
  241(bytes(0x04,0x08,0x6f,0x3a,0x0d,0x52,0x50,0x47,0x3a,0x3a,0x42,0x47,0x4d,0x08,0x3a,0x0a,0x40,0x6e,0x61,0x6d,0x65,0x49,0x22,0x0c,0x62,0x6f,0x73,0x73,0x30,0x2d,0x34,0x06,0x3a,0x06,0x45,0x54,0x3a,0x0c,0x40,0x76,0x6f,0x6c,0x75,0x6d,0x65,0x69,0x69,0x3a,0x0b,0x40,0x70,0x69,0x74,0x63,0x68,0x69,0x69))
  205(-1,bytes(0x04,0x08,0x6f,0x3a,0x13,0x52,0x50,0x47,0x3a,0x3a,0x4d,0x6f,0x76,0x65,0x52,0x6f,0x75,0x74,0x65,0x09,0x3a,0x0c,0x40,0x72,0x65,0x70,0x65,0x61,0x74,0x46,0x3a,0x0f,0x40,0x73,0x6b,0x69,0x70,0x70,0x61,0x62,0x6c,0x65,0x46,0x3a,0x0a,0x40,0x77,0x61,0x69,0x74,0x54,0x3a,0x0a,0x40,0x6c,0x69,0x73,0x74,0x5b,0x07,0x6f,0x3a,0x15,0x52,0x50,0x47,0x3a,0x3a,0x4d,0x6f,0x76,0x65,0x43,0x6f,0x6d,0x6d,0x61,0x6e,0x64,0x07,0x3a,0x0a,0x40,0x63,0x6f,0x64,0x65,0x69,0x18,0x3a,0x10,0x40,0x70,0x61,0x72,0x61,0x6d,0x65,0x74,0x65,0x72,0x73,0x5b,0x00,0x6f,0x3b,0x0a,0x07,0x3b,0x0b,0x69,0x00,0x3b,0x0c,0x5b,0x00))
  205(0,bytes(0x04,0x08,0x6f,0x3a,0x13,0x52,0x50,0x47,0x3a,0x3a,0x4d,0x6f,0x76,0x65,0x52,0x6f,0x75,0x74,0x65,0x09,0x3a,0x0c,0x40,0x72,0x65,0x70,0x65,0x61,0x74,0x46,0x3a,0x0f,0x40,0x73,0x6b,0x69,0x70,0x70,0x61,0x62,0x6c,0x65,0x46,0x3a,0x0a,0x40,0x77,0x61,0x69,0x74,0x54,0x3a,0x0a,0x40,0x6c,0x69,0x73,0x74,0x5b,0x07,0x6f,0x3a,0x15,0x52,0x50,0x47,0x3a,0x3a,0x4d,0x6f,0x76,0x65,0x43,0x6f,0x6d,0x6d,0x61,0x6e,0x64,0x07,0x3a,0x0a,0x40,0x63,0x6f,0x64,0x65,0x69,0x18,0x3a,0x10,0x40,0x70,0x61,0x72,0x61,0x6d,0x65,0x74,0x65,0x72,0x73,0x5b,0x00,0x6f,0x3b,0x0a,0x07,0x3b,0x0b,0x69,0x00,0x3b,0x0c,0x5b,0x00))
  212(7,501,false)
  Wait(30)
  ChangeSwitch(31,31,0)
  Wait(120)
  PictureDisplay(5,"80_muzet_st01",0,0,0,0,100,100,0,0)
  PictureMove(5,null,0,0,0,0,100,100,255,0,30,true)
  ShowMessageFace("nobissa_fc1",0,0,2,33)
  ShowMessage("\\n<Novissa>")
  ShowMessage("…………！！")
  ShowMessageFace("rest_fc1",0,0,2,34)
  ShowMessage("\\n<Lest>")
  ShowMessage("ミュゼット……！")
  ShowMessageFace("muzet_fc1",0,0,2,35)
  ShowMessage("\\n<Musette>")
  ShowMessage("四魔柱へのエナジー充填度、95%といったところね。")
  ShowMessage("あと少しで、こんな邪魔が入るなんて――")
  ShowMessageFace("tarsa_fc2",2,0,2,36)
  ShowMessage("\\n<Tarsa>")
  ShowMessage("もう、私は正気を取り戻したわ！")
  ShowMessage("あなたの操り人形なんて、ならないわよ！")
  ShowMessageFace("muzet_fc1",0,0,2,37)
  ShowMessage("\\n<Musette>")
  ShowMessage("すぐに再洗脳するのは困難なようね。")
  ShowMessage("仕方ない、力尽くでも従ってもらうわ……！")
  PictureClear(5)
  Wait(30)
  205(7,bytes(0x04,0x08,0x6f,0x3a,0x13,0x52,0x50,0x47,0x3a,0x3a,0x4d,0x6f,0x76,0x65,0x52,0x6f,0x75,0x74,0x65,0x09,0x3a,0x0c,0x40,0x72,0x65,0x70,0x65,0x61,0x74,0x46,0x3a,0x0f,0x40,0x73,0x6b,0x69,0x70,0x70,0x61,0x62,0x6c,0x65,0x46,0x3a,0x0a,0x40,0x77,0x61,0x69,0x74,0x54,0x3a,0x0a,0x40,0x6c,0x69,0x73,0x74,0x5b,0x08,0x6f,0x3a,0x15,0x52,0x50,0x47,0x3a,0x3a,0x4d,0x6f,0x76,0x65,0x43,0x6f,0x6d,0x6d,0x61,0x6e,0x64,0x07,0x3a,0x0a,0x40,0x63,0x6f,0x64,0x65,0x69,0x06,0x3a,0x10,0x40,0x70,0x61,0x72,0x61,0x6d,0x65,0x74,0x65,0x72,0x73,0x5b,0x00,0x6f,0x3b,0x0a,0x07,0x3b,0x0b,0x69,0x06,0x3b,0x0c,0x5b,0x00,0x6f,0x3b,0x0a,0x07,0x3b,0x0b,0x69,0x00,0x3b,0x0c,0x5b,0x00))
  205(5,bytes(0x04,0x08,0x6f,0x3a,0x13,0x52,0x50,0x47,0x3a,0x3a,0x4d,0x6f,0x76,0x65,0x52,0x6f,0x75,0x74,0x65,0x09,0x3a,0x0c,0x40,0x72,0x65,0x70,0x65,0x61,0x74,0x46,0x3a,0x0f,0x40,0x73,0x6b,0x69,0x70,0x70,0x61,0x62,0x6c,0x65,0x46,0x3a,0x0a,0x40,0x77,0x61,0x69,0x74,0x54,0x3a,0x0a,0x40,0x6c,0x69,0x73,0x74,0x5b,0x08,0x6f,0x3a,0x15,0x52,0x50,0x47,0x3a,0x3a,0x4d,0x6f,0x76,0x65,0x43,0x6f,0x6d,0x6d,0x61,0x6e,0x64,0x07,0x3a,0x0a,0x40,0x63,0x6f,0x64,0x65,0x69,0x31,0x3a,0x10,0x40,0x70,0x61,0x72,0x61,0x6d,0x65,0x74,0x65,0x72,0x73,0x5b,0x06,0x6f,0x3a,0x0c,0x52,0x50,0x47,0x3a,0x3a,0x53,0x45,0x08,0x3a,0x0a,0x40,0x6e,0x61,0x6d,0x65,0x49,0x22,0x10,0x6d,0x6f,0x6e,0x5f,0x64,0x61,0x67,0x65,0x6b,0x69,0x32,0x06,0x3a,0x06,0x45,0x54,0x3a,0x0b,0x40,0x70,0x69,0x74,0x63,0x68,0x69,0x69,0x3a,0x0c,0x40,0x76,0x6f,0x6c,0x75,0x6d,0x65,0x69,0x69,0x6f,0x3b,0x0a,0x07,0x3b,0x0b,0x69,0x13,0x3b,0x0c,0x5b,0x07,0x69,0xf6,0x69,0x0a,0x6f,0x3b,0x0a,0x07,0x3b,0x0b,0x69,0x00,0x3b,0x0c,0x5b,0x00))
  205(0,bytes(0x04,0x08,0x6f,0x3a,0x13,0x52,0x50,0x47,0x3a,0x3a,0x4d,0x6f,0x76,0x65,0x52,0x6f,0x75,0x74,0x65,0x09,0x3a,0x0c,0x40,0x72,0x65,0x70,0x65,0x61,0x74,0x46,0x3a,0x0f,0x40,0x73,0x6b,0x69,0x70,0x70,0x61,0x62,0x6c,0x65,0x46,0x3a,0x0a,0x40,0x77,0x61,0x69,0x74,0x54,0x3a,0x0a,0x40,0x6c,0x69,0x73,0x74,0x5b,0x07,0x6f,0x3a,0x15,0x52,0x50,0x47,0x3a,0x3a,0x4d,0x6f,0x76,0x65,0x43,0x6f,0x6d,0x6d,0x61,0x6e,0x64,0x07,0x3a,0x0a,0x40,0x63,0x6f,0x64,0x65,0x69,0x2a,0x3a,0x10,0x40,0x70,0x61,0x72,0x61,0x6d,0x65,0x74,0x65,0x72,0x73,0x5b,0x00,0x6f,0x3b,0x0a,0x07,0x3b,0x0b,0x69,0x00,0x3b,0x0c,0x5b,0x00))
  If(1,11,0,1,0)
   205(-1,bytes(0x04,0x08,0x6f,0x3a,0x13,0x52,0x50,0x47,0x3a,0x3a,0x4d,0x6f,0x76,0x65,0x52,0x6f,0x75,0x74,0x65,0x09,0x3a,0x0c,0x40,0x72,0x65,0x70,0x65,0x61,0x74,0x46,0x3a,0x0f,0x40,0x73,0x6b,0x69,0x70,0x70,0x61,0x62,0x6c,0x65,0x46,0x3a,0x0a,0x40,0x77,0x61,0x69,0x74,0x54,0x3a,0x0a,0x40,0x6c,0x69,0x73,0x74,0x5b,0x07,0x6f,0x3a,0x15,0x52,0x50,0x47,0x3a,0x3a,0x4d,0x6f,0x76,0x65,0x43,0x6f,0x6d,0x6d,0x61,0x6e,0x64,0x07,0x3a,0x0a,0x40,0x63,0x6f,0x64,0x65,0x69,0x09,0x3a,0x10,0x40,0x70,0x61,0x72,0x61,0x6d,0x65,0x74,0x65,0x72,0x73,0x5b,0x00,0x6f,0x3b,0x0a,0x07,0x3b,0x0b,0x69,0x00,0x3b,0x0c,0x5b,0x00))
   0()
  EndIf()
  If(1,11,0,2,0)
   205(-1,bytes(0x04,0x08,0x6f,0x3a,0x13,0x52,0x50,0x47,0x3a,0x3a,0x4d,0x6f,0x76,0x65,0x52,0x6f,0x75,0x74,0x65,0x09,0x3a,0x0c,0x40,0x72,0x65,0x70,0x65,0x61,0x74,0x46,0x3a,0x0f,0x40,0x73,0x6b,0x69,0x70,0x70,0x61,0x62,0x6c,0x65,0x46,0x3a,0x0a,0x40,0x77,0x61,0x69,0x74,0x54,0x3a,0x0a,0x40,0x6c,0x69,0x73,0x74,0x5b,0x08,0x6f,0x3a,0x15,0x52,0x50,0x47,0x3a,0x3a,0x4d,0x6f,0x76,0x65,0x43,0x6f,0x6d,0x6d,0x61,0x6e,0x64,0x07,0x3a,0x0a,0x40,0x63,0x6f,0x64,0x65,0x69,0x07,0x3a,0x10,0x40,0x70,0x61,0x72,0x61,0x6d,0x65,0x74,0x65,0x72,0x73,0x5b,0x00,0x6f,0x3b,0x0a,0x07,0x3b,0x0b,0x69,0x18,0x3b,0x0c,0x5b,0x00,0x6f,0x3b,0x0a,0x07,0x3b,0x0b,0x69,0x00,0x3b,0x0c,0x5b,0x00))
   0()
  EndIf()
  If(1,11,0,3,0)
   205(-1,bytes(0x04,0x08,0x6f,0x3a,0x13,0x52,0x50,0x47,0x3a,0x3a,0x4d,0x6f,0x76,0x65,0x52,0x6f,0x75,0x74,0x65,0x09,0x3a,0x0c,0x40,0x72,0x65,0x70,0x65,0x61,0x74,0x46,0x3a,0x0f,0x40,0x73,0x6b,0x69,0x70,0x70,0x61,0x62,0x6c,0x65,0x46,0x3a,0x0a,0x40,0x77,0x61,0x69,0x74,0x54,0x3a,0x0a,0x40,0x6c,0x69,0x73,0x74,0x5b,0x08,0x6f,0x3a,0x15,0x52,0x50,0x47,0x3a,0x3a,0x4d,0x6f,0x76,0x65,0x43,0x6f,0x6d,0x6d,0x61,0x6e,0x64,0x07,0x3a,0x0a,0x40,0x63,0x6f,0x64,0x65,0x69,0x08,0x3a,0x10,0x40,0x70,0x61,0x72,0x61,0x6d,0x65,0x74,0x65,0x72,0x73,0x5b,0x00,0x6f,0x3b,0x0a,0x07,0x3b,0x0b,0x69,0x18,0x3b,0x0c,0x5b,0x00,0x6f,0x3b,0x0a,0x07,0x3b,0x0b,0x69,0x00,0x3b,0x0c,0x5b,0x00))
   0()
  EndIf()
  205(0,bytes(0x04,0x08,0x6f,0x3a,0x13,0x52,0x50,0x47,0x3a,0x3a,0x4d,0x6f,0x76,0x65,0x52,0x6f,0x75,0x74,0x65,0x09,0x3a,0x0c,0x40,0x72,0x65,0x70,0x65,0x61,0x74,0x46,0x3a,0x0f,0x40,0x73,0x6b,0x69,0x70,0x70,0x61,0x62,0x6c,0x65,0x46,0x3a,0x0a,0x40,0x77,0x61,0x69,0x74,0x54,0x3a,0x0a,0x40,0x6c,0x69,0x73,0x74,0x5b,0x07,0x6f,0x3a,0x15,0x52,0x50,0x47,0x3a,0x3a,0x4d,0x6f,0x76,0x65,0x43,0x6f,0x6d,0x6d,0x61,0x6e,0x64,0x07,0x3a,0x0a,0x40,0x63,0x6f,0x64,0x65,0x69,0x2c,0x3a,0x10,0x40,0x70,0x61,0x72,0x61,0x6d,0x65,0x74,0x65,0x72,0x73,0x5b,0x00,0x6f,0x3b,0x0a,0x07,0x3b,0x0b,0x69,0x00,0x3b,0x0c,0x5b,0x00))
  ShowMessageFace("rest_fc1",0,0,2,38)
  ShowMessage("\\n<Lest>")
  ShowMessage("そんな事、させはしない！")
  ShowMessage("ミュゼット、ここでお前を倒す！！")
  ShowMessageFace("nobissa_fc1",0,0,2,39)
  ShowMessage("\\n<Novissa>")
  ShowMessage("…………！！")
  ShowMessageFace("tarsa_fc2",1,0,2,40)
  ShowMessage("\\n<Tarsa>")
  ShowMessage("私も、戦うわ……")
  ShowMessage("今まで迷惑をかけた分まで、働くから！")
  355("add_temp_actors(825)")
  If(0,1927,1)
   355("force_change_equip(825,1,1,740)")
   355("set_class_level(825, 97, 10, false, false)")
   655("set_class_level(825, 175, 10, false, false)")
   655("set_class_level(825, 176, 10, false, true)")
   0()
  EndIf()
  355("persona_change(825)")
  314(0,825)
  318(0,824,0,273)
  318(0,824,0,274)
  318(0,825,0,2509)
  318(0,825,0,2047)
  318(0,825,0,2068)
  318(0,823,0,5838)
  318(0,823,0,5839)
  318(0,823,0,5840)
  318(0,823,0,5841)
  318(0,823,0,5842)
  249(bytes(0x04,0x08,0x6f,0x3a,0x0c,0x52,0x50,0x47,0x3a,0x3a,0x4d,0x45,0x08,0x3a,0x0a,0x40,0x6e,0x61,0x6d,0x65,0x49,0x22,0x11,0x6d,0x6f,0x6e,0x5f,0x66,0x61,0x6e,0x66,0x61,0x6c,0x65,0x33,0x06,0x3a,0x06,0x45,0x54,0x3a,0x0b,0x40,0x70,0x69,0x74,0x63,0x68,0x69,0x69,0x3a,0x0c,0x40,0x76,0x6f,0x6c,0x75,0x6d,0x65,0x69,0x69))
  ShowMessageFace("",0,0,2,41)
  ShowMessage("ターサが再び仲間になった！")
  ShowMessage("ノビッサは、アシストスキルが使えるようになった！")
  Wait(60)
  PictureDisplay(5,"80_muzet_st01",0,0,0,0,100,100,0,0)
  PictureMove(5,null,0,0,0,0,100,100,255,0,30,true)
  ShowMessageFace("muzet_fc1",0,0,2,42)
  ShowMessage("\\n<Musette>")
  ShowMessage("万能剣士、それに異世界の勇者……")
  ShowMessage("あなた達も洗脳して、私の手駒にしてあげるわ！")
  PictureClear(5)
  SetBattleBGM(bytes(0x04,0x08,0x6f,0x3a,0x0d,0x52,0x50,0x47,0x3a,0x3a,0x42,0x47,0x4d,0x08,0x3a,0x0a,0x40,0x6e,0x61,0x6d,0x65,0x49,0x22,0x0a,0x62,0x6f,0x73,0x73,0x32,0x06,0x3a,0x06,0x45,0x54,0x3a,0x0c,0x40,0x76,0x6f,0x6c,0x75,0x6d,0x65,0x69,0x69,0x3a,0x0b,0x40,0x70,0x69,0x74,0x63,0x68,0x69,0x69))
  Battle(0,1367,false,false)
  SetBattleBGM(bytes(0x04,0x08,0x6f,0x3a,0x0d,0x52,0x50,0x47,0x3a,0x3a,0x42,0x47,0x4d,0x08,0x3a,0x0a,0x40,0x6e,0x61,0x6d,0x65,0x49,0x22,0x0b,0x62,0x61,0x74,0x74,0x6c,0x65,0x06,0x3a,0x06,0x45,0x54,0x3a,0x0c,0x40,0x76,0x6f,0x6c,0x75,0x6d,0x65,0x69,0x69,0x3a,0x0b,0x40,0x70,0x69,0x74,0x63,0x68,0x69,0x69))
  241(bytes(0x04,0x08,0x6f,0x3a,0x0d,0x52,0x50,0x47,0x3a,0x3a,0x42,0x47,0x4d,0x08,0x3a,0x0a,0x40,0x6e,0x61,0x6d,0x65,0x49,0x22,0x0a,0x6b,0x69,0x6b,0x69,0x32,0x06,0x3a,0x06,0x45,0x54,0x3a,0x0c,0x40,0x76,0x6f,0x6c,0x75,0x6d,0x65,0x69,0x69,0x3a,0x0b,0x40,0x70,0x69,0x74,0x63,0x68,0x69,0x69))
  205(7,bytes(0x04,0x08,0x6f,0x3a,0x13,0x52,0x50,0x47,0x3a,0x3a,0x4d,0x6f,0x76,0x65,0x52,0x6f,0x75,0x74,0x65,0x09,0x3a,0x0c,0x40,0x72,0x65,0x70,0x65,0x61,0x74,0x46,0x3a,0x0f,0x40,0x73,0x6b,0x69,0x70,0x70,0x61,0x62,0x6c,0x65,0x46,0x3a,0x0a,0x40,0x77,0x61,0x69,0x74,0x54,0x3a,0x0a,0x40,0x6c,0x69,0x73,0x74,0x5b,0x09,0x6f,0x3a,0x15,0x52,0x50,0x47,0x3a,0x3a,0x4d,0x6f,0x76,0x65,0x43,0x6f,0x6d,0x6d,0x61,0x6e,0x64,0x07,0x3a,0x0a,0x40,0x63,0x6f,0x64,0x65,0x69,0x28,0x3a,0x10,0x40,0x70,0x61,0x72,0x61,0x6d,0x65,0x74,0x65,0x72,0x73,0x5b,0x00,0x6f,0x3b,0x0a,0x07,0x3b,0x0b,0x69,0x13,0x3b,0x0c,0x5b,0x07,0x69,0x00,0x69,0xf9,0x6f,0x3b,0x0a,0x07,0x3b,0x0b,0x69,0x29,0x3b,0x0c,0x5b,0x00,0x6f,0x3b,0x0a,0x07,0x3b,0x0b,0x69,0x00,0x3b,0x0c,0x5b,0x00))
  PictureDisplay(5,"80_muzet_st01",0,0,0,0,100,100,0,0)
  PictureMove(5,null,0,0,0,0,100,100,255,0,30,true)
  ShowMessageFace("muzet_fc1",0,0,2,43)
  ShowMessage("\\n<Musette>")
  ShowMessage("くっ、ずいぶん小癪な真似を……！")
  ShowMessageFace("",0,0,2,44)
  ShowMessage("僕達の奮戦の前に、ミュゼットはたじろいだ。")
  ShowMessageFace("rest_fc1",0,0,2,45)
  ShowMessage("\\n<Lest>")
  ShowMessage("観念するんだ、ミュゼット！")
  ShowMessageFace("muzet_fc1",0,0,2,46)
  ShowMessage("\\n<Musette>")
  ShowMessage("四魔柱へのエナジー充填度は、95%……")
  ShowMessage("これだけあれば、不完全でも魔城召喚は出来るはず。")
  ShowMessageFace("nobissa_fc1",0,0,2,47)
  ShowMessage("\\n<Novissa>")
  ShowMessage("…………！？")
  ShowMessageFace("tarsa_fc2",2,0,2,48)
  ShowMessage("\\n<Tarsa>")
  ShowMessage("……まずいわ！")
  ShowMessage("力不足でも、強引に魔城を召喚する気よ！")
  ShowMessageFace("rest_fc1",0,0,2,49)
  ShowMessage("\\n<Lest>")
  ShowMessage("くっ……させるか！！")
  PictureClear(5)
  Wait(30)
  205(-1,bytes(0x04,0x08,0x6f,0x3a,0x13,0x52,0x50,0x47,0x3a,0x3a,0x4d,0x6f,0x76,0x65,0x52,0x6f,0x75,0x74,0x65,0x09,0x3a,0x0c,0x40,0x72,0x65,0x70,0x65,0x61,0x74,0x46,0x3a,0x0f,0x40,0x73,0x6b,0x69,0x70,0x70,0x61,0x62,0x6c,0x65,0x46,0x3a,0x0a,0x40,0x77,0x61,0x69,0x74,0x54,0x3a,0x0a,0x40,0x6c,0x69,0x73,0x74,0x5b,0x13,0x6f,0x3a,0x15,0x52,0x50,0x47,0x3a,0x3a,0x4d,0x6f,0x76,0x65,0x43,0x6f,0x6d,0x6d,0x61,0x6e,0x64,0x07,0x3a,0x0a,0x40,0x63,0x6f,0x64,0x65,0x69,0x2a,0x3a,0x10,0x40,0x70,0x61,0x72,0x61,0x6d,0x65,0x74,0x65,0x72,0x73,0x5b,0x00,0x6f,0x3b,0x0a,0x07,0x3b,0x0b,0x69,0x22,0x3b,0x0c,0x5b,0x06,0x69,0x0b,0x6f,0x3b,0x0a,0x07,0x3b,0x0b,0x69,0x23,0x3b,0x0c,0x5b,0x06,0x69,0x0a,0x6f,0x3b,0x0a,0x07,0x3b,0x0b,0x69,0x09,0x3b,0x0c,0x5b,0x00,0x6f,0x3b,0x0a,0x07,0x3b,0x0b,0x69,0x09,0x3b,0x0c,0x5b,0x00,0x6f,0x3b,0x0a,0x07,0x3b,0x0b,0x69,0x09,0x3b,0x0c,0x5b,0x00,0x6f,0x3b,0x0a,0x07,0x3b,0x0b,0x69,0x22,0x3b,0x0c,0x5b,0x06,0x69,0x09,0x6f,0x3b,0x0a,0x07,0x3b,0x0b,0x69,0x23,0x3b,0x0c,0x5b,0x06,0x69,0x08,0x6f,0x3b,0x0a,0x07,0x3b,0x0b,0x69,0x31,0x3b,0x0c,0x5b,0x06,0x6f,0x3a,0x0c,0x52,0x50,0x47,0x3a,0x3a,0x53,0x45,0x08,0x3a,0x0a,0x40,0x6e,0x61,0x6d,0x65,0x49,0x22,0x10,0x6d,0x6f,0x6e,0x5f,0x64,0x61,0x67,0x65,0x6b,0x69,0x32,0x06,0x3a,0x06,0x45,0x54,0x3a,0x0b,0x40,0x70,0x69,0x74,0x63,0x68,0x69,0x69,0x3a,0x0c,0x40,0x76,0x6f,0x6c,0x75,0x6d,0x65,0x69,0x69,0x6f,0x3b,0x0a,0x07,0x3b,0x0b,0x69,0x28,0x3b,0x0c,0x5b,0x00,0x6f,0x3b,0x0a,0x07,0x3b,0x0b,0x69,0x13,0x3b,0x0c,0x5b,0x07,0x69,0x00,0x69,0x07,0x6f,0x3b,0x0a,0x07,0x3b,0x0b,0x69,0x29,0x3b,0x0c,0x5b,0x00,0x6f,0x3b,0x0a,0x07,0x3b,0x0b,0x69,0x2b,0x3b,0x0c,0x5b,0x00,0x6f,0x3b,0x0a,0x07,0x3b,0x0b,0x69,0x00,0x3b,0x0c,0x5b,0x00))
  ShowMessageFace("nobissa_fc1",0,0,2,50)
  ShowMessage("\\n<Novissa>")
  ShowMessage("…………！！")
  ShowMessageFace("muzet_fc1",0,0,2,51)
  ShowMessage("\\n<Musette>")
  ShowMessage("このグランドノア城を依代にして……")
  ShowMessage("魔城トゥーロマンサ、夢の導きに応じて現界しなさい！")
  250(bytes(0x04,0x08,0x6f,0x3a,0x0c,0x52,0x50,0x47,0x3a,0x3a,0x53,0x45,0x08,0x3a,0x0a,0x40,0x6e,0x61,0x6d,0x65,0x49,0x22,0x0f,0x6d,0x6f,0x6e,0x5f,0x65,0x61,0x72,0x74,0x68,0x31,0x06,0x3a,0x06,0x45,0x54,0x3a,0x0b,0x40,0x70,0x69,0x74,0x63,0x68,0x69,0x69,0x3a,0x0c,0x40,0x76,0x6f,0x6c,0x75,0x6d,0x65,0x69,0x69))
  225(9,9,120,true)
  ShowMessageFace("rest_fc1",0,0,2,52)
  ShowMessage("\\n<Lest>")
  ShowMessage("じ、地震……！？　いや――")
  ShowMessageFace("muzet_fc1",0,0,2,53)
  ShowMessage("\\n<Musette>")
  ShowMessage("ホホホ……刮目しなさい！")
  ShowMessage("この世界に君臨する、魔城の偉容を――")
  250(bytes(0x04,0x08,0x6f,0x3a,0x0c,0x52,0x50,0x47,0x3a,0x3a,0x53,0x45,0x08,0x3a,0x0a,0x40,0x6e,0x61,0x6d,0x65,0x49,0x22,0x0f,0x6d,0x6f,0x6e,0x5f,0x65,0x61,0x72,0x74,0x68,0x32,0x06,0x3a,0x06,0x45,0x54,0x3a,0x0b,0x40,0x70,0x69,0x74,0x63,0x68,0x69,0x69,0x3a,0x0c,0x40,0x76,0x6f,0x6c,0x75,0x6d,0x65,0x69,0x69))
  225(9,9,120,true)
  ChangeSwitch(31,31,1)
  TeleportPlayer(0,846,20,23,8,1)
  Wait(60)
  EndEventProcessing()
  0()



EVENT   5
 PAGE   1
  ShowMessageFace("",0,0,2,1)
  ShowMessage("\\n<囚人>")
  ShowMessage("き、きもちいい……")
  ShowMessage("けど、死んじゃう……")
  0()



EVENT   6
 PAGE   1
  ChangeSelfSwitch("A",0)
  ShowMessageFace("tarsa_fc2",0,0,2,1)
  ShowMessage("\\n<Tarsa>")
  ShowMessage("うふふっ……ほらぁ♡")
  ShowMessage("もっと、もっと出してよぉ……♡")
  ShowMessageFace("",0,0,2,2)
  ShowMessage("\\n<青年>")
  ShowMessage("ひぃっ……！　あ、あぁぁぁぁ～～！！")
  ShowMessageFace("nobissa_fc1",0,0,2,3)
  ShowMessage("\\n<Novissa>")
  ShowMessage("…………！！")
  EndEventProcessing()
  0()
 PAGE   2
  // condition: self-switch A is ON
  0()



EVENT   7
 PAGE   1
  // condition: switch 31 is ON
  0()



EVENT   8
 PAGE   1
  // condition: variable 1207 >= 9
  ChangeVariable(1207,1207,0,0,10)
  ShowMessageFace("rest_fc1",0,0,2,1)
  ShowMessage("\\n<Lest>")
  ShowMessage("地下三階……")
  ShowMessage("政治犯専用の牢獄って話だったな。")
  ShowMessageFace("",0,0,2,2)
  ShowMessage("ターサが、ここまで連れて来られたのは確かだ。")
  ShowMessage("しかし、いったい何の為に――")
  ShowMessageFace("nobissa_fc1",0,0,2,3)
  ShowMessage("\\n<Novissa>")
  ShowMessage("……………………")
  ShowMessageFace("rest_fc1",0,0,2,4)
  ShowMessage("\\n<Lest>")
  ShowMessage("ああ、分かってる。")
  ShowMessage("力を合わせて、ターサを救い出そう！")
  0()
 PAGE   2
  // condition: variable 1207 >= 10
  0()



EVENT   9
 PAGE   1
  If(2,"A",1)
   ChangeSelfSwitch("A",0)
   ShowMessageFace("",0,0,2,1)
   ShowMessage("\\n<将軍>")
   ShowMessage("君達、どうか聞いてくれ！")
   ShowMessage("信じられないかもしれないが、女王陛下は操られているんだ！")
   ShowMessageFace("rest_fc1",0,0,2,2)
   ShowMessage("\\n<Lest>")
   ShowMessage("いえ、知っています。")
   ShowMessage("白い羽の魔物、でしょう……？")
   ShowMessageFace("",0,0,2,3)
   ShowMessage("\\n<将軍>")
   ShowMessage("なんと、すでに知っていたのか……")
   ShowMessage("それゆえに、この牢獄に送られたのか？")
   ShowMessageFace("rest_fc1",0,0,2,4)
   ShowMessage("\\n<Lest>")
   ShowMessage("ええ、まあそんなところです。")
   ShowMessage("ところで、緑髪の踊り子を見ませんでしたか？")
   ShowMessageFace("",0,0,2,5)
   ShowMessage("\\n<将軍>")
   ShowMessage("すまんが、心当たりはないな……")
   ShowMessageFace("rest_fc1",0,0,2,6)
   ShowMessage("\\n<Lest>")
   ShowMessage("そうですか……")
   ShowMessage("女王を洗脳した妖魔は、僕達が必ず倒します。")
   ShowMessageFace("nobissa_fc1",0,0,2,7)
   ShowMessage("\\n<Novissa>")
   ShowMessage("……………………")
   0()
  EndIf()
  ShowMessageFace("",0,0,2,8)
  ShowMessage("\\n<将軍>")
  ShowMessage("誰かは知らんが、歴戦の勇士と見た。")
  ShowMessage("この国の未来、頼んだぞ……")
  0()



EVENT   10
 PAGE   1
  0()



EVENT   11
 PAGE   1
  0()



EVENT   12
 PAGE   1
  ShowMessageFace(binary"",0,0,2,1)
  ShowMessage("\\n<大臣>")
  ShowMessage("三人の天使様が、女王陛下を操っているのを見てしまった……")
  ShowMessage("そのせいで、政治犯の汚名を着せられこのザマだ。")
  ShowMessageFace("rest_fc1",0,0,2,2)
  ShowMessage("\\n<Lest>")
  ShowMessage("ミュゼット達は、有翼魔という妖魔。")
  ShowMessage("姿は似てるけど、天使なんかじゃないんだ。")
  0()



EVENT   13
 PAGE   1
  0()



EVENT   14
 PAGE   1
  ShowMessageFace("",0,0,2,1)
  ShowMessage("\\n<兵士>")
  ShowMessage("罪なき罪にて、獄中で朽ち果てていくとは……")
  ShowMessage("これ以上の無念はありません。")
  0()



EVENT   15
 PAGE   1
  0()



EVENT   16
 PAGE   1
  ShowMessageFace("",0,0,2,1)
  ShowMessage("\\n<神父>")
  ShowMessage("イリアス様……")
  ShowMessage("女王陛下を誑かす妖魔をお裁き下さい……")
  0()



EVENT   18
 PAGE   1
  ShowMessageFace("",0,0,2,1)
  ShowMessage("\\n<囚人>")
  ShowMessage("隣の房の奴が、どこかに連れ去られ帰ってこない……")
  ShowMessage("次は俺の番かもな。")
  0()



EVENT   19
 PAGE   1
  0()



EVENT   20
 PAGE   1
  ShowMessageFace("",0,0,2,1)
  ShowMessage("\\n<紳士>")
  ShowMessage("一人、また一人と囚人達が奥へと連れ去られます。")
  ShowMessage("いったい、この階の奥に何があるのでしょうか……")
  0()



EVENT   21
 PAGE   1
  0()



EVENT   22
 PAGE   1
  ShowMessageFace("mino_fc1",2,0,2,1)
  ShowMessage("\\n<ミノタウロス娘>")
  ShowMessage("俺が政治犯とか、冗談だろ！")
  ShowMessage("脳まで筋肉なんだぜ！　犯罪なんて食い逃げがせいぜいだ！")
  ShowMessageFace("rest_fc1",0,0,2,2)
  ShowMessage("\\n<Lest>")
  ShowMessage("みんな、無実も同然じゃないか。")
  ShowMessage("一刻も早く、何とかしないと……")
  0()



EVENT   23
 PAGE   1
  0()



EVENT   24
 PAGE   1
  ShowMessageFace("",0,0,2,1)
  ShowMessage("\\n<吟遊私人>")
  ShowMessage("女王を批判する歌を作ったら、たちまち逮捕です。")
  ShowMessage("これで政治犯など、愚の骨頂ですね……")
  ShowMessageFace("mino_fc1",0,0,2,2)
  ShowMessage("\\n<向かいのミノタウロス娘>")
  ShowMessage("おーい、吟遊詩人！")
  ShowMessage("「ごちそうの歌」、歌ってくれー！！")
  ShowMessageFace("",0,0,2,3)
  ShowMessage("\\n<吟遊私人>")
  ShowMessage("やれやれ、好きですねぇ……")
  ShowMessage("『食卓に盛られた、肉いっぱいの皿～♪』")
  ShowMessageFace(binary"",0,1,1,4)
  ShowMessage("関係のない話だが――")
  ShowMessage("この吟遊詩人とミノタウロス娘は、一年後に結婚する。")
  0()



EVENT   25
 PAGE   1
  ShowMessageFace("",0,0,2,1)
  ShowMessage("\\n<囚人>")
  ShowMessage("なんか、奥の部屋から声が聞こえてくるんだよ。")
  ShowMessage("男女の喘ぎ声……それも、男は一人や二人じゃないぜ……")
  ShowMessageFace("",0,0,2,2)
  ShowMessage("\\n<囚人>")
  ShowMessage("ううっ……ムラムラして、眠れない……")
  0()



EVENT   17
 PAGE   1
  0()



EVENT   26
 PAGE   1
  0()



EVENT   27
 PAGE   1
  ShowMessageFace("",0,0,2,1)
  ShowMessage("\\n<侍女>")
  ShowMessage("陛下の異変を見抜いてしまったばっかりに……")
  ShowMessage("ああ、陛下……おいたわしい……")
  0()



EVENT   28
 PAGE   1
  0()



EVENT   29
 PAGE   1
  PictureDisplay(5,"80_monk_sucubuss_st01",0,0,0,0,100,100,0,0)
  PictureMove(5,null,0,0,0,0,100,100,255,0,30,true)
  ShowMessageFace("monk_sucubuss_fc1",0,0,2,1)
  ShowMessage("\\n<モンクサキュバス>")
  ShowMessage("あんた達が、話に聞く異世界の勇者達ね。")
  ShowMessage("儀式の邪魔はさせないわよ！")
  ShowMessageFace("rest_fc1",0,0,2,2)
  ShowMessage("\\n<Lest>")
  ShowMessage("儀式だって……！？")
  ShowMessage("お前達、もしかして同盟者か！？")
  ShowMessageFace("monk_sucubuss_fc1",0,0,2,3)
  ShowMessage("\\n<モンクサキュバス>")
  ShowMessage("自分で言うのも何だけど……そんな大層なものじゃないわ。")
  ShowMessage("異世界じゃなく、この世界で生まれ育った魔物よ。")
  ShowMessageFace("monk_sucubuss_fc1",0,0,2,4)
  ShowMessage("\\n<モンクサキュバス>")
  ShowMessage("でも、「夢の主」の啓示を受けて……")
  ShowMessage("あの方の為に、戦うことにしたのよ！")
  ShowMessageFace("rest_fc1",0,0,2,5)
  ShowMessage("\\n<Lest>")
  ShowMessage("「夢の主」……この世界でも、手下を集めていたのか。")
  ShowMessage("とにかく、この先に行かせてもらうぞ！")
  ShowMessageFace("",0,0,2,6)
  ShowMessage("儀式が行われているとなれば、ターサが関わっているはず。")
  ShowMessage("魔城召喚とやらのために、彼女は捕らえられたのだ――")
  ShowMessageFace("monk_sucubuss_fc1",0,0,2,7)
  ShowMessage("\\n<モンクサキュバス>")
  ShowMessage("行かせないわ……")
  ShowMessage("「夜の国」到来のために！")
  PictureClear(5)
  Battle(0,1430,false,false)
  ChangeSelfSwitch("A",0)
  ShowMessageFace("rest_fc1",0,0,2,8)
  ShowMessage("\\n<Lest>")
  ShowMessage("行こう、ノビッサ！")
  ShowMessage("この先に、ターサがいるはずだ！")
  ShowMessageFace("nobissa_fc1",0,0,2,9)
  ShowMessage("\\n<Novissa>")
  ShowMessage("…………！！")
  EndEventProcessing()
  0()
 PAGE   2
  // condition: self-switch A is ON
  0()



EVENT   30
 PAGE   1
  0()



EVENT   31
 PAGE   1
  0()



EVENT   32
 PAGE   1
  0()



EVENT   33
 PAGE   1
  0()



EVENT   34
 PAGE   1
  0()



EVENT   35
 PAGE   1
  0()



EVENT   36
 PAGE   1
  0()



EVENT   37
 PAGE   1
  0()



EVENT   38
 PAGE   1
  0()



EVENT   39
 PAGE   1
  0()



EVENT   40
 PAGE   1
  0()



EVENT   41
 PAGE   1
  0()



EVENT   42
 PAGE   1
  0()



EVENT   43
 PAGE   1
  0()



EVENT   44
 PAGE   1
  0()



EVENT   45
 PAGE   1
  ShowMessageFace("",0,0,2,1)
  ShowMessage("転職の書が開かれたまま放置されている……")
  355("SceneManager.call(Scene_JobChange)")
  Wait(1)
  314(0,0)
  EndEventProcessing()
  0()



EVENT   46
 PAGE   1
  250(bytes(0x04,0x08,0x6f,0x3a,0x0c,0x52,0x50,0x47,0x3a,0x3a,0x53,0x45,0x08,0x3a,0x0a,0x40,0x6e,0x61,0x6d,0x65,0x49,0x22,0x0a,0x43,0x68,0x65,0x73,0x74,0x06,0x3a,0x06,0x45,0x54,0x3a,0x0b,0x40,0x70,0x69,0x74,0x63,0x68,0x69,0x69,0x3a,0x0c,0x40,0x76,0x6f,0x6c,0x75,0x6d,0x65,0x69,0x55))
  205(0,bytes(0x04,0x08,0x6f,0x3a,0x13,0x52,0x50,0x47,0x3a,0x3a,0x4d,0x6f,0x76,0x65,0x52,0x6f,0x75,0x74,0x65,0x09,0x3a,0x0c,0x40,0x72,0x65,0x70,0x65,0x61,0x74,0x46,0x3a,0x0f,0x40,0x73,0x6b,0x69,0x70,0x70,0x61,0x62,0x6c,0x65,0x46,0x3a,0x0a,0x40,0x77,0x61,0x69,0x74,0x54,0x3a,0x0a,0x40,0x6c,0x69,0x73,0x74,0x5b,0x0b,0x6f,0x3a,0x15,0x52,0x50,0x47,0x3a,0x3a,0x4d,0x6f,0x76,0x65,0x43,0x6f,0x6d,0x6d,0x61,0x6e,0x64,0x07,0x3a,0x0a,0x40,0x63,0x6f,0x64,0x65,0x69,0x29,0x3a,0x10,0x40,0x70,0x61,0x72,0x61,0x6d,0x65,0x74,0x65,0x72,0x73,0x5b,0x00,0x6f,0x3b,0x0a,0x07,0x3b,0x0b,0x69,0x16,0x3b,0x0c,0x5b,0x00,0x6f,0x3b,0x0a,0x07,0x3b,0x0b,0x69,0x14,0x3b,0x0c,0x5b,0x06,0x69,0x08,0x6f,0x3b,0x0a,0x07,0x3b,0x0b,0x69,0x17,0x3b,0x0c,0x5b,0x00,0x6f,0x3b,0x0a,0x07,0x3b,0x0b,0x69,0x14,0x3b,0x0c,0x5b,0x06,0x69,0x08,0x6f,0x3b,0x0a,0x07,0x3b,0x0b,0x69,0x00,0x3b,0x0c,0x5b,0x00))
  ChangeSelfSwitch("A",0)
  ChangeInventoryWeapon(131,0,0,1,false)
  0()
 PAGE   2
  // condition: self-switch A is ON
  0()



EVENT   48
 PAGE   1
  250(bytes(0x04,0x08,0x6f,0x3a,0x0c,0x52,0x50,0x47,0x3a,0x3a,0x53,0x45,0x08,0x3a,0x0a,0x40,0x6e,0x61,0x6d,0x65,0x49,0x22,0x0a,0x43,0x68,0x65,0x73,0x74,0x06,0x3a,0x06,0x45,0x54,0x3a,0x0b,0x40,0x70,0x69,0x74,0x63,0x68,0x69,0x69,0x3a,0x0c,0x40,0x76,0x6f,0x6c,0x75,0x6d,0x65,0x69,0x55))
  205(0,bytes(0x04,0x08,0x6f,0x3a,0x13,0x52,0x50,0x47,0x3a,0x3a,0x4d,0x6f,0x76,0x65,0x52,0x6f,0x75,0x74,0x65,0x09,0x3a,0x0c,0x40,0x72,0x65,0x70,0x65,0x61,0x74,0x46,0x3a,0x0f,0x40,0x73,0x6b,0x69,0x70,0x70,0x61,0x62,0x6c,0x65,0x46,0x3a,0x0a,0x40,0x77,0x61,0x69,0x74,0x54,0x3a,0x0a,0x40,0x6c,0x69,0x73,0x74,0x5b,0x0b,0x6f,0x3a,0x15,0x52,0x50,0x47,0x3a,0x3a,0x4d,0x6f,0x76,0x65,0x43,0x6f,0x6d,0x6d,0x61,0x6e,0x64,0x07,0x3a,0x0a,0x40,0x63,0x6f,0x64,0x65,0x69,0x29,0x3a,0x10,0x40,0x70,0x61,0x72,0x61,0x6d,0x65,0x74,0x65,0x72,0x73,0x5b,0x00,0x6f,0x3b,0x0a,0x07,0x3b,0x0b,0x69,0x16,0x3b,0x0c,0x5b,0x00,0x6f,0x3b,0x0a,0x07,0x3b,0x0b,0x69,0x14,0x3b,0x0c,0x5b,0x06,0x69,0x08,0x6f,0x3b,0x0a,0x07,0x3b,0x0b,0x69,0x17,0x3b,0x0c,0x5b,0x00,0x6f,0x3b,0x0a,0x07,0x3b,0x0b,0x69,0x14,0x3b,0x0c,0x5b,0x06,0x69,0x08,0x6f,0x3b,0x0a,0x07,0x3b,0x0b,0x69,0x00,0x3b,0x0c,0x5b,0x00))
  ChangeSelfSwitch("A",0)
  ChangeInventoryArmor(1587,0,0,1,false)
  0()
 PAGE   2
  // condition: self-switch A is ON
  0()



EVENT   49
 PAGE   1
  250(bytes(0x04,0x08,0x6f,0x3a,0x0c,0x52,0x50,0x47,0x3a,0x3a,0x53,0x45,0x08,0x3a,0x0a,0x40,0x6e,0x61,0x6d,0x65,0x49,0x22,0x0a,0x49,0x74,0x65,0x6d,0x31,0x06,0x3a,0x06,0x45,0x54,0x3a,0x0b,0x40,0x70,0x69,0x74,0x63,0x68,0x69,0x69,0x3a,0x0c,0x40,0x76,0x6f,0x6c,0x75,0x6d,0x65,0x69,0x55))
  ChangeSelfSwitch("A",0)
  ChangeInventory_Item(9,0,0,1)
  0()
 PAGE   2
  // condition: self-switch A is ON
  0()



EVENT   50
 PAGE   1
  250(bytes(0x04,0x08,0x6f,0x3a,0x0c,0x52,0x50,0x47,0x3a,0x3a,0x53,0x45,0x08,0x3a,0x0a,0x40,0x6e,0x61,0x6d,0x65,0x49,0x22,0x0a,0x49,0x74,0x65,0x6d,0x31,0x06,0x3a,0x06,0x45,0x54,0x3a,0x0b,0x40,0x70,0x69,0x74,0x63,0x68,0x69,0x69,0x3a,0x0c,0x40,0x76,0x6f,0x6c,0x75,0x6d,0x65,0x69,0x55))
  ChangeSelfSwitch("A",0)
  ChangeInventory_Item(12,0,0,1)
  0()
 PAGE   2
  // condition: self-switch A is ON
  0()



EVENT   51
 PAGE   1
  250(bytes(0x04,0x08,0x6f,0x3a,0x0c,0x52,0x50,0x47,0x3a,0x3a,0x53,0x45,0x08,0x3a,0x0a,0x40,0x6e,0x61,0x6d,0x65,0x49,0x22,0x0a,0x49,0x74,0x65,0x6d,0x31,0x06,0x3a,0x06,0x45,0x54,0x3a,0x0b,0x40,0x70,0x69,0x74,0x63,0x68,0x69,0x69,0x3a,0x0c,0x40,0x76,0x6f,0x6c,0x75,0x6d,0x65,0x69,0x55))
  ChangeSelfSwitch("A",0)
  ChangeInventory_Item(3,0,0,1)
  0()
 PAGE   2
  // condition: self-switch A is ON
  0()



EVENT   52
 PAGE   1
  250(bytes(0x04,0x08,0x6f,0x3a,0x0c,0x52,0x50,0x47,0x3a,0x3a,0x53,0x45,0x08,0x3a,0x0a,0x40,0x6e,0x61,0x6d,0x65,0x49,0x22,0x0a,0x49,0x74,0x65,0x6d,0x31,0x06,0x3a,0x06,0x45,0x54,0x3a,0x0b,0x40,0x70,0x69,0x74,0x63,0x68,0x69,0x69,0x3a,0x0c,0x40,0x76,0x6f,0x6c,0x75,0x6d,0x65,0x69,0x55))
  ChangeSelfSwitch("A",0)
  ChangeInventory_Item(440,0,0,1)
  0()
 PAGE   2
  // condition: self-switch A is ON
  0()



EVENT   53
 PAGE   1
  ShowMessageFace("",0,0,2,1)
  ShowMessage("\\n<商人>")
  ShowMessage("ここに物資や装備品を納入しております。")
  ShowMessage("何かお入り用ですかな……？")
  Shop(1,104,0,0,false)
  605(2,85,0,0)
  605(2,215,0,0)
  605(2,310,0,0)
  0()



EVENT   54
 PAGE   1
  ShowMessageFace("",0,0,2,1)
  ShowMessage("タルの中には、たくさんの食料や薬草が詰まっていた……")
  250(bytes(0x04,0x08,0x6f,0x3a,0x0c,0x52,0x50,0x47,0x3a,0x3a,0x53,0x45,0x08,0x3a,0x0a,0x40,0x6e,0x61,0x6d,0x65,0x49,0x22,0x0a,0x48,0x65,0x61,0x6c,0x37,0x06,0x3a,0x06,0x45,0x54,0x3a,0x0b,0x40,0x70,0x69,0x74,0x63,0x68,0x69,0x69,0x3a,0x0c,0x40,0x76,0x6f,0x6c,0x75,0x6d,0x65,0x69,0x55))
  224(bytes(0x04,0x08,0x75,0x3a,0x0a,0x43,0x6f,0x6c,0x6f,0x72,0x25,0x00,0x00,0x00,0x00,0x00,0xe0,0x6f,0x40,0x00,0x00,0x00,0x00,0x00,0xe0,0x6f,0x40,0x00,0x00,0x00,0x00,0x00,0xe0,0x6f,0x40,0x00,0x00,0x00,0x00,0x00,0xe0,0x6f,0x40),30,true)
  314(0,0)
  ShowMessageFace("",0,0,2,2)
  ShowMessage("パーティのHPとMPが全快した！")
  0()



EVENT   55
 PAGE   1
  ShowMessageFace("",0,0,2,1)
  ShowMessage("タルの中には、たくさんの食料や薬草が詰まっていた……")
  250(bytes(0x04,0x08,0x6f,0x3a,0x0c,0x52,0x50,0x47,0x3a,0x3a,0x53,0x45,0x08,0x3a,0x0a,0x40,0x6e,0x61,0x6d,0x65,0x49,0x22,0x0a,0x48,0x65,0x61,0x6c,0x37,0x06,0x3a,0x06,0x45,0x54,0x3a,0x0b,0x40,0x70,0x69,0x74,0x63,0x68,0x69,0x69,0x3a,0x0c,0x40,0x76,0x6f,0x6c,0x75,0x6d,0x65,0x69,0x55))
  224(bytes(0x04,0x08,0x75,0x3a,0x0a,0x43,0x6f,0x6c,0x6f,0x72,0x25,0x00,0x00,0x00,0x00,0x00,0xe0,0x6f,0x40,0x00,0x00,0x00,0x00,0x00,0xe0,0x6f,0x40,0x00,0x00,0x00,0x00,0x00,0xe0,0x6f,0x40,0x00,0x00,0x00,0x00,0x00,0xe0,0x6f,0x40),30,true)
  314(0,0)
  ShowMessageFace("",0,0,2,2)
  ShowMessage("パーティのHPとMPが全快した！")
  0()
