﻿


EVENT   10
 PAGE   1
  0()



EVENT   12
 PAGE   1
  0()



EVENT   13
 PAGE   1
  0()



EVENT   16
 PAGE   1
  // condition: switch 4 is ON
  0()
 PAGE   2
  // condition: switch 5 is ON
  0()



EVENT   19
 PAGE   1
  0()



EVENT   1
 PAGE   1
  ChangeSaveEnabled(1)
  ChangeSwitch(89,89,1)
  205(-1,bytes(0x04,0x08,0x6f,0x3a,0x13,0x52,0x50,0x47,0x3a,0x3a,0x4d,0x6f,0x76,0x65,0x52,0x6f,0x75,0x74,0x65,0x09,0x3a,0x0c,0x40,0x72,0x65,0x70,0x65,0x61,0x74,0x46,0x3a,0x0f,0x40,0x73,0x6b,0x69,0x70,0x70,0x61,0x62,0x6c,0x65,0x46,0x3a,0x0a,0x40,0x77,0x61,0x69,0x74,0x46,0x3a,0x0a,0x40,0x6c,0x69,0x73,0x74,0x5b,0x09,0x6f,0x3a,0x15,0x52,0x50,0x47,0x3a,0x3a,0x4d,0x6f,0x76,0x65,0x43,0x6f,0x6d,0x6d,0x61,0x6e,0x64,0x07,0x3a,0x0a,0x40,0x63,0x6f,0x64,0x65,0x69,0x09,0x3a,0x10,0x40,0x70,0x61,0x72,0x61,0x6d,0x65,0x74,0x65,0x72,0x73,0x5b,0x00,0x6f,0x3b,0x0a,0x07,0x3b,0x0b,0x69,0x09,0x3b,0x0c,0x5b,0x00,0x6f,0x3b,0x0a,0x07,0x3b,0x0b,0x69,0x09,0x3b,0x0c,0x5b,0x00,0x6f,0x3b,0x0a,0x07,0x3b,0x0b,0x69,0x00,0x3b,0x0c,0x5b,0x00))
  ShowMessageFace("rest_fc1",0,0,2,1)
  ShowMessage("\\n<Lest>")
  ShowMessage("これは、いったい……！？")
  If(0,4,0)
   PictureDisplay(5,"80_alice_st81",0,0,0,0,100,100,0,0)
   PictureMove(5,null,0,0,0,0,100,100,255,0,30,true)
   ShowMessageFace("alice_fc6",0,0,2,2)
   ShowMessage("\\n<Alice>")
   ShowMessage("敵の増援……いや、味方か！？")
   0()
  EndIf()
  If(0,5,0)
   PictureDisplay(5,"80_iriasu_st36",0,0,0,0,100,100,0,0)
   PictureMove(5,null,0,0,0,0,100,100,255,0,30,true)
   ShowMessageFace("iriasu_fc4",5,0,2,3)
   ShowMessage("\\n<Ilias>")
   ShowMessage("敵の増援――")
   ShowMessage("いや、まさかこの者達も勇者！？")
   0()
  EndIf()
  PictureDisplay(5,"80_myuska_st11",0,0,0,0,100,100,255,0)
  ShowMessageFace("myuska_fc1",5,0,2,4)
  ShowMessage("\\n<Myusca>")
  ShowMessage("あははっ、別の勇者達まで来ちゃった……♪")
  ShowMessage("追加メニューだねぇ……？")
  PictureDisplay(5,"iv_collabo_emb",0,0,0,0,100,100,0,0)
  PictureMove(5,null,0,0,0,0,100,100,255,0,30,true)
  ShowMessageFace("",0,0,2,5)
  ShowMessage("フロアで争う、奇妙な集団。")
  ShowMessage("そのうち何人かの手には、「コラボの証」が輝いていた。")
  PictureMove(5,null,0,0,0,0,100,100,0,0,30,true)
  PictureClear(5)
  ShowMessageFace("lars_fc01",0,0,2,6)
  ShowMessage("\\n<Lars>")
  ShowMessage("…………！！")
  ShowMessageFace("rovissa_fc1",0,0,2,7)
  ShowMessage("\\n<Rovissa>")
  ShowMessage("あんた達も……もしかして、異世界の勇者！？")
  PictureDisplay(5,"80_kazuya_st01",0,0,0,0,100,100,0,0)
  PictureMove(5,null,0,0,0,0,100,100,255,0,30,true)
  ShowMessageFace("kazuya_fc2",2,0,2,8)
  ShowMessage("\\n<Kazuya>")
  ShowMessage("ああ……君達もだな！？")
  PictureDisplay(5,"80_byakunen_st01",0,0,0,0,100,100,255,0)
  ShowMessageFace("byakunen_fc1",1,0,2,9)
  ShowMessage("\\n<Hakunen>")
  ShowMessage("向こうには、勇者が三人……？")
  ShowMessage("これで六人が――")
  PictureDisplay(5,"80_myuska_st11",0,0,-200,0,100,100,255,0)
  PictureDisplay(6,"80_nemea_st01",0,0,15,0,100,100,255,0)
  PictureDisplay(7,"80_vinum_st05",0,0,250,0,100,100,255,0)
  ShowMessageFace("vinum_fc1",4,0,2,10)
  ShowMessage("\\n<Vinum>")
  ShowMessage("よそ見をしている余裕があるのかや……？")
  ShowMessageFace("ruka_fc1",0,0,2,11)
  ShowMessage("\\n<Luka>")
  ShowMessage("ぐっ……！")
  ShowMessageFace("nobissa_fc1",0,0,2,12)
  ShowMessage("\\n<Novissa>")
  ShowMessage("…………！！")
  ShowMessageFace("",0,0,2,13)
  ShowMessage("あの三人のサキュバス、凄まじく強い。")
  ShowMessage("だがこちらも、助太刀する余裕は――")
  PictureClear(5)
  PictureClear(6)
  PictureClear(7)
  Wait(30)
  205(-1,bytes(0x04,0x08,0x6f,0x3a,0x13,0x52,0x50,0x47,0x3a,0x3a,0x4d,0x6f,0x76,0x65,0x52,0x6f,0x75,0x74,0x65,0x09,0x3a,0x0c,0x40,0x72,0x65,0x70,0x65,0x61,0x74,0x46,0x3a,0x0f,0x40,0x73,0x6b,0x69,0x70,0x70,0x61,0x62,0x6c,0x65,0x46,0x3a,0x0a,0x40,0x77,0x61,0x69,0x74,0x54,0x3a,0x0a,0x40,0x6c,0x69,0x73,0x74,0x5b,0x07,0x6f,0x3a,0x15,0x52,0x50,0x47,0x3a,0x3a,0x4d,0x6f,0x76,0x65,0x43,0x6f,0x6d,0x6d,0x61,0x6e,0x64,0x07,0x3a,0x0a,0x40,0x63,0x6f,0x64,0x65,0x69,0x15,0x3a,0x10,0x40,0x70,0x61,0x72,0x61,0x6d,0x65,0x74,0x65,0x72,0x73,0x5b,0x00,0x6f,0x3b,0x0a,0x07,0x3b,0x0b,0x69,0x00,0x3b,0x0c,0x5b,0x00))
  ChangeSwitch(31,31,0)
  205(18,bytes(0x04,0x08,0x6f,0x3a,0x13,0x52,0x50,0x47,0x3a,0x3a,0x4d,0x6f,0x76,0x65,0x52,0x6f,0x75,0x74,0x65,0x09,0x3a,0x0c,0x40,0x72,0x65,0x70,0x65,0x61,0x74,0x46,0x3a,0x0f,0x40,0x73,0x6b,0x69,0x70,0x70,0x61,0x62,0x6c,0x65,0x46,0x3a,0x0a,0x40,0x77,0x61,0x69,0x74,0x46,0x3a,0x0a,0x40,0x6c,0x69,0x73,0x74,0x5b,0x09,0x6f,0x3a,0x15,0x52,0x50,0x47,0x3a,0x3a,0x4d,0x6f,0x76,0x65,0x43,0x6f,0x6d,0x6d,0x61,0x6e,0x64,0x07,0x3a,0x0a,0x40,0x63,0x6f,0x64,0x65,0x69,0x09,0x3a,0x10,0x40,0x70,0x61,0x72,0x61,0x6d,0x65,0x74,0x65,0x72,0x73,0x5b,0x00,0x6f,0x3b,0x0a,0x07,0x3b,0x0b,0x69,0x09,0x3b,0x0c,0x5b,0x00,0x6f,0x3b,0x0a,0x07,0x3b,0x0b,0x69,0x09,0x3b,0x0c,0x5b,0x00,0x6f,0x3b,0x0a,0x07,0x3b,0x0b,0x69,0x00,0x3b,0x0c,0x5b,0x00))
  205(20,bytes(0x04,0x08,0x6f,0x3a,0x13,0x52,0x50,0x47,0x3a,0x3a,0x4d,0x6f,0x76,0x65,0x52,0x6f,0x75,0x74,0x65,0x09,0x3a,0x0c,0x40,0x72,0x65,0x70,0x65,0x61,0x74,0x46,0x3a,0x0f,0x40,0x73,0x6b,0x69,0x70,0x70,0x61,0x62,0x6c,0x65,0x46,0x3a,0x0a,0x40,0x77,0x61,0x69,0x74,0x46,0x3a,0x0a,0x40,0x6c,0x69,0x73,0x74,0x5b,0x09,0x6f,0x3a,0x15,0x52,0x50,0x47,0x3a,0x3a,0x4d,0x6f,0x76,0x65,0x43,0x6f,0x6d,0x6d,0x61,0x6e,0x64,0x07,0x3a,0x0a,0x40,0x63,0x6f,0x64,0x65,0x69,0x09,0x3a,0x10,0x40,0x70,0x61,0x72,0x61,0x6d,0x65,0x74,0x65,0x72,0x73,0x5b,0x00,0x6f,0x3b,0x0a,0x07,0x3b,0x0b,0x69,0x09,0x3b,0x0c,0x5b,0x00,0x6f,0x3b,0x0a,0x07,0x3b,0x0b,0x69,0x09,0x3b,0x0c,0x5b,0x00,0x6f,0x3b,0x0a,0x07,0x3b,0x0b,0x69,0x00,0x3b,0x0c,0x5b,0x00))
  205(21,bytes(0x04,0x08,0x6f,0x3a,0x13,0x52,0x50,0x47,0x3a,0x3a,0x4d,0x6f,0x76,0x65,0x52,0x6f,0x75,0x74,0x65,0x09,0x3a,0x0c,0x40,0x72,0x65,0x70,0x65,0x61,0x74,0x46,0x3a,0x0f,0x40,0x73,0x6b,0x69,0x70,0x70,0x61,0x62,0x6c,0x65,0x46,0x3a,0x0a,0x40,0x77,0x61,0x69,0x74,0x54,0x3a,0x0a,0x40,0x6c,0x69,0x73,0x74,0x5b,0x09,0x6f,0x3a,0x15,0x52,0x50,0x47,0x3a,0x3a,0x4d,0x6f,0x76,0x65,0x43,0x6f,0x6d,0x6d,0x61,0x6e,0x64,0x07,0x3a,0x0a,0x40,0x63,0x6f,0x64,0x65,0x69,0x09,0x3a,0x10,0x40,0x70,0x61,0x72,0x61,0x6d,0x65,0x74,0x65,0x72,0x73,0x5b,0x00,0x6f,0x3b,0x0a,0x07,0x3b,0x0b,0x69,0x09,0x3b,0x0c,0x5b,0x00,0x6f,0x3b,0x0a,0x07,0x3b,0x0b,0x69,0x09,0x3b,0x0c,0x5b,0x00,0x6f,0x3b,0x0a,0x07,0x3b,0x0b,0x69,0x00,0x3b,0x0c,0x5b,0x00))
  PictureDisplay(5,"80_executioner_st03",0,0,70,-50,70,70,0,0)
  PictureDisplay(6,"80_ogretooth_st01",0,0,-150,80,100,100,0,0)
  PictureDisplay(7,"80_mistilteinn_st01",0,0,280,130,80,80,0,0)
  PictureMove(5,null,0,0,70,-50,70,70,255,0,30,false)
  PictureMove(6,null,0,0,-150,80,100,100,255,0,30,false)
  PictureMove(7,null,0,0,280,130,80,80,255,0,30,true)
  ShowMessageFace("executioner_fc1",2,0,2,14)
  ShowMessage("\\n<Executioner>")
  ShowMessage("追いついたよ～♪")
  ShowMessage("……あれ？　なに、この騒ぎ？")
  ShowMessageFace("mistilteinn_fc1",0,0,2,15)
  ShowMessage("\\n<Mysteltainn>")
  ShowMessage("別のネズミ達と、偶然にも合流してしまったようですね……")
  ShowMessageFace("ogretooth_fc1",0,0,2,16)
  ShowMessage("\\n<Ogretooth>")
  ShowMessage("なんだか知らんが、盛り上がってるじゃねぇか！")
  ShowMessage("さあ、俺も混ぜてくれよ！！")
  PictureClear(5)
  PictureClear(6)
  PictureClear(7)
  Wait(30)
  205(21,bytes(0x04,0x08,0x6f,0x3a,0x13,0x52,0x50,0x47,0x3a,0x3a,0x4d,0x6f,0x76,0x65,0x52,0x6f,0x75,0x74,0x65,0x09,0x3a,0x0c,0x40,0x72,0x65,0x70,0x65,0x61,0x74,0x46,0x3a,0x0f,0x40,0x73,0x6b,0x69,0x70,0x70,0x61,0x62,0x6c,0x65,0x46,0x3a,0x0a,0x40,0x77,0x61,0x69,0x74,0x46,0x3a,0x0a,0x40,0x6c,0x69,0x73,0x74,0x5b,0x07,0x6f,0x3a,0x15,0x52,0x50,0x47,0x3a,0x3a,0x4d,0x6f,0x76,0x65,0x43,0x6f,0x6d,0x6d,0x61,0x6e,0x64,0x07,0x3a,0x0a,0x40,0x63,0x6f,0x64,0x65,0x69,0x13,0x3a,0x10,0x40,0x70,0x61,0x72,0x61,0x6d,0x65,0x74,0x65,0x72,0x73,0x5b,0x07,0x69,0x00,0x69,0xf7,0x6f,0x3b,0x0a,0x07,0x3b,0x0b,0x69,0x00,0x3b,0x0c,0x5b,0x00))
  250(bytes(0x04,0x08,0x6f,0x3a,0x0c,0x52,0x50,0x47,0x3a,0x3a,0x53,0x45,0x08,0x3a,0x0a,0x40,0x6e,0x61,0x6d,0x65,0x49,0x22,0x0a,0x57,0x69,0x6e,0x64,0x31,0x06,0x3a,0x06,0x45,0x54,0x3a,0x0b,0x40,0x70,0x69,0x74,0x63,0x68,0x69,0x69,0x3a,0x0c,0x40,0x76,0x6f,0x6c,0x75,0x6d,0x65,0x69,0x55))
  ChangeSwitch(32,32,0)
  205(8,bytes(0x04,0x08,0x6f,0x3a,0x13,0x52,0x50,0x47,0x3a,0x3a,0x4d,0x6f,0x76,0x65,0x52,0x6f,0x75,0x74,0x65,0x09,0x3a,0x0c,0x40,0x72,0x65,0x70,0x65,0x61,0x74,0x46,0x3a,0x0f,0x40,0x73,0x6b,0x69,0x70,0x70,0x61,0x62,0x6c,0x65,0x46,0x3a,0x0a,0x40,0x77,0x61,0x69,0x74,0x54,0x3a,0x0a,0x40,0x6c,0x69,0x73,0x74,0x5b,0x08,0x6f,0x3a,0x15,0x52,0x50,0x47,0x3a,0x3a,0x4d,0x6f,0x76,0x65,0x43,0x6f,0x6d,0x6d,0x61,0x6e,0x64,0x07,0x3a,0x0a,0x40,0x63,0x6f,0x64,0x65,0x69,0x13,0x3a,0x10,0x40,0x70,0x61,0x72,0x61,0x6d,0x65,0x74,0x65,0x72,0x73,0x5b,0x07,0x69,0x00,0x69,0x0c,0x6f,0x3b,0x0a,0x07,0x3b,0x0b,0x69,0x22,0x3b,0x0c,0x5b,0x06,0x69,0x09,0x6f,0x3b,0x0a,0x07,0x3b,0x0b,0x69,0x00,0x3b,0x0c,0x5b,0x00))
  If(0,4,0)
   250(bytes(0x04,0x08,0x6f,0x3a,0x0c,0x52,0x50,0x47,0x3a,0x3a,0x53,0x45,0x08,0x3a,0x0a,0x40,0x6e,0x61,0x6d,0x65,0x49,0x22,0x0a,0x57,0x69,0x6e,0x64,0x31,0x06,0x3a,0x06,0x45,0x54,0x3a,0x0b,0x40,0x70,0x69,0x74,0x63,0x68,0x69,0x69,0x3a,0x0c,0x40,0x76,0x6f,0x6c,0x75,0x6d,0x65,0x69,0x55))
   PictureDisplay(5,"ct_arumaeruma1",0,0,0,0,100,100,0,0)
   PictureMove(5,null,0,0,0,0,100,100,255,0,30,true)
   ShowMessageFace("arumaeruma_fc2",5,0,2,17)
   ShowMessage("\\n<アルマエルマ>")
   ShowMessage("当て身……光掌！")
   PictureClear(5)
   212(21,480,false)
   0()
  EndIf()
  If(0,5,0)
   250(bytes(0x04,0x08,0x6f,0x3a,0x0c,0x52,0x50,0x47,0x3a,0x3a,0x53,0x45,0x08,0x3a,0x0a,0x40,0x6e,0x61,0x6d,0x65,0x49,0x22,0x0a,0x57,0x69,0x6e,0x64,0x31,0x06,0x3a,0x06,0x45,0x54,0x3a,0x0b,0x40,0x70,0x69,0x74,0x63,0x68,0x69,0x69,0x3a,0x0c,0x40,0x76,0x6f,0x6c,0x75,0x6d,0x65,0x69,0x55))
   PictureDisplay(5,"80_eden_st21",0,0,0,0,100,100,0,0)
   PictureMove(5,null,0,0,0,0,100,100,255,0,30,true)
   ShowMessageFace("eden_fc1",1,0,2,18)
   ShowMessage("\\n<エデン>")
   ShowMessage("イリアス様に触れさせはしません！")
   ShowMessage("下がりなさい……！")
   PictureClear(5)
   212(21,561,false)
   0()
  EndIf()
  Wait(120)
  ShowMessageFace("ogretooth_fc1",2,0,2,19)
  ShowMessage("\\n<Ogretooth>")
  ShowMessage("っ……！　俺の一撃と相殺した……！？")
  ShowMessage("面白いな、お前！！")
  Wait(30)
  205(18,bytes(0x04,0x08,0x6f,0x3a,0x13,0x52,0x50,0x47,0x3a,0x3a,0x4d,0x6f,0x76,0x65,0x52,0x6f,0x75,0x74,0x65,0x09,0x3a,0x0c,0x40,0x72,0x65,0x70,0x65,0x61,0x74,0x46,0x3a,0x0f,0x40,0x73,0x6b,0x69,0x70,0x70,0x61,0x62,0x6c,0x65,0x46,0x3a,0x0a,0x40,0x77,0x61,0x69,0x74,0x46,0x3a,0x0a,0x40,0x6c,0x69,0x73,0x74,0x5b,0x09,0x6f,0x3a,0x15,0x52,0x50,0x47,0x3a,0x3a,0x4d,0x6f,0x76,0x65,0x43,0x6f,0x6d,0x6d,0x61,0x6e,0x64,0x07,0x3a,0x0a,0x40,0x63,0x6f,0x64,0x65,0x69,0x09,0x3a,0x10,0x40,0x70,0x61,0x72,0x61,0x6d,0x65,0x74,0x65,0x72,0x73,0x5b,0x00,0x6f,0x3b,0x0a,0x07,0x3b,0x0b,0x69,0x09,0x3b,0x0c,0x5b,0x00,0x6f,0x3b,0x0a,0x07,0x3b,0x0b,0x69,0x09,0x3b,0x0c,0x5b,0x00,0x6f,0x3b,0x0a,0x07,0x3b,0x0b,0x69,0x00,0x3b,0x0c,0x5b,0x00))
  ShowMessageFace("executioner_fc1",0,0,2,20)
  ShowMessage("\\n<Executioner>")
  ShowMessage("ちょっとぉ、アタシも遊んでよ～！")
  ChangeSwitch(33,33,0)
  205(2,bytes(0x04,0x08,0x6f,0x3a,0x13,0x52,0x50,0x47,0x3a,0x3a,0x4d,0x6f,0x76,0x65,0x52,0x6f,0x75,0x74,0x65,0x09,0x3a,0x0c,0x40,0x72,0x65,0x70,0x65,0x61,0x74,0x46,0x3a,0x0f,0x40,0x73,0x6b,0x69,0x70,0x70,0x61,0x62,0x6c,0x65,0x46,0x3a,0x0a,0x40,0x77,0x61,0x69,0x74,0x46,0x3a,0x0a,0x40,0x6c,0x69,0x73,0x74,0x5b,0x08,0x6f,0x3a,0x15,0x52,0x50,0x47,0x3a,0x3a,0x4d,0x6f,0x76,0x65,0x43,0x6f,0x6d,0x6d,0x61,0x6e,0x64,0x07,0x3a,0x0a,0x40,0x63,0x6f,0x64,0x65,0x69,0x13,0x3a,0x10,0x40,0x70,0x61,0x72,0x61,0x6d,0x65,0x74,0x65,0x72,0x73,0x5b,0x07,0x69,0x00,0x69,0x0c,0x6f,0x3b,0x0a,0x07,0x3b,0x0b,0x69,0x22,0x3b,0x0c,0x5b,0x06,0x69,0x09,0x6f,0x3b,0x0a,0x07,0x3b,0x0b,0x69,0x00,0x3b,0x0c,0x5b,0x00))
  205(4,bytes(0x04,0x08,0x6f,0x3a,0x13,0x52,0x50,0x47,0x3a,0x3a,0x4d,0x6f,0x76,0x65,0x52,0x6f,0x75,0x74,0x65,0x09,0x3a,0x0c,0x40,0x72,0x65,0x70,0x65,0x61,0x74,0x46,0x3a,0x0f,0x40,0x73,0x6b,0x69,0x70,0x70,0x61,0x62,0x6c,0x65,0x46,0x3a,0x0a,0x40,0x77,0x61,0x69,0x74,0x54,0x3a,0x0a,0x40,0x6c,0x69,0x73,0x74,0x5b,0x08,0x6f,0x3a,0x15,0x52,0x50,0x47,0x3a,0x3a,0x4d,0x6f,0x76,0x65,0x43,0x6f,0x6d,0x6d,0x61,0x6e,0x64,0x07,0x3a,0x0a,0x40,0x63,0x6f,0x64,0x65,0x69,0x13,0x3a,0x10,0x40,0x70,0x61,0x72,0x61,0x6d,0x65,0x74,0x65,0x72,0x73,0x5b,0x07,0x69,0x00,0x69,0x0c,0x6f,0x3b,0x0a,0x07,0x3b,0x0b,0x69,0x22,0x3b,0x0c,0x5b,0x06,0x69,0x09,0x6f,0x3b,0x0a,0x07,0x3b,0x0b,0x69,0x00,0x3b,0x0c,0x5b,0x00))
  Wait(30)
  If(0,4,0)
   250(bytes(0x04,0x08,0x6f,0x3a,0x0c,0x52,0x50,0x47,0x3a,0x3a,0x53,0x45,0x08,0x3a,0x0a,0x40,0x6e,0x61,0x6d,0x65,0x49,0x22,0x0a,0x57,0x69,0x6e,0x64,0x31,0x06,0x3a,0x06,0x45,0x54,0x3a,0x0b,0x40,0x70,0x69,0x74,0x63,0x68,0x69,0x69,0x3a,0x0c,0x40,0x76,0x6f,0x6c,0x75,0x6d,0x65,0x69,0x55))
   PictureDisplay(5,"ct_alicetromeria1",0,0,0,0,100,100,0,0)
   PictureMove(5,null,0,0,0,0,100,100,255,0,30,true)
   ShowMessageFace("alicetromeria_fc1",4,0,2,21)
   ShowMessage("\\n<アリストロメリア>")
   ShowMessage("それでは……")
   ShowMessage("存分に、遊んで差し上げましょう。")
   PictureClear(5)
   212(18,531,true)
   Wait(30)
   0()
  EndIf()
  If(0,5,0)
   250(bytes(0x04,0x08,0x6f,0x3a,0x0c,0x52,0x50,0x47,0x3a,0x3a,0x53,0x45,0x08,0x3a,0x0a,0x40,0x6e,0x61,0x6d,0x65,0x49,0x22,0x0a,0x57,0x69,0x6e,0x64,0x31,0x06,0x3a,0x06,0x45,0x54,0x3a,0x0b,0x40,0x70,0x69,0x74,0x63,0x68,0x69,0x69,0x3a,0x0c,0x40,0x76,0x6f,0x6c,0x75,0x6d,0x65,0x69,0x55))
   PictureDisplay(6,"80_micaelac_st01",0,0,-260,0,100,100,255,0)
   PictureDisplay(5,"80_rucyfinac_st01",0,0,90,0,100,100,255,0)
   PictureMove(6,null,0,0,-260,0,100,100,255,0,30,false)
   PictureMove(5,null,0,0,90,0,100,100,255,0,30,true)
   ShowMessageFace("rucyfinac_fc1",1,0,2,22)
   ShowMessage("\\n<ルシフィナちゃん>")
   ShowMessage("あそぼあそぼ～♪")
   ShowMessageFace("micaelac_fc1",0,0,2,23)
   ShowMessage("\\n<ミカエラちゃん>")
   ShowMessage("私が……遊び相手になってあげる。")
   PictureClear(5)
   PictureClear(6)
   212(18,571,true)
   Wait(30)
   0()
  EndIf()
  ShowMessageFace("executioner_fc1",2,0,2,24)
  ShowMessage("\\n<Executioner>")
  ShowMessage("いきなり何するのよ～！！")
  Wait(60)
  205(20,bytes(0x04,0x08,0x6f,0x3a,0x13,0x52,0x50,0x47,0x3a,0x3a,0x4d,0x6f,0x76,0x65,0x52,0x6f,0x75,0x74,0x65,0x09,0x3a,0x0c,0x40,0x72,0x65,0x70,0x65,0x61,0x74,0x46,0x3a,0x0f,0x40,0x73,0x6b,0x69,0x70,0x70,0x61,0x62,0x6c,0x65,0x46,0x3a,0x0a,0x40,0x77,0x61,0x69,0x74,0x46,0x3a,0x0a,0x40,0x6c,0x69,0x73,0x74,0x5b,0x07,0x6f,0x3a,0x15,0x52,0x50,0x47,0x3a,0x3a,0x4d,0x6f,0x76,0x65,0x43,0x6f,0x6d,0x6d,0x61,0x6e,0x64,0x07,0x3a,0x0a,0x40,0x63,0x6f,0x64,0x65,0x69,0x09,0x3a,0x10,0x40,0x70,0x61,0x72,0x61,0x6d,0x65,0x74,0x65,0x72,0x73,0x5b,0x00,0x6f,0x3b,0x0a,0x07,0x3b,0x0b,0x69,0x00,0x3b,0x0c,0x5b,0x00))
  PictureDisplay(5,"80_mistilteinn_st31",0,0,0,0,100,100,0,0)
  PictureMove(5,null,0,0,0,0,100,100,255,0,30,true)
  ShowMessageFace("mistilteinn_fc1",0,0,2,25)
  ShowMessage("\\n<Mysteltainn>")
  ShowMessage("すっかり乱戦状態ですね……")
  ShowMessage("こうなる前に、潰しておきたかったのですが。")
  ShowMessageFace("rovissa_fc1",0,0,2,26)
  ShowMessage("\\n<Rovissa>")
  ShowMessage("妹達がいないと、戦えない……")
  ShowMessage("なんて事は、ないよね？")
  ShowMessageFace("",0,0,2,27)
  ShowMessage("ミステルテインを挑発するルヴィッサ。")
  ShowMessage("相手が一人なら、なんとか勝てるかもしれない――")
  ShowMessageFace("rest_fc1",0,0,2,28)
  ShowMessage("\\n<Lest>")
  ShowMessage("よし、行こう！")
  ShowMessage("流れに乗って、ミステルテインを倒すんだ！")
  ShowMessageFace("mistilteinn_fc1",0,0,2,29)
  ShowMessage("\\n<Mysteltainn>")
  ShowMessage("甘く見られたものですね。")
  ShowMessage("私一人でも、あなた達全員を葬るのは簡単なこと……！")
  ShowMessageFace("nobissa_fc1",0,0,2,30)
  ShowMessage("\\n<Novissa>")
  ShowMessage("…………！！")
  ShowMessageFace("tarsa_fc2",2,0,2,31)
  ShowMessage("\\n<Tarsa>")
  ShowMessage("ミステルテインは強いわ！")
  ShowMessage("油断しないで！")
  ShowMessageFace("mistilteinn_fc1",0,0,2,32)
  ShowMessage("\\n<Mysteltainn>")
  ShowMessage("容赦はしません……")
  ShowMessage("全員、ここで果てていただきます！")
  SetBattleBGM(bytes(0x04,0x08,0x6f,0x3a,0x0d,0x52,0x50,0x47,0x3a,0x3a,0x42,0x47,0x4d,0x08,0x3a,0x0a,0x40,0x6e,0x61,0x6d,0x65,0x49,0x22,0x0a,0x62,0x6f,0x73,0x73,0x32,0x06,0x3a,0x06,0x45,0x54,0x3a,0x0c,0x40,0x76,0x6f,0x6c,0x75,0x6d,0x65,0x69,0x69,0x3a,0x0b,0x40,0x70,0x69,0x74,0x63,0x68,0x69,0x69))
  Battle(0,1387,false,false)
  SetBattleBGM(bytes(0x04,0x08,0x6f,0x3a,0x0d,0x52,0x50,0x47,0x3a,0x3a,0x42,0x47,0x4d,0x08,0x3a,0x0a,0x40,0x6e,0x61,0x6d,0x65,0x49,0x22,0x0b,0x62,0x61,0x74,0x74,0x6c,0x65,0x06,0x3a,0x06,0x45,0x54,0x3a,0x0c,0x40,0x76,0x6f,0x6c,0x75,0x6d,0x65,0x69,0x69,0x3a,0x0b,0x40,0x70,0x69,0x74,0x63,0x68,0x69,0x69))
  ShowMessageFace("mistilteinn_fc1",0,0,2,33)
  ShowMessage("\\n<Mysteltainn>")
  ShowMessage("解放無しでは、流石に手こずりますね。")
  ShowMessage("異世界からの勇者達、伊達ではありませんか……")
  ShowMessageFace("rest_fc1",0,0,2,34)
  ShowMessage("\\n<Lest>")
  ShowMessage("観念するんだ、ミステルテイン！")
  PictureClear(5)
  Wait(30)
  ShowMessageFace("",0,0,2,35)
  ShowMessage("なんとか、戦況はこちらが優勢だ。")
  ShowMessage("一方、向こうのパーティも――")
  PictureDisplay(5,"80_kazuya_st01",0,0,0,0,100,100,0,0)
  PictureMove(5,null,0,0,0,0,100,100,255,0,30,true)
  ShowMessageFace("kazuya_fc1",0,0,2,36)
  ShowMessage("\\n<Kazuya>")
  ShowMessage("はぁっ！！")
  PictureClear(5)
  Wait(30)
  212(10,24,false)
  Wait(15)
  205(10,bytes(0x04,0x08,0x6f,0x3a,0x13,0x52,0x50,0x47,0x3a,0x3a,0x4d,0x6f,0x76,0x65,0x52,0x6f,0x75,0x74,0x65,0x09,0x3a,0x0c,0x40,0x72,0x65,0x70,0x65,0x61,0x74,0x46,0x3a,0x0f,0x40,0x73,0x6b,0x69,0x70,0x70,0x61,0x62,0x6c,0x65,0x46,0x3a,0x0a,0x40,0x77,0x61,0x69,0x74,0x46,0x3a,0x0a,0x40,0x6c,0x69,0x73,0x74,0x5b,0x08,0x6f,0x3a,0x15,0x52,0x50,0x47,0x3a,0x3a,0x4d,0x6f,0x76,0x65,0x43,0x6f,0x6d,0x6d,0x61,0x6e,0x64,0x07,0x3a,0x0a,0x40,0x63,0x6f,0x64,0x65,0x69,0x13,0x3a,0x10,0x40,0x70,0x61,0x72,0x61,0x6d,0x65,0x74,0x65,0x72,0x73,0x5b,0x07,0x69,0xf9,0x69,0x06,0x6f,0x3b,0x0a,0x07,0x3b,0x0b,0x69,0x17,0x3b,0x0c,0x5b,0x00,0x6f,0x3b,0x0a,0x07,0x3b,0x0b,0x69,0x00,0x3b,0x0c,0x5b,0x00))
  205(7,bytes(0x04,0x08,0x6f,0x3a,0x13,0x52,0x50,0x47,0x3a,0x3a,0x4d,0x6f,0x76,0x65,0x52,0x6f,0x75,0x74,0x65,0x09,0x3a,0x0c,0x40,0x72,0x65,0x70,0x65,0x61,0x74,0x46,0x3a,0x0f,0x40,0x73,0x6b,0x69,0x70,0x70,0x61,0x62,0x6c,0x65,0x46,0x3a,0x0a,0x40,0x77,0x61,0x69,0x74,0x46,0x3a,0x0a,0x40,0x6c,0x69,0x73,0x74,0x5b,0x07,0x6f,0x3a,0x15,0x52,0x50,0x47,0x3a,0x3a,0x4d,0x6f,0x76,0x65,0x43,0x6f,0x6d,0x6d,0x61,0x6e,0x64,0x07,0x3a,0x0a,0x40,0x63,0x6f,0x64,0x65,0x69,0x16,0x3a,0x10,0x40,0x70,0x61,0x72,0x61,0x6d,0x65,0x74,0x65,0x72,0x73,0x5b,0x00,0x6f,0x3b,0x0a,0x07,0x3b,0x0b,0x69,0x00,0x3b,0x0c,0x5b,0x00))
  ShowMessageFace("myuska_fc1",5,0,2,37)
  ShowMessage("\\n<Myusca>")
  ShowMessage("あはっ……こっちこっち♪")
  205(11,bytes(0x04,0x08,0x6f,0x3a,0x13,0x52,0x50,0x47,0x3a,0x3a,0x4d,0x6f,0x76,0x65,0x52,0x6f,0x75,0x74,0x65,0x09,0x3a,0x0c,0x40,0x72,0x65,0x70,0x65,0x61,0x74,0x46,0x3a,0x0f,0x40,0x73,0x6b,0x69,0x70,0x70,0x61,0x62,0x6c,0x65,0x46,0x3a,0x0a,0x40,0x77,0x61,0x69,0x74,0x46,0x3a,0x0a,0x40,0x6c,0x69,0x73,0x74,0x5b,0x08,0x6f,0x3a,0x15,0x52,0x50,0x47,0x3a,0x3a,0x4d,0x6f,0x76,0x65,0x43,0x6f,0x6d,0x6d,0x61,0x6e,0x64,0x07,0x3a,0x0a,0x40,0x63,0x6f,0x64,0x65,0x69,0x22,0x3a,0x10,0x40,0x70,0x61,0x72,0x61,0x6d,0x65,0x74,0x65,0x72,0x73,0x5b,0x06,0x69,0x0a,0x6f,0x3b,0x0a,0x07,0x3b,0x0b,0x69,0x07,0x3b,0x0c,0x5b,0x00,0x6f,0x3b,0x0a,0x07,0x3b,0x0b,0x69,0x00,0x3b,0x0c,0x5b,0x00))
  PictureDisplay(5,"80_magatu_st01",0,0,0,0,100,100,0,0)
  PictureMove(5,null,0,0,0,0,100,100,255,0,30,true)
  ShowMessageFace("magatu_fc1",2,0,2,38)
  ShowMessage("\\n<Magatsu>")
  ShowMessage("食らえ……はぁっ！！")
  PictureClear(5)
  Wait(30)
  212(10,11,false)
  Wait(15)
  205(10,bytes(0x04,0x08,0x6f,0x3a,0x13,0x52,0x50,0x47,0x3a,0x3a,0x4d,0x6f,0x76,0x65,0x52,0x6f,0x75,0x74,0x65,0x09,0x3a,0x0c,0x40,0x72,0x65,0x70,0x65,0x61,0x74,0x46,0x3a,0x0f,0x40,0x73,0x6b,0x69,0x70,0x70,0x61,0x62,0x6c,0x65,0x46,0x3a,0x0a,0x40,0x77,0x61,0x69,0x74,0x46,0x3a,0x0a,0x40,0x6c,0x69,0x73,0x74,0x5b,0x08,0x6f,0x3a,0x15,0x52,0x50,0x47,0x3a,0x3a,0x4d,0x6f,0x76,0x65,0x43,0x6f,0x6d,0x6d,0x61,0x6e,0x64,0x07,0x3a,0x0a,0x40,0x63,0x6f,0x64,0x65,0x69,0x13,0x3a,0x10,0x40,0x70,0x61,0x72,0x61,0x6d,0x65,0x74,0x65,0x72,0x73,0x5b,0x07,0x69,0xfa,0x69,0xfa,0x6f,0x3b,0x0a,0x07,0x3b,0x0b,0x69,0x17,0x3b,0x0c,0x5b,0x00,0x6f,0x3b,0x0a,0x07,0x3b,0x0b,0x69,0x00,0x3b,0x0c,0x5b,0x00))
  ShowMessageFace("myuska_fc1",7,0,2,39)
  ShowMessage("\\n<Myusca>")
  ShowMessage("次から次へと……うざいなぁもう――！")
  250(bytes(0x04,0x08,0x6f,0x3a,0x0c,0x52,0x50,0x47,0x3a,0x3a,0x53,0x45,0x08,0x3a,0x0a,0x40,0x6e,0x61,0x6d,0x65,0x49,0x22,0x0b,0x4d,0x61,0x67,0x69,0x63,0x31,0x06,0x3a,0x06,0x45,0x54,0x3a,0x0b,0x40,0x70,0x69,0x74,0x63,0x68,0x69,0x69,0x3a,0x0c,0x40,0x76,0x6f,0x6c,0x75,0x6d,0x65,0x69,0x55))
  ChangeSwitch(34,34,0)
  Wait(30)
  212(10,35,false)
  205(10,bytes(0x04,0x08,0x6f,0x3a,0x13,0x52,0x50,0x47,0x3a,0x3a,0x4d,0x6f,0x76,0x65,0x52,0x6f,0x75,0x74,0x65,0x09,0x3a,0x0c,0x40,0x72,0x65,0x70,0x65,0x61,0x74,0x46,0x3a,0x0f,0x40,0x73,0x6b,0x69,0x70,0x70,0x61,0x62,0x6c,0x65,0x46,0x3a,0x0a,0x40,0x77,0x61,0x69,0x74,0x46,0x3a,0x0a,0x40,0x6c,0x69,0x73,0x74,0x5b,0x08,0x6f,0x3a,0x15,0x52,0x50,0x47,0x3a,0x3a,0x4d,0x6f,0x76,0x65,0x43,0x6f,0x6d,0x6d,0x61,0x6e,0x64,0x07,0x3a,0x0a,0x40,0x63,0x6f,0x64,0x65,0x69,0x27,0x3a,0x10,0x40,0x70,0x61,0x72,0x61,0x6d,0x65,0x74,0x65,0x72,0x73,0x5b,0x00,0x6f,0x3b,0x0a,0x07,0x3b,0x0b,0x69,0x15,0x3b,0x0c,0x5b,0x00,0x6f,0x3b,0x0a,0x07,0x3b,0x0b,0x69,0x00,0x3b,0x0c,0x5b,0x00))
  ShowMessageFace("",0,0,2,40)
  ShowMessage("ミュスカが、後方に飛び退いた時だった。")
  ShowMessage("着地の瞬間、足元で拘束術が発動する――")
  205(19,bytes(0x04,0x08,0x6f,0x3a,0x13,0x52,0x50,0x47,0x3a,0x3a,0x4d,0x6f,0x76,0x65,0x52,0x6f,0x75,0x74,0x65,0x09,0x3a,0x0c,0x40,0x72,0x65,0x70,0x65,0x61,0x74,0x46,0x3a,0x0f,0x40,0x73,0x6b,0x69,0x70,0x70,0x61,0x62,0x6c,0x65,0x46,0x3a,0x0a,0x40,0x77,0x61,0x69,0x74,0x54,0x3a,0x0a,0x40,0x6c,0x69,0x73,0x74,0x5b,0x07,0x6f,0x3a,0x15,0x52,0x50,0x47,0x3a,0x3a,0x4d,0x6f,0x76,0x65,0x43,0x6f,0x6d,0x6d,0x61,0x6e,0x64,0x07,0x3a,0x0a,0x40,0x63,0x6f,0x64,0x65,0x69,0x15,0x3a,0x10,0x40,0x70,0x61,0x72,0x61,0x6d,0x65,0x74,0x65,0x72,0x73,0x5b,0x00,0x6f,0x3b,0x0a,0x07,0x3b,0x0b,0x69,0x00,0x3b,0x0c,0x5b,0x00))
  205(16,bytes(0x04,0x08,0x6f,0x3a,0x13,0x52,0x50,0x47,0x3a,0x3a,0x4d,0x6f,0x76,0x65,0x52,0x6f,0x75,0x74,0x65,0x09,0x3a,0x0c,0x40,0x72,0x65,0x70,0x65,0x61,0x74,0x46,0x3a,0x0f,0x40,0x73,0x6b,0x69,0x70,0x70,0x61,0x62,0x6c,0x65,0x46,0x3a,0x0a,0x40,0x77,0x61,0x69,0x74,0x54,0x3a,0x0a,0x40,0x6c,0x69,0x73,0x74,0x5b,0x07,0x6f,0x3a,0x15,0x52,0x50,0x47,0x3a,0x3a,0x4d,0x6f,0x76,0x65,0x43,0x6f,0x6d,0x6d,0x61,0x6e,0x64,0x07,0x3a,0x0a,0x40,0x63,0x6f,0x64,0x65,0x69,0x15,0x3a,0x10,0x40,0x70,0x61,0x72,0x61,0x6d,0x65,0x74,0x65,0x72,0x73,0x5b,0x00,0x6f,0x3b,0x0a,0x07,0x3b,0x0b,0x69,0x00,0x3b,0x0c,0x5b,0x00))
  205(17,bytes(0x04,0x08,0x6f,0x3a,0x13,0x52,0x50,0x47,0x3a,0x3a,0x4d,0x6f,0x76,0x65,0x52,0x6f,0x75,0x74,0x65,0x09,0x3a,0x0c,0x40,0x72,0x65,0x70,0x65,0x61,0x74,0x46,0x3a,0x0f,0x40,0x73,0x6b,0x69,0x70,0x70,0x61,0x62,0x6c,0x65,0x46,0x3a,0x0a,0x40,0x77,0x61,0x69,0x74,0x54,0x3a,0x0a,0x40,0x6c,0x69,0x73,0x74,0x5b,0x07,0x6f,0x3a,0x15,0x52,0x50,0x47,0x3a,0x3a,0x4d,0x6f,0x76,0x65,0x43,0x6f,0x6d,0x6d,0x61,0x6e,0x64,0x07,0x3a,0x0a,0x40,0x63,0x6f,0x64,0x65,0x69,0x15,0x3a,0x10,0x40,0x70,0x61,0x72,0x61,0x6d,0x65,0x74,0x65,0x72,0x73,0x5b,0x00,0x6f,0x3b,0x0a,0x07,0x3b,0x0b,0x69,0x00,0x3b,0x0c,0x5b,0x00))
  205(14,bytes(0x04,0x08,0x6f,0x3a,0x13,0x52,0x50,0x47,0x3a,0x3a,0x4d,0x6f,0x76,0x65,0x52,0x6f,0x75,0x74,0x65,0x09,0x3a,0x0c,0x40,0x72,0x65,0x70,0x65,0x61,0x74,0x46,0x3a,0x0f,0x40,0x73,0x6b,0x69,0x70,0x70,0x61,0x62,0x6c,0x65,0x46,0x3a,0x0a,0x40,0x77,0x61,0x69,0x74,0x54,0x3a,0x0a,0x40,0x6c,0x69,0x73,0x74,0x5b,0x07,0x6f,0x3a,0x15,0x52,0x50,0x47,0x3a,0x3a,0x4d,0x6f,0x76,0x65,0x43,0x6f,0x6d,0x6d,0x61,0x6e,0x64,0x07,0x3a,0x0a,0x40,0x63,0x6f,0x64,0x65,0x69,0x17,0x3a,0x10,0x40,0x70,0x61,0x72,0x61,0x6d,0x65,0x74,0x65,0x72,0x73,0x5b,0x00,0x6f,0x3b,0x0a,0x07,0x3b,0x0b,0x69,0x00,0x3b,0x0c,0x5b,0x00))
  205(9,bytes(0x04,0x08,0x6f,0x3a,0x13,0x52,0x50,0x47,0x3a,0x3a,0x4d,0x6f,0x76,0x65,0x52,0x6f,0x75,0x74,0x65,0x09,0x3a,0x0c,0x40,0x72,0x65,0x70,0x65,0x61,0x74,0x46,0x3a,0x0f,0x40,0x73,0x6b,0x69,0x70,0x70,0x61,0x62,0x6c,0x65,0x46,0x3a,0x0a,0x40,0x77,0x61,0x69,0x74,0x54,0x3a,0x0a,0x40,0x6c,0x69,0x73,0x74,0x5b,0x07,0x6f,0x3a,0x15,0x52,0x50,0x47,0x3a,0x3a,0x4d,0x6f,0x76,0x65,0x43,0x6f,0x6d,0x6d,0x61,0x6e,0x64,0x07,0x3a,0x0a,0x40,0x63,0x6f,0x64,0x65,0x69,0x17,0x3a,0x10,0x40,0x70,0x61,0x72,0x61,0x6d,0x65,0x74,0x65,0x72,0x73,0x5b,0x00,0x6f,0x3b,0x0a,0x07,0x3b,0x0b,0x69,0x00,0x3b,0x0c,0x5b,0x00))
  205(12,bytes(0x04,0x08,0x6f,0x3a,0x13,0x52,0x50,0x47,0x3a,0x3a,0x4d,0x6f,0x76,0x65,0x52,0x6f,0x75,0x74,0x65,0x09,0x3a,0x0c,0x40,0x72,0x65,0x70,0x65,0x61,0x74,0x46,0x3a,0x0f,0x40,0x73,0x6b,0x69,0x70,0x70,0x61,0x62,0x6c,0x65,0x46,0x3a,0x0a,0x40,0x77,0x61,0x69,0x74,0x54,0x3a,0x0a,0x40,0x6c,0x69,0x73,0x74,0x5b,0x07,0x6f,0x3a,0x15,0x52,0x50,0x47,0x3a,0x3a,0x4d,0x6f,0x76,0x65,0x43,0x6f,0x6d,0x6d,0x61,0x6e,0x64,0x07,0x3a,0x0a,0x40,0x63,0x6f,0x64,0x65,0x69,0x17,0x3a,0x10,0x40,0x70,0x61,0x72,0x61,0x6d,0x65,0x74,0x65,0x72,0x73,0x5b,0x00,0x6f,0x3b,0x0a,0x07,0x3b,0x0b,0x69,0x00,0x3b,0x0c,0x5b,0x00))
  PictureDisplay(5,"80_myuska_st13",0,0,-150,0,100,100,0,0)
  PictureDisplay(6,"80_vinum_st03",0,0,150,0,100,100,0,0)
  PictureMove(5,null,0,0,-150,0,100,100,255,0,30,false)
  PictureMove(6,null,0,0,150,0,100,100,255,0,30,true)
  ShowMessageFace("vinum_fc1",2,0,2,41)
  ShowMessage("\\n<Vinum>")
  ShowMessage("ミュスカ！")
  ShowMessageFace("myuska_fc1",7,0,2,42)
  ShowMessage("\\n<Myusca>")
  ShowMessage("わっ……なに、これぇ？")
  PictureClear(5)
  PictureClear(6)
  205(-1,bytes(0x04,0x08,0x6f,0x3a,0x13,0x52,0x50,0x47,0x3a,0x3a,0x4d,0x6f,0x76,0x65,0x52,0x6f,0x75,0x74,0x65,0x09,0x3a,0x0c,0x40,0x72,0x65,0x70,0x65,0x61,0x74,0x46,0x3a,0x0f,0x40,0x73,0x6b,0x69,0x70,0x70,0x61,0x62,0x6c,0x65,0x46,0x3a,0x0a,0x40,0x77,0x61,0x69,0x74,0x54,0x3a,0x0a,0x40,0x6c,0x69,0x73,0x74,0x5b,0x07,0x6f,0x3a,0x15,0x52,0x50,0x47,0x3a,0x3a,0x4d,0x6f,0x76,0x65,0x43,0x6f,0x6d,0x6d,0x61,0x6e,0x64,0x07,0x3a,0x0a,0x40,0x63,0x6f,0x64,0x65,0x69,0x18,0x3a,0x10,0x40,0x70,0x61,0x72,0x61,0x6d,0x65,0x74,0x65,0x72,0x73,0x5b,0x00,0x6f,0x3b,0x0a,0x07,0x3b,0x0b,0x69,0x00,0x3b,0x0c,0x5b,0x00))
  PictureDisplay(5,"80_daimeikai_st01",0,0,0,0,100,100,0,0)
  PictureMove(5,null,0,0,0,0,100,100,255,0,30,true)
  ShowMessageFace("daimeikai_fc1",2,0,2,43)
  ShowMessage("\\n<Daimyokai>")
  ShowMessage("ひゃははは、油断してたな！")
  ShowMessage("戦いの最中、そこら中に罠を仕掛けてやったぜ！")
  ShowMessageFace("magatu_fc1",2,0,2,44)
  ShowMessage("\\n<Magatsu>")
  ShowMessage("大明海……お前も呼ばれていたか。")
  ShowMessage("まさか、お前が味方の側だとはのう……")
  ShowMessageFace("daimeikai_fc1",0,0,2,45)
  ShowMessage("\\n<Daimyokai>")
  ShowMessage("キサマの味方になった覚えは無い！")
  ShowMessage("俺は俺の都合でこっち側にいるだけだ！")
  ShowMessageFace("daimeikai_fc1",0,0,2,46)
  ShowMessage("\\n<Daimyokai>")
  ShowMessage("そういうわけで、一匹捕らえたぜ！")
  ShowMessage("さあ、観念しな！")
  241(bytes(0x04,0x08,0x6f,0x3a,0x0d,0x52,0x50,0x47,0x3a,0x3a,0x42,0x47,0x4d,0x08,0x3a,0x0a,0x40,0x6e,0x61,0x6d,0x65,0x49,0x22,0x0a,0x6b,0x69,0x6b,0x69,0x32,0x06,0x3a,0x06,0x45,0x54,0x3a,0x0c,0x40,0x76,0x6f,0x6c,0x75,0x6d,0x65,0x69,0x69,0x3a,0x0b,0x40,0x70,0x69,0x74,0x63,0x68,0x69,0x69))
  PictureDisplay(5,"80_nemea_st03",0,0,-150,0,100,100,255,0)
  PictureDisplay(6,"80_vinum_st03",0,0,150,0,100,100,255,0)
  ShowMessageFace("nemea_fc1",2,0,2,47)
  ShowMessage("\\n<Nemea>")
  ShowMessage("あらあら、困ったことになったわねぇ。")
  ShowMessageFace("vinum_fc1",2,0,2,48)
  ShowMessage("\\n<Vinum>")
  ShowMessage("……………………")
  ShowMessageFace("myuska_fc1",6,0,2,49)
  ShowMessage("\\n<Myusca>")
  ShowMessage("あはっ、大丈夫だよぉ。")
  ShowMessage("本気で暴れれば、こんなの壊せるって……")
  PictureClear(5)
  PictureClear(6)
  Wait(30)
  250(bytes(0x04,0x08,0x6f,0x3a,0x0c,0x52,0x50,0x47,0x3a,0x3a,0x53,0x45,0x08,0x3a,0x0a,0x40,0x6e,0x61,0x6d,0x65,0x49,0x22,0x0f,0x6d,0x6f,0x6e,0x5f,0x65,0x61,0x72,0x74,0x68,0x32,0x06,0x3a,0x06,0x45,0x54,0x3a,0x0b,0x40,0x70,0x69,0x74,0x63,0x68,0x69,0x69,0x3a,0x0c,0x40,0x76,0x6f,0x6c,0x75,0x6d,0x65,0x69,0x69))
  225(5,5,60,false)
  224(bytes(0x04,0x08,0x75,0x3a,0x0a,0x43,0x6f,0x6c,0x6f,0x72,0x25,0x00,0x00,0x00,0x00,0x00,0xe0,0x6f,0x40,0x00,0x00,0x00,0x00,0x00,0xe0,0x6f,0x40,0x00,0x00,0x00,0x00,0x00,0xe0,0x6f,0x40,0x00,0x00,0x00,0x00,0x00,0xe0,0x6f,0x40),60,true)
  ShowMessageFace("daimeikai_fc1",1,0,2,50)
  ShowMessage("\\n<Daimyokai>")
  ShowMessage("おいおい、まさか！")
  ShowMessage("この拘束陣を、内側から破るっていうのか……！")
  PictureDisplay(5,"80_myuska_st13",0,0,-150,0,100,100,0,0)
  PictureDisplay(6,"80_vinum_st03",0,0,150,0,100,100,0,0)
  PictureMove(5,null,0,0,-150,0,100,100,255,0,30,false)
  PictureMove(6,null,0,0,150,0,100,100,255,0,30,true)
  ShowMessageFace("vinum_fc1",2,0,2,51)
  ShowMessage("\\n<Vinum>")
  ShowMessage("……やめよ、ミュスカ。")
  ShowMessage("無茶はするでない。")
  ShowMessageFace("myuska_fc1",6,0,2,52)
  ShowMessage("\\n<Myusca>")
  ShowMessage("なんでよ、おばーちゃん。")
  ShowMessage("これくらい、自分で出られるってばぁ。")
  ShowMessageFace("myuska_fc1",6,0,2,53)
  ShowMessage("\\n<Myusca>")
  ShowMessage("今の、結構ムカついたしぃ……")
  PictureClear(6)
  PictureDisplay(5,"80_vinum_st03",0,0,0,0,100,100,255,0)
  ShowMessageFace("vinum_fc1",2,0,2,54)
  ShowMessage("\\n<Vinum>")
  ShowMessage("……取引といこう、勇者達よ。")
  ShowMessage("ミュスカの解放と引き替えに、何を望む？")
  ShowMessageFace("rest_fc1",0,0,2,55)
  ShowMessage("\\n<Lest>")
  ShowMessage("えっ……！？")
  ShowMessageFace("",0,0,2,56)
  ShowMessage("あまりにも意外な、取引の申し出。")
  ShowMessage("敵も味方も動きが止まり、戦局が一気に静まった。")
  PictureDisplay(5,"80_ogretooth_st03",0,0,-150,0,100,100,255,0)
  PictureDisplay(6,"80_mistilteinn_st01",0,0,250,50,80,80,255,0)
  ShowMessageFace("ogretooth_fc1",2,0,2,57)
  ShowMessage("\\n<Ogretooth>")
  ShowMessage("おい、何を悠長な――")
  ShowMessageFace("mistilteinn_fc1",0,0,2,58)
  ShowMessage("\\n<Mysteltainn>")
  ShowMessage("しっ……オーガ、ここは様子を見ましょう。")
  PictureClear(5)
  PictureClear(6)
  ShowMessageFace("kazuya_fc2",2,0,2,59)
  ShowMessage("\\n<Kazuya>")
  ShowMessage("取引って……")
  If(0,4,0)
   ShowMessageFace("",0,0,2,60)
   ShowMessage("互いが、互いの顔を見合わせ――")
   ShowMessage("最初に口を開いたのは、魔王を名乗った少女だった。")
   PictureDisplay(5,"80_alice_st73",0,0,0,0,100,100,0,0)
   PictureMove(5,null,0,0,0,0,100,100,255,0,30,true)
   ShowMessageFace("alice_fc5",2,0,2,61)
   ShowMessage("\\n<Alice>")
   ShowMessage("……同盟者達よ、今は退け。")
   ShowMessage("これ以上の乱戦は、互いに不利益だ。")
   ShowMessageFace("alice_fc5",2,0,2,62)
   ShowMessage("\\n<Alice>")
   ShowMessage("まして――")
   ShowMessage("同盟者同士、互いに牽制している状況ではな。")
   0()
  EndIf()
  If(0,5,0)
   PictureDisplay(5,"80_iriasu_st38",0,0,0,0,100,100,0,0)
   PictureMove(5,null,0,0,0,0,100,100,255,0,30,true)
   ShowMessageFace("",0,0,2,63)
   ShowMessage("互いが、互いの顔を見合わせ――")
   ShowMessage("最初に口を開いたのは、女神を名乗った少女だった。")
   ShowMessageFace("iriasu_fc4",7,0,2,64)
   ShowMessage("\\n<Ilias>")
   ShowMessage("……今は退くのです、同盟者達。")
   ShowMessage("これ以上の戦いは、そちらにも不利益でしょう。")
   ShowMessageFace("iriasu_fc4",7,0,2,65)
   ShowMessage("\\n<Ilias>")
   ShowMessage("まして――")
   ShowMessage("同盟者同士、互いに牽制している状況では。")
   0()
  EndIf()
  PictureDisplay(6,"80_vinum_st03",0,0,-150,0,100,100,0,0)
  PictureDisplay(5,"80_mistilteinn_st31",0,0,150,0,100,100,0,0)
  ShowMessageFace("vinum_fc1",2,0,2,66)
  ShowMessage("\\n<Vinum>")
  ShowMessage("……………………")
  ShowMessageFace("mistilteinn_fc1",0,0,2,67)
  ShowMessage("\\n<Mysteltainn>")
  ShowMessage("……………………")
  ShowMessageFace("",0,0,2,68)
  ShowMessage("そうなのだ――")
  ShowMessage("ヴィヌム達とミステルテイン達は、連携を取ろうとしない。")
  ShowMessageFace("",0,0,2,69)
  ShowMessage("それどころか、両者共に互いを警戒しているような動きだった。")
  ShowMessage("この二者、隙があれば潰し合うような関係なのか……？")
  PictureClear(6)
  PictureDisplay(5,"80_vinum_st03",0,0,0,0,100,100,255,0)
  ShowMessageFace("vinum_fc1",2,0,2,70)
  ShowMessage("\\n<Vinum>")
  ShowMessage("……良かろう。")
  ShowMessage("儂等の撤退がそちらの条件なら――")
  ShowMessageFace("kazuya_fc1",0,0,2,71)
  ShowMessage("\\n<Kazuya>")
  ShowMessage("待て……もう一つ追加だ。")
  ShowMessage("ミュスカの持つ「コラボの証」を、僕達に譲れ。")
  PictureDisplay(5,"80_myuska_st13",0,0,0,0,100,100,255,0)
  If(0,4,0)
   ShowMessageFace("alice_fc6",0,0,2,72)
   ShowMessage("\\n<Alice>")
   ShowMessage("ミュスカが――「コラボの証」を！？")
   0()
  EndIf()
  If(0,5,0)
   ShowMessageFace("iriasu_fc4",5,0,2,73)
   ShowMessage("\\n<Ilias>")
   ShowMessage("ミュスカが――「コラボの証」を！？")
   0()
  EndIf()
  ShowMessageFace("",0,0,2,74)
  ShowMessage("大半の者達は、そこで初めて気付いていた。")
  ShowMessage("ミュスカの手の甲に、例の紋章が宿っている事を――")
  ShowMessageFace("rovissa_fc1",0,0,2,75)
  ShowMessage("\\n<Rovissa>")
  ShowMessage("「コラボの証」の委譲って……そんな事ができるの？")
  ShowMessageFace("kazuya_fc1",0,0,2,76)
  ShowMessage("\\n<Kazuya>")
  ShowMessage("ミュスカは、本来の持ち主から力を吸い取って奪ったんだ。")
  ShowMessage("同じように、与えることも出来るはずだと思う。")
  ShowMessageFace("myuska_fc1",7,0,2,77)
  ShowMessage("\\n<Myusca>")
  ShowMessage("この変な紋章が欲しいの？")
  ShowMessage("かわいくないし、別にいいけど。")
  PictureDisplay(5,"80_myuska_st11",0,0,-150,0,100,100,255,0)
  PictureDisplay(6,"80_vinum_st03",0,0,150,0,100,100,255,0)
  ShowMessageFace("vinum_fc1",2,0,2,78)
  ShowMessage("\\n<Vinum>")
  ShowMessage("ならば、その条件で手を打とう。")
  ShowMessage("我々の撤退、それに紋章の譲渡じゃな。")
  ShowMessageFace("myuska_fc1",5,0,2,79)
  ShowMessage("\\n<Myusca>")
  ShowMessage("うん、分かった♪")
  ShowMessage("それで、誰に渡せばいいの……？")
  If(0,4,0)
   ShowMessageFace("alice_fc5",2,0,2,80)
   ShowMessage("\\n<Alice>")
   ShowMessage("では……ルカに譲ってもらおう。")
   ShowMessage("この世界の勇者なのだ、受け取る資格はあるはず。")
   0()
  EndIf()
  If(0,5,0)
   ShowMessageFace("iriasu_fc4",7,0,2,81)
   ShowMessage("\\n<Ilias>")
   ShowMessage("では……ルカに譲ってもらいましょう。")
   ShowMessage("かの者はこの世界の勇者、受け取る資格はあるはずです。")
   0()
  EndIf()
  PictureClear(6)
  PictureDisplay(5,"80_ruka_st01",0,0,0,0,100,100,255,0)
  ShowMessageFace("ruka_fc1",0,0,2,82)
  ShowMessage("\\n<Luka>")
  ShowMessage("えっ！？　僕が……！？")
  ShowMessageFace("kazuya_fc1",0,0,2,83)
  ShowMessage("\\n<Kazuya>")
  ShowMessage("この世界の勇者、ルカか……")
  ShowMessage("頼む、「コラボの証」を受け取ってくれ。")
  ShowMessageFace("byakunen_fc1",0,0,2,84)
  ShowMessage("\\n<Hakunen>")
  ShowMessage("これで、あらためて七人の勇者が揃う事になります！")
  ShowMessage("ぜひ受け取って下さい！")
  ShowMessageFace("ruka_fc1",0,0,2,85)
  ShowMessage("\\n<Luka>")
  ShowMessage("分かった……")
  ShowMessage("それじゃあ、証を僕に。")
  PictureClear(5)
  Wait(30)
  205(10,bytes(0x04,0x08,0x6f,0x3a,0x13,0x52,0x50,0x47,0x3a,0x3a,0x4d,0x6f,0x76,0x65,0x52,0x6f,0x75,0x74,0x65,0x09,0x3a,0x0c,0x40,0x72,0x65,0x70,0x65,0x61,0x74,0x46,0x3a,0x0f,0x40,0x73,0x6b,0x69,0x70,0x70,0x61,0x62,0x6c,0x65,0x46,0x3a,0x0a,0x40,0x77,0x61,0x69,0x74,0x54,0x3a,0x0a,0x40,0x6c,0x69,0x73,0x74,0x5b,0x07,0x6f,0x3a,0x15,0x52,0x50,0x47,0x3a,0x3a,0x4d,0x6f,0x76,0x65,0x43,0x6f,0x6d,0x6d,0x61,0x6e,0x64,0x07,0x3a,0x0a,0x40,0x63,0x6f,0x64,0x65,0x69,0x18,0x3a,0x10,0x40,0x70,0x61,0x72,0x61,0x6d,0x65,0x74,0x65,0x72,0x73,0x5b,0x00,0x6f,0x3b,0x0a,0x07,0x3b,0x0b,0x69,0x00,0x3b,0x0c,0x5b,0x00))
  ShowMessageFace("myuska_fc1",5,0,2,86)
  ShowMessage("\\n<Myusca>")
  ShowMessage("分かった、キミだね……えいっ♪")
  250(bytes(0x04,0x08,0x6f,0x3a,0x0c,0x52,0x50,0x47,0x3a,0x3a,0x53,0x45,0x08,0x3a,0x0a,0x40,0x6e,0x61,0x6d,0x65,0x49,0x22,0x0c,0x41,0x62,0x73,0x6f,0x72,0x62,0x32,0x06,0x3a,0x06,0x45,0x54,0x3a,0x0b,0x40,0x70,0x69,0x74,0x63,0x68,0x69,0x69,0x3a,0x0c,0x40,0x76,0x6f,0x6c,0x75,0x6d,0x65,0x69,0x55))
  TeleportEvent(5,0,17,14,0)
  ChangeSwitch(35,35,0)
  205(5,bytes(0x04,0x08,0x6f,0x3a,0x13,0x52,0x50,0x47,0x3a,0x3a,0x4d,0x6f,0x76,0x65,0x52,0x6f,0x75,0x74,0x65,0x09,0x3a,0x0c,0x40,0x72,0x65,0x70,0x65,0x61,0x74,0x46,0x3a,0x0f,0x40,0x73,0x6b,0x69,0x70,0x70,0x61,0x62,0x6c,0x65,0x46,0x3a,0x0a,0x40,0x77,0x61,0x69,0x74,0x54,0x3a,0x0a,0x40,0x6c,0x69,0x73,0x74,0x5b,0x08,0x6f,0x3a,0x15,0x52,0x50,0x47,0x3a,0x3a,0x4d,0x6f,0x76,0x65,0x43,0x6f,0x6d,0x6d,0x61,0x6e,0x64,0x07,0x3a,0x0a,0x40,0x63,0x6f,0x64,0x65,0x69,0x13,0x3a,0x10,0x40,0x70,0x61,0x72,0x61,0x6d,0x65,0x74,0x65,0x72,0x73,0x5b,0x07,0x69,0x00,0x69,0xf9,0x6f,0x3b,0x0a,0x07,0x3b,0x0b,0x69,0x21,0x3b,0x0c,0x5b,0x06,0x69,0x28,0x6f,0x3b,0x0a,0x07,0x3b,0x0b,0x69,0x00,0x3b,0x0c,0x5b,0x00))
  ShowMessageFace("",0,0,2,87)
  ShowMessage("ミュスカは、無造作にエネルギーの塊をこちらへ放る。")
  ShowMessage("それを受け取ると――")
  250(bytes(0x04,0x08,0x6f,0x3a,0x0c,0x52,0x50,0x47,0x3a,0x3a,0x53,0x45,0x08,0x3a,0x0a,0x40,0x6e,0x61,0x6d,0x65,0x49,0x22,0x0e,0x6d,0x6f,0x6e,0x5f,0x70,0x6f,0x77,0x65,0x72,0x06,0x3a,0x06,0x45,0x54,0x3a,0x0b,0x40,0x70,0x69,0x74,0x63,0x68,0x69,0x69,0x3a,0x0c,0x40,0x76,0x6f,0x6c,0x75,0x6d,0x65,0x69,0x69))
  ShowMessageFace("ruka_fc1",0,0,2,88)
  ShowMessage("\\n<Luka>")
  ShowMessage("これは……手の甲が、熱い……！")
  PictureDisplay(5,"iv_collabo_emb",0,0,0,0,100,100,0,0)
  PictureMove(5,null,0,0,0,0,100,100,255,0,30,true)
  ShowMessageFace("",0,0,2,89)
  ShowMessage("そして、手の甲に光る「コラボの証」。")
  ShowMessage("他の勇者達と同じ紋章が、手に浮かんだのだ。")
  PictureMove(5,null,0,0,0,0,100,100,0,0,30,true)
  PictureClear(5)
  ShowMessageFace("vinum_fc1",2,0,2,90)
  ShowMessage("\\n<Vinum>")
  ShowMessage("……では、ミュスカを解放してもらおうか。")
  If(0,4,0)
   ShowMessageFace("alice_fc5",2,0,2,91)
   ShowMessage("\\n<Alice>")
   ShowMessage("ああ……退魔師よ、拘束術式の解除を頼む。")
   0()
  EndIf()
  If(0,5,0)
   ShowMessageFace("iriasu_fc4",7,0,2,92)
   ShowMessage("\\n<Ilias>")
   ShowMessage("では、退魔師……")
   ShowMessage("約定通り、拘束術式を解除するのです。")
   0()
  EndIf()
  ShowMessageFace("daimeikai_fc1",1,0,2,93)
  ShowMessage("\\n<Daimyokai>")
  ShowMessage("かーっ……")
  ShowMessage("忌々しいが、仕方あるまい……")
  250(bytes(0x04,0x08,0x6f,0x3a,0x0c,0x52,0x50,0x47,0x3a,0x3a,0x53,0x45,0x08,0x3a,0x0a,0x40,0x6e,0x61,0x6d,0x65,0x49,0x22,0x0b,0x4d,0x61,0x67,0x69,0x63,0x31,0x06,0x3a,0x06,0x45,0x54,0x3a,0x0b,0x40,0x70,0x69,0x74,0x63,0x68,0x69,0x69,0x3a,0x0c,0x40,0x76,0x6f,0x6c,0x75,0x6d,0x65,0x69,0x55))
  ChangeSwitch(34,34,1)
  205(10,bytes(0x04,0x08,0x6f,0x3a,0x13,0x52,0x50,0x47,0x3a,0x3a,0x4d,0x6f,0x76,0x65,0x52,0x6f,0x75,0x74,0x65,0x09,0x3a,0x0c,0x40,0x72,0x65,0x70,0x65,0x61,0x74,0x46,0x3a,0x0f,0x40,0x73,0x6b,0x69,0x70,0x70,0x61,0x62,0x6c,0x65,0x46,0x3a,0x0a,0x40,0x77,0x61,0x69,0x74,0x46,0x3a,0x0a,0x40,0x6c,0x69,0x73,0x74,0x5b,0x07,0x6f,0x3a,0x15,0x52,0x50,0x47,0x3a,0x3a,0x4d,0x6f,0x76,0x65,0x43,0x6f,0x6d,0x6d,0x61,0x6e,0x64,0x07,0x3a,0x0a,0x40,0x63,0x6f,0x64,0x65,0x69,0x26,0x3a,0x10,0x40,0x70,0x61,0x72,0x61,0x6d,0x65,0x74,0x65,0x72,0x73,0x5b,0x00,0x6f,0x3b,0x0a,0x07,0x3b,0x0b,0x69,0x00,0x3b,0x0c,0x5b,0x00))
  ShowMessageFace("",0,0,2,94)
  ShowMessage("大明海が解呪の言葉を口にすると――")
  ShowMessage("ミュスカを拘束していた法力の檻が消滅した。")
  ShowMessageFace("",0,0,2,95)
  ShowMessage("これで、ミュスカは自由の身になったのだ――")
  PictureDisplay(5,"80_myuska_st13",0,0,-200,0,100,100,0,0)
  PictureDisplay(6,"80_nemea_st05",0,0,15,0,100,100,0,0)
  PictureDisplay(7,"80_vinum_st03",0,0,250,0,100,100,0,0)
  PictureMove(5,null,0,0,-200,0,100,100,255,0,30,false)
  PictureMove(6,null,0,0,15,0,100,100,255,0,30,false)
  PictureMove(7,null,0,0,250,0,100,100,255,0,30,true)
  ShowMessageFace("myuska_fc1",7,0,2,96)
  ShowMessage("\\n<Myusca>")
  ShowMessage("でも、いいのぉ？")
  ShowMessage("ちょっと疲れるけど、自力でも破れたのに……")
  ShowMessageFace("vinum_fc1",2,0,2,97)
  ShowMessage("\\n<Vinum>")
  ShowMessage("無駄に力を浪費することはない。")
  ShowMessage("さて……退くぞ。")
  ShowMessageFace("nemea_fc1",4,0,2,98)
  ShowMessage("\\n<Nemea>")
  ShowMessage("分かりました、ヴィヌム様……")
  PictureClear(5)
  PictureClear(6)
  PictureClear(7)
  Wait(30)
  205(10,bytes(0x04,0x08,0x6f,0x3a,0x13,0x52,0x50,0x47,0x3a,0x3a,0x4d,0x6f,0x76,0x65,0x52,0x6f,0x75,0x74,0x65,0x09,0x3a,0x0c,0x40,0x72,0x65,0x70,0x65,0x61,0x74,0x46,0x3a,0x0f,0x40,0x73,0x6b,0x69,0x70,0x70,0x61,0x62,0x6c,0x65,0x46,0x3a,0x0a,0x40,0x77,0x61,0x69,0x74,0x54,0x3a,0x0a,0x40,0x6c,0x69,0x73,0x74,0x5b,0x07,0x6f,0x3a,0x15,0x52,0x50,0x47,0x3a,0x3a,0x4d,0x6f,0x76,0x65,0x43,0x6f,0x6d,0x6d,0x61,0x6e,0x64,0x07,0x3a,0x0a,0x40,0x63,0x6f,0x64,0x65,0x69,0x15,0x3a,0x10,0x40,0x70,0x61,0x72,0x61,0x6d,0x65,0x74,0x65,0x72,0x73,0x5b,0x00,0x6f,0x3b,0x0a,0x07,0x3b,0x0b,0x69,0x00,0x3b,0x0c,0x5b,0x00))
  ShowMessageFace("myuska_fc1",5,0,2,99)
  ShowMessage("\\n<Myusca>")
  ShowMessage("ほら、魔剣三姉妹達も帰りなよ～♪")
  205(-1,bytes(0x04,0x08,0x6f,0x3a,0x13,0x52,0x50,0x47,0x3a,0x3a,0x4d,0x6f,0x76,0x65,0x52,0x6f,0x75,0x74,0x65,0x09,0x3a,0x0c,0x40,0x72,0x65,0x70,0x65,0x61,0x74,0x46,0x3a,0x0f,0x40,0x73,0x6b,0x69,0x70,0x70,0x61,0x62,0x6c,0x65,0x46,0x3a,0x0a,0x40,0x77,0x61,0x69,0x74,0x54,0x3a,0x0a,0x40,0x6c,0x69,0x73,0x74,0x5b,0x07,0x6f,0x3a,0x15,0x52,0x50,0x47,0x3a,0x3a,0x4d,0x6f,0x76,0x65,0x43,0x6f,0x6d,0x6d,0x61,0x6e,0x64,0x07,0x3a,0x0a,0x40,0x63,0x6f,0x64,0x65,0x69,0x15,0x3a,0x10,0x40,0x70,0x61,0x72,0x61,0x6d,0x65,0x74,0x65,0x72,0x73,0x5b,0x00,0x6f,0x3b,0x0a,0x07,0x3b,0x0b,0x69,0x00,0x3b,0x0c,0x5b,0x00))
  PictureDisplay(5,"80_executioner_st03",0,0,70,-50,70,70,0,0)
  PictureDisplay(6,"80_ogretooth_st03",0,0,-150,80,100,100,0,0)
  PictureDisplay(7,"80_mistilteinn_st01",0,0,280,130,80,80,0,0)
  PictureMove(5,null,0,0,70,-50,70,70,255,0,30,false)
  PictureMove(6,null,0,0,-150,80,100,100,255,0,30,false)
  PictureMove(7,null,0,0,280,130,80,80,255,0,30,true)
  ShowMessageFace("ogretooth_fc1",2,0,2,100)
  ShowMessage("\\n<Ogretooth>")
  ShowMessage("ハァ！？")
  ShowMessage("俺達に、そんな口約束なんざ従う義理が――")
  ShowMessageFace("mistilteinn_fc1",0,0,2,101)
  ShowMessage("\\n<Mysteltainn>")
  ShowMessage("……いえ、退きます。")
  ShowMessage("我々三人で、勇者達全員と戦いたいですか……？")
  ShowMessageFace("executioner_fc1",2,0,2,102)
  ShowMessage("\\n<Executioner>")
  ShowMessage("それは……ちょっとキツいかなぁ。")
  ShowMessageFace("ogretooth_fc1",5,0,2,103)
  ShowMessage("\\n<Ogretooth>")
  ShowMessage("ちっ……分かったよ、姉貴。")
  ShowMessageFace("ogretooth_fc1",2,0,2,104)
  ShowMessage("\\n<Ogretooth>")
  ShowMessage("同盟者ども、陰謀ばかりで嫌になるぜ。")
  ShowMessage("まだ勇者どもの方が、仲良くやれそうだ……")
  ShowMessageFace("mistilteinn_fc1",0,0,2,105)
  ShowMessage("\\n<Mysteltainn>")
  ShowMessage("では、勇者達……機会があれば、また会いましょう。")
  ShowMessage("今度は邪魔者抜きでやり合える事を期待しています。")
  PictureClear(5)
  PictureClear(6)
  PictureClear(7)
  Wait(30)
  205(18,bytes(0x04,0x08,0x6f,0x3a,0x13,0x52,0x50,0x47,0x3a,0x3a,0x4d,0x6f,0x76,0x65,0x52,0x6f,0x75,0x74,0x65,0x09,0x3a,0x0c,0x40,0x72,0x65,0x70,0x65,0x61,0x74,0x46,0x3a,0x0f,0x40,0x73,0x6b,0x69,0x70,0x70,0x61,0x62,0x6c,0x65,0x46,0x3a,0x0a,0x40,0x77,0x61,0x69,0x74,0x46,0x3a,0x0a,0x40,0x6c,0x69,0x73,0x74,0x5b,0x08,0x6f,0x3a,0x15,0x52,0x50,0x47,0x3a,0x3a,0x4d,0x6f,0x76,0x65,0x43,0x6f,0x6d,0x6d,0x61,0x6e,0x64,0x07,0x3a,0x0a,0x40,0x63,0x6f,0x64,0x65,0x69,0x28,0x3a,0x10,0x40,0x70,0x61,0x72,0x61,0x6d,0x65,0x74,0x65,0x72,0x73,0x5b,0x00,0x6f,0x3b,0x0a,0x07,0x3b,0x0b,0x69,0x13,0x3b,0x0c,0x5b,0x07,0x69,0x00,0x69,0x07,0x6f,0x3b,0x0a,0x07,0x3b,0x0b,0x69,0x00,0x3b,0x0c,0x5b,0x00))
  205(21,bytes(0x04,0x08,0x6f,0x3a,0x13,0x52,0x50,0x47,0x3a,0x3a,0x4d,0x6f,0x76,0x65,0x52,0x6f,0x75,0x74,0x65,0x09,0x3a,0x0c,0x40,0x72,0x65,0x70,0x65,0x61,0x74,0x46,0x3a,0x0f,0x40,0x73,0x6b,0x69,0x70,0x70,0x61,0x62,0x6c,0x65,0x46,0x3a,0x0a,0x40,0x77,0x61,0x69,0x74,0x54,0x3a,0x0a,0x40,0x6c,0x69,0x73,0x74,0x5b,0x08,0x6f,0x3a,0x15,0x52,0x50,0x47,0x3a,0x3a,0x4d,0x6f,0x76,0x65,0x43,0x6f,0x6d,0x6d,0x61,0x6e,0x64,0x07,0x3a,0x0a,0x40,0x63,0x6f,0x64,0x65,0x69,0x28,0x3a,0x10,0x40,0x70,0x61,0x72,0x61,0x6d,0x65,0x74,0x65,0x72,0x73,0x5b,0x00,0x6f,0x3b,0x0a,0x07,0x3b,0x0b,0x69,0x13,0x3b,0x0c,0x5b,0x07,0x69,0x00,0x69,0x08,0x6f,0x3b,0x0a,0x07,0x3b,0x0b,0x69,0x00,0x3b,0x0c,0x5b,0x00))
  Wait(30)
  212(20,542,false)
  Wait(60)
  ChangeSwitch(31,31,1)
  Wait(60)
  ShowMessageFace("",0,0,2,106)
  ShowMessage("そして、ヴィヌム達には一瞥もせず――")
  ShowMessage("魔剣三姉妹は、その場から去ってしまった。")
  205(-1,bytes(0x04,0x08,0x6f,0x3a,0x13,0x52,0x50,0x47,0x3a,0x3a,0x4d,0x6f,0x76,0x65,0x52,0x6f,0x75,0x74,0x65,0x09,0x3a,0x0c,0x40,0x72,0x65,0x70,0x65,0x61,0x74,0x46,0x3a,0x0f,0x40,0x73,0x6b,0x69,0x70,0x70,0x61,0x62,0x6c,0x65,0x46,0x3a,0x0a,0x40,0x77,0x61,0x69,0x74,0x54,0x3a,0x0a,0x40,0x6c,0x69,0x73,0x74,0x5b,0x07,0x6f,0x3a,0x15,0x52,0x50,0x47,0x3a,0x3a,0x4d,0x6f,0x76,0x65,0x43,0x6f,0x6d,0x6d,0x61,0x6e,0x64,0x07,0x3a,0x0a,0x40,0x63,0x6f,0x64,0x65,0x69,0x18,0x3a,0x10,0x40,0x70,0x61,0x72,0x61,0x6d,0x65,0x74,0x65,0x72,0x73,0x5b,0x00,0x6f,0x3b,0x0a,0x07,0x3b,0x0b,0x69,0x00,0x3b,0x0c,0x5b,0x00))
  PictureDisplay(5,"80_myuska_st11",0,0,-200,0,100,100,0,0)
  PictureDisplay(6,"80_nemea_st01",0,0,15,0,100,100,0,0)
  PictureDisplay(7,"80_vinum_st03",0,0,250,0,100,100,0,0)
  PictureMove(5,null,0,0,-200,0,100,100,255,0,30,false)
  PictureMove(6,null,0,0,15,0,100,100,255,0,30,false)
  PictureMove(7,null,0,0,250,0,100,100,255,0,30,true)
  ShowMessageFace("vinum_fc1",2,0,2,107)
  ShowMessage("\\n<Vinum>")
  ShowMessage("では、儂等もこれで去ろう。")
  ShowMessage("見透かされてしまったが、こちらは連携に問題がある。")
  ShowMessageFace("vinum_fc1",2,0,2,108)
  ShowMessage("\\n<Vinum>")
  ShowMessage("いや、それどころか――")
  ShowMessage("みな隙あれば、寝首を掻こうと隙をうかがう始末よ。")
  ShowMessageFace("magatu_fc1",2,0,2,109)
  ShowMessage("\\n<Magatsu>")
  ShowMessage("ふん……悪党同士、折り合いが悪いか。")
  PictureDisplay(7,"80_vinum_st03",0,0,250,0,100,100,255,0)
  ShowMessageFace("vinum_fc1",4,0,2,110)
  ShowMessage("\\n<Vinum>")
  ShowMessage("くふふっ、正義の味方よりは居心地が良い……")
  ShowMessage("では、また会うとしようぞ……")
  ShowMessageFace("myuska_fc1",5,0,2,111)
  ShowMessage("\\n<Myusca>")
  ShowMessage("次こそ、みんな食べてあげるからね～♪")
  PictureDisplay(6,"80_nemea_st06",0,0,15,0,100,100,255,0)
  ShowMessageFace("nemea_fc1",5,0,2,112)
  ShowMessage("\\n<Nemea>")
  ShowMessage("また可愛がってあげるわね……白念君。")
  PictureClear(5)
  PictureClear(6)
  PictureClear(7)
  Wait(30)
  212(13,542,false)
  Wait(30)
  205(13,bytes(0x04,0x08,0x6f,0x3a,0x13,0x52,0x50,0x47,0x3a,0x3a,0x4d,0x6f,0x76,0x65,0x52,0x6f,0x75,0x74,0x65,0x09,0x3a,0x0c,0x40,0x72,0x65,0x70,0x65,0x61,0x74,0x46,0x3a,0x0f,0x40,0x73,0x6b,0x69,0x70,0x70,0x61,0x62,0x6c,0x65,0x46,0x3a,0x0a,0x40,0x77,0x61,0x69,0x74,0x54,0x3a,0x0a,0x40,0x6c,0x69,0x73,0x74,0x5b,0x07,0x6f,0x3a,0x15,0x52,0x50,0x47,0x3a,0x3a,0x4d,0x6f,0x76,0x65,0x43,0x6f,0x6d,0x6d,0x61,0x6e,0x64,0x07,0x3a,0x0a,0x40,0x63,0x6f,0x64,0x65,0x69,0x2c,0x3a,0x10,0x40,0x70,0x61,0x72,0x61,0x6d,0x65,0x74,0x65,0x72,0x73,0x5b,0x00,0x6f,0x3b,0x0a,0x07,0x3b,0x0b,0x69,0x00,0x3b,0x0c,0x5b,0x00))
  212(12,542,false)
  Wait(30)
  205(12,bytes(0x04,0x08,0x6f,0x3a,0x13,0x52,0x50,0x47,0x3a,0x3a,0x4d,0x6f,0x76,0x65,0x52,0x6f,0x75,0x74,0x65,0x09,0x3a,0x0c,0x40,0x72,0x65,0x70,0x65,0x61,0x74,0x46,0x3a,0x0f,0x40,0x73,0x6b,0x69,0x70,0x70,0x61,0x62,0x6c,0x65,0x46,0x3a,0x0a,0x40,0x77,0x61,0x69,0x74,0x54,0x3a,0x0a,0x40,0x6c,0x69,0x73,0x74,0x5b,0x07,0x6f,0x3a,0x15,0x52,0x50,0x47,0x3a,0x3a,0x4d,0x6f,0x76,0x65,0x43,0x6f,0x6d,0x6d,0x61,0x6e,0x64,0x07,0x3a,0x0a,0x40,0x63,0x6f,0x64,0x65,0x69,0x2c,0x3a,0x10,0x40,0x70,0x61,0x72,0x61,0x6d,0x65,0x74,0x65,0x72,0x73,0x5b,0x00,0x6f,0x3b,0x0a,0x07,0x3b,0x0b,0x69,0x00,0x3b,0x0c,0x5b,0x00))
  212(10,542,false)
  Wait(30)
  205(10,bytes(0x04,0x08,0x6f,0x3a,0x13,0x52,0x50,0x47,0x3a,0x3a,0x4d,0x6f,0x76,0x65,0x52,0x6f,0x75,0x74,0x65,0x09,0x3a,0x0c,0x40,0x72,0x65,0x70,0x65,0x61,0x74,0x46,0x3a,0x0f,0x40,0x73,0x6b,0x69,0x70,0x70,0x61,0x62,0x6c,0x65,0x46,0x3a,0x0a,0x40,0x77,0x61,0x69,0x74,0x54,0x3a,0x0a,0x40,0x6c,0x69,0x73,0x74,0x5b,0x07,0x6f,0x3a,0x15,0x52,0x50,0x47,0x3a,0x3a,0x4d,0x6f,0x76,0x65,0x43,0x6f,0x6d,0x6d,0x61,0x6e,0x64,0x07,0x3a,0x0a,0x40,0x63,0x6f,0x64,0x65,0x69,0x2c,0x3a,0x10,0x40,0x70,0x61,0x72,0x61,0x6d,0x65,0x74,0x65,0x72,0x73,0x5b,0x00,0x6f,0x3b,0x0a,0x07,0x3b,0x0b,0x69,0x00,0x3b,0x0c,0x5b,0x00))
  Wait(60)
  ShowMessageFace("",0,0,2,113)
  ShowMessage("ヴィヌム達は、去って行った――")
  246(1)
  Wait(60)
  241(bytes(0x04,0x08,0x6f,0x3a,0x0d,0x52,0x50,0x47,0x3a,0x3a,0x42,0x47,0x4d,0x08,0x3a,0x0a,0x40,0x6e,0x61,0x6d,0x65,0x49,0x22,0x14,0x73,0x63,0x65,0x6e,0x65,0x5f,0x65,0x70,0x69,0x6c,0x6f,0x67,0x75,0x65,0x32,0x06,0x3a,0x06,0x45,0x54,0x3a,0x0c,0x40,0x76,0x6f,0x6c,0x75,0x6d,0x65,0x69,0x69,0x3a,0x0b,0x40,0x70,0x69,0x74,0x63,0x68,0x69,0x69))
  PictureDisplay(5,"80_byakunen_st01",0,0,0,0,100,100,0,0)
  PictureMove(5,null,0,0,0,0,100,100,255,0,30,true)
  ShowMessageFace("byakunen_fc2",0,0,2,114)
  ShowMessage("\\n<Hakunen>")
  ShowMessage("私だけ名指しですか……ううっ。")
  PictureDisplay(5,"80_byakunen_st01",0,0,-150,0,100,100,255,0)
  PictureDisplay(6,"80_daimeikai_st01",0,0,125,0,100,100,255,0)
  ShowMessageFace("daimeikai_fc1",0,0,2,115)
  ShowMessage("\\n<Daimyokai>")
  ShowMessage("うひゃひゃひゃ！")
  ShowMessage("変なのばかりに目を付けられるな、小僧！")
  PictureClear(6)
  PictureDisplay(5,"80_rovissa_st01",0,0,0,0,100,100,255,0)
  ShowMessageFace("rovissa_fc1",0,0,2,116)
  ShowMessage("\\n<Rovissa>")
  ShowMessage("とにかく、一気に人が増えたわね……")
  ShowMessage("お互い、簡単に自己紹介しない？")
  PictureDisplay(5,"80_kazuya_st01",0,0,0,0,100,100,255,0)
  ShowMessageFace("kazuya_fc1",0,0,2,117)
  ShowMessage("\\n<Kazuya>")
  ShowMessage("確かに、そうだな……")
  ShowMessage("仲間が増えるのは心強いけど、大所帯で混乱する。")
  If(0,4,0)
   ShowMessageFace("alice_fc5",0,0,2,118)
   ShowMessage("\\n<Alice>")
   ShowMessage("状況が状況だけに、時間の余裕は取れないが――")
   ShowMessage("簡単にでも、互いのことを知っておくべきだな。")
   0()
  EndIf()
  If(0,5,0)
   ShowMessageFace("iriasu_fc4",2,0,2,119)
   ShowMessage("\\n<Ilias>")
   ShowMessage("この状況では、あまり時間の余裕はありませんが――")
   ShowMessage("簡単にでも、互いのことを知っておきましょう。")
   0()
  EndIf()
  PictureClear(5)
  ShowMessageFace("",0,0,2,120)
  ShowMessage("こうして、異世界の勇者達と自己紹介を交わした。")
  ShowMessage("みな、いずれ劣らぬ強者のようだ――")
  PictureDisplay(5,"80_rest_st01",0,0,0,0,100,100,255,0)
  ShowMessageFace("rest_fc1",0,0,2,121)
  ShowMessage("\\n<Lest>")
  ShowMessage("そして……ついに、七つの世界の勇者が揃ったね。")
  PictureDisplay(5,"80_kazuya_st01",0,0,0,0,100,100,255,0)
  ShowMessageFace("kazuya_fc1",0,0,2,122)
  ShowMessage("\\n<Kazuya>")
  ShowMessage("ああ……七つの異世界から集まった勇者か。")
  ShowMessage("大層な話になったもんだ。")
  PictureDisplay(5,"80_byakunen_st01",0,0,0,0,100,100,255,0)
  ShowMessageFace("byakunen_fc1",1,0,2,123)
  ShowMessage("\\n<Hakunen>")
  ShowMessage("私が勇者というのも、慣れませんが……")
  ShowMessage("……光栄に思います！")
  PictureClear(5)
  249(bytes(0x04,0x08,0x6f,0x3a,0x0c,0x52,0x50,0x47,0x3a,0x3a,0x4d,0x45,0x08,0x3a,0x0a,0x40,0x6e,0x61,0x6d,0x65,0x49,0x22,0x11,0x6d,0x6f,0x6e,0x5f,0x66,0x61,0x6e,0x66,0x61,0x6c,0x65,0x33,0x06,0x3a,0x06,0x45,0x54,0x3a,0x0b,0x40,0x70,0x69,0x74,0x63,0x68,0x69,0x69,0x3a,0x0c,0x40,0x76,0x6f,0x6c,0x75,0x6d,0x65,0x69,0x69))
  ShowMessageFace("",0,0,2,124)
  ShowMessage("七人の勇者パーティは合流した！")
  Wait(60)
  PictureDisplay(6,"80_lawrat_st01",0,0,-200,50,100,100,0,0)
  PictureDisplay(5,"80_lars_st11",0,0,0,30,95,95,0,0)
  PictureDisplay(7,"80_nobissa_st01",0,0,200,30,95,95,0,0)
  PictureMove(6,null,0,0,-200,50,100,100,255,0,30,false)
  PictureMove(5,null,0,0,0,30,95,95,255,0,30,false)
  PictureMove(7,null,0,0,200,30,95,95,255,0,30,true)
  ShowMessageFace("lawrat_fc1",0,0,2,125)
  ShowMessage("\\n<Lauratt>")
  ShowMessage("……………………")
  ShowMessageFace("lars_fc01",0,0,2,126)
  ShowMessage("\\n<Lars>")
  ShowMessage("……………………")
  ShowMessageFace("nobissa_fc1",0,0,2,127)
  ShowMessage("\\n<Novissa>")
  ShowMessage("……………………")
  If(0,4,0)
   ShowMessageFace("alice_fc5",0,0,2,128)
   ShowMessage("\\n<Alice>")
   ShowMessage("しかし、寡黙な者がやけに多いな……")
   ShowMessage("勇者とは、そういうものなのか……？")
   0()
  EndIf()
  If(0,5,0)
   ShowMessageFace("iriasu_fc4",2,0,2,129)
   ShowMessage("\\n<Ilias>")
   ShowMessage("しかし……やけに寡黙な者が多いですね。")
   ShowMessage("勇者とは、そういうものなのでしょうか……？")
   0()
  EndIf()
  ShowMessageFace("rejeo_fc1",0,0,2,130)
  ShowMessage("\\n<Rigeo>")
  ShowMessage("あんまり喋らないけど、優しくて正義感がある……")
  ShowMessage("ロウラットは、そういう人よ。")
  ShowMessageFace("rovissa_fc1",0,0,2,131)
  ShowMessage("\\n<Rovissa>")
  ShowMessage("そうそう、分かる分かる。")
  ShowMessage("目で語るのが、勇者っぽいんじゃない……？")
  ShowMessageFace("ruka_fc1",0,0,2,132)
  ShowMessage("\\n<Luka>")
  ShowMessage("勇者は喋らず、目で語る……")
  ShowMessageFace("ruka_fc1",0,0,2,133)
  ShowMessage("\\n<Luka>")
  ShowMessage("…………………………")
  ShowMessageFace("",0,0,2,134)
  ShowMessage("ルカは無言のまま、目で語ろうとしている――")
  If(0,4,0)
   ShowMessageFace("alice_fc5",6,0,2,135)
   ShowMessage("\\n<Alice>")
   ShowMessage("ええい、貴様まで真似をするな！")
   0()
  EndIf()
  If(0,5,0)
   ShowMessageFace("iriasu_fc4",5,0,2,136)
   ShowMessage("\\n<Ilias>")
   ShowMessage("あなたが真似をしてどうするのです！")
   ShowMessage("似合わない事はやめなさい！")
   0()
  EndIf()
  Wait(60)
  221()
  PictureClear(5)
  PictureClear(6)
  PictureClear(7)
  ShowMessageFace("",0,0,2,137)
  ShowMessage("こうして、ついに七人の勇者が集結した。")
  ShowMessageFace("",0,0,2,138)
  ShowMessage("ロウラット、カズヤ、白念、レスト、ラルス、ノビッサ――")
  ShowMessage("――そして、ルカ。")
  ShowMessageFace("",0,0,2,139)
  ShowMessage("夢の主に対抗するため、異世界から呼び込まれた勇者達。")
  ShowMessage("彼らの戦いが、ここに始まるのである。")
  Wait(60)
  242(2)
  221()
  ChangeVariable(1209,1209,0,0,8)
  ChangeSwitch(31,31,1)
  ChangeSwitch(32,32,1)
  ChangeSwitch(33,33,1)
  ChangeSwitch(34,34,1)
  ChangeSwitch(35,35,1)
  Wait(120)
  PictureDisplay(5,"iv_chapter10",0,0,0,0,100,100,255,0)
  222()
  Wait(180)
  221()
  PictureClear(5)
  Wait(120)
  TeleportPlayer(0,876,17,17,8,2)
  0()



EVENT   7
 PAGE   1
  0()



EVENT   9
 PAGE   1
  0()



EVENT   11
 PAGE   1
  0()



EVENT   14
 PAGE   1
  0()



EVENT   15
 PAGE   1
  0()



EVENT   17
 PAGE   1
  0()



EVENT   18
 PAGE   1
  // condition: switch 31 is ON
  0()



EVENT   20
 PAGE   1
  // condition: switch 31 is ON
  0()



EVENT   21
 PAGE   1
  // condition: switch 31 is ON
  0()



EVENT   8
 PAGE   1
  // condition: switch 32 is ON
  // condition: switch 4 is ON
  0()
 PAGE   2
  // condition: switch 32 is ON
  // condition: switch 5 is ON
  0()



EVENT   2
 PAGE   1
  // condition: switch 33 is ON
  // condition: switch 4 is ON
  0()
 PAGE   2
  // condition: switch 33 is ON
  // condition: switch 5 is ON
  0()



EVENT   3
 PAGE   1
  // condition: switch 34 is ON
  0()



EVENT   4
 PAGE   1
  // condition: switch 33 is ON
  // condition: switch 5 is ON
  0()



EVENT   5
 PAGE   1
  // condition: switch 35 is ON
  0()
